[
    {
        "E": 88599.75997835402,
        "chi2": 0.0,
        "ip": 0.08991322803703859,
        "ipchi2": 21.85823157798183,
        "mass": 1882.979,
        "particleId": "D0",
        "pvx": 0.611,
        "pvy": 0.1321,
        "pvz": -25.5015,
        "px": 1499.24,
        "py": 2717.82,
        "pz": 88525.35,
        "q": 0.0,
        "trajectory": [
            [
                0.6110000014305115,
                0.13210000097751617,
                -25.50149917602539
            ],
            [
                0.5839999914169312,
                0.1168999969959259,
                -23.72960090637207
            ]
        ],
        "zFirstMeasurement": -9999.0
    },
    {
        "E": 21029.512354195413,
        "chi2": 0.9124651551246643,
        "ip": 0.14360871648945364,
        "ipchi2": 28.689640336122146,
        "mass": 493.677,
        "particleId": "K-",
        "pvx": 0.611,
        "pvy": 0.1321,
        "pvz": -25.5015,
        "px": 245.2,
        "py": 1306.81,
        "pz": 20981.63,
        "q": -1.0,
        "trajectory": [
            [
                0.5636517405509949,
                0.11570358276367188,
                -23.72960090637207
            ],
            [
                0.6220797896385193,
                0.42712149024009705,
                -18.72960090637207
            ],
            [
                0.6805053949356079,
                0.738539457321167,
                -13.729599952697754
            ],
            [
                0.7389285564422607,
                1.0499573945999146,
                -8.729599952697754
            ],
            [
                0.797349214553833,
                1.3613754510879517,
                -3.729599952697754
            ],
            [
                0.8557673692703247,
                1.6727935075759888,
                1.270400047302246
            ],
            [
                0.9141829013824463,
                1.9842116832733154,
                6.270400047302246
            ],
            [
                0.9725958704948425,
                2.2956297397613525,
                11.270400047302246
            ],
            [
                1.0310062170028687,
                2.6070480346679688,
                16.27039909362793
            ],
            [
                1.0894138813018799,
                2.918466091156006,
                21.27039909362793
            ],
            [
                1.1478188037872314,
                3.229884386062622,
                26.27039909362793
            ],
            [
                1.2062209844589233,
                3.5413026809692383,
                31.27039909362793
            ],
            [
                1.2646201848983765,
                3.8527209758758545,
                36.27040100097656
            ],
            [
                1.3230165243148804,
                4.164139270782471,
                41.27040100097656
            ],
            [
                1.3814098834991455,
                4.475557804107666,
                46.27040100097656
            ],
            [
                1.4398468732833862,
                4.786965847015381,
                51.27040100097656
            ],
            [
                1.498234748840332,
                5.098384380340576,
                56.27040100097656
            ],
            [
                1.5566198825836182,
                5.4098029136657715,
                61.27040100097656
            ],
            [
                1.6150025129318237,
                5.721221446990967,
                66.27040100097656
            ],
            [
                1.6733824014663696,
                6.032639980316162,
                71.27040100097656
            ],
            [
                1.7317594289779663,
                6.344058513641357,
                76.27040100097656
            ],
            [
                1.7901337146759033,
                6.655477046966553,
                81.27040100097656
            ],
            [
                1.8485051393508911,
                6.966896057128906,
                86.27040100097656
            ],
            [
                1.9068738222122192,
                7.278314590454102,
                91.27040100097656
            ],
            [
                1.9652395248413086,
                7.589733600616455,
                96.27040100097656
            ],
            [
                2.023602247238159,
                7.90115213394165,
                101.27040100097656
            ],
            [
                2.2570230960845947,
                9.146827697753906,
                121.27040100097656
            ],
            [
                2.4903929233551025,
                10.39250373840332,
                141.27040100097656
            ],
            [
                2.723707914352417,
                11.63818073272705,
                161.27040100097656
            ],
            [
                2.9569649696350098,
                12.883857727050781,
                181.27040100097656
            ],
            [
                3.1901602745056152,
                14.129535675048828,
                201.27040100097656
            ],
            [
                3.423290967941284,
                15.375214576721191,
                221.27040100097656
            ],
            [
                3.656391143798828,
                16.620893478393555,
                241.27040100097656
            ],
            [
                3.889404058456421,
                17.866573333740234,
                261.2703857421875
            ],
            [
                4.122348785400391,
                19.112253189086914,
                281.2703857421875
            ],
            [
                4.355223178863525,
                20.357933044433594,
                301.2703857421875
            ],
            [
                4.588024139404297,
                21.603612899780273,
                321.2703857421875
            ],
            [
                4.8207502365112305,
                22.849294662475586,
                341.2703857421875
            ],
            [
                5.053398609161377,
                24.0949764251709,
                361.2703857421875
            ],
            [
                5.285966396331787,
                25.34065818786621,
                381.2703857421875
            ],
            [
                5.518448352813721,
                26.586339950561523,
                401.2703857421875
            ],
            [
                5.7508416175842285,
                27.83202362060547,
                421.2703857421875
            ],
            [
                5.983142852783203,
                29.07770538330078,
                441.2703857421875
            ],
            [
                6.215351104736328,
                30.323389053344727,
                461.2703857421875
            ],
            [
                6.447464466094971,
                31.569072723388672,
                481.2703857421875
            ],
            [
                6.679479598999023,
                32.81475830078125,
                501.2703857421875
            ],
            [
                6.91139030456543,
                34.06044006347656,
                521.2703857421875
            ],
            [
                7.143197536468506,
                35.30612564086914,
                541.2703857421875
            ],
            [
                7.3748979568481445,
                36.55180740356445,
                561.2703857421875
            ],
            [
                7.606489181518555,
                37.79749298095703,
                581.2703857421875
            ],
            [
                7.837947368621826,
                39.04317855834961,
                601.2703857421875
            ],
            [
                8.069279670715332,
                40.28886413574219,
                621.2703857421875
            ],
            [
                8.300488471984863,
                41.534549713134766,
                641.2703857421875
            ],
            [
                8.531572341918945,
                42.780235290527344,
                661.2703857421875
            ],
            [
                8.762526512145996,
                44.02592086791992,
                681.2703857421875
            ],
            [
                8.9933500289917,
                45.2716064453125,
                701.2703857421875
            ],
            [
                9.224035263061523,
                46.51729202270508,
                721.2703857421875
            ],
            [
                9.454574584960938,
                47.762977600097656,
                741.2703857421875
            ],
            [
                9.684952735900879,
                49.008663177490234,
                761.2703857421875
            ],
            [
                9.915164947509766,
                50.25434875488281,
                781.2703857421875
            ],
            [
                10.145224571228027,
                51.50003433227539,
                801.2703857421875
            ],
            [
                10.37513256072998,
                52.74571990966797,
                821.2703857421875
            ],
            [
                10.604880332946777,
                53.99140167236328,
                841.2703857421875
            ],
            [
                10.834465980529785,
                55.23708724975586,
                861.2703857421875
            ],
            [
                11.063886642456055,
                56.48277282714844,
                881.2703857421875
            ],
            [
                11.293139457702637,
                57.728458404541016,
                901.2703857421875
            ],
            [
                11.522233009338379,
                58.974143981933594,
                921.2703857421875
            ],
            [
                11.751108169555664,
                60.219825744628906,
                941.2703857421875
            ],
            [
                11.979801177978516,
                61.46550369262695,
                961.2703857421875
            ],
            [
                12.208308219909668,
                62.711185455322266,
                981.2703857421875
            ],
            [
                12.436631202697754,
                63.95686721801758,
                1001.2703857421875
            ],
            [
                13.575389862060547,
                70.18527221679688,
                1101.2703857421875
            ],
            [
                14.707574844360352,
                76.41371154785156,
                1201.2703857421875
            ],
            [
                15.835646629333496,
                82.6421127319336,
                1301.2703857421875
            ],
            [
                16.958694458007813,
                88.87052154541016,
                1401.2703857421875
            ],
            [
                18.076610565185547,
                95.09894561767578,
                1501.2703857421875
            ],
            [
                19.190147399902344,
                101.32736206054688,
                1601.2703857421875
            ],
            [
                20.29845428466797,
                107.55577850341797,
                1701.2703857421875
            ],
            [
                21.400758743286133,
                113.78416442871094,
                1801.2703857421875
            ],
            [
                22.496631622314453,
                120.01253509521484,
                1901.2703857421875
            ],
            [
                23.58555793762207,
                126.24090576171875,
                2001.2703857421875
            ],
            [
                24.66497039794922,
                132.4692840576172,
                2101.2705078125
            ],
            [
                25.732765197753906,
                138.6976318359375,
                2201.2705078125
            ],
            [
                26.79205894470215,
                144.9259033203125,
                2301.2705078125
            ],
            [
                27.835254669189453,
                151.15411376953125,
                2401.2705078125
            ],
            [
                28.86140251159668,
                157.3822479248047,
                2501.2705078125
            ],
            [
                29.86370277404785,
                163.61019897460938,
                2601.2705078125
            ],
            [
                30.842445373535156,
                169.8380584716797,
                2701.2705078125
            ],
            [
                31.7894229888916,
                176.06576538085938,
                2801.2705078125
            ],
            [
                32.69991683959961,
                182.29324340820313,
                2901.2705078125
            ],
            [
                33.565731048583984,
                188.52052307128906,
                3001.2705078125
            ],
            [
                34.38441467285156,
                194.74769592285156,
                3101.2705078125
            ],
            [
                35.14044952392578,
                200.9746551513672,
                3201.2705078125
            ],
            [
                35.83659744262695,
                207.20143127441406,
                3301.2705078125
            ],
            [
                36.45402526855469,
                213.42776489257813,
                3401.2705078125
            ],
            [
                36.98707580566406,
                219.65386962890625,
                3501.2705078125
            ],
            [
                37.432926177978516,
                225.8802032470703,
                3601.2705078125
            ],
            [
                37.77901077270508,
                232.10626220703125,
                3701.2705078125
            ],
            [
                38.012386322021484,
                238.33193969726563,
                3801.2705078125
            ],
            [
                38.133094787597656,
                244.55763244628906,
                3901.2705078125
            ],
            [
                38.11940002441406,
                250.78326416015625,
                4001.2705078125
            ],
            [
                37.985321044921875,
                257.0086669921875,
                4101.2705078125
            ],
            [
                37.70235061645508,
                263.2341003417969,
                4201.2705078125
            ],
            [
                37.273231506347656,
                269.4586486816406,
                4301.2705078125
            ],
            [
                36.70132064819336,
                275.68328857421875,
                4401.2705078125
            ],
            [
                35.983612060546875,
                281.908203125,
                4501.2705078125
            ],
            [
                35.11556625366211,
                288.1324462890625,
                4601.2705078125
            ],
            [
                34.090213775634766,
                294.3561096191406,
                4701.2705078125
            ],
            [
                34.5475959777832,
                298.10626220703125,
                4801.2705078125
            ],
            [
                33.21194839477539,
                304.2906799316406,
                4901.2705078125
            ],
            [
                31.728403091430664,
                310.474609375,
                5001.2705078125
            ],
            [
                30.09161376953125,
                316.6573181152344,
                5101.2705078125
            ],
            [
                28.308841705322266,
                322.8399963378906,
                5201.2705078125
            ],
            [
                26.377925872802734,
                329.0224304199219,
                5301.2705078125
            ],
            [
                24.302974700927734,
                335.205078125,
                5401.2705078125
            ],
            [
                22.087238311767578,
                341.3873291015625,
                5501.2705078125
            ],
            [
                19.73587417602539,
                347.5685119628906,
                5601.2705078125
            ],
            [
                17.24427032470703,
                353.7495422363281,
                5701.2705078125
            ],
            [
                14.618831634521484,
                359.9302673339844,
                5801.2705078125
            ],
            [
                11.867377281188965,
                366.11029052734375,
                5901.2705078125
            ],
            [
                8.985079765319824,
                372.2892150878906,
                6001.2705078125
            ],
            [
                5.9807868003845215,
                378.4676208496094,
                6101.2705078125
            ],
            [
                2.8562846183776855,
                384.6456604003906,
                6201.2705078125
            ],
            [
                -0.38367781043052673,
                390.8230285644531,
                6301.2705078125
            ],
            [
                -3.7344987392425537,
                396.999755859375,
                6401.2705078125
            ],
            [
                -7.19354248046875,
                403.1759948730469,
                6501.2705078125
            ],
            [
                -10.754679679870605,
                409.3512878417969,
                6601.2705078125
            ],
            [
                -14.415471076965332,
                415.5257873535156,
                6701.2705078125
            ],
            [
                -18.1673641204834,
                421.6995544433594,
                6801.2705078125
            ],
            [
                -22.00989532470703,
                427.8724670410156,
                6901.2705078125
            ],
            [
                -25.935884475708008,
                434.0444641113281,
                7001.2705078125
            ],
            [
                -29.940196990966797,
                440.21563720703125,
                7101.2705078125
            ],
            [
                -34.0175895690918,
                446.3859558105469,
                7201.2705078125
            ],
            [
                -38.16373062133789,
                452.55535888671875,
                7301.2705078125
            ],
            [
                -42.37547302246094,
                458.72381591796875,
                7401.2705078125
            ],
            [
                -46.64435577392578,
                464.8913269042969,
                7501.2705078125
            ],
            [
                -50.96957015991211,
                471.05792236328125,
                7601.2705078125
            ],
            [
                -55.34449005126953,
                477.2236328125,
                7701.2705078125
            ],
            [
                -59.76686477661133,
                483.3883972167969,
                7801.2705078125
            ],
            [
                -64.23248291015625,
                489.5523376464844,
                7901.2705078125
            ],
            [
                -68.73736572265625,
                495.7154235839844,
                8001.2705078125
            ],
            [
                -73.27922821044922,
                501.8777160644531,
                8101.2705078125
            ],
            [
                -77.85375213623047,
                508.0392761230469,
                8201.2705078125
            ],
            [
                -82.4587173461914,
                514.2001342773438,
                8301.2705078125
            ],
            [
                -87.09174346923828,
                520.3603515625,
                8401.2705078125
            ],
            [
                -91.7504653930664,
                526.5198974609375,
                8501.2705078125
            ],
            [
                -96.4319076538086,
                532.6790161132813,
                8601.2705078125
            ],
            [
                -101.13479614257813,
                538.8375244140625,
                8701.2705078125
            ],
            [
                -105.8570785522461,
                544.9956665039063,
                8801.2705078125
            ],
            [
                -110.59696960449219,
                551.1533203125,
                8901.2705078125
            ],
            [
                -115.3531494140625,
                557.3106079101563,
                9001.2705078125
            ],
            [
                -120.12413024902344,
                563.467529296875,
                9101.2705078125
            ],
            [
                -124.90853881835938,
                569.6241455078125,
                9201.2705078125
            ],
            [
                -129.70523071289063,
                575.7804565429688,
                9301.2705078125
            ],
            [
                -134.5131072998047,
                581.9364624023438,
                9401.2705078125
            ],
            [
                -139.3311309814453,
                588.09228515625,
                9501.2705078125
            ],
            [
                -144.15843200683594,
                594.2478637695313,
                9601.2705078125
            ],
            [
                -148.99417114257813,
                600.4032592773438,
                9701.2705078125
            ],
            [
                -153.8376007080078,
                606.5585327148438,
                9801.2705078125
            ],
            [
                -158.68800354003906,
                612.713623046875,
                9901.2705078125
            ],
            [
                -163.54478454589844,
                618.8685302734375,
                10001.2705078125
            ],
            [
                -173.27525329589844,
                631.1781005859375,
                10201.2705078125
            ],
            [
                -183.0250701904297,
                643.4873657226563,
                10401.2705078125
            ],
            [
                -192.79067993164063,
                655.7962646484375,
                10601.2705078125
            ],
            [
                -202.56985473632813,
                668.10498046875,
                10801.2705078125
            ],
            [
                -212.35964965820313,
                680.41357421875,
                11001.2705078125
            ],
            [
                -222.1586151123047,
                692.7220458984375,
                11201.2705078125
            ],
            [
                -231.96534729003906,
                705.0304565429688,
                11401.2705078125
            ],
            [
                -241.77789306640625,
                717.3388061523438,
                11601.2705078125
            ],
            [
                -251.59556579589844,
                729.6471557617188,
                11801.2705078125
            ],
            [
                -261.4171447753906,
                741.9555053710938,
                12001.2705078125
            ],
            [
                -271.24267578125,
                754.2637939453125,
                12201.2705078125
            ],
            [
                -281.07080078125,
                766.5721435546875,
                12401.2705078125
            ],
            [
                -290.9005126953125,
                778.8804931640625,
                12601.2705078125
            ],
            [
                -300.73187255859375,
                791.1889038085938,
                12801.2705078125
            ],
            [
                -310.5650329589844,
                803.4972534179688,
                13001.2705078125
            ],
            [
                -320.39947509765625,
                815.8056640625,
                13201.2705078125
            ],
            [
                -330.2345275878906,
                828.114013671875,
                13401.2705078125
            ]
        ],
        "zFirstMeasurement": 124.0877
    },
    {
        "E": 67569.76674130892,
        "chi2": 1.1495124101638794,
        "ip": 0.06863028998742197,
        "ipchi2": 8.989446166162464,
        "mass": 139.57,
        "particleId": "pi+",
        "pvx": 0.611,
        "pvy": 0.1321,
        "pvz": -25.5015,
        "px": 1254.15,
        "py": 1410.81,
        "pz": 67543.25,
        "q": 1.0,
        "trajectory": [
            [
                0.5973556637763977,
                0.11864006519317627,
                -23.72960090637207
            ],
            [
                0.6901993155479431,
                0.2230772078037262,
                -18.72960090637207
            ],
            [
                0.7830437421798706,
                0.3275143504142761,
                -13.729599952697754
            ],
            [
                0.8758889436721802,
                0.43195146322250366,
                -8.729599952697754
            ],
            [
                0.968734860420227,
                0.5363885760307312,
                -3.729599952697754
            ],
            [
                1.0615816116333008,
                0.6408256888389587,
                1.270400047302246
            ],
            [
                1.1544291973114014,
                0.7452627420425415,
                6.270400047302246
            ],
            [
                1.2472774982452393,
                0.849699854850769,
                11.270400047302246
            ],
            [
                1.340126633644104,
                0.9541369080543518,
                16.27039909362793
            ],
            [
                1.4329767227172852,
                1.0585739612579346,
                21.27039909362793
            ],
            [
                1.5258275270462036,
                1.1630109548568726,
                26.27039909362793
            ],
            [
                1.6186792850494385,
                1.2674479484558105,
                31.27039909362793
            ],
            [
                1.7115318775177002,
                1.3718849420547485,
                36.27040100097656
            ],
            [
                1.8043853044509888,
                1.4763219356536865,
                41.27040100097656
            ],
            [
                1.8972398042678833,
                1.5807589292526245,
                46.27040100097656
            ],
            [
                1.9900952577590942,
                1.6851959228515625,
                51.27040100097656
            ],
            [
                2.082951545715332,
                1.7896329164505005,
                56.27040100097656
            ],
            [
                2.1758031845092773,
                1.894069790840149,
                61.27040100097656
            ],
            [
                2.268660545349121,
                1.998506784439087,
                66.27040100097656
            ],
            [
                2.3615188598632813,
                2.1029436588287354,
                71.27040100097656
            ],
            [
                2.4543778896331787,
                2.207380533218384,
                76.27040100097656
            ],
            [
                2.5472378730773926,
                2.3118174076080322,
                81.27040100097656
            ],
            [
                2.6400985717773438,
                2.4162542819976807,
                86.27040100097656
            ],
            [
                2.7329604625701904,
                2.520691156387329,
                91.27040100097656
            ],
            [
                2.8258233070373535,
                2.6251280307769775,
                96.27040100097656
            ],
            [
                2.918686866760254,
                2.729564905166626,
                101.27040100097656
            ],
            [
                3.290174961090088,
                3.14731502532959,
                121.27040100097656
            ],
            [
                3.6616551876068115,
                3.5650620460510254,
                141.27040100097656
            ],
            [
                4.033152103424072,
                3.9828085899353027,
                161.27040100097656
            ],
            [
                4.404659748077393,
                4.40055513381958,
                181.27040100097656
            ],
            [
                4.776195526123047,
                4.818301677703857,
                201.27040100097656
            ],
            [
                5.1477484703063965,
                5.236047744750977,
                221.27040100097656
            ],
            [
                5.519320011138916,
                5.653793811798096,
                241.27040100097656
            ],
            [
                5.890911102294922,
                6.071539402008057,
                261.2703857421875
            ],
            [
                6.262523651123047,
                6.489284992218018,
                281.2703857421875
            ],
            [
                6.634157657623291,
                6.9070305824279785,
                301.2703857421875
            ],
            [
                7.005815029144287,
                7.324775695800781,
                321.2703857421875
            ],
            [
                7.37749719619751,
                7.742520809173584,
                341.2703857421875
            ],
            [
                7.749205112457275,
                8.160265922546387,
                361.2703857421875
            ],
            [
                8.120929718017578,
                8.578010559082031,
                381.2703857421875
            ],
            [
                8.492685317993164,
                8.995755195617676,
                401.2703857421875
            ],
            [
                8.864469528198242,
                9.41349983215332,
                421.2703857421875
            ],
            [
                9.23628044128418,
                9.831244468688965,
                441.2703857421875
            ],
            [
                9.608120918273926,
                10.24898910522461,
                461.2703857421875
            ],
            [
                9.97999095916748,
                10.666732788085938,
                481.2703857421875
            ],
            [
                10.351892471313477,
                11.084477424621582,
                501.2703857421875
            ],
            [
                10.723827362060547,
                11.50222110748291,
                521.2703857421875
            ],
            [
                11.095794677734375,
                11.919965744018555,
                541.2703857421875
            ],
            [
                11.467796325683594,
                12.337709426879883,
                561.2703857421875
            ],
            [
                11.83983325958252,
                12.755453109741211,
                581.2703857421875
            ],
            [
                12.211906433105469,
                13.173196792602539,
                601.2703857421875
            ],
            [
                12.584016799926758,
                13.590940475463867,
                621.2703857421875
            ],
            [
                12.956165313720703,
                14.008684158325195,
                641.2703857421875
            ],
            [
                13.328354835510254,
                14.426427841186523,
                661.2703857421875
            ],
            [
                13.700589179992676,
                14.844171524047852,
                681.2703857421875
            ],
            [
                14.072866439819336,
                15.26191520690918,
                701.2703857421875
            ],
            [
                14.445191383361816,
                15.679657936096191,
                721.2703857421875
            ],
            [
                14.817561149597168,
                16.097400665283203,
                741.2703857421875
            ],
            [
                15.189976692199707,
                16.51514434814453,
                761.2703857421875
            ],
            [
                15.562440872192383,
                16.93288803100586,
                781.2703857421875
            ],
            [
                15.934952735900879,
                17.350631713867188,
                801.2703857421875
            ],
            [
                16.30751609802246,
                17.768375396728516,
                821.2703857421875
            ],
            [
                16.68013572692871,
                18.186119079589844,
                841.2703857421875
            ],
            [
                17.05280876159668,
                18.603862762451172,
                861.2703857421875
            ],
            [
                17.425535202026367,
                19.021608352661133,
                881.2703857421875
            ],
            [
                17.79831886291504,
                19.43935203552246,
                901.2703857421875
            ],
            [
                18.171152114868164,
                19.857097625732422,
                921.2703857421875
            ],
            [
                18.544044494628906,
                20.274843215942383,
                941.2703857421875
            ],
            [
                18.916994094848633,
                20.692588806152344,
                961.2703857421875
            ],
            [
                19.290002822875977,
                21.110332489013672,
                981.2703857421875
            ],
            [
                19.663061141967773,
                21.528078079223633,
                1001.2703857421875
            ],
            [
                21.52928352355957,
                23.616798400878906,
                1101.2703857421875
            ],
            [
                23.39712142944336,
                25.705520629882813,
                1201.2703857421875
            ],
            [
                25.266759872436523,
                27.79425811767578,
                1301.2703857421875
            ],
            [
                27.137819290161133,
                29.88298797607422,
                1401.2703857421875
            ],
            [
                29.010332107543945,
                31.971721649169922,
                1501.2703857421875
            ],
            [
                30.884479522705078,
                34.06045913696289,
                1601.2703857421875
            ],
            [
                32.76045608520508,
                36.149200439453125,
                1701.2703857421875
            ],
            [
                34.63785171508789,
                38.23793411254883,
                1801.2703857421875
            ],
            [
                36.51766586303711,
                40.32666778564453,
                1901.2703857421875
            ],
            [
                38.3996467590332,
                42.415409088134766,
                2001.2703857421875
            ],
            [
                40.28441619873047,
                44.504154205322266,
                2101.2705078125
            ],
            [
                42.17229080200195,
                46.59291076660156,
                2201.2705078125
            ],
            [
                44.06485366821289,
                48.68173599243164,
                2301.2705078125
            ],
            [
                45.96160888671875,
                50.77054214477539,
                2401.2705078125
            ],
            [
                47.864410400390625,
                52.8593635559082,
                2501.2705078125
            ],
            [
                49.7741584777832,
                54.948219299316406,
                2601.2705078125
            ],
            [
                51.69231033325195,
                57.037109375,
                2701.2705078125
            ],
            [
                53.62037658691406,
                59.126041412353516,
                2801.2705078125
            ],
            [
                55.5599365234375,
                61.21504592895508,
                2901.2705078125
            ],
            [
                57.513919830322266,
                63.30410385131836,
                3001.2705078125
            ],
            [
                59.483272552490234,
                65.39321899414063,
                3101.2705078125
            ],
            [
                61.47047805786133,
                67.48237609863281,
                3201.2705078125
            ],
            [
                63.48063278198242,
                69.5716781616211,
                3301.2705078125
            ],
            [
                65.51363372802734,
                71.66100311279297,
                3401.2705078125
            ],
            [
                67.57257843017578,
                73.75037384033203,
                3501.2705078125
            ],
            [
                69.6595458984375,
                75.83979797363281,
                3601.2705078125
            ],
            [
                71.77730560302734,
                77.92939758300781,
                3701.2705078125
            ],
            [
                73.92913055419922,
                80.0190658569336,
                3801.2705078125
            ],
            [
                76.11793518066406,
                82.10877227783203,
                3901.2705078125
            ],
            [
                78.34342956542969,
                84.19863891601563,
                4001.2705078125
            ],
            [
                80.6105728149414,
                86.28864288330078,
                4101.2705078125
            ],
            [
                82.92192840576172,
                88.37879943847656,
                4201.2705078125
            ],
            [
                85.27666473388672,
                90.46907043457031,
                4301.2705078125
            ],
            [
                87.67388916015625,
                92.55940246582031,
                4401.2705078125
            ],
            [
                90.11767578125,
                94.64998626708984,
                4501.2705078125
            ],
            [
                92.60763549804688,
                96.7406997680664,
                4601.2705078125
            ],
            [
                95.14436340332031,
                98.83158111572266,
                4701.2705078125
            ],
            [
                97.72639465332031,
                100.92240142822266,
                4801.2705078125
            ],
            [
                101.43951416015625,
                103.07839965820313,
                4901.2705078125
            ],
            [
                104.14826202392578,
                105.17382049560547,
                5001.2705078125
            ],
            [
                106.90396881103516,
                107.26959991455078,
                5101.2705078125
            ],
            [
                109.70463562011719,
                109.36544036865234,
                5201.2705078125
            ],
            [
                112.55084991455078,
                111.46150207519531,
                5301.2705078125
            ],
            [
                115.44094848632813,
                113.55741119384766,
                5401.2705078125
            ],
            [
                118.37446594238281,
                115.65328216552734,
                5501.2705078125
            ],
            [
                121.34971618652344,
                117.74960327148438,
                5601.2705078125
            ],
            [
                124.36778259277344,
                119.84583282470703,
                5701.2705078125
            ],
            [
                127.42699432373047,
                121.94219207763672,
                5801.2705078125
            ],
            [
                130.52476501464844,
                124.03866577148438,
                5901.2705078125
            ],
            [
                133.66241455078125,
                126.13536071777344,
                6001.2705078125
            ],
            [
                136.8375701904297,
                128.232177734375,
                6101.2705078125
            ],
            [
                140.04922485351563,
                130.32901000976563,
                6201.2705078125
            ],
            [
                143.29612731933594,
                132.42587280273438,
                6301.2705078125
            ],
            [
                146.57684326171875,
                134.52276611328125,
                6401.2705078125
            ],
            [
                149.89053344726563,
                136.61964416503906,
                6501.2705078125
            ],
            [
                153.23524475097656,
                138.7166290283203,
                6601.2705078125
            ],
            [
                156.61016845703125,
                140.8136444091797,
                6701.2705078125
            ],
            [
                160.0130157470703,
                142.9106903076172,
                6801.2705078125
            ],
            [
                163.44346618652344,
                145.0077362060547,
                6901.2705078125
            ],
            [
                166.89952087402344,
                147.10479736328125,
                7001.2705078125
            ],
            [
                170.3795166015625,
                149.20187377929688,
                7101.2705078125
            ],
            [
                173.8820037841797,
                151.29893493652344,
                7201.2705078125
            ],
            [
                177.40577697753906,
                153.39602661132813,
                7301.2705078125
            ],
            [
                180.9497833251953,
                155.49313354492188,
                7401.2705078125
            ],
            [
                184.51161193847656,
                157.59027099609375,
                7501.2705078125
            ],
            [
                188.09095764160156,
                159.68740844726563,
                7601.2705078125
            ],
            [
                191.68597412109375,
                161.7845916748047,
                7701.2705078125
            ],
            [
                195.29600524902344,
                163.88180541992188,
                7801.2705078125
            ],
            [
                198.91976928710938,
                165.97906494140625,
                7901.2705078125
            ],
            [
                202.55609130859375,
                168.07635498046875,
                8001.2705078125
            ],
            [
                206.20425415039063,
                170.17369079589844,
                8101.2705078125
            ],
            [
                209.8629608154297,
                172.27105712890625,
                8201.2705078125
            ],
            [
                213.53152465820313,
                174.3684844970703,
                8301.2705078125
            ],
            [
                217.20921325683594,
                176.4659423828125,
                8401.2705078125
            ],
            [
                220.89527893066406,
                178.5634307861328,
                8501.2705078125
            ],
            [
                224.5887908935547,
                180.66098022460938,
                8601.2705078125
            ],
            [
                228.28936767578125,
                182.758544921875,
                8701.2705078125
            ],
            [
                231.99632263183594,
                184.85614013671875,
                8801.2705078125
            ],
            [
                235.7091064453125,
                186.9537811279297,
                8901.2705078125
            ],
            [
                239.42727661132813,
                189.05145263671875,
                9001.2705078125
            ],
            [
                243.15036010742188,
                191.14915466308594,
                9101.2705078125
            ],
            [
                246.87789916992188,
                193.24688720703125,
                9201.2705078125
            ],
            [
                250.6095428466797,
                195.3446502685547,
                9301.2705078125
            ],
            [
                254.3449249267578,
                197.44244384765625,
                9401.2705078125
            ],
            [
                258.08367919921875,
                199.54026794433594,
                9501.2705078125
            ],
            [
                261.8255615234375,
                201.6381072998047,
                9601.2705078125
            ],
            [
                265.5702819824219,
                203.73597717285156,
                9701.2705078125
            ],
            [
                269.31756591796875,
                205.8338623046875,
                9801.2705078125
            ],
            [
                273.06719970703125,
                207.93177795410156,
                9901.2705078125
            ],
            [
                276.8189697265625,
                210.0297088623047,
                10001.2705078125
            ],
            [
                284.3282165527344,
                214.22561645507813,
                10201.2705078125
            ],
            [
                291.8440246582031,
                218.4215850830078,
                10401.2705078125
            ],
            [
                299.36517333984375,
                222.61761474609375,
                10601.2705078125
            ],
            [
                306.8908996582031,
                226.81369018554688,
                10801.2705078125
            ],
            [
                314.4201965332031,
                231.00979614257813,
                11001.2705078125
            ],
            [
                321.95263671875,
                235.2059326171875,
                11201.2705078125
            ],
            [
                329.48773193359375,
                239.40208435058594,
                11401.2705078125
            ],
            [
                337.0247802734375,
                243.5982666015625,
                11601.2705078125
            ],
            [
                344.5635986328125,
                247.7944793701172,
                11801.2705078125
            ],
            [
                352.1037292480469,
                251.99069213867188,
                12001.2705078125
            ],
            [
                359.6452331542969,
                256.1869201660156,
                12201.2705078125
            ],
            [
                367.1876220703125,
                260.3831481933594,
                12401.2705078125
            ],
            [
                374.73052978515625,
                264.57940673828125,
                12601.2705078125
            ],
            [
                382.2740478515625,
                268.7756652832031,
                12801.2705078125
            ],
            [
                389.8181457519531,
                272.9718933105469,
                13001.2705078125
            ],
            [
                397.3627014160156,
                277.16815185546875,
                13201.2705078125
            ],
            [
                404.907470703125,
                281.36444091796875,
                13401.2705078125
            ]
        ],
        "zFirstMeasurement": 274.1328
    },
    {
        "E": 15516.807713816179,
        "chi2": 1.3648501634597778,
        "ip": 0.31247475223348764,
        "ipchi2": 4.832547692964589,
        "mass": 139.57018,
        "particleId": "pi-",
        "pvx": 0.611,
        "pvy": 0.1321,
        "pvz": -25.5015,
        "px": -64.21581120116586,
        "py": -394.6228892504581,
        "pz": 15511.028041276679,
        "q": -1.0,
        "trajectory": [
            [
                0.676069974899292,
                2.2241106033325195,
                -100.0
            ],
            [
                0.6554208993911743,
                2.09690260887146,
                -95.0
            ],
            [
                0.6347693800926208,
                1.9696944952011108,
                -90.0
            ],
            [
                0.6141154170036316,
                1.8424865007400513,
                -85.0
            ],
            [
                0.5934589505195618,
                1.7152786254882813,
                -80.0
            ],
            [
                0.5727999806404114,
                1.5880707502365112,
                -75.0
            ],
            [
                0.5521383881568909,
                1.4608628749847412,
                -70.0
            ],
            [
                0.5314741730690002,
                1.3336551189422607,
                -65.0
            ],
            [
                0.51080721616745,
                1.2064474821090698,
                -60.0
            ],
            [
                0.4901375472545624,
                1.0792397260665894,
                -55.0
            ],
            [
                0.46946510672569275,
                0.9520321488380432,
                -50.0
            ],
            [
                0.4487898051738739,
                0.8248245716094971,
                -45.0
            ],
            [
                0.42811158299446106,
                0.6976170539855957,
                -40.0
            ],
            [
                0.4074304401874542,
                0.5704095363616943,
                -35.0
            ],
            [
                0.3867463171482086,
                0.44320210814476013,
                -30.0
            ],
            [
                0.36605915427207947,
                0.3159947395324707,
                -25.0
            ],
            [
                0.3453688621520996,
                0.18878740072250366,
                -20.0
            ],
            [
                0.32467547059059143,
                0.061580102890729904,
                -15.0
            ],
            [
                0.3039788603782654,
                -0.06562714278697968,
                -10.0
            ],
            [
                0.28327903151512146,
                -0.19283434748649597,
                -5.0
            ],
            [
                0.2625758945941925,
                -0.3200415074825287,
                0.0
            ],
            [
                0.24186941981315613,
                -0.4472486078739166,
                5.0
            ],
            [
                0.22115954756736755,
                -0.5744556784629822,
                10.0
            ],
            [
                0.2004462033510208,
                -0.7016627192497253,
                15.0
            ],
            [
                0.17972934246063232,
                -0.8288697004318237,
                20.0
            ],
            [
                0.1590089052915573,
                -0.9560766220092773,
                25.0
            ],
            [
                0.138284832239151,
                -1.083283543586731,
                30.0
            ],
            [
                0.11755705624818802,
                -1.210490345954895,
                35.0
            ],
            [
                0.09682553261518478,
                -1.337697148323059,
                40.0
            ],
            [
                0.07609018683433533,
                -1.4649039506912231,
                45.0
            ],
            [
                0.055350977927446365,
                -1.5921106338500977,
                50.0
            ],
            [
                0.03460783511400223,
                -1.7193173170089722,
                55.0
            ],
            [
                0.013860705308616161,
                -1.8465240001678467,
                60.0
            ],
            [
                -0.006890472490340471,
                -1.9737305641174316,
                65.0
            ],
            [
                -0.027645757421851158,
                -2.1009371280670166,
                70.0
            ],
            [
                -0.048405203968286514,
                -2.2281434535980225,
                75.0
            ],
            [
                -0.06916887313127518,
                -2.3553500175476074,
                80.0
            ],
            [
                -0.08993683010339737,
                -2.4825563430786133,
                85.0
            ],
            [
                -0.11070912331342697,
                -2.609762668609619,
                90.0
            ],
            [
                -0.13145841658115387,
                -2.736968994140625,
                95.0
            ],
            [
                -0.15223531424999237,
                -2.864175319671631,
                100.0
            ],
            [
                -0.2353847771883011,
                -3.372999906539917,
                120.0
            ],
            [
                -0.31860262155532837,
                -3.881824016571045,
                140.0
            ],
            [
                -0.40189144015312195,
                -4.3906474113464355,
                160.0
            ],
            [
                -0.4852553904056549,
                -4.89946985244751,
                180.0
            ],
            [
                -0.5686988234519958,
                -5.408291816711426,
                200.0
            ],
            [
                -0.652223527431488,
                -5.917113304138184,
                220.0
            ],
            [
                -0.735829770565033,
                -6.425932884216309,
                240.0
            ],
            [
                -0.8195271492004395,
                -6.934752941131592,
                260.0
            ],
            [
                -0.9033159613609314,
                -7.443572521209717,
                280.0
            ],
            [
                -0.9872032403945923,
                -7.952391147613525,
                300.0
            ],
            [
                -1.07118821144104,
                -8.461210250854492,
                320.0
            ],
            [
                -1.1552742719650269,
                -8.970027923583984,
                340.0
            ],
            [
                -1.2394293546676636,
                -9.478845596313477,
                360.0
            ],
            [
                -1.3237495422363281,
                -9.987662315368652,
                380.0
            ],
            [
                -1.4081743955612183,
                -10.496479988098145,
                400.0
            ],
            [
                -1.4927104711532593,
                -11.00529670715332,
                420.0
            ],
            [
                -1.577364444732666,
                -11.51411247253418,
                440.0
            ],
            [
                -1.6621432304382324,
                -12.022928237915039,
                460.0
            ],
            [
                -1.7470535039901733,
                -12.531744003295898,
                480.0
            ],
            [
                -1.832101821899414,
                -13.040559768676758,
                500.0
            ],
            [
                -1.9172950983047485,
                -13.549375534057617,
                520.0
            ],
            [
                -2.0026400089263916,
                -14.05819034576416,
                540.0
            ],
            [
                -2.0880861282348633,
                -14.567005157470703,
                560.0
            ],
            [
                -2.1737184524536133,
                -15.075819969177246,
                580.0
            ],
            [
                -2.2595102787017822,
                -15.584634780883789,
                600.0
            ],
            [
                -2.345468044281006,
                -16.09345054626465,
                620.0
            ],
            [
                -2.4315993785858154,
                -16.602264404296875,
                640.0
            ],
            [
                -2.5179073810577393,
                -17.111080169677734,
                660.0
            ],
            [
                -2.6043972969055176,
                -17.61989402770996,
                680.0
            ],
            [
                -2.6910746097564697,
                -18.12870979309082,
                700.0
            ],
            [
                -2.777949094772339,
                -18.63752555847168,
                720.0
            ],
            [
                -2.865022897720337,
                -19.14634132385254,
                740.0
            ],
            [
                -2.952301502227783,
                -19.65515899658203,
                760.0
            ],
            [
                -3.039790153503418,
                -20.163976669311523,
                780.0
            ],
            [
                -3.1274945735931396,
                -20.672794342041016,
                800.0
            ],
            [
                -3.2154183387756348,
                -21.181612014770508,
                820.0
            ],
            [
                -3.303568124771118,
                -21.690431594848633,
                840.0
            ],
            [
                -3.3919496536254883,
                -22.199251174926758,
                860.0
            ],
            [
                -3.4805595874786377,
                -22.708070755004883,
                880.0
            ],
            [
                -3.569406270980835,
                -23.216890335083008,
                900.0
            ],
            [
                -3.658487558364868,
                -23.725709915161133,
                920.0
            ],
            [
                -3.7478175163269043,
                -24.234529495239258,
                940.0
            ],
            [
                -3.8374176025390625,
                -24.74335289001465,
                960.0
            ],
            [
                -3.9272899627685547,
                -25.252178192138672,
                980.0
            ],
            [
                -4.017430782318115,
                -25.761005401611328,
                1000.0
            ],
            [
                -4.472057342529297,
                -28.305160522460938,
                1100.0
            ],
            [
                -4.933812618255615,
                -30.84935188293457,
                1200.0
            ],
            [
                -5.4025444984436035,
                -33.39357376098633,
                1300.0
            ],
            [
                -5.878455638885498,
                -35.93778610229492,
                1400.0
            ],
            [
                -6.3590803146362305,
                -38.48185348510742,
                1500.0
            ],
            [
                -6.848232269287109,
                -41.02608871459961,
                1600.0
            ],
            [
                -7.344950199127197,
                -43.57034683227539,
                1700.0
            ],
            [
                -7.848721981048584,
                -46.11463165283203,
                1800.0
            ],
            [
                -8.361812591552734,
                -48.65895462036133,
                1900.0
            ],
            [
                -8.885650634765625,
                -51.20332336425781,
                2000.0
            ],
            [
                -9.420955657958984,
                -53.74774932861328,
                2100.0
            ],
            [
                -9.970710754394531,
                -56.29217529296875,
                2200.0
            ],
            [
                -10.538728713989258,
                -58.836673736572266,
                2300.0
            ],
            [
                -11.125598907470703,
                -61.38125991821289,
                2400.0
            ],
            [
                -11.73835277557373,
                -63.92572784423828,
                2500.0
            ],
            [
                -12.380162239074707,
                -66.47057342529297,
                2600.0
            ],
            [
                -13.062824249267578,
                -69.01561737060547,
                2700.0
            ],
            [
                -13.784903526306152,
                -71.56084442138672,
                2800.0
            ],
            [
                -14.560591697692871,
                -74.10628509521484,
                2900.0
            ],
            [
                -15.396556854248047,
                -76.65198516845703,
                3000.0
            ],
            [
                -16.29864501953125,
                -79.19783020019531,
                3100.0
            ],
            [
                -17.28874969482422,
                -81.74370574951172,
                3200.0
            ],
            [
                -18.364484786987305,
                -84.28974151611328,
                3300.0
            ],
            [
                -19.53584861755371,
                -86.83614349365234,
                3400.0
            ],
            [
                -20.829055786132813,
                -89.38233184814453,
                3500.0
            ],
            [
                -22.240957260131836,
                -91.92945098876953,
                3600.0
            ],
            [
                -23.79368019104004,
                -94.47676086425781,
                3700.0
            ],
            [
                -25.495052337646484,
                -97.02454376220703,
                3800.0
            ],
            [
                -27.347341537475586,
                -99.57286834716797,
                3900.0
            ],
            [
                -29.36136245727539,
                -102.12181854248047,
                4000.0
            ],
            [
                -31.578445434570313,
                -104.67147064208984,
                4100.0
            ],
            [
                -33.965396881103516,
                -107.22151184082031,
                4200.0
            ],
            [
                -36.541778564453125,
                -109.77235412597656,
                4300.0
            ],
            [
                -39.300750732421875,
                -112.32373809814453,
                4400.0
            ],
            [
                -42.270301818847656,
                -114.87532043457031,
                4500.0
            ],
            [
                -45.44502258300781,
                -117.42823028564453,
                4600.0
            ],
            [
                -48.8114128112793,
                -119.98152923583984,
                4700.0
            ],
            [
                -52.38683319091797,
                -122.53612518310547,
                4800.0
            ],
            [
                -56.15265655517578,
                -125.09100341796875,
                4900.0
            ],
            [
                -56.116790771484375,
                -133.63743591308594,
                5000.0
            ],
            [
                -60.247840881347656,
                -136.36660766601563,
                5100.0
            ],
            [
                -64.57537078857422,
                -139.0962371826172,
                5200.0
            ],
            [
                -69.10357666015625,
                -141.8272705078125,
                5300.0
            ],
            [
                -73.822509765625,
                -144.55775451660156,
                5400.0
            ],
            [
                -78.73356628417969,
                -147.28758239746094,
                5500.0
            ],
            [
                -83.82598876953125,
                -150.01947021484375,
                5600.0
            ],
            [
                -89.10581970214844,
                -152.7510528564453,
                5700.0
            ],
            [
                -94.56600952148438,
                -155.4834442138672,
                5800.0
            ],
            [
                -100.19608306884766,
                -158.21604919433594,
                5900.0
            ],
            [
                -106.00109100341797,
                -160.9490509033203,
                6000.0
            ],
            [
                -111.97128295898438,
                -163.6826171875,
                6100.0
            ],
            [
                -118.10140991210938,
                -166.41616821289063,
                6200.0
            ],
            [
                -124.38642120361328,
                -169.14952087402344,
                6300.0
            ],
            [
                -130.82022094726563,
                -171.8828125,
                6400.0
            ],
            [
                -137.4000701904297,
                -174.61585998535156,
                6500.0
            ],
            [
                -144.11558532714844,
                -177.34884643554688,
                6600.0
            ],
            [
                -150.96376037597656,
                -180.08172607421875,
                6700.0
            ],
            [
                -157.93515014648438,
                -182.8144073486328,
                6800.0
            ],
            [
                -165.02806091308594,
                -185.5465545654297,
                6900.0
            ],
            [
                -172.23411560058594,
                -188.27825927734375,
                7000.0
            ],
            [
                -179.54530334472656,
                -191.0095672607422,
                7100.0
            ],
            [
                -186.95562744140625,
                -193.74049377441406,
                7200.0
            ],
            [
                -194.45993041992188,
                -196.47103881835938,
                7300.0
            ],
            [
                -202.0534210205078,
                -199.20108032226563,
                7400.0
            ],
            [
                -209.72630310058594,
                -201.9308319091797,
                7500.0
            ],
            [
                -217.47561645507813,
                -204.6601104736328,
                7600.0
            ],
            [
                -225.29417419433594,
                -207.38906860351563,
                7700.0
            ],
            [
                -233.1790008544922,
                -210.1177215576172,
                7800.0
            ],
            [
                -241.1244659423828,
                -212.84609985351563,
                7900.0
            ],
            [
                -249.1252899169922,
                -215.57421875,
                8000.0
            ],
            [
                -257.178466796875,
                -218.3021240234375,
                8100.0
            ],
            [
                -265.2781066894531,
                -221.02984619140625,
                8200.0
            ],
            [
                -273.4212341308594,
                -223.75738525390625,
                8300.0
            ],
            [
                -281.60455322265625,
                -226.48477172851563,
                8400.0
            ],
            [
                -289.824951171875,
                -229.21200561523438,
                8500.0
            ],
            [
                -298.0780029296875,
                -231.93911743164063,
                8600.0
            ],
            [
                -306.362060546875,
                -234.66612243652344,
                8700.0
            ],
            [
                -314.67425537109375,
                -237.3929901123047,
                8800.0
            ],
            [
                -323.01202392578125,
                -240.1197967529297,
                8900.0
            ],
            [
                -331.3734436035156,
                -242.84652709960938,
                9000.0
            ],
            [
                -339.7564697265625,
                -245.57322692871094,
                9100.0
            ],
            [
                -348.1590576171875,
                -248.29986572265625,
                9200.0
            ],
            [
                -356.57958984375,
                -251.0264892578125,
                9300.0
            ],
            [
                -365.0165100097656,
                -253.7530975341797,
                9400.0
            ],
            [
                -373.46826171875,
                -256.4797058105469,
                9500.0
            ],
            [
                -381.9336242675781,
                -259.206298828125,
                9600.0
            ],
            [
                -390.411376953125,
                -261.9328918457031,
                9700.0
            ],
            [
                -398.9004211425781,
                -264.6595153808594,
                9800.0
            ],
            [
                -407.39971923828125,
                -267.3861389160156,
                9900.0
            ],
            [
                -415.90838623046875,
                -270.11279296875,
                10000.0
            ],
            [
                -432.9505920410156,
                -275.566162109375,
                10200.0
            ],
            [
                -450.0213317871094,
                -281.0196228027344,
                10400.0
            ],
            [
                -467.1153564453125,
                -286.47320556640625,
                10600.0
            ],
            [
                -484.2293395996094,
                -291.9268798828125,
                10800.0
            ],
            [
                -501.3589782714844,
                -297.3806457519531,
                11000.0
            ],
            [
                -518.5021362304688,
                -302.83453369140625,
                11200.0
            ],
            [
                -535.6567993164063,
                -308.28851318359375,
                11400.0
            ],
            [
                -552.820068359375,
                -313.7425537109375,
                11600.0
            ],
            [
                -569.9907836914063,
                -319.19671630859375,
                11800.0
            ],
            [
                -587.1672973632813,
                -324.6509094238281,
                12000.0
            ],
            [
                -604.3496704101563,
                -330.1051940917969,
                12200.0
            ],
            [
                -621.535888671875,
                -335.55950927734375,
                12400.0
            ],
            [
                -638.724365234375,
                -341.0138854980469,
                12600.0
            ],
            [
                -655.9153442382813,
                -346.46832275390625,
                12800.0
            ],
            [
                -673.1089477539063,
                -351.9227600097656,
                13000.0
            ],
            [
                -690.304443359375,
                -357.37725830078125,
                13200.0
            ],
            [
                -707.5009155273438,
                -362.8317565917969,
                13400.0
            ]
        ],
        "zFirstMeasurement": 451.0762
    },
    {
        "E": 31638.507851590366,
        "chi2": 1.584052324295044,
        "ip": 0.22152482634751317,
        "ipchi2": 5.2444468211290935,
        "mass": 139.57018,
        "particleId": "pi-",
        "pvx": 0.611,
        "pvy": 0.1321,
        "pvz": -25.5015,
        "px": -219.78887822993605,
        "py": -417.85390740301904,
        "pz": 31634.67702065369,
        "q": -1.0,
        "trajectory": [
            [
                1.2391923666000366,
                0.9243301153182983,
                -100.0
            ],
            [
                1.2044795751571655,
                0.8582860231399536,
                -95.0
            ],
            [
                1.1697654724121094,
                0.7922419905662537,
                -90.0
            ],
            [
                1.1350502967834473,
                0.7261979579925537,
                -85.0
            ],
            [
                1.1003338098526,
                0.6601539254188538,
                -80.0
            ],
            [
                1.0656161308288574,
                0.5941099524497986,
                -75.0
            ],
            [
                1.0308971405029297,
                0.5280659794807434,
                -70.0
            ],
            [
                0.9961768388748169,
                0.462022066116333,
                -65.0
            ],
            [
                0.9614552855491638,
                0.3959781527519226,
                -60.0
            ],
            [
                0.9267323613166809,
                0.3299342691898346,
                -55.0
            ],
            [
                0.8920080065727234,
                0.26389041543006897,
                -50.0
            ],
            [
                0.8572823405265808,
                0.19784657657146454,
                -45.0
            ],
            [
                0.8225551843643188,
                0.1318027675151825,
                -40.0
            ],
            [
                0.787826657295227,
                0.06575897336006165,
                -35.0
            ],
            [
                0.7530966401100159,
                -0.0002848006261046976,
                -30.0
            ],
            [
                0.7183651328086853,
                -0.06632854789495468,
                -25.0
            ],
            [
                0.6836320757865906,
                -0.13237227499485016,
                -20.0
            ],
            [
                0.6488974690437317,
                -0.19841597974300385,
                -15.0
            ],
            [
                0.6141613721847534,
                -0.26445966958999634,
                -10.0
            ],
            [
                0.5794236063957214,
                -0.33050331473350525,
                -5.0
            ],
            [
                0.5446842908859253,
                -0.39654695987701416,
                0.0
            ],
            [
                0.5099433064460754,
                -0.4625905752182007,
                5.0
            ],
            [
                0.47520068287849426,
                -0.5286341905593872,
                10.0
            ],
            [
                0.4404563307762146,
                -0.594677746295929,
                15.0
            ],
            [
                0.40571025013923645,
                -0.6607213020324707,
                20.0
            ],
            [
                0.3709624409675598,
                -0.7267648577690125,
                25.0
            ],
            [
                0.3362128436565399,
                -0.7928083539009094,
                30.0
            ],
            [
                0.30146142840385437,
                -0.8588518500328064,
                35.0
            ],
            [
                0.2667081654071808,
                -0.9248953461647034,
                40.0
            ],
            [
                0.23195305466651917,
                -0.9909387826919556,
                45.0
            ],
            [
                0.19719603657722473,
                -1.056982159614563,
                50.0
            ],
            [
                0.1624370962381363,
                -1.12302565574646,
                55.0
            ],
            [
                0.12767618894577026,
                -1.1890690326690674,
                60.0
            ],
            [
                0.09291331470012665,
                -1.2551124095916748,
                65.0
            ],
            [
                0.05814841762185097,
                -1.3211556673049927,
                70.0
            ],
            [
                0.023381484672427177,
                -1.3871990442276,
                75.0
            ],
            [
                -0.011387520469725132,
                -1.453242301940918,
                80.0
            ],
            [
                -0.046158622950315475,
                -1.5192856788635254,
                85.0
            ],
            [
                -0.08093184977769852,
                -1.5853289365768433,
                90.0
            ],
            [
                -0.11570724099874496,
                -1.6513720750808716,
                95.0
            ],
            [
                -0.15047024190425873,
                -1.7174153327941895,
                100.0
            ],
            [
                -0.2895931005477905,
                -1.9815880060195923,
                120.0
            ],
            [
                -0.42874953150749207,
                -2.245760440826416,
                140.0
            ],
            [
                -0.5679407715797424,
                -2.509932279586792,
                160.0
            ],
            [
                -0.7071690559387207,
                -2.774104118347168,
                180.0
            ],
            [
                -0.8464362621307373,
                -3.0382754802703857,
                200.0
            ],
            [
                -0.9857433438301086,
                -3.3024466037750244,
                220.0
            ],
            [
                -1.1250914335250854,
                -3.566617488861084,
                240.0
            ],
            [
                -1.2644821405410767,
                -3.8307878971099854,
                260.0
            ],
            [
                -1.403916597366333,
                -4.094958305358887,
                280.0
            ],
            [
                -1.543398380279541,
                -4.359176158905029,
                300.0
            ],
            [
                -1.68293297290802,
                -4.623345851898193,
                320.0
            ],
            [
                -1.8225154876708984,
                -4.887515544891357,
                340.0
            ],
            [
                -1.9621484279632568,
                -5.1516852378845215,
                360.0
            ],
            [
                -2.1018338203430176,
                -5.415854454040527,
                380.0
            ],
            [
                -2.241574287414551,
                -5.680023670196533,
                400.0
            ],
            [
                -2.3813726902008057,
                -5.944192886352539,
                420.0
            ],
            [
                -2.521230936050415,
                -6.208362102508545,
                440.0
            ],
            [
                -2.661151647567749,
                -6.472530841827393,
                460.0
            ],
            [
                -2.801135778427124,
                -6.73669958114624,
                480.0
            ],
            [
                -2.941159963607788,
                -7.00086784362793,
                500.0
            ],
            [
                -3.081291437149048,
                -7.265036582946777,
                520.0
            ],
            [
                -3.221489191055298,
                -7.529204845428467,
                540.0
            ],
            [
                -3.3617565631866455,
                -7.7933735847473145,
                560.0
            ],
            [
                -3.5020973682403564,
                -8.057541847229004,
                580.0
            ],
            [
                -3.6425158977508545,
                -8.321709632873535,
                600.0
            ],
            [
                -3.783015727996826,
                -8.585878372192383,
                620.0
            ],
            [
                -3.923600912094116,
                -8.850046157836914,
                640.0
            ],
            [
                -4.064275741577148,
                -9.114214897155762,
                660.0
            ],
            [
                -4.205044746398926,
                -9.378382682800293,
                680.0
            ],
            [
                -4.345881462097168,
                -9.64255142211914,
                700.0
            ],
            [
                -4.4868292808532715,
                -9.906720161437988,
                720.0
            ],
            [
                -4.627874851226807,
                -10.170888900756836,
                740.0
            ],
            [
                -4.769021034240723,
                -10.435057640075684,
                760.0
            ],
            [
                -4.910269737243652,
                -10.699227333068848,
                780.0
            ],
            [
                -5.051624298095703,
                -10.963397026062012,
                800.0
            ],
            [
                -5.193087100982666,
                -11.227566719055176,
                820.0
            ],
            [
                -5.33466100692749,
                -11.491737365722656,
                840.0
            ],
            [
                -5.476348400115967,
                -11.755908012390137,
                860.0
            ],
            [
                -5.618152618408203,
                -12.020079612731934,
                880.0
            ],
            [
                -5.760075569152832,
                -12.28425121307373,
                900.0
            ],
            [
                -5.90211820602417,
                -12.548422813415527,
                920.0
            ],
            [
                -6.044282913208008,
                -12.81259536743164,
                940.0
            ],
            [
                -6.186567783355713,
                -13.076767921447754,
                960.0
            ],
            [
                -6.328979969024658,
                -13.34093952178955,
                980.0
            ],
            [
                -6.471521854400635,
                -13.60511302947998,
                1000.0
            ],
            [
                -7.186201095581055,
                -14.925981521606445,
                1100.0
            ],
            [
                -7.904225826263428,
                -16.24686050415039,
                1200.0
            ],
            [
                -8.625723838806152,
                -17.567747116088867,
                1300.0
            ],
            [
                -9.350569725036621,
                -18.888639450073242,
                1400.0
            ],
            [
                -10.079032897949219,
                -20.209537506103516,
                1500.0
            ],
            [
                -10.81003189086914,
                -21.530460357666016,
                1600.0
            ],
            [
                -11.545034408569336,
                -22.851377487182617,
                1700.0
            ],
            [
                -12.284097671508789,
                -24.17230224609375,
                1800.0
            ],
            [
                -13.027710914611816,
                -25.49323844909668,
                1900.0
            ],
            [
                -13.776057243347168,
                -26.814184188842773,
                2000.0
            ],
            [
                -14.53014087677002,
                -28.135141372680664,
                2100.0
            ],
            [
                -15.291624069213867,
                -29.456119537353516,
                2200.0
            ],
            [
                -16.06199073791504,
                -30.77712631225586,
                2300.0
            ],
            [
                -16.842145919799805,
                -32.09817123413086,
                2400.0
            ],
            [
                -17.63512420654297,
                -33.41925811767578,
                2500.0
            ],
            [
                -18.44268226623535,
                -34.74043655395508,
                2600.0
            ],
            [
                -19.26695442199707,
                -36.061641693115234,
                2700.0
            ],
            [
                -20.1142635345459,
                -37.382930755615234,
                2800.0
            ],
            [
                -20.986835479736328,
                -38.704307556152344,
                2900.0
            ],
            [
                -21.888511657714844,
                -40.0257682800293,
                3000.0
            ],
            [
                -22.825992584228516,
                -41.34728240966797,
                3100.0
            ],
            [
                -23.801666259765625,
                -42.6688232421875,
                3200.0
            ],
            [
                -24.820680618286133,
                -43.99042892456055,
                3300.0
            ],
            [
                -25.889251708984375,
                -45.31211853027344,
                3400.0
            ],
            [
                -27.014644622802734,
                -46.63385772705078,
                3500.0
            ],
            [
                -28.200990676879883,
                -47.95574951171875,
                3600.0
            ],
            [
                -29.45636749267578,
                -49.277767181396484,
                3700.0
            ],
            [
                -30.779720306396484,
                -50.5998420715332,
                3800.0
            ],
            [
                -32.1825065612793,
                -51.92215347290039,
                3900.0
            ],
            [
                -33.6693115234375,
                -53.24466323852539,
                4000.0
            ],
            [
                -35.244178771972656,
                -54.56739044189453,
                4100.0
            ],
            [
                -36.90468978881836,
                -55.890289306640625,
                4200.0
            ],
            [
                -38.653602600097656,
                -57.21334457397461,
                4300.0
            ],
            [
                -40.500186920166016,
                -58.53669357299805,
                4400.0
            ],
            [
                -42.45195770263672,
                -59.86018371582031,
                4500.0
            ],
            [
                -44.49856185913086,
                -61.184024810791016,
                4600.0
            ],
            [
                -46.64250564575195,
                -62.508201599121094,
                4700.0
            ],
            [
                -48.88737869262695,
                -63.832679748535156,
                4800.0
            ],
            [
                -51.23843002319336,
                -65.15740203857422,
                4900.0
            ],
            [
                -53.68418502807617,
                -66.48233795166016,
                5000.0
            ],
            [
                -57.409568786621094,
                -67.145263671875,
                5100.0
            ],
            [
                -60.049373626708984,
                -68.4293441772461,
                5200.0
            ],
            [
                -62.78650665283203,
                -69.71405029296875,
                5300.0
            ],
            [
                -65.6175537109375,
                -70.99845886230469,
                5400.0
            ],
            [
                -68.54195404052734,
                -72.2826156616211,
                5500.0
            ],
            [
                -71.5553970336914,
                -73.56770324707031,
                5600.0
            ],
            [
                -74.6604995727539,
                -74.85266876220703,
                5700.0
            ],
            [
                -77.85365295410156,
                -76.13800811767578,
                5800.0
            ],
            [
                -81.12955474853516,
                -77.42355346679688,
                5900.0
            ],
            [
                -84.49079132080078,
                -78.7093734741211,
                6000.0
            ],
            [
                -87.93218994140625,
                -79.9955062866211,
                6100.0
            ],
            [
                -91.45173645019531,
                -81.2817153930664,
                6200.0
            ],
            [
                -95.04682922363281,
                -82.56795501708984,
                6300.0
            ],
            [
                -98.71440887451172,
                -83.85426330566406,
                6400.0
            ],
            [
                -102.4527587890625,
                -85.14056396484375,
                6500.0
            ],
            [
                -106.25738525390625,
                -86.427001953125,
                6600.0
            ],
            [
                -110.12672424316406,
                -87.71355438232422,
                6700.0
            ],
            [
                -114.05597686767578,
                -89.00016021728516,
                6800.0
            ],
            [
                -118.04439544677734,
                -90.28672790527344,
                6900.0
            ],
            [
                -122.08769226074219,
                -91.57330322265625,
                7000.0
            ],
            [
                -126.18235778808594,
                -92.8598861694336,
                7100.0
            ],
            [
                -130.32530212402344,
                -94.146484375,
                7200.0
            ],
            [
                -134.51400756835938,
                -95.43312072753906,
                7300.0
            ],
            [
                -138.7461700439453,
                -96.71974182128906,
                7400.0
            ],
            [
                -143.016845703125,
                -98.00643920898438,
                7500.0
            ],
            [
                -147.32498168945313,
                -99.29312896728516,
                7600.0
            ],
            [
                -151.66693115234375,
                -100.57987976074219,
                7700.0
            ],
            [
                -156.04124450683594,
                -101.86669921875,
                7800.0
            ],
            [
                -160.44520568847656,
                -103.1535873413086,
                7900.0
            ],
            [
                -164.87623596191406,
                -104.44054412841797,
                8000.0
            ],
            [
                -169.33290100097656,
                -105.72757720947266,
                8100.0
            ],
            [
                -173.8123321533203,
                -107.01469421386719,
                8200.0
            ],
            [
                -178.31309509277344,
                -108.3018798828125,
                8300.0
            ],
            [
                -182.8335723876953,
                -109.58914184570313,
                8400.0
            ],
            [
                -187.37220764160156,
                -110.87647247314453,
                8500.0
            ],
            [
                -191.9269561767578,
                -112.16386413574219,
                8600.0
            ],
            [
                -196.49693298339844,
                -113.45130920410156,
                8700.0
            ],
            [
                -201.08078002929688,
                -114.73880004882813,
                8800.0
            ],
            [
                -205.6772003173828,
                -116.02635955810547,
                8900.0
            ],
            [
                -210.28529357910156,
                -117.31396484375,
                9000.0
            ],
            [
                -214.90402221679688,
                -118.60162353515625,
                9100.0
            ],
            [
                -219.5324249267578,
                -119.88932800292969,
                9200.0
            ],
            [
                -224.16969299316406,
                -121.17708587646484,
                9300.0
            ],
            [
                -228.81503295898438,
                -122.46488189697266,
                9400.0
            ],
            [
                -233.4677276611328,
                -123.75272369384766,
                9500.0
            ],
            [
                -238.1271514892578,
                -125.04060363769531,
                9600.0
            ],
            [
                -242.79269409179688,
                -126.32852935791016,
                9700.0
            ],
            [
                -247.46385192871094,
                -127.6164779663086,
                9800.0
            ],
            [
                -252.1400604248047,
                -128.9044647216797,
                9900.0
            ],
            [
                -256.8209533691406,
                -130.19247436523438,
                10000.0
            ],
            [
                -266.1950378417969,
                -132.76858520507813,
                10200.0
            ],
            [
                -275.5832824707031,
                -135.3448028564453,
                10400.0
            ],
            [
                -284.98309326171875,
                -137.92108154296875,
                10600.0
            ],
            [
                -294.39288330078125,
                -140.4974365234375,
                10800.0
            ],
            [
                -303.8104553222656,
                -143.0738525390625,
                11000.0
            ],
            [
                -313.2347717285156,
                -145.6503143310547,
                11200.0
            ],
            [
                -322.6648254394531,
                -148.22682189941406,
                11400.0
            ],
            [
                -332.0991516113281,
                -150.8033447265625,
                11600.0
            ],
            [
                -341.5372619628906,
                -153.37989807128906,
                11800.0
            ],
            [
                -350.978271484375,
                -155.95648193359375,
                12000.0
            ],
            [
                -360.4222106933594,
                -158.5330810546875,
                12200.0
            ],
            [
                -369.86810302734375,
                -161.10968017578125,
                12400.0
            ],
            [
                -379.3151550292969,
                -163.68629455566406,
                12600.0
            ],
            [
                -388.763427734375,
                -166.26292419433594,
                12800.0
            ],
            [
                -398.2130432128906,
                -168.8395538330078,
                13000.0
            ],
            [
                -407.66363525390625,
                -171.41619873046875,
                13200.0
            ],
            [
                -417.11468505859375,
                -173.99282836914063,
                13400.0
            ]
        ],
        "zFirstMeasurement": 599.2573
    }
]
