[
    {
        "E": 27002.879979144174,
        "chi2": 0.0,
        "ip": 0.18724136461117244,
        "ipchi2": 44.796330281183295,
        "mass": 1864.71,
        "particleId": "D0",
        "pvx": 0.5821,
        "pvy": 0.0632,
        "pvz": -52.4561,
        "px": -1308.05,
        "py": 2752.15,
        "pz": 26765.52,
        "q": 0.0,
        "trajectory": [
            [
                0.582099974155426,
                0.06319999694824219,
                -52.45610046386719
            ],
            [
                0.3824999928474426,
                0.5034000277519226,
                -49.86479949951172
            ]
        ],
        "zFirstMeasurement": -9999.0
    },
    {
        "E": 11181.837394237022,
        "chi2": 1.1652292013168335,
        "ip": 0.017085376501996173,
        "ipchi2": 0.4476047958660805,
        "mass": 493.677,
        "particleId": "K-",
        "pvx": 0.5821,
        "pvy": 0.0632,
        "pvz": -52.4561,
        "px": -720.86,
        "py": 1945.18,
        "pz": 10976.63,
        "q": -1.0,
        "trajectory": [
            [
                0.4010133743286133,
                0.5091610550880432,
                -49.86479949951172
            ],
            [
                0.0726470947265625,
                1.3952171802520752,
                -44.86479949951172
            ],
            [
                -0.25572365522384644,
                2.281273365020752,
                -39.86479949951172
            ],
            [
                -0.5840989351272583,
                3.167329788208008,
                -34.86479949951172
            ],
            [
                -0.9124788045883179,
                4.053386211395264,
                -29.86479949951172
            ],
            [
                -1.24086332321167,
                4.9394426345825195,
                -24.86479949951172
            ],
            [
                -1.569252610206604,
                5.825499057769775,
                -19.86479949951172
            ],
            [
                -1.8976776599884033,
                6.711543083190918,
                -14.864800453186035
            ],
            [
                -2.226076364517212,
                7.597599983215332,
                -9.864800453186035
            ],
            [
                -2.5544795989990234,
                8.483656883239746,
                -4.864799976348877
            ],
            [
                -2.882887601852417,
                9.36971378326416,
                0.13519999384880066
            ],
            [
                -3.2113003730773926,
                10.255769729614258,
                5.135200023651123
            ],
            [
                -3.53971791267395,
                11.141827583312988,
                10.135199546813965
            ],
            [
                -3.868140459060669,
                12.027884483337402,
                15.135199546813965
            ],
            [
                -4.196567535400391,
                12.913941383361816,
                20.13520050048828
            ],
            [
                -4.525000095367432,
                13.79999828338623,
                25.13520050048828
            ],
            [
                -4.853437900543213,
                14.686056137084961,
                30.13520050048828
            ],
            [
                -5.181880474090576,
                15.572113037109375,
                35.13520050048828
            ],
            [
                -5.510328769683838,
                16.45816993713379,
                40.13520050048828
            ],
            [
                -5.838781833648682,
                17.344228744506836,
                45.13520050048828
            ],
            [
                -6.167241096496582,
                18.23028564453125,
                50.13520050048828
            ],
            [
                -6.4957051277160645,
                19.116344451904297,
                55.13520050048828
            ],
            [
                -6.8241753578186035,
                20.00240135192871,
                60.13520050048828
            ],
            [
                -7.152650833129883,
                20.888460159301758,
                65.13520050048828
            ],
            [
                -7.481132507324219,
                21.774517059326172,
                70.13520050048828
            ],
            [
                -7.809619426727295,
                22.66057586669922,
                75.13520050048828
            ],
            [
                -8.138113021850586,
                23.546634674072266,
                80.13520050048828
            ],
            [
                -8.466611862182617,
                24.43269157409668,
                85.13520050048828
            ],
            [
                -8.795117378234863,
                25.318750381469727,
                90.13520050048828
            ],
            [
                -9.123628616333008,
                26.204809188842773,
                95.13520050048828
            ],
            [
                -9.452146530151367,
                27.09086799621582,
                100.13520050048828
            ],
            [
                -10.76624584197998,
                30.635103225708008,
                120.13520050048828
            ],
            [
                -12.080460548400879,
                34.17934036254883,
                140.13519287109375
            ],
            [
                -13.394779205322266,
                37.72357940673828,
                160.13519287109375
            ],
            [
                -14.70920467376709,
                41.267822265625,
                180.13519287109375
            ],
            [
                -16.023740768432617,
                44.81206512451172,
                200.13519287109375
            ],
            [
                -17.33839225769043,
                48.35630798339844,
                220.13519287109375
            ],
            [
                -18.653162002563477,
                51.90055465698242,
                240.13519287109375
            ],
            [
                -19.968053817749023,
                55.44480514526367,
                260.13519287109375
            ],
            [
                -21.283071517944336,
                58.98905944824219,
                280.13519287109375
            ],
            [
                -22.59822654724121,
                62.5333137512207,
                300.13519287109375
            ],
            [
                -23.913522720336914,
                66.07756805419922,
                320.13519287109375
            ],
            [
                -25.22896957397461,
                69.62183380126953,
                340.13519287109375
            ],
            [
                -26.54456329345703,
                73.16609191894531,
                360.13519287109375
            ],
            [
                -27.860309600830078,
                76.71035766601563,
                380.13519287109375
            ],
            [
                -29.176210403442383,
                80.25463104248047,
                400.13519287109375
            ],
            [
                -30.49228286743164,
                83.79890441894531,
                420.13519287109375
            ],
            [
                -31.808521270751953,
                87.34317779541016,
                440.13519287109375
            ],
            [
                -33.12493133544922,
                90.88745880126953,
                460.13519287109375
            ],
            [
                -34.4415168762207,
                94.4317398071289,
                480.13519287109375
            ],
            [
                -35.7582893371582,
                97.97602844238281,
                500.13519287109375
            ],
            [
                -37.075260162353516,
                101.52031707763672,
                520.1351928710938
            ],
            [
                -38.392417907714844,
                105.06461334228516,
                540.1351928710938
            ],
            [
                -39.709774017333984,
                108.60891723632813,
                560.1351928710938
            ],
            [
                -41.02732849121094,
                112.1532211303711,
                580.1351928710938
            ],
            [
                -42.34508514404297,
                115.6975326538086,
                600.1351928710938
            ],
            [
                -43.6630744934082,
                119.24183654785156,
                620.1351928710938
            ],
            [
                -44.98130416870117,
                122.7861557006836,
                640.1351928710938
            ],
            [
                -46.29979705810547,
                126.33047485351563,
                660.1351928710938
            ],
            [
                -47.618595123291016,
                129.8748016357422,
                680.1351928710938
            ],
            [
                -48.93764114379883,
                133.41912841796875,
                700.1351928710938
            ],
            [
                -50.25694274902344,
                136.9634552001953,
                720.1351928710938
            ],
            [
                -51.576507568359375,
                140.50778198242188,
                740.1351928710938
            ],
            [
                -52.89633560180664,
                144.0521240234375,
                760.1351928710938
            ],
            [
                -54.216434478759766,
                147.59646606445313,
                780.1351928710938
            ],
            [
                -55.53681182861328,
                151.14080810546875,
                800.1351928710938
            ],
            [
                -56.85746765136719,
                154.68515014648438,
                820.1351928710938
            ],
            [
                -58.178489685058594,
                158.2294921875,
                840.1351928710938
            ],
            [
                -59.49979019165039,
                161.77383422851563,
                860.1351928710938
            ],
            [
                -60.8213996887207,
                165.3181915283203,
                880.1351928710938
            ],
            [
                -62.14331817626953,
                168.862548828125,
                900.1351928710938
            ],
            [
                -63.46547317504883,
                172.4069061279297,
                920.1351928710938
            ],
            [
                -64.78794860839844,
                175.95127868652344,
                940.1351928710938
            ],
            [
                -66.11075592041016,
                179.4956512451172,
                960.1351928710938
            ],
            [
                -67.43392181396484,
                183.04002380371094,
                980.1351928710938
            ],
            [
                -68.757568359375,
                186.58438110351563,
                1000.1351928710938
            ],
            [
                -75.3830337524414,
                204.3059844970703,
                1100.13525390625
            ],
            [
                -82.01707458496094,
                222.02735900878906,
                1200.13525390625
            ],
            [
                -88.66079711914063,
                239.74850463867188,
                1300.13525390625
            ],
            [
                -95.31494140625,
                257.4693908691406,
                1400.13525390625
            ],
            [
                -101.97827911376953,
                275.19012451171875,
                1500.13525390625
            ],
            [
                -108.64810180664063,
                292.910888671875,
                1600.13525390625
            ],
            [
                -115.32689666748047,
                310.6314392089844,
                1700.13525390625
            ],
            [
                -122.01286315917969,
                328.3523254394531,
                1800.13525390625
            ],
            [
                -128.7068328857422,
                346.07379150390625,
                1900.13525390625
            ],
            [
                -135.4122314453125,
                363.79571533203125,
                2000.13525390625
            ],
            [
                -142.12994384765625,
                381.51873779296875,
                2100.13525390625
            ],
            [
                -148.85812377929688,
                399.24273681640625,
                2200.13525390625
            ],
            [
                -155.59996032714844,
                416.96832275390625,
                2300.13525390625
            ],
            [
                -162.35177612304688,
                434.6961364746094,
                2400.13525390625
            ],
            [
                -169.1291961669922,
                452.4264221191406,
                2500.13525390625
            ],
            [
                -175.9290008544922,
                470.1605529785156,
                2600.13525390625
            ],
            [
                -182.76239013671875,
                487.8990173339844,
                2700.13525390625
            ],
            [
                -189.63241577148438,
                505.64288330078125,
                2800.13525390625
            ],
            [
                -196.55079650878906,
                523.3926391601563,
                2900.13525390625
            ],
            [
                -203.52650451660156,
                541.148681640625,
                3000.13525390625
            ],
            [
                -210.5915985107422,
                558.9140014648438,
                3100.13525390625
            ],
            [
                -217.7207794189453,
                576.6874389648438,
                3200.13525390625
            ],
            [
                -224.96002197265625,
                594.47119140625,
                3300.13525390625
            ],
            [
                -232.30831909179688,
                612.2662963867188,
                3400.13525390625
            ],
            [
                -239.788330078125,
                630.0732421875,
                3500.13525390625
            ],
            [
                -247.43605041503906,
                647.894775390625,
                3600.13525390625
            ],
            [
                -255.27296447753906,
                665.7316284179688,
                3700.13525390625
            ],
            [
                -263.3038330078125,
                683.5833129882813,
                3800.13525390625
            ],
            [
                -271.6067810058594,
                701.4517822265625,
                3900.13525390625
            ],
            [
                -280.1745910644531,
                719.3322143554688,
                4000.13525390625
            ],
            [
                -289.0301208496094,
                737.2265625,
                4100.13525390625
            ],
            [
                -298.2200927734375,
                755.1351318359375,
                4200.13525390625
            ],
            [
                -307.69647216796875,
                773.0514526367188,
                4300.13525390625
            ],
            [
                -317.5245056152344,
                790.979736328125,
                4400.13525390625
            ],
            [
                -327.6854553222656,
                808.915771484375,
                4500.13525390625
            ],
            [
                -338.19927978515625,
                826.8589477539063,
                4600.13525390625
            ],
            [
                -349.0455627441406,
                844.806640625,
                4700.13525390625
            ],
            [
                -356.1723327636719,
                863.7409057617188,
                4800.13525390625
            ],
            [
                -367.6884765625,
                881.7300415039063,
                4900.13525390625
            ],
            [
                -379.5030212402344,
                899.7214965820313,
                5000.13525390625
            ],
            [
                -391.64617919921875,
                917.7233276367188,
                5100.13525390625
            ],
            [
                -404.075439453125,
                935.7200927734375,
                5200.13525390625
            ],
            [
                -416.8333740234375,
                953.7172241210938,
                5300.13525390625
            ],
            [
                -429.8894958496094,
                971.7077026367188,
                5400.13525390625
            ],
            [
                -443.22674560546875,
                989.7052612304688,
                5500.13525390625
            ],
            [
                -456.8784484863281,
                1007.7050170898438,
                5600.13525390625
            ],
            [
                -470.8111877441406,
                1025.6922607421875,
                5700.13525390625
            ],
            [
                -485.060791015625,
                1043.6796875,
                5800.13525390625
            ],
            [
                -499.5664978027344,
                1061.66455078125,
                5900.13525390625
            ],
            [
                -514.3683471679688,
                1079.648681640625,
                6000.13525390625
            ],
            [
                -529.4320678710938,
                1097.62646484375,
                6100.13525390625
            ],
            [
                -544.770263671875,
                1115.5943603515625,
                6200.13525390625
            ],
            [
                -560.3797607421875,
                1133.557373046875,
                6300.13525390625
            ],
            [
                -576.2572021484375,
                1151.51318359375,
                6400.13525390625
            ],
            [
                -592.3858032226563,
                1169.4564208984375,
                6500.13525390625
            ],
            [
                -608.772216796875,
                1187.3870849609375,
                6600.13525390625
            ],
            [
                -625.3968505859375,
                1205.304443359375,
                6700.13525390625
            ],
            [
                -642.240478515625,
                1223.2056884765625,
                6800.13525390625
            ],
            [
                -659.2962646484375,
                1241.0867919921875,
                6900.13525390625
            ],
            [
                -676.5377807617188,
                1258.948974609375,
                7000.13525390625
            ],
            [
                -693.947021484375,
                1276.7913818359375,
                7100.13525390625
            ],
            [
                -711.5076904296875,
                1294.61376953125,
                7200.13525390625
            ],
            [
                -729.1982421875,
                1312.4168701171875,
                7300.13525390625
            ],
            [
                -747.009521484375,
                1330.1995849609375,
                7400.13525390625
            ],
            [
                -764.9158935546875,
                1347.9661865234375,
                7500.13525390625
            ],
            [
                -782.9127197265625,
                1365.715087890625,
                7600.13525390625
            ],
            [
                -800.9820556640625,
                1383.44970703125,
                7700.13525390625
            ],
            [
                -819.1166381835938,
                1401.1702880859375,
                7800.13525390625
            ],
            [
                -837.3060913085938,
                1418.8787841796875,
                7900.13525390625
            ],
            [
                -855.54296875,
                1436.5765380859375,
                8000.13525390625
            ],
            [
                -873.8216552734375,
                1454.264404296875,
                8100.13525390625
            ],
            [
                -892.1351318359375,
                1471.9444580078125,
                8200.134765625
            ],
            [
                -910.4791870117188,
                1489.6173095703125,
                8300.134765625
            ],
            [
                -928.8502807617188,
                1507.283935546875,
                8400.134765625
            ],
            [
                -947.2452392578125,
                1524.9451904296875,
                8500.134765625
            ],
            [
                -965.6599731445313,
                1542.6024169921875,
                8600.134765625
            ],
            [
                -984.0932006835938,
                1560.255615234375,
                8700.134765625
            ],
            [
                -1002.5426635742188,
                1577.9058837890625,
                8800.134765625
            ],
            [
                -1021.0067749023438,
                1595.5535888671875,
                8900.134765625
            ],
            [
                -1039.4840087890625,
                1613.19921875,
                9000.134765625
            ],
            [
                -1057.9727783203125,
                1630.8431396484375,
                9100.134765625
            ],
            [
                -1076.4720458984375,
                1648.48583984375,
                9200.134765625
            ],
            [
                -1094.980712890625,
                1666.1275634765625,
                9300.134765625
            ],
            [
                -1113.4976806640625,
                1683.7685546875,
                9400.134765625
            ],
            [
                -1132.022216796875,
                1701.4091796875,
                9500.134765625
            ],
            [
                -1150.5533447265625,
                1719.0494384765625,
                9600.134765625
            ],
            [
                -1169.0906982421875,
                1736.689697265625,
                9700.134765625
            ],
            [
                -1187.6334228515625,
                1754.329833984375,
                9800.134765625
            ],
            [
                -1206.1810302734375,
                1771.9700927734375,
                9900.134765625
            ],
            [
                -1224.733154296875,
                1789.6104736328125,
                10000.134765625
            ],
            [
                -1261.848876953125,
                1824.89208984375,
                10200.134765625
            ],
            [
                -1298.9775390625,
                1860.1749267578125,
                10400.134765625
            ],
            [
                -1336.11669921875,
                1895.45947265625,
                10600.134765625
            ],
            [
                -1373.264404296875,
                1930.7454833984375,
                10800.134765625
            ],
            [
                -1410.4189453125,
                1966.0333251953125,
                11000.134765625
            ],
            [
                -1447.5789794921875,
                2001.3228759765625,
                11200.134765625
            ],
            [
                -1484.743408203125,
                2036.6138916015625,
                11400.134765625
            ],
            [
                -1521.9110107421875,
                2071.90673828125,
                11600.134765625
            ],
            [
                -1559.081298828125,
                2107.20068359375,
                11800.134765625
            ],
            [
                -1596.2535400390625,
                2142.496337890625,
                12000.134765625
            ],
            [
                -1633.4276123046875,
                2177.79296875,
                12200.134765625
            ],
            [
                -1670.6026611328125,
                2213.090576171875,
                12400.134765625
            ],
            [
                -1707.7783203125,
                2248.3896484375,
                12600.134765625
            ],
            [
                -1744.9544677734375,
                2283.689208984375,
                12800.134765625
            ],
            [
                -1782.1312255859375,
                2318.98974609375,
                13000.134765625
            ],
            [
                -1819.308349609375,
                2354.29052734375,
                13200.134765625
            ],
            [
                -1856.4854736328125,
                2389.591796875,
                13400.134765625
            ]
        ],
        "zFirstMeasurement": 19.341
    },
    {
        "E": 15817.722388280092,
        "chi2": 1.187920331954956,
        "ip": 0.3323307500617535,
        "ipchi2": 59.93038826181318,
        "mass": 139.57,
        "particleId": "pi+",
        "pvx": 0.5821,
        "pvy": 0.0632,
        "pvz": -52.4561,
        "px": -585.32,
        "py": 806.97,
        "pz": 15785.66,
        "q": 1.0,
        "trajectory": [
            [
                0.3286055624485016,
                0.4890936017036438,
                -49.86479949951172
            ],
            [
                0.14321105182170868,
                0.7446967363357544,
                -44.86479949951172
            ],
            [
                -0.04218042269349098,
                1.0002999305725098,
                -39.86479949951172
            ],
            [
                -0.2275688201189041,
                1.2559030055999756,
                -34.86479949951172
            ],
            [
                -0.41295406222343445,
                1.5115060806274414,
                -29.86479949951172
            ],
            [
                -0.5983361601829529,
                1.7671090364456177,
                -24.86479949951172
            ],
            [
                -0.783715009689331,
                2.022711992263794,
                -19.86479949951172
            ],
            [
                -0.9690905809402466,
                2.2783150672912598,
                -14.864800453186035
            ],
            [
                -1.1544628143310547,
                2.5339179039001465,
                -9.864800453186035
            ],
            [
                -1.3398317098617554,
                2.789520740509033,
                -4.864799976348877
            ],
            [
                -1.525197148323059,
                3.04512357711792,
                0.13519999384880066
            ],
            [
                -1.7105591297149658,
                3.3007264137268066,
                5.135200023651123
            ],
            [
                -1.895917534828186,
                3.5563292503356934,
                10.135199546813965
            ],
            [
                -2.0812723636627197,
                3.81193208694458,
                15.135199546813965
            ],
            [
                -2.2666237354278564,
                4.067534923553467,
                20.13520050048828
            ],
            [
                -2.4519712924957275,
                4.323137283325195,
                25.13520050048828
            ],
            [
                -2.637315273284912,
                4.578740119934082,
                30.13520050048828
            ],
            [
                -2.822655439376831,
                4.834342956542969,
                35.13520050048828
            ],
            [
                -3.0079915523529053,
                5.089945316314697,
                40.13520050048828
            ],
            [
                -3.193324089050293,
                5.345548152923584,
                45.13520050048828
            ],
            [
                -3.3786749839782715,
                5.6011505126953125,
                50.13520050048828
            ],
            [
                -3.5640029907226563,
                5.856752872467041,
                55.13520050048828
            ],
            [
                -3.7493269443511963,
                6.1123552322387695,
                60.13520050048828
            ],
            [
                -3.93464732170105,
                6.367957592010498,
                65.13520050048828
            ],
            [
                -4.119964122772217,
                6.623559951782227,
                70.13520050048828
            ],
            [
                -4.305282115936279,
                6.8791704177856445,
                75.13520050048828
            ],
            [
                -4.490591049194336,
                7.134772777557373,
                80.13520050048828
            ],
            [
                -4.675896167755127,
                7.390375137329102,
                85.13520050048828
            ],
            [
                -4.861196994781494,
                7.645977020263672,
                90.13520050048828
            ],
            [
                -5.046494007110596,
                7.9015793800354,
                95.13520050048828
            ],
            [
                -5.231818199157715,
                8.157181739807129,
                100.13520050048828
            ],
            [
                -5.972933292388916,
                9.17958927154541,
                120.13520050048828
            ],
            [
                -6.713986873626709,
                10.201996803283691,
                140.13519287109375
            ],
            [
                -7.4549736976623535,
                11.224404335021973,
                160.13519287109375
            ],
            [
                -8.195889472961426,
                12.246810913085938,
                180.13519287109375
            ],
            [
                -8.936728477478027,
                13.269216537475586,
                200.13519287109375
            ],
            [
                -9.677488327026367,
                14.291621208190918,
                220.13519287109375
            ],
            [
                -10.418161392211914,
                15.31402587890625,
                240.13519287109375
            ],
            [
                -11.158744812011719,
                16.3364315032959,
                260.13519287109375
            ],
            [
                -11.899232864379883,
                17.35883331298828,
                280.13519287109375
            ],
            [
                -12.639657020568848,
                18.381237030029297,
                300.13519287109375
            ],
            [
                -13.379963874816895,
                19.403640747070313,
                320.13519287109375
            ],
            [
                -14.120171546936035,
                20.426042556762695,
                340.13519287109375
            ],
            [
                -14.860275268554688,
                21.448444366455078,
                360.13519287109375
            ],
            [
                -15.60027027130127,
                22.470844268798828,
                380.13519287109375
            ],
            [
                -16.340152740478516,
                23.493244171142578,
                400.13519287109375
            ],
            [
                -17.079919815063477,
                24.51564598083496,
                420.13519287109375
            ],
            [
                -17.819568634033203,
                25.538043975830078,
                440.13519287109375
            ],
            [
                -18.559093475341797,
                26.560443878173828,
                460.13519287109375
            ],
            [
                -19.298494338989258,
                27.582841873168945,
                480.13519287109375
            ],
            [
                -20.037763595581055,
                28.605239868164063,
                500.13519287109375
            ],
            [
                -20.776899337768555,
                29.62763786315918,
                520.1351928710938
            ],
            [
                -21.515888214111328,
                30.650033950805664,
                540.1351928710938
            ],
            [
                -22.254718780517578,
                31.67243003845215,
                560.1351928710938
            ],
            [
                -22.993396759033203,
                32.69482421875,
                580.1351928710938
            ],
            [
                -23.731922149658203,
                33.717220306396484,
                600.1351928710938
            ],
            [
                -24.47028350830078,
                34.73961639404297,
                620.1351928710938
            ],
            [
                -25.208480834960938,
                35.76201248168945,
                640.1351928710938
            ],
            [
                -25.946510314941406,
                36.78440475463867,
                660.1351928710938
            ],
            [
                -26.684368133544922,
                37.806800842285156,
                680.1351928710938
            ],
            [
                -27.42205047607422,
                38.829193115234375,
                700.1351928710938
            ],
            [
                -28.159526824951172,
                39.851585388183594,
                720.1351928710938
            ],
            [
                -28.896814346313477,
                40.87397766113281,
                740.1351928710938
            ],
            [
                -29.633909225463867,
                41.89636993408203,
                760.1351928710938
            ],
            [
                -30.370805740356445,
                42.91876220703125,
                780.1351928710938
            ],
            [
                -31.107500076293945,
                43.94115447998047,
                800.1351928710938
            ],
            [
                -31.843996047973633,
                44.96354675292969,
                820.1351928710938
            ],
            [
                -32.58028030395508,
                45.98593521118164,
                840.1351928710938
            ],
            [
                -33.316349029541016,
                47.00832748413086,
                860.1351928710938
            ],
            [
                -34.052127838134766,
                48.030723571777344,
                880.1351928710938
            ],
            [
                -34.78762435913086,
                49.05311965942383,
                900.1351928710938
            ],
            [
                -35.52290725708008,
                50.07551574707031,
                920.1351928710938
            ],
            [
                -36.25794219970703,
                51.0979118347168,
                940.1351928710938
            ],
            [
                -36.99272918701172,
                52.12030792236328,
                960.1351928710938
            ],
            [
                -37.72726058959961,
                53.14270782470703,
                980.1351928710938
            ],
            [
                -38.4615364074707,
                54.16510772705078,
                1000.1351928710938
            ],
            [
                -42.12944412231445,
                59.27710723876953,
                1100.13525390625
            ],
            [
                -45.78915786743164,
                64.38916778564453,
                1200.13525390625
            ],
            [
                -49.443023681640625,
                69.50127410888672,
                1300.13525390625
            ],
            [
                -53.0901985168457,
                74.61338806152344,
                1400.13525390625
            ],
            [
                -56.73137283325195,
                79.72553253173828,
                1500.13525390625
            ],
            [
                -60.36518859863281,
                84.83772277832031,
                1600.13525390625
            ],
            [
                -63.9920539855957,
                89.94989776611328,
                1700.13525390625
            ],
            [
                -67.61051177978516,
                95.06207275390625,
                1800.13525390625
            ],
            [
                -71.22189331054688,
                100.17416381835938,
                1900.13525390625
            ],
            [
                -74.82200622558594,
                105.28617858886719,
                2000.13525390625
            ],
            [
                -78.41230010986328,
                110.3980712890625,
                2100.13525390625
            ],
            [
                -81.9865951538086,
                115.50983428955078,
                2200.13525390625
            ],
            [
                -85.54657745361328,
                120.6214828491211,
                2300.13525390625
            ],
            [
                -89.08674621582031,
                125.73284149169922,
                2400.13525390625
            ],
            [
                -92.60003662109375,
                130.84396362304688,
                2500.13525390625
            ],
            [
                -96.08499145507813,
                135.9547119140625,
                2600.13525390625
            ],
            [
                -99.53691101074219,
                141.0650177001953,
                2700.13525390625
            ],
            [
                -102.94823455810547,
                146.1748504638672,
                2800.13525390625
            ],
            [
                -106.30738830566406,
                151.28407287597656,
                2900.13525390625
            ],
            [
                -109.60901641845703,
                156.39259338378906,
                3000.13525390625
            ],
            [
                -112.8483657836914,
                161.50039672851563,
                3100.13525390625
            ],
            [
                -116.00288391113281,
                166.60751342773438,
                3200.13525390625
            ],
            [
                -119.07286834716797,
                171.71356201171875,
                3300.13525390625
            ],
            [
                -122.04415130615234,
                176.81887817382813,
                3400.13525390625
            ],
            [
                -124.90233612060547,
                181.9231414794922,
                3500.13525390625
            ],
            [
                -127.64449310302734,
                187.02610778808594,
                3600.13525390625
            ],
            [
                -130.250244140625,
                192.1285400390625,
                3700.13525390625
            ],
            [
                -132.7093505859375,
                197.23008728027344,
                3800.13525390625
            ],
            [
                -135.0128936767578,
                202.3303680419922,
                3900.13525390625
            ],
            [
                -137.1586151123047,
                207.42991638183594,
                4000.13525390625
            ],
            [
                -139.12503051757813,
                212.52931213378906,
                4100.13525390625
            ],
            [
                -140.9014129638672,
                217.6288604736328,
                4200.13525390625
            ],
            [
                -142.48739624023438,
                222.72813415527344,
                4300.13525390625
            ],
            [
                -143.88719177246094,
                227.8267822265625,
                4400.13525390625
            ],
            [
                -145.0910186767578,
                232.92539978027344,
                4500.13525390625
            ],
            [
                -146.09310913085938,
                238.02500915527344,
                4600.13525390625
            ],
            [
                -146.89385986328125,
                243.124755859375,
                4700.13525390625
            ],
            [
                -147.49560546875,
                248.22393798828125,
                4800.13525390625
            ],
            [
                -147.1017303466797,
                252.2723388671875,
                4900.13525390625
            ],
            [
                -147.2682342529297,
                257.33843994140625,
                5000.13525390625
            ],
            [
                -147.23287963867188,
                262.4065246582031,
                5100.13525390625
            ],
            [
                -147.0039520263672,
                267.474609375,
                5200.13525390625
            ],
            [
                -146.57827758789063,
                272.543212890625,
                5300.13525390625
            ],
            [
                -145.96360778808594,
                277.6110534667969,
                5400.13525390625
            ],
            [
                -145.16281127929688,
                282.67913818359375,
                5500.13525390625
            ],
            [
                -144.181640625,
                287.7491455078125,
                5600.13525390625
            ],
            [
                -143.0162811279297,
                292.81866455078125,
                5700.13525390625
            ],
            [
                -141.67335510253906,
                297.88861083984375,
                5800.13525390625
            ],
            [
                -140.1640167236328,
                302.9588928222656,
                5900.13525390625
            ],
            [
                -138.48260498046875,
                308.0303955078125,
                6000.13525390625
            ],
            [
                -136.63916015625,
                313.1021728515625,
                6100.13525390625
            ],
            [
                -134.6380157470703,
                318.1737060546875,
                6200.13525390625
            ],
            [
                -132.48455810546875,
                323.2454833984375,
                6300.13525390625
            ],
            [
                -130.1846160888672,
                328.31732177734375,
                6400.13525390625
            ],
            [
                -127.7418212890625,
                333.38885498046875,
                6500.13525390625
            ],
            [
                -125.16455078125,
                338.4607238769531,
                6600.13525390625
            ],
            [
                -122.45655822753906,
                343.532470703125,
                6700.13525390625
            ],
            [
                -119.62764739990234,
                348.6039733886719,
                6800.13525390625
            ],
            [
                -116.67932891845703,
                353.67523193359375,
                6900.13525390625
            ],
            [
                -113.62044525146484,
                358.7461853027344,
                7000.13525390625
            ],
            [
                -110.45845794677734,
                363.8168029785156,
                7100.13525390625
            ],
            [
                -107.19950866699219,
                368.8869934082031,
                7200.13525390625
            ],
            [
                -103.84921264648438,
                373.95684814453125,
                7300.13525390625
            ],
            [
                -100.41193389892578,
                379.0262756347656,
                7400.13525390625
            ],
            [
                -96.89849853515625,
                384.0953674316406,
                7500.13525390625
            ],
            [
                -93.31033325195313,
                389.1640625,
                7600.13525390625
            ],
            [
                -89.6556167602539,
                394.23236083984375,
                7700.13525390625
            ],
            [
                -85.93729400634766,
                399.3003234863281,
                7800.13525390625
            ],
            [
                -82.16099548339844,
                404.36798095703125,
                7900.13525390625
            ],
            [
                -78.33195495605469,
                409.435302734375,
                8000.13525390625
            ],
            [
                -74.45313262939453,
                414.5023193359375,
                8100.13525390625
            ],
            [
                -70.53028869628906,
                419.5690612792969,
                8200.134765625
            ],
            [
                -66.56631469726563,
                424.63555908203125,
                8300.134765625
            ],
            [
                -62.56437301635742,
                429.7017822265625,
                8400.134765625
            ],
            [
                -58.52759552001953,
                434.76776123046875,
                8500.134765625
            ],
            [
                -54.46002960205078,
                439.83349609375,
                8600.134765625
            ],
            [
                -50.36333465576172,
                444.8990173339844,
                8700.134765625
            ],
            [
                -46.24025344848633,
                449.96429443359375,
                8800.134765625
            ],
            [
                -42.093204498291016,
                455.0294189453125,
                8900.134765625
            ],
            [
                -37.9239501953125,
                460.0943603515625,
                9000.134765625
            ],
            [
                -33.73451614379883,
                465.1591796875,
                9100.134765625
            ],
            [
                -29.52675437927246,
                470.2238464355469,
                9200.134765625
            ],
            [
                -25.30219841003418,
                475.2883605957031,
                9300.134765625
            ],
            [
                -21.06235122680664,
                480.352783203125,
                9400.134765625
            ],
            [
                -16.808626174926758,
                485.4170837402344,
                9500.134765625
            ],
            [
                -12.5421781539917,
                490.4812927246094,
                9600.134765625
            ],
            [
                -8.264180183410645,
                495.54541015625,
                9700.134765625
            ],
            [
                -3.9756228923797607,
                500.60943603515625,
                9800.134765625
            ],
            [
                0.32248520851135254,
                505.67340087890625,
                9900.134765625
            ],
            [
                4.629367828369141,
                510.7372741699219,
                10000.134765625
            ],
            [
                13.266342163085938,
                520.8648681640625,
                10200.134765625
            ],
            [
                21.92995262145996,
                530.9921875,
                10400.134765625
            ],
            [
                30.61528968811035,
                541.119384765625,
                10600.134765625
            ],
            [
                39.31928634643555,
                551.2463989257813,
                10800.134765625
            ],
            [
                48.037925720214844,
                561.373291015625,
                11000.134765625
            ],
            [
                56.76921463012695,
                571.5000610351563,
                11200.134765625
            ],
            [
                65.51126861572266,
                581.626708984375,
                11400.134765625
            ],
            [
                74.26131439208984,
                591.7533569335938,
                11600.134765625
            ],
            [
                83.0184326171875,
                601.8798828125,
                11800.134765625
            ],
            [
                91.78097534179688,
                612.00634765625,
                12000.134765625
            ],
            [
                100.54907989501953,
                622.1328125,
                12200.134765625
            ],
            [
                109.32078552246094,
                632.2592163085938,
                12400.134765625
            ],
            [
                118.09455108642578,
                642.3856201171875,
                12600.134765625
            ],
            [
                126.87068939208984,
                652.511962890625,
                12800.134765625
            ],
            [
                135.6493682861328,
                662.6383056640625,
                13000.134765625
            ],
            [
                144.4298858642578,
                672.7646484375,
                13200.134765625
            ],
            [
                153.2112579345703,
                682.8909301757813,
                13400.134765625
            ]
        ],
        "zFirstMeasurement": 199.2057
    },
    {
        "E": 20067.845355312693,
        "chi2": 0.9386125206947327,
        "ip": 0.5385650037812871,
        "ipchi2": 31.962374619822402,
        "mass": 139.57018,
        "particleId": "pi+",
        "pvx": 0.5821,
        "pvy": 0.0632,
        "pvz": -52.4561,
        "px": 37.35906247735094,
        "py": -423.0319463159537,
        "pz": 20062.865838220794,
        "q": 1.0,
        "trajectory": [
            [
                1.009397029876709,
                1.2209423780441284,
                -100.0
            ],
            [
                1.0186856985092163,
                1.1155163049697876,
                -95.0
            ],
            [
                1.0279762744903564,
                1.0100899934768677,
                -90.0
            ],
            [
                1.0372687578201294,
                0.9046637415885925,
                -85.0
            ],
            [
                1.0465633869171143,
                0.7992374300956726,
                -80.0
            ],
            [
                1.0558600425720215,
                0.6938111186027527,
                -75.0
            ],
            [
                1.0651588439941406,
                0.5883846879005432,
                -70.0
            ],
            [
                1.0744596719741821,
                0.48295828700065613,
                -65.0
            ],
            [
                1.083762764930725,
                0.3775317966938019,
                -60.0
            ],
            [
                1.0930681228637695,
                0.27210530638694763,
                -55.0
            ],
            [
                1.1023757457733154,
                0.16667874157428741,
                -50.0
            ],
            [
                1.1116856336593628,
                0.061252158135175705,
                -45.0
            ],
            [
                1.1209977865219116,
                -0.044174470007419586,
                -40.0
            ],
            [
                1.130312442779541,
                -0.14960113167762756,
                -35.0
            ],
            [
                1.1396294832229614,
                -0.2550278306007385,
                -30.0
            ],
            [
                1.1489489078521729,
                -0.36045458912849426,
                -25.0
            ],
            [
                1.1582708358764648,
                -0.4658813774585724,
                -20.0
            ],
            [
                1.167595386505127,
                -0.5713081955909729,
                -15.0
            ],
            [
                1.1769224405288696,
                -0.6767350435256958,
                -10.0
            ],
            [
                1.1862521171569824,
                -0.7821619510650635,
                -5.0
            ],
            [
                1.1955844163894653,
                -0.8875888586044312,
                0.0
            ],
            [
                1.204919457435608,
                -0.9930158257484436,
                5.0
            ],
            [
                1.2142571210861206,
                -1.0984429121017456,
                10.0
            ],
            [
                1.2235976457595825,
                -1.2038699388504028,
                15.0
            ],
            [
                1.232940912246704,
                -1.30929696559906,
                20.0
            ],
            [
                1.242287039756775,
                -1.4147241115570068,
                25.0
            ],
            [
                1.251636028289795,
                -1.5201512575149536,
                30.0
            ],
            [
                1.2609878778457642,
                -1.6255784034729004,
                35.0
            ],
            [
                1.2703428268432617,
                -1.7310056686401367,
                40.0
            ],
            [
                1.2797006368637085,
                -1.836432933807373,
                45.0
            ],
            [
                1.2890617847442627,
                -1.9418601989746094,
                50.0
            ],
            [
                1.2984087467193604,
                -2.047287702560425,
                55.0
            ],
            [
                1.3077733516693115,
                -2.152714967727661,
                60.0
            ],
            [
                1.3171409368515015,
                -2.2581424713134766,
                65.0
            ],
            [
                1.326511263847351,
                -2.363569974899292,
                70.0
            ],
            [
                1.335884690284729,
                -2.4689974784851074,
                75.0
            ],
            [
                1.3452610969543457,
                -2.574424982070923,
                80.0
            ],
            [
                1.3546406030654907,
                -2.6798524856567383,
                85.0
            ],
            [
                1.3640230894088745,
                -2.785280227661133,
                90.0
            ],
            [
                1.373408555984497,
                -2.8907077312469482,
                95.0
            ],
            [
                1.3827972412109375,
                -2.9961354732513428,
                100.0
            ],
            [
                1.4203851222991943,
                -3.4178466796875,
                120.0
            ],
            [
                1.458026647567749,
                -3.8395583629608154,
                140.0
            ],
            [
                1.4957232475280762,
                -4.261270523071289,
                160.0
            ],
            [
                1.5334768295288086,
                -4.6829833984375,
                180.0
            ],
            [
                1.5712499618530273,
                -5.104716777801514,
                200.0
            ],
            [
                1.6091277599334717,
                -5.526431083679199,
                220.0
            ],
            [
                1.6470715999603271,
                -5.948145389556885,
                240.0
            ],
            [
                1.685083270072937,
                -6.3698601722717285,
                260.0
            ],
            [
                1.723165512084961,
                -6.7915754318237305,
                280.0
            ],
            [
                1.7613214254379272,
                -7.213291645050049,
                300.0
            ],
            [
                1.7995537519454956,
                -7.635007858276367,
                320.0
            ],
            [
                1.837837815284729,
                -8.056724548339844,
                340.0
            ],
            [
                1.8762450218200684,
                -8.478442192077637,
                360.0
            ],
            [
                1.9147324562072754,
                -8.900158882141113,
                380.0
            ],
            [
                1.9533026218414307,
                -9.321877479553223,
                400.0
            ],
            [
                1.9919605255126953,
                -9.743595123291016,
                420.0
            ],
            [
                2.0307109355926514,
                -10.165313720703125,
                440.0
            ],
            [
                2.0695595741271973,
                -10.587032318115234,
                460.0
            ],
            [
                2.108510971069336,
                -11.00875186920166,
                480.0
            ],
            [
                2.147570848464966,
                -11.430471420288086,
                500.0
            ],
            [
                2.186744213104248,
                -11.852190971374512,
                520.0
            ],
            [
                2.225994348526001,
                -12.273910522460938,
                540.0
            ],
            [
                2.265383005142212,
                -12.69563102722168,
                560.0
            ],
            [
                2.30489182472229,
                -13.117350578308105,
                580.0
            ],
            [
                2.3445236682891846,
                -13.539071083068848,
                600.0
            ],
            [
                2.3842833042144775,
                -13.96079158782959,
                620.0
            ],
            [
                2.4241740703582764,
                -14.382512092590332,
                640.0
            ],
            [
                2.4642019271850586,
                -14.804232597351074,
                660.0
            ],
            [
                2.5043740272521973,
                -15.225953102111816,
                680.0
            ],
            [
                2.5446908473968506,
                -15.647673606872559,
                700.0
            ],
            [
                2.585158348083496,
                -16.069395065307617,
                720.0
            ],
            [
                2.6257829666137695,
                -16.491113662719727,
                740.0
            ],
            [
                2.6665661334991455,
                -16.912832260131836,
                760.0
            ],
            [
                2.707512140274048,
                -17.334552764892578,
                780.0
            ],
            [
                2.7486252784729004,
                -17.756271362304688,
                800.0
            ],
            [
                2.7899084091186523,
                -18.177988052368164,
                820.0
            ],
            [
                2.831367015838623,
                -18.599706649780273,
                840.0
            ],
            [
                2.873004913330078,
                -19.02142333984375,
                860.0
            ],
            [
                2.914824962615967,
                -19.443140029907227,
                880.0
            ],
            [
                2.956822156906128,
                -19.864858627319336,
                900.0
            ],
            [
                2.999000072479248,
                -20.286575317382813,
                920.0
            ],
            [
                3.0413706302642822,
                -20.708293914794922,
                940.0
            ],
            [
                3.083937644958496,
                -21.1300106048584,
                960.0
            ],
            [
                3.1267051696777344,
                -21.551727294921875,
                980.0
            ],
            [
                3.1696937084198,
                -21.973440170288086,
                1000.0
            ],
            [
                3.387709856033325,
                -24.081985473632813,
                1100.0
            ],
            [
                3.611231803894043,
                -26.190502166748047,
                1200.0
            ],
            [
                3.840223550796509,
                -28.29898452758789,
                1300.0
            ],
            [
                4.074864387512207,
                -30.407472610473633,
                1400.0
            ],
            [
                4.3127923011779785,
                -32.51609802246094,
                1500.0
            ],
            [
                4.557407379150391,
                -34.62458801269531,
                1600.0
            ],
            [
                4.807817459106445,
                -36.733055114746094,
                1700.0
            ],
            [
                5.063964366912842,
                -38.84150314331055,
                1800.0
            ],
            [
                5.327029228210449,
                -40.949928283691406,
                1900.0
            ],
            [
                5.59888219833374,
                -43.05832290649414,
                2000.0
            ],
            [
                5.879044055938721,
                -45.16668701171875,
                2100.0
            ],
            [
                6.170978546142578,
                -47.27500915527344,
                2200.0
            ],
            [
                6.476751804351807,
                -49.383338928222656,
                2300.0
            ],
            [
                6.797205448150635,
                -51.49162673950195,
                2400.0
            ],
            [
                7.136991024017334,
                -53.60009765625,
                2500.0
            ],
            [
                7.50021505355835,
                -55.708251953125,
                2600.0
            ],
            [
                7.894249439239502,
                -57.81631088256836,
                2700.0
            ],
            [
                8.31954574584961,
                -59.924285888671875,
                2800.0
            ],
            [
                8.78563117980957,
                -62.032169342041016,
                2900.0
            ],
            [
                9.298277854919434,
                -64.13990783691406,
                3000.0
            ],
            [
                9.863612174987793,
                -66.24760437011719,
                3100.0
            ],
            [
                10.494751930236816,
                -68.35545349121094,
                3200.0
            ],
            [
                11.195082664489746,
                -70.46333312988281,
                3300.0
            ],
            [
                11.966638565063477,
                -72.57109069824219,
                3400.0
            ],
            [
                12.834263801574707,
                -74.67933654785156,
                3500.0
            ],
            [
                13.792123794555664,
                -76.78700256347656,
                3600.0
            ],
            [
                14.859302520751953,
                -78.89479064941406,
                3700.0
            ],
            [
                16.040912628173828,
                -81.00249481201172,
                3800.0
            ],
            [
                17.340373992919922,
                -83.11012268066406,
                3900.0
            ],
            [
                18.764328002929688,
                -85.21754455566406,
                4000.0
            ],
            [
                20.341514587402344,
                -87.32481384277344,
                4100.0
            ],
            [
                22.054916381835938,
                -89.43215942382813,
                4200.0
            ],
            [
                23.91710662841797,
                -91.53929901123047,
                4300.0
            ],
            [
                25.912317276000977,
                -93.64629364013672,
                4400.0
            ],
            [
                28.07482147216797,
                -95.75357818603516,
                4500.0
            ],
            [
                30.391714096069336,
                -97.86005401611328,
                4600.0
            ],
            [
                32.86137008666992,
                -99.96649932861328,
                4700.0
            ],
            [
                35.490760803222656,
                -102.07231140136719,
                4800.0
            ],
            [
                38.26406478881836,
                -104.17815399169922,
                4900.0
            ],
            [
                38.82555389404297,
                -106.98397064208984,
                5000.0
            ],
            [
                41.87577438354492,
                -109.10099792480469,
                5100.0
            ],
            [
                45.077571868896484,
                -111.21776580810547,
                5200.0
            ],
            [
                48.43286895751953,
                -113.33358764648438,
                5300.0
            ],
            [
                51.9361572265625,
                -115.44979095458984,
                5400.0
            ],
            [
                55.586875915527344,
                -117.56661224365234,
                5500.0
            ],
            [
                59.37793731689453,
                -119.68203735351563,
                5600.0
            ],
            [
                63.3135986328125,
                -121.79747772216797,
                5700.0
            ],
            [
                67.38810729980469,
                -123.91236877441406,
                5800.0
            ],
            [
                71.59317779541016,
                -126.02690124511719,
                5900.0
            ],
            [
                75.9330062866211,
                -128.14097595214844,
                6000.0
            ],
            [
                80.39949035644531,
                -130.25437927246094,
                6100.0
            ],
            [
                84.9892807006836,
                -132.36746215820313,
                6200.0
            ],
            [
                89.69839477539063,
                -134.4804229736328,
                6300.0
            ],
            [
                94.52198791503906,
                -136.59307861328125,
                6400.0
            ],
            [
                99.45731353759766,
                -138.7054901123047,
                6500.0
            ],
            [
                104.49736022949219,
                -140.8174591064453,
                6600.0
            ],
            [
                109.6396484375,
                -142.928955078125,
                6700.0
            ],
            [
                114.87646484375,
                -145.04005432128906,
                6800.0
            ],
            [
                120.20675659179688,
                -147.15086364746094,
                6900.0
            ],
            [
                125.6237564086914,
                -149.26126098632813,
                7000.0
            ],
            [
                131.12179565429688,
                -151.3712921142578,
                7100.0
            ],
            [
                136.69606018066406,
                -153.48094177246094,
                7200.0
            ],
            [
                142.3424530029297,
                -155.59014892578125,
                7300.0
            ],
            [
                148.05746459960938,
                -157.698974609375,
                7400.0
            ],
            [
                153.83314514160156,
                -159.8073272705078,
                7500.0
            ],
            [
                159.6679229736328,
                -161.915283203125,
                7600.0
            ],
            [
                165.5559539794922,
                -164.0227813720703,
                7700.0
            ],
            [
                171.4949493408203,
                -166.12982177734375,
                7800.0
            ],
            [
                177.48060607910156,
                -168.2364044189453,
                7900.0
            ],
            [
                183.5088653564453,
                -170.34255981445313,
                8000.0
            ],
            [
                189.5774383544922,
                -172.4482879638672,
                8100.0
            ],
            [
                195.68177795410156,
                -174.55360412597656,
                8200.0
            ],
            [
                201.81964111328125,
                -176.65853881835938,
                8300.0
            ],
            [
                207.98849487304688,
                -178.76312255859375,
                8400.0
            ],
            [
                214.18585205078125,
                -180.86737060546875,
                8500.0
            ],
            [
                220.4084930419922,
                -182.97132873535156,
                8600.0
            ],
            [
                226.65505981445313,
                -185.0749969482422,
                8700.0
            ],
            [
                232.92337036132813,
                -187.1784210205078,
                8800.0
            ],
            [
                239.21141052246094,
                -189.28160095214844,
                8900.0
            ],
            [
                245.51776123046875,
                -191.3845672607422,
                9000.0
            ],
            [
                251.8407745361328,
                -193.48731994628906,
                9100.0
            ],
            [
                258.178955078125,
                -195.5898895263672,
                9200.0
            ],
            [
                264.531005859375,
                -197.69229125976563,
                9300.0
            ],
            [
                270.895751953125,
                -199.79452514648438,
                9400.0
            ],
            [
                277.2720031738281,
                -201.89663696289063,
                9500.0
            ],
            [
                283.6588134765625,
                -203.99862670898438,
                9600.0
            ],
            [
                290.05517578125,
                -206.10049438476563,
                9700.0
            ],
            [
                296.4603271484375,
                -208.20228576660156,
                9800.0
            ],
            [
                302.8734436035156,
                -210.30397033691406,
                9900.0
            ],
            [
                309.2938232421875,
                -212.4055938720703,
                10000.0
            ],
            [
                322.15386962890625,
                -216.60862731933594,
                10200.0
            ],
            [
                335.03607177734375,
                -220.81146240234375,
                10400.0
            ],
            [
                347.9364013671875,
                -225.01412963867188,
                10600.0
            ],
            [
                360.8522644042969,
                -229.21669006347656,
                10800.0
            ],
            [
                373.7802734375,
                -233.41917419433594,
                11000.0
            ],
            [
                386.7188415527344,
                -237.62159729003906,
                11200.0
            ],
            [
                399.6663818359375,
                -241.823974609375,
                11400.0
            ],
            [
                412.62060546875,
                -246.02633666992188,
                11600.0
            ],
            [
                425.5806884765625,
                -250.22869873046875,
                11800.0
            ],
            [
                438.5452880859375,
                -254.43106079101563,
                12000.0
            ],
            [
                451.5144958496094,
                -258.6334228515625,
                12200.0
            ],
            [
                464.4866943359375,
                -262.8357849121094,
                12400.0
            ],
            [
                477.4607238769531,
                -267.03814697265625,
                12600.0
            ],
            [
                490.4366455078125,
                -271.2405700683594,
                12800.0
            ],
            [
                503.4146728515625,
                -275.4429626464844,
                13000.0
            ],
            [
                516.3942260742188,
                -279.6453552246094,
                13200.0
            ],
            [
                529.37451171875,
                -283.8477783203125,
                13400.0
            ]
        ],
        "zFirstMeasurement": 434.2704
    }
]
