[
    {
        "E": 33316.32767537459,
        "chi2": 0.0,
        "ip": 0.025756500816600112,
        "ipchi2": 0.6789762444330898,
        "mass": 1863.412,
        "particleId": "D0",
        "pvx": 0.6431,
        "pvy": 0.0709,
        "pvz": 132.6425,
        "px": -878.84,
        "py": -3100.2,
        "pz": 33107.73,
        "q": 0.0,
        "trajectory": [
            [
                0.6431000232696533,
                0.07090000063180923,
                132.6425018310547
            ],
            [
                0.6330999732017517,
                0.033900000154972076,
                133.30209350585938
            ]
        ],
        "zFirstMeasurement": -9999.0
    },
    {
        "E": 18601.000559057502,
        "chi2": 0.9695890545845032,
        "ip": 0.03468561767220912,
        "ipchi2": 0.13845984857940907,
        "mass": 493.677,
        "particleId": "K-",
        "pvx": 0.6431,
        "pvy": 0.0709,
        "pvz": 132.6425,
        "px": 62.43,
        "py": -1079.7,
        "pz": 18562.97,
        "q": -1.0,
        "trajectory": [
            [
                0.679055392742157,
                0.024457652121782303,
                133.30209350585938
            ],
            [
                0.746286153793335,
                -1.1388298273086548,
                153.30209350585938
            ],
            [
                0.8134540319442749,
                -2.302116632461548,
                173.30209350585938
            ],
            [
                0.8805551528930664,
                -3.465402841567993,
                193.30209350585938
            ],
            [
                0.9475855231285095,
                -4.628688335418701,
                213.30209350585938
            ],
            [
                1.0145689249038696,
                -5.79197359085083,
                233.30209350585938
            ],
            [
                1.0814658403396606,
                -6.955257892608643,
                253.30209350585938
            ],
            [
                1.148287296295166,
                -8.118541717529297,
                273.3020935058594
            ],
            [
                1.215044379234314,
                -9.281808853149414,
                293.3020935058594
            ],
            [
                1.2817063331604004,
                -10.445091247558594,
                313.3020935058594
            ],
            [
                1.348283290863037,
                -11.608373641967773,
                333.3020935058594
            ],
            [
                1.4147934913635254,
                -12.771656036376953,
                353.3020935058594
            ],
            [
                1.4811824560165405,
                -13.934937477111816,
                373.3020935058594
            ],
            [
                1.5474830865859985,
                -15.09821891784668,
                393.3020935058594
            ],
            [
                1.6136914491653442,
                -16.261499404907227,
                413.3020935058594
            ],
            [
                1.6798018217086792,
                -17.424779891967773,
                433.3020935058594
            ],
            [
                1.7458088397979736,
                -18.58806037902832,
                453.3020935058594
            ],
            [
                1.8117066621780396,
                -19.751338958740234,
                473.3020935058594
            ],
            [
                1.8774899244308472,
                -20.91461944580078,
                493.3020935058594
            ],
            [
                1.9431530237197876,
                -22.077898025512695,
                513.3021240234375
            ],
            [
                2.008690357208252,
                -23.24117660522461,
                533.3021240234375
            ],
            [
                2.074159860610962,
                -24.404455184936523,
                553.3021240234375
            ],
            [
                2.1394643783569336,
                -25.567733764648438,
                573.3021240234375
            ],
            [
                2.2046377658843994,
                -26.73101234436035,
                593.3021240234375
            ],
            [
                2.2696752548217773,
                -27.894290924072266,
                613.3021240234375
            ],
            [
                2.3345730304718018,
                -29.057567596435547,
                633.3021240234375
            ],
            [
                2.399326801300049,
                -30.22084617614746,
                653.3021240234375
            ],
            [
                2.463925838470459,
                -31.384124755859375,
                673.3021240234375
            ],
            [
                2.5283701419830322,
                -32.547401428222656,
                693.3021240234375
            ],
            [
                2.592655658721924,
                -33.7106819152832,
                713.3021240234375
            ],
            [
                2.6567721366882324,
                -34.873958587646484,
                733.3021240234375
            ],
            [
                2.720719575881958,
                -36.03723907470703,
                753.3021240234375
            ],
            [
                2.7844927310943604,
                -37.20051956176758,
                773.3021240234375
            ],
            [
                2.848087787628174,
                -38.363800048828125,
                793.3021240234375
            ],
            [
                2.9115006923675537,
                -39.52708053588867,
                813.3021240234375
            ],
            [
                2.974726915359497,
                -40.690364837646484,
                833.3021240234375
            ],
            [
                3.0377612113952637,
                -41.8536491394043,
                853.3021240234375
            ],
            [
                3.1005990505218506,
                -43.016929626464844,
                873.3021240234375
            ],
            [
                3.163245439529419,
                -44.180213928222656,
                893.3021240234375
            ],
            [
                3.225696563720703,
                -45.3434944152832,
                913.3021240234375
            ],
            [
                3.287944793701172,
                -46.506778717041016,
                933.3021240234375
            ],
            [
                3.349982261657715,
                -47.67005920410156,
                953.3021240234375
            ],
            [
                3.411804676055908,
                -48.833343505859375,
                973.3021240234375
            ],
            [
                3.4733986854553223,
                -49.99663162231445,
                993.3021240234375
            ],
            [
                3.5347678661346436,
                -51.15991973876953,
                1013.3021240234375
            ],
            [
                3.8382363319396973,
                -56.97639083862305,
                1113.3021240234375
            ],
            [
                4.1357011795043945,
                -62.79289627075195,
                1213.3021240234375
            ],
            [
                4.4272589683532715,
                -68.60945129394531,
                1313.3021240234375
            ],
            [
                4.712849140167236,
                -74.42597961425781,
                1413.3021240234375
            ],
            [
                4.994836330413818,
                -80.24234008789063,
                1513.3021240234375
            ],
            [
                5.269535064697266,
                -86.05888366699219,
                1613.3021240234375
            ],
            [
                5.5380167961120605,
                -91.87545776367188,
                1713.3021240234375
            ],
            [
                5.800422668457031,
                -97.69205474853516,
                1813.3021240234375
            ],
            [
                6.055161952972412,
                -103.5086898803711,
                1913.3021240234375
            ],
            [
                6.300781726837158,
                -109.32537078857422,
                2013.3021240234375
            ],
            [
                6.537050724029541,
                -115.14210510253906,
                2113.302001953125
            ],
            [
                6.761009216308594,
                -120.95889282226563,
                2213.302001953125
            ],
            [
                6.969451904296875,
                -126.77566528320313,
                2313.302001953125
            ],
            [
                7.1626296043396,
                -132.59249877929688,
                2413.302001953125
            ],
            [
                7.335010051727295,
                -138.4091339111328,
                2513.302001953125
            ],
            [
                7.482934474945068,
                -144.22618103027344,
                2613.302001953125
            ],
            [
                7.596675872802734,
                -150.0433807373047,
                2713.302001953125
            ],
            [
                7.67745304107666,
                -155.86070251464844,
                2813.302001953125
            ],
            [
                7.7141947746276855,
                -161.6781768798828,
                2913.302001953125
            ],
            [
                7.699929237365723,
                -167.4959259033203,
                3013.302001953125
            ],
            [
                7.630978584289551,
                -173.31370544433594,
                3113.302001953125
            ],
            [
                7.4888200759887695,
                -179.1313018798828,
                3213.302001953125
            ],
            [
                7.273426055908203,
                -184.948974609375,
                3313.302001953125
            ],
            [
                6.97983455657959,
                -190.7667999267578,
                3413.302001953125
            ],
            [
                6.585757732391357,
                -196.5843963623047,
                3513.302001953125
            ],
            [
                6.090377330780029,
                -202.40284729003906,
                3613.302001953125
            ],
            [
                5.477755069732666,
                -208.22134399414063,
                3713.302001953125
            ],
            [
                4.738802909851074,
                -214.04043579101563,
                3813.302001953125
            ],
            [
                3.8707475662231445,
                -219.8602752685547,
                3913.302001953125
            ],
            [
                2.866865396499634,
                -225.6805419921875,
                4013.302001953125
            ],
            [
                1.6925352811813354,
                -231.50131225585938,
                4113.30224609375
            ],
            [
                0.37150952219963074,
                -237.322509765625,
                4213.30224609375
            ],
            [
                -1.1105674505233765,
                -243.14443969726563,
                4313.30224609375
            ],
            [
                -2.7460083961486816,
                -248.9668426513672,
                4413.30224609375
            ],
            [
                -4.559471607208252,
                -254.7889404296875,
                4513.30224609375
            ],
            [
                -6.544193267822266,
                -260.61285400390625,
                4613.30224609375
            ],
            [
                -8.693418502807617,
                -266.43731689453125,
                4713.30224609375
            ],
            [
                -11.024871826171875,
                -272.2633056640625,
                4813.30224609375
            ],
            [
                -13.509428977966309,
                -278.08917236328125,
                4913.30224609375
            ],
            [
                -17.961658477783203,
                -282.9177551269531,
                5013.30224609375
            ],
            [
                -20.842275619506836,
                -288.73492431640625,
                5113.30224609375
            ],
            [
                -23.88568115234375,
                -294.5528869628906,
                5213.30224609375
            ],
            [
                -27.094865798950195,
                -300.3717346191406,
                5313.30224609375
            ],
            [
                -30.467327117919922,
                -306.19036865234375,
                5413.30224609375
            ],
            [
                -34.00017166137695,
                -312.0082092285156,
                5513.30224609375
            ],
            [
                -37.686676025390625,
                -317.82794189453125,
                5613.30224609375
            ],
            [
                -41.52857971191406,
                -323.6474609375,
                5713.30224609375
            ],
            [
                -45.52254867553711,
                -329.4675598144531,
                5813.30224609375
            ],
            [
                -49.65875244140625,
                -335.2877197265625,
                5913.30224609375
            ],
            [
                -53.94264221191406,
                -341.10797119140625,
                6013.30224609375
            ],
            [
                -58.36359405517578,
                -346.9286804199219,
                6113.30224609375
            ],
            [
                -62.91913986206055,
                -352.7491760253906,
                6213.30224609375
            ],
            [
                -67.60565185546875,
                -358.56927490234375,
                6313.30224609375
            ],
            [
                -72.41718292236328,
                -364.38922119140625,
                6413.30224609375
            ],
            [
                -77.34945678710938,
                -370.2087707519531,
                6513.30224609375
            ],
            [
                -82.39893341064453,
                -376.02801513671875,
                6613.30224609375
            ],
            [
                -87.55838012695313,
                -381.846923828125,
                6713.30224609375
            ],
            [
                -92.82109069824219,
                -387.66534423828125,
                6813.30224609375
            ],
            [
                -98.18526458740234,
                -393.48297119140625,
                6913.30224609375
            ],
            [
                -103.64364624023438,
                -399.2998962402344,
                7013.30224609375
            ],
            [
                -109.1898422241211,
                -405.11614990234375,
                7113.30224609375
            ],
            [
                -114.81855773925781,
                -410.9317626953125,
                7213.30224609375
            ],
            [
                -120.5252685546875,
                -416.74664306640625,
                7313.30224609375
            ],
            [
                -126.3044662475586,
                -422.5607604980469,
                7413.30224609375
            ],
            [
                -132.1490936279297,
                -428.374267578125,
                7513.30224609375
            ],
            [
                -138.0576171875,
                -434.18695068359375,
                7613.30224609375
            ],
            [
                -144.0223388671875,
                -439.9990539550781,
                7713.30224609375
            ],
            [
                -150.04086303710938,
                -445.8105163574219,
                7813.30224609375
            ],
            [
                -156.1083526611328,
                -451.6213684082031,
                7913.30224609375
            ],
            [
                -162.22059631347656,
                -457.43170166015625,
                8013.30224609375
            ],
            [
                -168.37449645996094,
                -463.2415466308594,
                8113.30224609375
            ],
            [
                -174.56593322753906,
                -469.0509338378906,
                8213.3017578125
            ],
            [
                -180.79193115234375,
                -474.8598937988281,
                8313.3017578125
            ],
            [
                -187.04974365234375,
                -480.66845703125,
                8413.3017578125
            ],
            [
                -193.3369140625,
                -486.4766540527344,
                8513.3017578125
            ],
            [
                -199.6500244140625,
                -492.2845458984375,
                8613.3017578125
            ],
            [
                -205.9876251220703,
                -498.0921325683594,
                8713.3017578125
            ],
            [
                -212.3472442626953,
                -503.8994140625,
                8813.3017578125
            ],
            [
                -218.7269744873047,
                -509.70648193359375,
                8913.3017578125
            ],
            [
                -225.125244140625,
                -515.5133056640625,
                9013.3017578125
            ],
            [
                -231.5403594970703,
                -521.3200073242188,
                9113.3017578125
            ],
            [
                -237.97076416015625,
                -527.1265258789063,
                9213.3017578125
            ],
            [
                -244.41514587402344,
                -532.932861328125,
                9313.3017578125
            ],
            [
                -250.8722381591797,
                -538.7391357421875,
                9413.3017578125
            ],
            [
                -257.3408508300781,
                -544.5452880859375,
                9513.3017578125
            ],
            [
                -263.820068359375,
                -550.3513793945313,
                9613.3017578125
            ],
            [
                -270.3088684082031,
                -556.1574096679688,
                9713.3017578125
            ],
            [
                -276.806396484375,
                -561.96337890625,
                9813.3017578125
            ],
            [
                -283.31182861328125,
                -567.769287109375,
                9913.3017578125
            ],
            [
                -289.8245544433594,
                -573.5751953125,
                10013.3017578125
            ],
            [
                -302.86920166015625,
                -585.1868896484375,
                10213.3017578125
            ],
            [
                -315.9358825683594,
                -596.798583984375,
                10413.3017578125
            ],
            [
                -329.0204772949219,
                -608.4102172851563,
                10613.3017578125
            ],
            [
                -342.1205139160156,
                -620.0219116210938,
                10813.3017578125
            ],
            [
                -355.2325744628906,
                -631.6336669921875,
                11013.3017578125
            ],
            [
                -368.3550720214844,
                -643.2454223632813,
                11213.3017578125
            ],
            [
                -381.4864501953125,
                -654.8572387695313,
                11413.3017578125
            ],
            [
                -394.6242370605469,
                -666.4691772460938,
                11613.3017578125
            ],
            [
                -407.76800537109375,
                -678.0811157226563,
                11813.3017578125
            ],
            [
                -420.91607666015625,
                -689.6931762695313,
                12013.3017578125
            ],
            [
                -434.0687255859375,
                -701.3052368164063,
                12213.3017578125
            ],
            [
                -447.2243347167969,
                -712.9173583984375,
                12413.3017578125
            ],
            [
                -460.381591796875,
                -724.5296020507813,
                12613.3017578125
            ],
            [
                -473.5406799316406,
                -736.141845703125,
                12813.3017578125
            ],
            [
                -486.70196533203125,
                -747.7540893554688,
                13013.3017578125
            ],
            [
                -499.8645935058594,
                -759.3663940429688,
                13213.3017578125
            ],
            [
                -513.028076171875,
                -770.978759765625,
                13413.3017578125
            ]
        ],
        "zFirstMeasurement": 434.2704
    },
    {
        "E": 14712.939495379476,
        "chi2": 1.4394183158874512,
        "ip": 0.06295811006709043,
        "ipchi2": 11.334135052493615,
        "mass": 139.57,
        "particleId": "pi+",
        "pvx": 0.6431,
        "pvy": 0.0709,
        "pvz": 132.6425,
        "px": -943.11,
        "py": -2019.82,
        "pz": 14542.42,
        "q": 1.0,
        "trajectory": [
            [
                0.6313946843147278,
                0.03488286957144737,
                133.30209350585938
            ],
            [
                -0.6656233668327332,
                -2.7429540157318115,
                153.30209350585938
            ],
            [
                -1.9625511169433594,
                -5.520802974700928,
                173.30209350585938
            ],
            [
                -3.259409189224243,
                -8.298638343811035,
                193.30209350585938
            ],
            [
                -4.556183338165283,
                -11.076473236083984,
                213.30209350585938
            ],
            [
                -5.852867603302002,
                -13.854308128356934,
                233.30209350585938
            ],
            [
                -7.1494574546813965,
                -16.63214111328125,
                253.30209350585938
            ],
            [
                -8.44594669342041,
                -19.40997314453125,
                273.3020935058594
            ],
            [
                -9.742331504821777,
                -22.187803268432617,
                293.3020935058594
            ],
            [
                -11.038660049438477,
                -24.965635299682617,
                313.3020935058594
            ],
            [
                -12.334851264953613,
                -27.74346351623535,
                333.3020935058594
            ],
            [
                -13.630932807922363,
                -30.521289825439453,
                353.3020935058594
            ],
            [
                -14.926900863647461,
                -33.29911804199219,
                373.3020935058594
            ],
            [
                -16.222749710083008,
                -36.07693862915039,
                393.3020935058594
            ],
            [
                -17.518476486206055,
                -38.85476303100586,
                413.3020935058594
            ],
            [
                -18.814077377319336,
                -41.63258361816406,
                433.3020935058594
            ],
            [
                -20.109548568725586,
                -44.410400390625,
                453.3020935058594
            ],
            [
                -21.404888153076172,
                -47.18821716308594,
                473.3020935058594
            ],
            [
                -22.700088500976563,
                -49.96603012084961,
                493.3020935058594
            ],
            [
                -23.995147705078125,
                -52.743839263916016,
                513.3021240234375
            ],
            [
                -25.29006004333496,
                -55.52164840698242,
                533.3021240234375
            ],
            [
                -26.584796905517578,
                -58.29945373535156,
                553.3021240234375
            ],
            [
                -27.879375457763672,
                -61.0772590637207,
                573.3021240234375
            ],
            [
                -29.173791885375977,
                -63.85505676269531,
                593.3021240234375
            ],
            [
                -30.468036651611328,
                -66.63285064697266,
                613.3021240234375
            ],
            [
                -31.76210594177246,
                -69.41064453125,
                633.3021240234375
            ],
            [
                -33.05599594116211,
                -72.18843841552734,
                653.3021240234375
            ],
            [
                -34.349708557128906,
                -74.96622467041016,
                673.3021240234375
            ],
            [
                -35.64323043823242,
                -77.74400329589844,
                693.3021240234375
            ],
            [
                -36.93654251098633,
                -80.52178955078125,
                713.3021240234375
            ],
            [
                -38.229644775390625,
                -83.299560546875,
                733.3021240234375
            ],
            [
                -39.52254104614258,
                -86.07733917236328,
                753.3021240234375
            ],
            [
                -40.815223693847656,
                -88.85511016845703,
                773.3021240234375
            ],
            [
                -42.107696533203125,
                -91.63287353515625,
                793.3021240234375
            ],
            [
                -43.39995193481445,
                -94.41063690185547,
                813.3021240234375
            ],
            [
                -44.691986083984375,
                -97.18839263916016,
                833.3021240234375
            ],
            [
                -45.98379135131836,
                -99.96614837646484,
                853.3021240234375
            ],
            [
                -47.27532958984375,
                -102.74390411376953,
                873.3021240234375
            ],
            [
                -48.566524505615234,
                -105.52165222167969,
                893.3021240234375
            ],
            [
                -49.85748291015625,
                -108.29939270019531,
                913.3021240234375
            ],
            [
                -51.14818572998047,
                -111.07713317871094,
                933.3021240234375
            ],
            [
                -52.438621520996094,
                -113.85487365722656,
                953.3021240234375
            ],
            [
                -53.72878646850586,
                -116.63260650634766,
                973.3021240234375
            ],
            [
                -55.018672943115234,
                -119.41033935546875,
                993.3021240234375
            ],
            [
                -56.30833053588867,
                -122.18806457519531,
                1013.3021240234375
            ],
            [
                -62.752620697021484,
                -136.0767822265625,
                1113.3021240234375
            ],
            [
                -69.1875991821289,
                -149.96556091308594,
                1213.3021240234375
            ],
            [
                -75.61629486083984,
                -163.8543243408203,
                1313.3021240234375
            ],
            [
                -82.03775024414063,
                -177.74317932128906,
                1413.3021240234375
            ],
            [
                -88.453125,
                -191.63206481933594,
                1513.3021240234375
            ],
            [
                -94.86058807373047,
                -205.52093505859375,
                1613.3021240234375
            ],
            [
                -101.26094055175781,
                -219.40965270996094,
                1713.3021240234375
            ],
            [
                -107.65345001220703,
                -233.29818725585938,
                1813.3021240234375
            ],
            [
                -114.03871154785156,
                -247.18646240234375,
                1913.3021240234375
            ],
            [
                -120.41328430175781,
                -261.0744323730469,
                2013.3021240234375
            ],
            [
                -126.77961730957031,
                -274.9617614746094,
                2113.302001953125
            ],
            [
                -133.13003540039063,
                -288.8482360839844,
                2213.302001953125
            ],
            [
                -139.46824645996094,
                -302.7337951660156,
                2313.302001953125
            ],
            [
                -145.78994750976563,
                -316.617919921875,
                2413.302001953125
            ],
            [
                -152.08560180664063,
                -330.5003967285156,
                2513.302001953125
            ],
            [
                -158.356201171875,
                -344.3807678222656,
                2613.302001953125
            ],
            [
                -164.59695434570313,
                -358.2585754394531,
                2713.302001953125
            ],
            [
                -170.79953002929688,
                -372.1337585449219,
                2813.302001953125
            ],
            [
                -176.95143127441406,
                -386.0057373046875,
                2913.302001953125
            ],
            [
                -183.05023193359375,
                -399.8736572265625,
                3013.302001953125
            ],
            [
                -189.0885009765625,
                -413.73785400390625,
                3113.302001953125
            ],
            [
                -195.04312133789063,
                -427.59796142578125,
                3213.302001953125
            ],
            [
                -200.91510009765625,
                -441.4537048339844,
                3313.302001953125
            ],
            [
                -206.68875122070313,
                -455.3038330078125,
                3413.302001953125
            ],
            [
                -212.35128784179688,
                -469.1478271484375,
                3513.302001953125
            ],
            [
                -217.8852081298828,
                -482.986572265625,
                3613.302001953125
            ],
            [
                -223.27786254882813,
                -496.8199462890625,
                3713.302001953125
            ],
            [
                -228.50405883789063,
                -510.6485595703125,
                3813.302001953125
            ],
            [
                -233.54930114746094,
                -524.4697265625,
                3913.302001953125
            ],
            [
                -238.41978454589844,
                -538.28564453125,
                4013.302001953125
            ],
            [
                -243.08045959472656,
                -552.0963745117188,
                4113.30224609375
            ],
            [
                -247.51214599609375,
                -565.9043579101563,
                4213.30224609375
            ],
            [
                -251.7294158935547,
                -579.7069702148438,
                4313.30224609375
            ],
            [
                -255.7236328125,
                -593.5050659179688,
                4413.30224609375
            ],
            [
                -259.483154296875,
                -607.3011474609375,
                4513.30224609375
            ],
            [
                -263.00616455078125,
                -621.0960693359375,
                4613.30224609375
            ],
            [
                -266.2998962402344,
                -634.8892211914063,
                4713.30224609375
            ],
            [
                -269.35235595703125,
                -648.6781005859375,
                4813.30224609375
            ],
            [
                -270.24755859375,
                -662.76953125,
                4913.30224609375
            ],
            [
                -272.8030700683594,
                -676.5517578125,
                5013.30224609375
            ],
            [
                -275.1195068359375,
                -690.3316650390625,
                5113.30224609375
            ],
            [
                -277.22491455078125,
                -704.1109619140625,
                5213.30224609375
            ],
            [
                -279.10693359375,
                -717.8905639648438,
                5313.30224609375
            ],
            [
                -280.7709655761719,
                -731.6693115234375,
                5413.30224609375
            ],
            [
                -282.22271728515625,
                -745.447509765625,
                5513.30224609375
            ],
            [
                -283.46539306640625,
                -759.223388671875,
                5613.30224609375
            ],
            [
                -284.50762939453125,
                -772.9986572265625,
                5713.30224609375
            ],
            [
                -285.3366394042969,
                -786.774169921875,
                5813.30224609375
            ],
            [
                -285.9801330566406,
                -800.548583984375,
                5913.30224609375
            ],
            [
                -286.41912841796875,
                -814.3217163085938,
                6013.30224609375
            ],
            [
                -286.6735534667969,
                -828.0943603515625,
                6113.30224609375
            ],
            [
                -286.7436828613281,
                -841.8668823242188,
                6213.30224609375
            ],
            [
                -286.6320495605469,
                -855.6381225585938,
                6313.30224609375
            ],
            [
                -286.345458984375,
                -869.4083862304688,
                6413.30224609375
            ],
            [
                -285.8923645019531,
                -883.1778564453125,
                6513.30224609375
            ],
            [
                -285.2731018066406,
                -896.9461669921875,
                6613.30224609375
            ],
            [
                -284.5001220703125,
                -910.713134765625,
                6713.30224609375
            ],
            [
                -283.5859375,
                -924.478759765625,
                6813.30224609375
            ],
            [
                -282.5301513671875,
                -938.2431030273438,
                6913.30224609375
            ],
            [
                -281.3470458984375,
                -952.0059814453125,
                7013.30224609375
            ],
            [
                -280.04681396484375,
                -965.7672119140625,
                7113.30224609375
            ],
            [
                -278.6376647949219,
                -979.5266723632813,
                7213.30224609375
            ],
            [
                -277.1300354003906,
                -993.2843017578125,
                7313.30224609375
            ],
            [
                -275.530517578125,
                -1007.0401611328125,
                7413.30224609375
            ],
            [
                -273.8518371582031,
                -1020.7940673828125,
                7513.30224609375
            ],
            [
                -272.0964050292969,
                -1034.546142578125,
                7613.30224609375
            ],
            [
                -270.2766418457031,
                -1048.2962646484375,
                7713.30224609375
            ],
            [
                -268.3968505859375,
                -1062.04443359375,
                7813.30224609375
            ],
            [
                -266.4637756347656,
                -1075.790771484375,
                7913.30224609375
            ],
            [
                -264.4834289550781,
                -1089.5352783203125,
                8013.30224609375
            ],
            [
                -262.4600524902344,
                -1103.2779541015625,
                8113.30224609375
            ],
            [
                -260.3990173339844,
                -1117.01904296875,
                8213.3017578125
            ],
            [
                -258.3041687011719,
                -1130.7584228515625,
                8313.3017578125
            ],
            [
                -256.17877197265625,
                -1144.496337890625,
                8413.3017578125
            ],
            [
                -254.02581787109375,
                -1158.232666015625,
                8513.3017578125
            ],
            [
                -251.84906005859375,
                -1171.9676513671875,
                8613.3017578125
            ],
            [
                -249.65011596679688,
                -1185.701416015625,
                8713.3017578125
            ],
            [
                -247.43153381347656,
                -1199.433837890625,
                8813.3017578125
            ],
            [
                -245.19522094726563,
                -1213.1651611328125,
                8913.3017578125
            ],
            [
                -242.9427947998047,
                -1226.8953857421875,
                9013.3017578125
            ],
            [
                -240.67587280273438,
                -1240.6246337890625,
                9113.3017578125
            ],
            [
                -238.39593505859375,
                -1254.3529052734375,
                9213.3017578125
            ],
            [
                -236.10421752929688,
                -1268.0802001953125,
                9313.3017578125
            ],
            [
                -233.80186462402344,
                -1281.8067626953125,
                9413.3017578125
            ],
            [
                -231.4899444580078,
                -1295.532470703125,
                9513.3017578125
            ],
            [
                -229.16928100585938,
                -1309.2574462890625,
                9613.3017578125
            ],
            [
                -226.8407745361328,
                -1322.9818115234375,
                9713.3017578125
            ],
            [
                -224.50515747070313,
                -1336.7054443359375,
                9813.3017578125
            ],
            [
                -222.16311645507813,
                -1350.4285888671875,
                9913.3017578125
            ],
            [
                -219.81521606445313,
                -1364.151123046875,
                10013.3017578125
            ],
            [
                -215.10401916503906,
                -1391.5946044921875,
                10213.3017578125
            ],
            [
                -210.3752899169922,
                -1419.0364990234375,
                10413.3017578125
            ],
            [
                -205.63238525390625,
                -1446.476806640625,
                10613.3017578125
            ],
            [
                -200.87741088867188,
                -1473.9158935546875,
                10813.3017578125
            ],
            [
                -196.113037109375,
                -1501.35400390625,
                11013.3017578125
            ],
            [
                -191.340576171875,
                -1528.7911376953125,
                11213.3017578125
            ],
            [
                -186.56130981445313,
                -1556.2274169921875,
                11413.3017578125
            ],
            [
                -181.7771453857422,
                -1583.6632080078125,
                11613.3017578125
            ],
            [
                -176.9884796142578,
                -1611.098388671875,
                11813.3017578125
            ],
            [
                -172.19650268554688,
                -1638.5330810546875,
                12013.3017578125
            ],
            [
                -167.4011993408203,
                -1665.9674072265625,
                12213.3017578125
            ],
            [
                -162.6037139892578,
                -1693.4014892578125,
                12413.3017578125
            ],
            [
                -157.80503845214844,
                -1720.83544921875,
                12613.3017578125
            ],
            [
                -153.00497436523438,
                -1748.26904296875,
                12813.3017578125
            ],
            [
                -148.203369140625,
                -1775.70263671875,
                13013.3017578125
            ],
            [
                -143.40086364746094,
                -1803.135986328125,
                13213.3017578125
            ],
            [
                -138.59779357910156,
                -1830.5693359375,
                13413.3017578125
            ]
        ],
        "zFirstMeasurement": 199.2057
    },
    {
        "E": 5026.018273101008,
        "chi2": 1.0267267227172852,
        "ip": 0.12424835047500395,
        "ipchi2": 7.803749576769256,
        "mass": 139.57018,
        "particleId": "pi-",
        "pvx": 0.5805,
        "pvy": 0.1452,
        "pvz": 14.5022,
        "px": -302.92464178016075,
        "py": -259.5483623877772,
        "pz": 5008.2183613920215,
        "q": -1.0,
        "trajectory": [
            [
                7.563849449157715,
                6.188101768493652,
                -100.0
            ],
            [
                7.2616496086120605,
                5.928978443145752,
                -95.0
            ],
            [
                6.959441661834717,
                5.669855117797852,
                -90.0
            ],
            [
                6.657225131988525,
                5.410732269287109,
                -85.0
            ],
            [
                6.3550004959106445,
                5.151608943939209,
                -80.0
            ],
            [
                6.052833557128906,
                4.892487049102783,
                -75.0
            ],
            [
                5.750581741333008,
                4.633364200592041,
                -70.0
            ],
            [
                5.448322296142578,
                4.374240875244141,
                -65.0
            ],
            [
                5.146054267883301,
                4.115118026733398,
                -60.0
            ],
            [
                4.843778610229492,
                3.855994939804077,
                -55.0
            ],
            [
                4.541494369506836,
                3.596872091293335,
                -50.0
            ],
            [
                4.239201545715332,
                3.3377492427825928,
                -45.0
            ],
            [
                3.9368999004364014,
                3.0786263942718506,
                -40.0
            ],
            [
                3.634589910507202,
                2.8195035457611084,
                -35.0
            ],
            [
                3.332270622253418,
                2.5603809356689453,
                -30.0
            ],
            [
                3.029942512512207,
                2.301258087158203,
                -25.0
            ],
            [
                2.727604866027832,
                2.04213547706604,
                -20.0
            ],
            [
                2.425257682800293,
                1.7830129861831665,
                -15.0
            ],
            [
                2.122901201248169,
                1.5238903760910034,
                -10.0
            ],
            [
                1.8205348253250122,
                1.2647677659988403,
                -5.0
            ],
            [
                1.5181589126586914,
                1.0056452751159668,
                0.0
            ],
            [
                1.2157728672027588,
                0.7465227842330933,
                5.0
            ],
            [
                0.9133766889572144,
                0.4874002933502197,
                10.0
            ],
            [
                0.610970139503479,
                0.22827781736850739,
                15.0
            ],
            [
                0.3085530996322632,
                -0.03084464929997921,
                20.0
            ],
            [
                0.006125293206423521,
                -0.2899670898914337,
                25.0
            ],
            [
                -0.29631340503692627,
                -0.5490895509719849,
                30.0
            ],
            [
                -0.5987631678581238,
                -0.8082119822502136,
                35.0
            ],
            [
                -0.9012242555618286,
                -1.0673344135284424,
                40.0
            ],
            [
                -1.2036967277526855,
                -1.3264567852020264,
                45.0
            ],
            [
                -1.5061808824539185,
                -1.5855791568756104,
                50.0
            ],
            [
                -1.808676838874817,
                -1.8447016477584839,
                55.0
            ],
            [
                -2.11118483543396,
                -2.1038239002227783,
                60.0
            ],
            [
                -2.4137048721313477,
                -2.3629462718963623,
                65.0
            ],
            [
                -2.7162373065948486,
                -2.6220688819885254,
                70.0
            ],
            [
                -3.018782377243042,
                -2.8811912536621094,
                75.0
            ],
            [
                -3.3213400840759277,
                -3.1403136253356934,
                80.0
            ],
            [
                -3.6239614486694336,
                -3.399468183517456,
                85.0
            ],
            [
                -3.926543951034546,
                -3.65859055519104,
                90.0
            ],
            [
                -4.229138374328613,
                -3.917712926864624,
                95.0
            ],
            [
                -4.531744480133057,
                -4.176835536956787,
                100.0
            ],
            [
                -5.7422919273376465,
                -5.213324546813965,
                120.0
            ],
            [
                -6.953047752380371,
                -6.249814033508301,
                140.0
            ],
            [
                -8.164026260375977,
                -7.286303997039795,
                160.0
            ],
            [
                -9.37524127960205,
                -8.322793960571289,
                180.0
            ],
            [
                -10.586708068847656,
                -9.359285354614258,
                200.0
            ],
            [
                -11.798440933227539,
                -10.395776748657227,
                220.0
            ],
            [
                -13.010353088378906,
                -11.432268142700195,
                240.0
            ],
            [
                -14.222590446472168,
                -12.468761444091797,
                260.0
            ],
            [
                -15.435111045837402,
                -13.505255699157715,
                280.0
            ],
            [
                -16.647924423217773,
                -14.541751861572266,
                300.0
            ],
            [
                -17.861042022705078,
                -15.578248977661133,
                320.0
            ],
            [
                -19.074472427368164,
                -16.614748001098633,
                340.0
            ],
            [
                -20.28823471069336,
                -17.651248931884766,
                360.0
            ],
            [
                -21.502336502075195,
                -18.6877498626709,
                380.0
            ],
            [
                -22.716787338256836,
                -19.724254608154297,
                400.0
            ],
            [
                -23.931612014770508,
                -20.76076316833496,
                420.0
            ],
            [
                -25.14681625366211,
                -21.797273635864258,
                440.0
            ],
            [
                -26.362407684326172,
                -22.833786010742188,
                460.0
            ],
            [
                -27.578397750854492,
                -23.870302200317383,
                480.0
            ],
            [
                -28.794797897338867,
                -24.90682029724121,
                500.0
            ],
            [
                -30.011634826660156,
                -25.943342208862305,
                520.0
            ],
            [
                -31.228906631469727,
                -26.979867935180664,
                540.0
            ],
            [
                -32.446624755859375,
                -28.01639747619629,
                560.0
            ],
            [
                -33.664825439453125,
                -29.05293083190918,
                580.0
            ],
            [
                -34.88356399536133,
                -30.089466094970703,
                600.0
            ],
            [
                -36.102813720703125,
                -31.126007080078125,
                620.0
            ],
            [
                -37.32257843017578,
                -32.16255187988281,
                640.0
            ],
            [
                -38.542869567871094,
                -33.19910430908203,
                660.0
            ],
            [
                -39.76371383666992,
                -34.235660552978516,
                680.0
            ],
            [
                -40.98515701293945,
                -35.272220611572266,
                700.0
            ],
            [
                -42.207149505615234,
                -36.308780670166016,
                720.0
            ],
            [
                -43.429725646972656,
                -37.3453483581543,
                740.0
            ],
            [
                -44.653053283691406,
                -38.381919860839844,
                760.0
            ],
            [
                -45.87701416015625,
                -39.41849136352539,
                780.0
            ],
            [
                -47.101619720458984,
                -40.45507049560547,
                800.0
            ],
            [
                -48.32686233520508,
                -41.49165344238281,
                820.0
            ],
            [
                -49.55277633666992,
                -42.52824020385742,
                840.0
            ],
            [
                -50.77937316894531,
                -43.5648307800293,
                860.0
            ],
            [
                -52.00666809082031,
                -44.6014289855957,
                880.0
            ],
            [
                -53.234676361083984,
                -45.638031005859375,
                900.0
            ],
            [
                -54.46343994140625,
                -46.674644470214844,
                920.0
            ],
            [
                -55.69301986694336,
                -47.711273193359375,
                940.0
            ],
            [
                -56.92336654663086,
                -48.747901916503906,
                960.0
            ],
            [
                -58.15449142456055,
                -49.78453826904297,
                980.0
            ],
            [
                -59.38641357421875,
                -50.8211784362793,
                1000.0
            ],
            [
                -65.55857849121094,
                -56.004390716552734,
                1100.0
            ],
            [
                -71.75723266601563,
                -61.187286376953125,
                1200.0
            ],
            [
                -77.9741439819336,
                -66.37040710449219,
                1300.0
            ],
            [
                -84.21237182617188,
                -71.55351257324219,
                1400.0
            ],
            [
                -90.47164154052734,
                -76.7364730834961,
                1500.0
            ],
            [
                -96.75045013427734,
                -81.91943359375,
                1600.0
            ],
            [
                -103.05123138427734,
                -87.10260009765625,
                1700.0
            ],
            [
                -109.37792205810547,
                -92.28605651855469,
                1800.0
            ],
            [
                -115.73143768310547,
                -97.46990966796875,
                1900.0
            ],
            [
                -122.11750793457031,
                -102.65436553955078,
                2000.0
            ],
            [
                -128.54241943359375,
                -107.8392105102539,
                2100.0
            ],
            [
                -135.0150146484375,
                -113.02510833740234,
                2200.0
            ],
            [
                -141.52728271484375,
                -118.21212005615234,
                2300.0
            ],
            [
                -148.10848999023438,
                -123.40083312988281,
                2400.0
            ],
            [
                -154.7648162841797,
                -128.59164428710938,
                2500.0
            ],
            [
                -161.5211944580078,
                -133.7850799560547,
                2600.0
            ],
            [
                -168.3802490234375,
                -138.9816131591797,
                2700.0
            ],
            [
                -175.3702392578125,
                -144.18162536621094,
                2800.0
            ],
            [
                -182.52182006835938,
                -149.3863067626953,
                2900.0
            ],
            [
                -189.86041259765625,
                -154.59605407714844,
                3000.0
            ],
            [
                -197.3983917236328,
                -159.81103515625,
                3100.0
            ],
            [
                -205.1956329345703,
                -165.0305633544922,
                3200.0
            ],
            [
                -213.25950622558594,
                -170.25775146484375,
                3300.0
            ],
            [
                -221.65162658691406,
                -175.49224853515625,
                3400.0
            ],
            [
                -230.39820861816406,
                -180.73538208007813,
                3500.0
            ],
            [
                -239.51409912109375,
                -185.9890899658203,
                3600.0
            ],
            [
                -249.04849243164063,
                -191.25180053710938,
                3700.0
            ],
            [
                -259.064697265625,
                -196.52366638183594,
                3800.0
            ],
            [
                -269.5464782714844,
                -201.80734252929688,
                3900.0
            ],
            [
                -280.611083984375,
                -207.1035919189453,
                4000.0
            ],
            [
                -292.1650390625,
                -212.4123992919922,
                4100.0
            ],
            [
                -304.35919189453125,
                -217.72950744628906,
                4200.0
            ],
            [
                -317.165283203125,
                -223.05728149414063,
                4300.0
            ],
            [
                -330.58319091796875,
                -228.3990020751953,
                4400.0
            ],
            [
                -344.63458251953125,
                -233.7500762939453,
                4500.0
            ],
            [
                -359.3229675292969,
                -239.10943603515625,
                4600.0
            ],
            [
                -374.69744873046875,
                -244.47474670410156,
                4700.0
            ],
            [
                -392.1993408203125,
                -259.35711669921875,
                4800.0
            ],
            [
                -408.8143310546875,
                -264.89007568359375,
                4900.0
            ],
            [
                -426.0696716308594,
                -270.4250793457031,
                5000.0
            ],
            [
                -443.9964294433594,
                -275.97076416015625,
                5100.0
            ],
            [
                -462.5680847167969,
                -281.5191650390625,
                5200.0
            ],
            [
                -481.7847900390625,
                -287.0751037597656,
                5300.0
            ],
            [
                -501.6493835449219,
                -292.6280517578125,
                5400.0
            ],
            [
                -522.13232421875,
                -298.18157958984375,
                5500.0
            ],
            [
                -543.2168579101563,
                -303.7454528808594,
                5600.0
            ],
            [
                -564.927978515625,
                -309.3048095703125,
                5700.0
            ],
            [
                -587.2416381835938,
                -314.867431640625,
                5800.0
            ],
            [
                -610.1205444335938,
                -320.4273986816406,
                5900.0
            ],
            [
                -633.5903930664063,
                -325.9875793457031,
                6000.0
            ],
            [
                -657.6151733398438,
                -331.5459899902344,
                6100.0
            ],
            [
                -682.188720703125,
                -337.09771728515625,
                6200.0
            ],
            [
                -707.2872314453125,
                -342.64434814453125,
                6300.0
            ],
            [
                -732.892578125,
                -348.1851501464844,
                6400.0
            ],
            [
                -758.9876708984375,
                -353.7181701660156,
                6500.0
            ],
            [
                -785.5578002929688,
                -359.2427978515625,
                6600.0
            ],
            [
                -812.5870361328125,
                -364.7573547363281,
                6700.0
            ],
            [
                -840.0379028320313,
                -370.2620544433594,
                6800.0
            ],
            [
                -867.9098510742188,
                -375.7534484863281,
                6900.0
            ],
            [
                -896.1691284179688,
                -381.23162841796875,
                7000.0
            ],
            [
                -924.7969360351563,
                -386.6966552734375,
                7100.0
            ],
            [
                -953.7628173828125,
                -392.1492004394531,
                7200.0
            ],
            [
                -983.051513671875,
                -397.5883483886719,
                7300.0
            ],
            [
                -1012.6473388671875,
                -403.01336669921875,
                7400.0
            ],
            [
                -1042.5103759765625,
                -408.4266662597656,
                7500.0
            ],
            [
                -1072.638671875,
                -413.8258056640625,
                7600.0
            ],
            [
                -1103.002197265625,
                -419.2132263183594,
                7700.0
            ],
            [
                -1133.5888671875,
                -424.5892028808594,
                7800.0
            ],
            [
                -1164.3787841796875,
                -429.95428466796875,
                7900.0
            ],
            [
                -1195.3531494140625,
                -435.3094787597656,
                8000.0
            ],
            [
                -1226.5009765625,
                -440.6553649902344,
                8100.0
            ],
            [
                -1257.8011474609375,
                -445.9932861328125,
                8200.0
            ],
            [
                -1289.2431640625,
                -451.3239440917969,
                8300.0
            ],
            [
                -1320.8153076171875,
                -456.64801025390625,
                8400.0
            ],
            [
                -1352.50634765625,
                -461.96636962890625,
                8500.0
            ],
            [
                -1384.30126953125,
                -467.2798767089844,
                8600.0
            ],
            [
                -1416.19384765625,
                -472.5890808105469,
                8700.0
            ],
            [
                -1448.17431640625,
                -477.8946533203125,
                8800.0
            ],
            [
                -1480.2337646484375,
                -483.1973571777344,
                8900.0
            ],
            [
                -1512.36572265625,
                -488.49755859375,
                9000.0
            ],
            [
                -1544.5631103515625,
                -493.79583740234375,
                9100.0
            ],
            [
                -1576.8192138671875,
                -499.0926513671875,
                9200.0
            ],
            [
                -1609.1285400390625,
                -504.38836669921875,
                9300.0
            ],
            [
                -1641.4859619140625,
                -509.6833190917969,
                9400.0
            ],
            [
                -1673.8863525390625,
                -514.977783203125,
                9500.0
            ],
            [
                -1706.3258056640625,
                -520.2720336914063,
                9600.0
            ],
            [
                -1738.80029296875,
                -525.5662231445313,
                9700.0
            ],
            [
                -1771.3065185546875,
                -530.8604736328125,
                9800.0
            ],
            [
                -1803.841064453125,
                -536.155029296875,
                9900.0
            ],
            [
                -1836.4013671875,
                -541.4498901367188,
                10000.0
            ],
            [
                -1901.5888671875,
                -552.0409545898438,
                10200.0
            ],
            [
                -1966.851806640625,
                -562.634033203125,
                10400.0
            ],
            [
                -2032.17529296875,
                -573.2295532226563,
                10600.0
            ],
            [
                -2097.548828125,
                -583.8272705078125,
                10800.0
            ],
            [
                -2162.960693359375,
                -594.4274291992188,
                11000.0
            ],
            [
                -2228.40478515625,
                -605.0298461914063,
                11200.0
            ],
            [
                -2293.8759765625,
                -615.6342163085938,
                11400.0
            ],
            [
                -2359.367431640625,
                -626.2407836914063,
                11600.0
            ],
            [
                -2424.8740234375,
                -636.8491821289063,
                11800.0
            ],
            [
                -2490.392822265625,
                -647.4591674804688,
                12000.0
            ],
            [
                -2555.924072265625,
                -658.0704956054688,
                12200.0
            ],
            [
                -2621.463134765625,
                -668.6831665039063,
                12400.0
            ],
            [
                -2687.006591796875,
                -679.2973022460938,
                12600.0
            ],
            [
                -2752.55322265625,
                -689.912353515625,
                12800.0
            ],
            [
                -2818.10546875,
                -700.5279541015625,
                13000.0
            ],
            [
                -2883.6611328125,
                -711.144287109375,
                13200.0
            ],
            [
                -2949.218505859375,
                -721.7612915039063,
                13400.0
            ]
        ],
        "zFirstMeasurement": 139.4112
    },
    {
        "E": 3122.880448039155,
        "chi2": 1.0866340398788452,
        "ip": 1.0225943691802735,
        "ipchi2": 236.40015339529054,
        "mass": 139.57018,
        "particleId": "pi+",
        "pvx": 0.6431,
        "pvy": 0.0709,
        "pvz": 132.6425,
        "px": -129.90409758984165,
        "py": 227.65102544947953,
        "pz": 3108.730029069937,
        "q": 1.0,
        "trajectory": [
            [
                9.382207870483398,
                -16.752540588378906,
                -100.0
            ],
            [
                9.17248249053955,
                -16.386383056640625,
                -95.0
            ],
            [
                8.962770462036133,
                -16.020227432250977,
                -90.0
            ],
            [
                8.753071784973145,
                -15.654071807861328,
                -85.0
            ],
            [
                8.543391227722168,
                -15.28791618347168,
                -80.0
            ],
            [
                8.333724975585938,
                -14.921760559082031,
                -75.0
            ],
            [
                8.124072074890137,
                -14.5556058883667,
                -70.0
            ],
            [
                7.91443395614624,
                -14.18945026397705,
                -65.0
            ],
            [
                7.70481014251709,
                -13.823295593261719,
                -60.0
            ],
            [
                7.495201110839844,
                -13.457140922546387,
                -55.0
            ],
            [
                7.285606861114502,
                -13.090987205505371,
                -50.0
            ],
            [
                7.076027870178223,
                -12.724832534790039,
                -45.0
            ],
            [
                6.866463661193848,
                -12.358678817749023,
                -40.0
            ],
            [
                6.656915187835693,
                -11.992524147033691,
                -35.0
            ],
            [
                6.44738245010376,
                -11.626370429992676,
                -30.0
            ],
            [
                6.237864971160889,
                -11.260217666625977,
                -25.0
            ],
            [
                6.028364181518555,
                -10.894063949584961,
                -20.0
            ],
            [
                5.818879127502441,
                -10.527910232543945,
                -15.0
            ],
            [
                5.609410762786865,
                -10.161757469177246,
                -10.0
            ],
            [
                5.399958610534668,
                -9.795604705810547,
                -5.0
            ],
            [
                5.190523624420166,
                -9.429451942443848,
                0.0
            ],
            [
                4.981105804443359,
                -9.063299179077148,
                5.0
            ],
            [
                4.77170467376709,
                -8.697147369384766,
                10.0
            ],
            [
                4.562321186065674,
                -8.330995559692383,
                15.0
            ],
            [
                4.352955341339111,
                -7.964843273162842,
                20.0
            ],
            [
                4.143607139587402,
                -7.598691463470459,
                25.0
            ],
            [
                3.9341483116149902,
                -7.232539653778076,
                30.0
            ],
            [
                3.7248542308807373,
                -6.866387844085693,
                35.0
            ],
            [
                3.5155768394470215,
                -6.500236988067627,
                40.0
            ],
            [
                3.3063158988952637,
                -6.134085655212402,
                45.0
            ],
            [
                3.097072124481201,
                -5.767934799194336,
                50.0
            ],
            [
                2.887845516204834,
                -5.401784420013428,
                55.0
            ],
            [
                2.6786367893218994,
                -5.035633563995361,
                60.0
            ],
            [
                2.4694457054138184,
                -4.669483661651611,
                65.0
            ],
            [
                2.260272741317749,
                -4.303333282470703,
                70.0
            ],
            [
                2.051118850708008,
                -3.937183380126953,
                75.0
            ],
            [
                1.8419842720031738,
                -3.571033477783203,
                80.0
            ],
            [
                1.6328682899475098,
                -3.2048838138580322,
                85.0
            ],
            [
                1.4237712621688843,
                -2.8387343883514404,
                90.0
            ],
            [
                1.214693546295166,
                -2.4725852012634277,
                95.0
            ],
            [
                1.0056356191635132,
                -2.106436014175415,
                100.0
            ],
            [
                0.16960828006267548,
                -0.6418417692184448,
                120.0
            ],
            [
                -0.666074275970459,
                0.8227496147155762,
                140.0
            ],
            [
                -1.5013887882232666,
                2.2873380184173584,
                160.0
            ],
            [
                -2.3363659381866455,
                3.7518999576568604,
                180.0
            ],
            [
                -3.170896291732788,
                5.216482162475586,
                200.0
            ],
            [
                -4.005029678344727,
                6.681061744689941,
                220.0
            ],
            [
                -4.838740348815918,
                8.145638465881348,
                240.0
            ],
            [
                -5.672002792358398,
                9.610211372375488,
                260.0
            ],
            [
                -6.504791736602783,
                11.074782371520996,
                280.0
            ],
            [
                -7.337082386016846,
                12.539349555969238,
                300.0
            ],
            [
                -8.168848991394043,
                14.003913879394531,
                320.0
            ],
            [
                -9.000303268432617,
                15.468475341796875,
                340.0
            ],
            [
                -9.831095695495605,
                16.933032989501953,
                360.0
            ],
            [
                -10.661338806152344,
                18.3975887298584,
                380.0
            ],
            [
                -11.491015434265137,
                19.862140655517578,
                400.0
            ],
            [
                -12.32010269165039,
                21.326690673828125,
                420.0
            ],
            [
                -13.148585319519043,
                22.791236877441406,
                440.0
            ],
            [
                -13.976447105407715,
                24.255779266357422,
                460.0
            ],
            [
                -14.803655624389648,
                25.720319747924805,
                480.0
            ],
            [
                -15.630196571350098,
                27.184856414794922,
                500.0
            ],
            [
                -16.456024169921875,
                28.649389266967773,
                520.0
            ],
            [
                -17.281097412109375,
                30.11391830444336,
                540.0
            ],
            [
                -18.10542869567871,
                31.57844352722168,
                560.0
            ],
            [
                -18.928997039794922,
                33.042964935302734,
                580.0
            ],
            [
                -19.75178337097168,
                34.507484436035156,
                600.0
            ],
            [
                -20.573745727539063,
                35.97200393676758,
                620.0
            ],
            [
                -21.394880294799805,
                37.43651580810547,
                640.0
            ],
            [
                -22.215166091918945,
                38.90102767944336,
                660.0
            ],
            [
                -23.03458023071289,
                40.365535736083984,
                680.0
            ],
            [
                -23.852983474731445,
                41.83003616333008,
                700.0
            ],
            [
                -24.670469284057617,
                43.29453659057617,
                720.0
            ],
            [
                -25.487001419067383,
                44.759029388427734,
                740.0
            ],
            [
                -26.30255889892578,
                46.2235221862793,
                760.0
            ],
            [
                -27.11712074279785,
                47.688011169433594,
                780.0
            ],
            [
                -27.930641174316406,
                49.152496337890625,
                800.0
            ],
            [
                -28.742883682250977,
                50.616973876953125,
                820.0
            ],
            [
                -29.554025650024414,
                52.081451416015625,
                840.0
            ],
            [
                -30.363910675048828,
                53.54594421386719,
                860.0
            ],
            [
                -31.17255210876465,
                55.01044464111328,
                880.0
            ],
            [
                -31.97999382019043,
                56.474945068359375,
                900.0
            ],
            [
                -32.78633117675781,
                57.9394416809082,
                920.0
            ],
            [
                -33.591434478759766,
                59.4039421081543,
                940.0
            ],
            [
                -34.3952751159668,
                60.868438720703125,
                960.0
            ],
            [
                -35.19783020019531,
                62.33293914794922,
                980.0
            ],
            [
                -35.99907302856445,
                63.79744338989258,
                1000.0
            ],
            [
                -39.987762451171875,
                71.1199951171875,
                1100.0
            ],
            [
                -43.94110107421875,
                78.44257354736328,
                1200.0
            ],
            [
                -47.8521842956543,
                85.76588439941406,
                1300.0
            ],
            [
                -51.73514175415039,
                93.08898162841797,
                1400.0
            ],
            [
                -55.58621597290039,
                100.41226959228516,
                1500.0
            ],
            [
                -59.40121078491211,
                107.73577880859375,
                1600.0
            ],
            [
                -63.18024826049805,
                115.0591812133789,
                1700.0
            ],
            [
                -66.92183685302734,
                122.3823471069336,
                1800.0
            ],
            [
                -70.62418365478516,
                129.70509338378906,
                1900.0
            ],
            [
                -74.27215576171875,
                137.02731323242188,
                2000.0
            ],
            [
                -77.87039184570313,
                144.34864807128906,
                2100.0
            ],
            [
                -81.40357208251953,
                151.66917419433594,
                2200.0
            ],
            [
                -84.8367919921875,
                158.9888916015625,
                2300.0
            ],
            [
                -88.19068145751953,
                166.30674743652344,
                2400.0
            ],
            [
                -91.40779113769531,
                173.6227569580078,
                2500.0
            ],
            [
                -94.49459838867188,
                180.9362030029297,
                2600.0
            ],
            [
                -97.41107177734375,
                188.24716186523438,
                2700.0
            ],
            [
                -100.1250991821289,
                195.5552215576172,
                2800.0
            ],
            [
                -102.58432006835938,
                202.8597869873047,
                2900.0
            ],
            [
                -104.7498550415039,
                210.1604461669922,
                3000.0
            ],
            [
                -106.59660339355469,
                217.45785522460938,
                3100.0
            ],
            [
                -108.07968139648438,
                224.7522735595703,
                3200.0
            ],
            [
                -109.03653717041016,
                232.0435791015625,
                3300.0
            ],
            [
                -109.55360412597656,
                239.332763671875,
                3400.0
            ],
            [
                -109.50048065185547,
                246.6199493408203,
                3500.0
            ],
            [
                -108.85133361816406,
                253.90432739257813,
                3600.0
            ],
            [
                -107.50970458984375,
                261.1916809082031,
                3700.0
            ],
            [
                -105.4508056640625,
                268.48114013671875,
                3800.0
            ],
            [
                -102.53959655761719,
                275.7743835449219,
                3900.0
            ],
            [
                -98.85768127441406,
                283.0721130371094,
                4000.0
            ],
            [
                -94.21601104736328,
                290.37652587890625,
                4100.0
            ],
            [
                -88.68553924560547,
                297.6936950683594,
                4200.0
            ],
            [
                -82.03504180908203,
                305.0220031738281,
                4300.0
            ],
            [
                -74.48857116699219,
                312.3567199707031,
                4400.0
            ],
            [
                -65.90839385986328,
                319.7032775878906,
                4500.0
            ],
            [
                -56.25349807739258,
                327.0643310546875,
                4600.0
            ],
            [
                -45.61347198486328,
                334.43487548828125,
                4700.0
            ],
            [
                -33.84543228149414,
                341.8135070800781,
                4800.0
            ],
            [
                -17.664371490478516,
                344.4800720214844,
                4900.0
            ],
            [
                -3.7161102294921875,
                351.92169189453125,
                5000.0
            ],
            [
                11.309720993041992,
                359.39544677734375,
                5100.0
            ],
            [
                27.368438720703125,
                366.8708190917969,
                5200.0
            ],
            [
                44.47747039794922,
                374.35333251953125,
                5300.0
            ],
            [
                62.59691619873047,
                381.829833984375,
                5400.0
            ],
            [
                81.75186157226563,
                389.302978515625,
                5500.0
            ],
            [
                101.8568115234375,
                396.8019104003906,
                5600.0
            ],
            [
                122.9708251953125,
                404.28692626953125,
                5700.0
            ],
            [
                145.06629943847656,
                411.7718811035156,
                5800.0
            ],
            [
                168.08314514160156,
                419.24615478515625,
                5900.0
            ],
            [
                192.0659637451172,
                426.72735595703125,
                6000.0
            ],
            [
                216.95860290527344,
                434.2004089355469,
                6100.0
            ],
            [
                242.7398681640625,
                441.6554260253906,
                6200.0
            ],
            [
                269.4011535644531,
                449.0960693359375,
                6300.0
            ],
            [
                296.8973083496094,
                456.52020263671875,
                6400.0
            ],
            [
                325.2089538574219,
                463.921630859375,
                6500.0
            ],
            [
                354.3042907714844,
                471.3037414550781,
                6600.0
            ],
            [
                384.16314697265625,
                478.65679931640625,
                6700.0
            ],
            [
                414.7311706542969,
                485.9784851074219,
                6800.0
            ],
            [
                446.0050048828125,
                493.26702880859375,
                6900.0
            ],
            [
                477.9309387207031,
                500.51922607421875,
                7000.0
            ],
            [
                510.4703063964844,
                507.7337646484375,
                7100.0
            ],
            [
                543.5802612304688,
                514.9102172851563,
                7200.0
            ],
            [
                577.2308959960938,
                522.0466918945313,
                7300.0
            ],
            [
                611.3994750976563,
                529.1436767578125,
                7400.0
            ],
            [
                646.0142211914063,
                536.2033081054688,
                7500.0
            ],
            [
                681.0748901367188,
                543.2221069335938,
                7600.0
            ],
            [
                716.52978515625,
                550.2029418945313,
                7700.0
            ],
            [
                752.3596801757813,
                557.1463623046875,
                7800.0
            ],
            [
                788.5289916992188,
                564.0550537109375,
                7900.0
            ],
            [
                825.0049438476563,
                570.9314575195313,
                8000.0
            ],
            [
                861.7706909179688,
                577.7765502929688,
                8100.0
            ],
            [
                898.7913818359375,
                584.5938110351563,
                8200.0
            ],
            [
                936.0491943359375,
                591.3849487304688,
                8300.0
            ],
            [
                973.525390625,
                598.1519775390625,
                8400.0
            ],
            [
                1011.2010498046875,
                604.8972778320313,
                8500.0
            ],
            [
                1049.050537109375,
                611.6234130859375,
                8600.0
            ],
            [
                1087.0645751953125,
                618.3319091796875,
                8700.0
            ],
            [
                1125.2261962890625,
                625.0249633789063,
                8800.0
            ],
            [
                1163.521240234375,
                631.70458984375,
                8900.0
            ],
            [
                1201.9390869140625,
                638.3722534179688,
                9000.0
            ],
            [
                1240.4677734375,
                645.0294799804688,
                9100.0
            ],
            [
                1279.095947265625,
                651.6779174804688,
                9200.0
            ],
            [
                1317.8148193359375,
                658.3187255859375,
                9300.0
            ],
            [
                1356.6151123046875,
                664.9530029296875,
                9400.0
            ],
            [
                1395.4888916015625,
                671.5819091796875,
                9500.0
            ],
            [
                1434.4293212890625,
                678.206298828125,
                9600.0
            ],
            [
                1473.4295654296875,
                684.826904296875,
                9700.0
            ],
            [
                1512.48388671875,
                691.4443969726563,
                9800.0
            ],
            [
                1551.5867919921875,
                698.0595092773438,
                9900.0
            ],
            [
                1590.7337646484375,
                704.6726684570313,
                10000.0
            ],
            [
                1669.142578125,
                717.894775390625,
                10200.0
            ],
            [
                1747.6810302734375,
                731.1134643554688,
                10400.0
            ],
            [
                1826.3232421875,
                744.3309326171875,
                10600.0
            ],
            [
                1905.0513916015625,
                757.5482177734375,
                10800.0
            ],
            [
                1983.84521484375,
                770.7667236328125,
                11000.0
            ],
            [
                2062.69482421875,
                783.9866943359375,
                11200.0
            ],
            [
                2141.590576171875,
                797.208251953125,
                11400.0
            ],
            [
                2220.5205078125,
                810.4322509765625,
                11600.0
            ],
            [
                2299.476806640625,
                823.658447265625,
                11800.0
            ],
            [
                2378.45361328125,
                836.8870239257813,
                12000.0
            ],
            [
                2457.4521484375,
                850.1170654296875,
                12200.0
            ],
            [
                2536.463134765625,
                863.3489990234375,
                12400.0
            ],
            [
                2615.481689453125,
                876.5834350585938,
                12600.0
            ],
            [
                2694.505615234375,
                889.8195190429688,
                12800.0
            ],
            [
                2773.53857421875,
                903.0560913085938,
                13000.0
            ],
            [
                2852.577880859375,
                916.2938842773438,
                13200.0
            ],
            [
                2931.619384765625,
                929.5328979492188,
                13400.0
            ]
        ],
        "zFirstMeasurement": 229.2578
    }
]
