[
    {
        "E": 132961.18581744254,
        "chi2": 0.0,
        "ip": 0.047998264964614186,
        "ipchi2": 5.117680786685362,
        "mass": 1827.003,
        "particleId": "D0",
        "pvx": 0.6483,
        "pvy": 0.1034,
        "pvz": -130.9165,
        "px": -1767.44,
        "py": 3482.17,
        "pz": 132891.27,
        "q": 0.0,
        "trajectory": [
            [
                0.6482999920845032,
                0.10339999943971634,
                -130.91650390625
            ],
            [
                0.59579998254776,
                0.14650000631809235,
                -127.45610046386719
            ]
        ],
        "zFirstMeasurement": -9999.0
    },
    {
        "E": 42396.70783038298,
        "chi2": 0.7454641461372375,
        "ip": 0.051022170505021724,
        "ipchi2": 1.7525939768949825,
        "mass": 493.677,
        "particleId": "K-",
        "pvx": 0.6483,
        "pvy": 0.1034,
        "pvz": -130.9165,
        "px": -763.26,
        "py": 394.09,
        "pz": 42385.13,
        "q": -1.0,
        "trajectory": [
            [
                0.63695228099823,
                0.1381990909576416,
                -127.45610046386719
            ],
            [
                0.5469183921813965,
                0.18468806147575378,
                -122.45610046386719
            ],
            [
                0.45688357949256897,
                0.23117704689502716,
                -117.45610046386719
            ],
            [
                0.36684784293174744,
                0.2776660621166229,
                -112.45610046386719
            ],
            [
                0.2768111526966095,
                0.3241550624370575,
                -107.45610046386719
            ],
            [
                0.18677350878715515,
                0.37064412236213684,
                -102.45610046386719
            ],
            [
                0.0967348963022232,
                0.4171331524848938,
                -97.45610046386719
            ],
            [
                0.006695298943668604,
                0.46362224221229553,
                -92.45610046386719
            ],
            [
                -0.08334530889987946,
                0.5101113319396973,
                -87.45610046386719
            ],
            [
                -0.17338694632053375,
                0.5566003918647766,
                -82.45610046386719
            ],
            [
                -0.2634296119213104,
                0.6030895113945007,
                -77.45610046386719
            ],
            [
                -0.35347336530685425,
                0.6495786905288696,
                -72.45610046386719
            ],
            [
                -0.44351816177368164,
                0.6960678100585938,
                -67.45610046386719
            ],
            [
                -0.5335640907287598,
                0.7425569891929626,
                -62.45610046386719
            ],
            [
                -0.6236110925674438,
                0.7890461087226868,
                -57.45610046386719
            ],
            [
                -0.7136592864990234,
                0.8355353474617004,
                -52.45610046386719
            ],
            [
                -0.8037086129188538,
                0.8820245265960693,
                -47.45610046386719
            ],
            [
                -0.8937590718269348,
                0.928513765335083,
                -42.45610046386719
            ],
            [
                -0.9838107824325562,
                0.9750030040740967,
                -37.45610046386719
            ],
            [
                -1.0738636255264282,
                1.0214922428131104,
                -32.45610046386719
            ],
            [
                -1.1639177799224854,
                1.067981481552124,
                -27.456100463867188
            ],
            [
                -1.253973126411438,
                1.1144707202911377,
                -22.456100463867188
            ],
            [
                -1.3440296649932861,
                1.160960078239441,
                -17.456100463867188
            ],
            [
                -1.4340876340866089,
                1.2074493169784546,
                -12.456100463867188
            ],
            [
                -1.5241467952728271,
                1.2539386749267578,
                -7.456099987030029
            ],
            [
                -1.6142072677612305,
                1.3004279136657715,
                -2.4560999870300293
            ],
            [
                -1.704260230064392,
                1.3469173908233643,
                2.5439000129699707
            ],
            [
                -1.7943220138549805,
                1.3934067487716675,
                7.543900012969971
            ],
            [
                -1.884385108947754,
                1.4398961067199707,
                12.543899536132813
            ],
            [
                -1.9744495153427124,
                1.486385464668274,
                17.543899536132813
            ],
            [
                -2.0645151138305664,
                1.5328749418258667,
                22.543899536132813
            ],
            [
                -2.1545820236206055,
                1.57936429977417,
                27.543899536132813
            ],
            [
                -2.24465012550354,
                1.6258537769317627,
                32.54389953613281
            ],
            [
                -2.334719657897949,
                1.672343134880066,
                37.54389953613281
            ],
            [
                -2.424790382385254,
                1.7188326120376587,
                42.54389953613281
            ],
            [
                -2.514862537384033,
                1.7653220891952515,
                47.54389953613281
            ],
            [
                -2.604936122894287,
                1.8118115663528442,
                52.54389953613281
            ],
            [
                -2.6950109004974365,
                1.858301043510437,
                57.54389953613281
            ],
            [
                -2.7850871086120605,
                1.9047906398773193,
                62.54389953613281
            ],
            [
                -2.875164747238159,
                1.951280117034912,
                67.54389953613281
            ],
            [
                -2.9652438163757324,
                1.9977697134017944,
                72.54389953613281
            ],
            [
                -3.0553243160247803,
                2.0442593097686768,
                77.54389953613281
            ],
            [
                -3.145406484603882,
                2.0907487869262695,
                82.54389953613281
            ],
            [
                -3.235489845275879,
                2.1372382640838623,
                87.54389953613281
            ],
            [
                -3.3255748748779297,
                2.183727979660034,
                92.54389953613281
            ],
            [
                -3.4156973361968994,
                2.23024845123291,
                97.54389953613281
            ],
            [
                -3.5057854652404785,
                2.276738166809082,
                102.54389953613281
            ],
            [
                -3.86615252494812,
                2.4626967906951904,
                122.54389953613281
            ],
            [
                -4.226545333862305,
                2.648655652999878,
                142.5438995361328
            ],
            [
                -4.5869646072387695,
                2.8346147537231445,
                162.5438995361328
            ],
            [
                -4.94741153717041,
                3.0205740928649902,
                182.5438995361328
            ],
            [
                -5.307878494262695,
                3.206533908843994,
                202.5438995361328
            ],
            [
                -5.668388843536377,
                3.392493486404419,
                222.5438995361328
            ],
            [
                -6.028928756713867,
                3.578453302383423,
                242.5438995361328
            ],
            [
                -6.389499187469482,
                3.764413595199585,
                262.5439147949219
            ],
            [
                -6.750102519989014,
                3.950373649597168,
                282.5439147949219
            ],
            [
                -7.110740661621094,
                4.136334419250488,
                302.5439147949219
            ],
            [
                -7.4714155197143555,
                4.32229471206665,
                322.5439147949219
            ],
            [
                -7.83212947845459,
                4.508255481719971,
                342.5439147949219
            ],
            [
                -8.19288444519043,
                4.694216251373291,
                362.5439147949219
            ],
            [
                -8.553681373596191,
                4.880177021026611,
                382.5439147949219
            ],
            [
                -8.91450309753418,
                5.06613826751709,
                402.5439147949219
            ],
            [
                -9.27538013458252,
                5.252099514007568,
                422.5439147949219
            ],
            [
                -9.636301040649414,
                5.438060760498047,
                442.5439147949219
            ],
            [
                -9.997268676757813,
                5.624022483825684,
                462.5439147949219
            ],
            [
                -10.358283996582031,
                5.809983730316162,
                482.5439147949219
            ],
            [
                -10.71934986114502,
                5.995945453643799,
                502.5439147949219
            ],
            [
                -11.080467224121094,
                6.181906700134277,
                522.5438842773438
            ],
            [
                -11.44163703918457,
                6.367868423461914,
                542.5438842773438
            ],
            [
                -11.802862167358398,
                6.553830146789551,
                562.5438842773438
            ],
            [
                -12.164142608642578,
                6.7397918701171875,
                582.5438842773438
            ],
            [
                -12.525481224060059,
                6.925753593444824,
                602.5438842773438
            ],
            [
                -12.886878967285156,
                7.111715316772461,
                622.5438842773438
            ],
            [
                -13.248337745666504,
                7.297677040100098,
                642.5438842773438
            ],
            [
                -13.609867095947266,
                7.483638763427734,
                662.5438842773438
            ],
            [
                -13.971468925476074,
                7.669600963592529,
                682.5438842773438
            ],
            [
                -14.333138465881348,
                7.855562686920166,
                702.5438842773438
            ],
            [
                -14.694877624511719,
                8.041524887084961,
                722.5438842773438
            ],
            [
                -15.056689262390137,
                8.227486610412598,
                742.5438842773438
            ],
            [
                -15.418575286865234,
                8.413448333740234,
                762.5438842773438
            ],
            [
                -15.780536651611328,
                8.599411010742188,
                782.5438842773438
            ],
            [
                -16.142574310302734,
                8.785372734069824,
                802.5438842773438
            ],
            [
                -16.504697799682617,
                8.971333503723145,
                822.5438842773438
            ],
            [
                -16.866907119750977,
                9.157294273376465,
                842.5438842773438
            ],
            [
                -17.229198455810547,
                9.343254089355469,
                862.5438842773438
            ],
            [
                -17.591577529907227,
                9.529213905334473,
                882.5438842773438
            ],
            [
                -17.954042434692383,
                9.71517276763916,
                902.5438842773438
            ],
            [
                -18.31658935546875,
                9.901132583618164,
                922.5438842773438
            ],
            [
                -18.679229736328125,
                10.087091445922852,
                942.5438842773438
            ],
            [
                -19.041961669921875,
                10.273049354553223,
                962.5438842773438
            ],
            [
                -19.404781341552734,
                10.45900821685791,
                982.5438842773438
            ],
            [
                -19.7677001953125,
                10.644968032836914,
                1002.5438842773438
            ],
            [
                -21.583765029907227,
                11.5747652053833,
                1102.5439453125
            ],
            [
                -23.402355194091797,
                12.504561424255371,
                1202.5439453125
            ],
            [
                -25.223731994628906,
                13.434319496154785,
                1302.5439453125
            ],
            [
                -27.047443389892578,
                14.364087104797363,
                1402.5439453125
            ],
            [
                -28.873502731323242,
                15.293845176696777,
                1502.5439453125
            ],
            [
                -30.7021427154541,
                16.22359848022461,
                1602.5439453125
            ],
            [
                -32.53366470336914,
                17.153350830078125,
                1702.5439453125
            ],
            [
                -34.367679595947266,
                18.083112716674805,
                1802.5439453125
            ],
            [
                -36.205528259277344,
                19.01287269592285,
                1902.5439453125
            ],
            [
                -38.0466194152832,
                19.9426326751709,
                2002.5439453125
            ],
            [
                -39.89237594604492,
                20.872398376464844,
                2102.5439453125
            ],
            [
                -41.74309158325195,
                21.802165985107422,
                2202.5439453125
            ],
            [
                -43.601200103759766,
                22.731815338134766,
                2302.5439453125
            ],
            [
                -45.466182708740234,
                23.66154670715332,
                2402.5439453125
            ],
            [
                -47.34074401855469,
                24.591285705566406,
                2502.5439453125
            ],
            [
                -49.22685623168945,
                25.52100944519043,
                2602.5439453125
            ],
            [
                -51.12619400024414,
                26.45072364807129,
                2702.5439453125
            ],
            [
                -53.04117202758789,
                27.38043212890625,
                2802.5439453125
            ],
            [
                -54.97494125366211,
                28.310131072998047,
                2902.5439453125
            ],
            [
                -56.93146896362305,
                29.239816665649414,
                3002.5439453125
            ],
            [
                -58.912986755371094,
                30.169509887695313,
                3102.5439453125
            ],
            [
                -60.92333984375,
                31.0992488861084,
                3202.5439453125
            ],
            [
                -62.969425201416016,
                32.028907775878906,
                3302.5439453125
            ],
            [
                -65.05296325683594,
                32.958675384521484,
                3402.5439453125
            ],
            [
                -67.17717742919922,
                33.88847732543945,
                3502.5439453125
            ],
            [
                -69.34600830078125,
                34.81834030151367,
                3602.5439453125
            ],
            [
                -71.5644760131836,
                35.748130798339844,
                3702.5439453125
            ],
            [
                -73.83821105957031,
                36.677982330322266,
                3802.5439453125
            ],
            [
                -76.16827392578125,
                37.607933044433594,
                3902.5439453125
            ],
            [
                -78.55914306640625,
                38.53773498535156,
                4002.5439453125
            ],
            [
                -81.0149154663086,
                39.46747589111328,
                4102.5439453125
            ],
            [
                -83.54306030273438,
                40.39712142944336,
                4202.5439453125
            ],
            [
                -86.1381607055664,
                41.326717376708984,
                4302.5439453125
            ],
            [
                -88.8016586303711,
                42.25632095336914,
                4402.5439453125
            ],
            [
                -91.53937530517578,
                43.18560028076172,
                4502.5439453125
            ],
            [
                -94.3508071899414,
                44.11484909057617,
                4602.5439453125
            ],
            [
                -97.23706817626953,
                45.043949127197266,
                4702.5439453125
            ],
            [
                -100.1925277709961,
                45.97318649291992,
                4802.5439453125
            ],
            [
                -103.18273162841797,
                47.07480239868164,
                4902.5439453125
            ],
            [
                -106.278076171875,
                48.00422668457031,
                5002.5439453125
            ],
            [
                -109.44813537597656,
                48.933284759521484,
                5102.5439453125
            ],
            [
                -112.68976593017578,
                49.862266540527344,
                5202.5439453125
            ],
            [
                -116.00373840332031,
                50.7908821105957,
                5302.5439453125
            ],
            [
                -119.3877182006836,
                51.719722747802734,
                5402.5439453125
            ],
            [
                -122.84117126464844,
                52.64863967895508,
                5502.5439453125
            ],
            [
                -126.36080169677734,
                53.576908111572266,
                5602.5439453125
            ],
            [
                -129.9486541748047,
                54.50527572631836,
                5702.5439453125
            ],
            [
                -133.6020965576172,
                55.4333610534668,
                5802.5439453125
            ],
            [
                -137.31698608398438,
                56.36122512817383,
                5902.5439453125
            ],
            [
                -141.0953369140625,
                57.28881072998047,
                6002.5439453125
            ],
            [
                -144.93331909179688,
                58.216148376464844,
                6102.5439453125
            ],
            [
                -148.8293914794922,
                59.14339828491211,
                6202.5439453125
            ],
            [
                -152.78167724609375,
                60.07054138183594,
                6302.5439453125
            ],
            [
                -156.78781127929688,
                60.99755096435547,
                6402.5439453125
            ],
            [
                -160.84661865234375,
                61.92452621459961,
                6502.5439453125
            ],
            [
                -164.95457458496094,
                62.851280212402344,
                6602.5439453125
            ],
            [
                -169.11068725585938,
                63.77786636352539,
                6702.5439453125
            ],
            [
                -173.31134033203125,
                64.7043228149414,
                6802.5439453125
            ],
            [
                -177.55589294433594,
                65.63070678710938,
                6902.5439453125
            ],
            [
                -181.84121704101563,
                66.55696105957031,
                7002.5439453125
            ],
            [
                -186.16473388671875,
                67.48310852050781,
                7102.5439453125
            ],
            [
                -190.52413940429688,
                68.40913391113281,
                7202.5439453125
            ],
            [
                -194.91754150390625,
                69.33502960205078,
                7302.5439453125
            ],
            [
                -199.34310913085938,
                70.26081848144531,
                7402.5439453125
            ],
            [
                -203.7972869873047,
                71.18645477294922,
                7502.5439453125
            ],
            [
                -208.2793426513672,
                72.11197662353516,
                7602.5439453125
            ],
            [
                -212.78648376464844,
                73.03734588623047,
                7702.5439453125
            ],
            [
                -217.317626953125,
                73.96256256103516,
                7802.5439453125
            ],
            [
                -221.87075805664063,
                74.88763427734375,
                7902.5439453125
            ],
            [
                -226.44398498535156,
                75.81256103515625,
                8002.5439453125
            ],
            [
                -231.0362091064453,
                76.73735046386719,
                8102.5439453125
            ],
            [
                -235.6453399658203,
                77.66200256347656,
                8202.5439453125
            ],
            [
                -240.27027893066406,
                78.5865249633789,
                8302.5439453125
            ],
            [
                -244.90985107421875,
                79.51092529296875,
                8402.5439453125
            ],
            [
                -249.56288146972656,
                80.43521881103516,
                8502.5439453125
            ],
            [
                -254.22787475585938,
                81.35942077636719,
                8602.5439453125
            ],
            [
                -258.9041748046875,
                82.28352355957031,
                8702.5439453125
            ],
            [
                -263.59075927734375,
                83.20755004882813,
                8802.5439453125
            ],
            [
                -268.28668212890625,
                84.1314926147461,
                8902.5439453125
            ],
            [
                -272.9913024902344,
                85.05535888671875,
                9002.5439453125
            ],
            [
                -277.7037658691406,
                85.97916412353516,
                9102.5439453125
            ],
            [
                -282.4234313964844,
                86.90289306640625,
                9202.5439453125
            ],
            [
                -287.1496887207031,
                87.82657623291016,
                9302.5439453125
            ],
            [
                -291.8819274902344,
                88.75019836425781,
                9402.5439453125
            ],
            [
                -296.61962890625,
                89.67377471923828,
                9502.5439453125
            ],
            [
                -301.3623352050781,
                90.5973129272461,
                9602.5439453125
            ],
            [
                -306.10955810546875,
                91.52081298828125,
                9702.5439453125
            ],
            [
                -310.8609619140625,
                92.44427490234375,
                9802.5439453125
            ],
            [
                -315.61614990234375,
                93.36770629882813,
                9902.5439453125
            ],
            [
                -320.374755859375,
                94.29110717773438,
                10002.5439453125
            ],
            [
                -329.90118408203125,
                96.1378402709961,
                10202.5439453125
            ],
            [
                -339.4381103515625,
                97.9844970703125,
                10402.5439453125
            ],
            [
                -348.9836120605469,
                99.83109283447266,
                10602.5439453125
            ],
            [
                -358.5365295410156,
                101.67764282226563,
                10802.5439453125
            ],
            [
                -368.09521484375,
                103.52416229248047,
                11002.5439453125
            ],
            [
                -377.6589050292969,
                105.37065124511719,
                11202.5439453125
            ],
            [
                -387.2268371582031,
                107.21712493896484,
                11402.5439453125
            ],
            [
                -396.7979736328125,
                109.06359100341797,
                11602.5439453125
            ],
            [
                -406.37188720703125,
                110.91004943847656,
                11802.5439453125
            ],
            [
                -415.9479675292969,
                112.75650787353516,
                12002.5439453125
            ],
            [
                -425.5262145996094,
                114.60295867919922,
                12202.5439453125
            ],
            [
                -435.10589599609375,
                116.44941711425781,
                12402.5439453125
            ],
            [
                -444.6864318847656,
                118.2958755493164,
                12602.5439453125
            ],
            [
                -454.26788330078125,
                120.142333984375,
                12802.5439453125
            ],
            [
                -463.850341796875,
                121.98880004882813,
                13002.5439453125
            ],
            [
                -473.4335021972656,
                123.83525848388672,
                13202.5439453125
            ],
            [
                -483.01702880859375,
                125.68172454833984,
                13402.5439453125
            ]
        ],
        "zFirstMeasurement": 289.1933
    },
    {
        "E": 90558.63871655038,
        "chi2": 1.1729390621185303,
        "ip": 0.07624145283874999,
        "ipchi2": 12.147235588997994,
        "mass": 139.57,
        "particleId": "pi+",
        "pvx": 0.6483,
        "pvy": 0.1034,
        "pvz": -130.9165,
        "px": -1005.31,
        "py": 3088.08,
        "pz": 90500.28,
        "q": 1.0,
        "trajectory": [
            [
                0.5857157111167908,
                0.14912602305412292,
                -127.45610046386719
            ],
            [
                0.5301740169525146,
                0.31973743438720703,
                -122.45610046386719
            ],
            [
                0.47463276982307434,
                0.49034881591796875,
                -117.45610046386719
            ],
            [
                0.41909196972846985,
                0.6609601974487305,
                -112.45610046386719
            ],
            [
                0.36355164647102356,
                0.8315715789794922,
                -107.45610046386719
            ],
            [
                0.3080117702484131,
                1.002182960510254,
                -102.45610046386719
            ],
            [
                0.2524723708629608,
                1.1727943420410156,
                -97.45610046386719
            ],
            [
                0.19693343341350555,
                1.3434056043624878,
                -92.45610046386719
            ],
            [
                0.1413949728012085,
                1.5140169858932495,
                -87.45610046386719
            ],
            [
                0.08585701882839203,
                1.6846283674240112,
                -82.45610046386719
            ],
            [
                0.030319562181830406,
                1.8552396297454834,
                -77.45610046386719
            ],
            [
                -0.025217387825250626,
                2.025851011276245,
                -72.45610046386719
            ],
            [
                -0.08075379580259323,
                2.1964621543884277,
                -67.45610046386719
            ],
            [
                -0.13628967106342316,
                2.3670735359191895,
                -62.45610046386719
            ],
            [
                -0.1918250173330307,
                2.537684917449951,
                -57.45610046386719
            ],
            [
                -0.24735981225967407,
                2.708296060562134,
                -52.45610046386719
            ],
            [
                -0.30289405584335327,
                2.8789074420928955,
                -47.45610046386719
            ],
            [
                -0.3584277331829071,
                3.0495188236236572,
                -42.45610046386719
            ],
            [
                -0.4139608144760132,
                3.22012996673584,
                -37.45610046386719
            ],
            [
                -0.4694933593273163,
                3.3907413482666016,
                -32.45610046386719
            ],
            [
                -0.5250252485275269,
                3.561352491378784,
                -27.456100463867188
            ],
            [
                -0.5805606245994568,
                3.731963634490967,
                -22.456100463867188
            ],
            [
                -0.636091947555542,
                3.9025750160217285,
                -17.456100463867188
            ],
            [
                -0.6916227340698242,
                4.073185920715332,
                -12.456100463867188
            ],
            [
                -0.7471944093704224,
                4.243791103363037,
                -7.456099987030029
            ],
            [
                -0.8027240633964539,
                4.414402484893799,
                -2.4560999870300293
            ],
            [
                -0.8582531809806824,
                4.5850138664245605,
                2.5439000129699707
            ],
            [
                -0.9137817025184631,
                4.755624771118164,
                7.543900012969971
            ],
            [
                -0.9693138003349304,
                4.926236152648926,
                12.543899536132813
            ],
            [
                -1.0248405933380127,
                5.096847057342529,
                17.543899536132813
            ],
            [
                -1.0803667306900024,
                5.267458438873291,
                22.543899536132813
            ],
            [
                -1.135892391204834,
                5.438069820404053,
                27.543899536132813
            ],
            [
                -1.1914175748825073,
                5.608680725097656,
                32.54389953613281
            ],
            [
                -1.2469420433044434,
                5.779292106628418,
                37.54389953613281
            ],
            [
                -1.3024660348892212,
                5.9499030113220215,
                42.54389953613281
            ],
            [
                -1.3579894304275513,
                6.120514392852783,
                47.54389953613281
            ],
            [
                -1.4135122299194336,
                6.291125297546387,
                52.54389953613281
            ],
            [
                -1.4690343141555786,
                6.461736679077148,
                57.54389953613281
            ],
            [
                -1.5245559215545654,
                6.632347583770752,
                62.54389953613281
            ],
            [
                -1.580076813697815,
                6.8029584884643555,
                67.54389953613281
            ],
            [
                -1.6355971097946167,
                6.973569869995117,
                72.54389953613281
            ],
            [
                -1.6911168098449707,
                7.144180774688721,
                77.54389953613281
            ],
            [
                -1.7466357946395874,
                7.314792156219482,
                82.54389953613281
            ],
            [
                -1.8021541833877563,
                7.485403060913086,
                87.54389953613281
            ],
            [
                -1.857671856880188,
                7.6560139656066895,
                92.54389953613281
            ],
            [
                -1.9131888151168823,
                7.826625347137451,
                97.54389953613281
            ],
            [
                -1.9687050580978394,
                7.997236251831055,
                102.54389953613281
            ],
            [
                -2.190762996673584,
                8.679680824279785,
                122.54389953613281
            ],
            [
                -2.412808895111084,
                9.3621244430542,
                142.5438995361328
            ],
            [
                -2.6348419189453125,
                10.044568061828613,
                162.5438995361328
            ],
            [
                -2.856861114501953,
                10.727012634277344,
                182.5438995361328
            ],
            [
                -3.0788660049438477,
                11.409456253051758,
                202.5438995361328
            ],
            [
                -3.30086350440979,
                12.091899871826172,
                222.5438995361328
            ],
            [
                -3.5228419303894043,
                12.774343490600586,
                242.5438995361328
            ],
            [
                -3.744805335998535,
                13.456787109375,
                262.5439147949219
            ],
            [
                -3.966752529144287,
                14.139229774475098,
                282.5439147949219
            ],
            [
                -4.18868350982666,
                14.821673393249512,
                302.5439147949219
            ],
            [
                -4.410597801208496,
                15.50411605834961,
                322.5439147949219
            ],
            [
                -4.63249397277832,
                16.186559677124023,
                342.5439147949219
            ],
            [
                -4.854372501373291,
                16.869003295898438,
                362.5439147949219
            ],
            [
                -5.076232433319092,
                17.55144500732422,
                382.5439147949219
            ],
            [
                -5.298072814941406,
                18.233888626098633,
                402.5439147949219
            ],
            [
                -5.519892692565918,
                18.916330337524414,
                422.5439147949219
            ],
            [
                -5.741690635681152,
                19.598773956298828,
                442.5439147949219
            ],
            [
                -5.963466644287109,
                20.28121566772461,
                462.5439147949219
            ],
            [
                -6.185220718383789,
                20.963659286499023,
                482.5439147949219
            ],
            [
                -6.406951427459717,
                21.646100997924805,
                502.5439147949219
            ],
            [
                -6.628658294677734,
                22.328542709350586,
                522.5438842773438
            ],
            [
                -6.850340843200684,
                23.010986328125,
                542.5438842773438
            ],
            [
                -7.071998596191406,
                23.69342803955078,
                562.5438842773438
            ],
            [
                -7.293630599975586,
                24.375869750976563,
                582.5438842773438
            ],
            [
                -7.515233993530273,
                25.058313369750977,
                602.5438842773438
            ],
            [
                -7.736805438995361,
                25.740755081176758,
                622.5438842773438
            ],
            [
                -7.958348751068115,
                26.42319679260254,
                642.5438842773438
            ],
            [
                -8.179862022399902,
                27.10563850402832,
                662.5438842773438
            ],
            [
                -8.401346206665039,
                27.788082122802734,
                682.5438842773438
            ],
            [
                -8.622798919677734,
                28.470523834228516,
                702.5438842773438
            ],
            [
                -8.844222068786621,
                29.152965545654297,
                722.5438842773438
            ],
            [
                -9.065611839294434,
                29.835407257080078,
                742.5438842773438
            ],
            [
                -9.286965370178223,
                30.51784896850586,
                762.5438842773438
            ],
            [
                -9.508275985717773,
                31.20029067993164,
                782.5438842773438
            ],
            [
                -9.729551315307617,
                31.882732391357422,
                802.5438842773438
            ],
            [
                -9.950791358947754,
                32.5651741027832,
                822.5438842773438
            ],
            [
                -10.17199420928955,
                33.247615814208984,
                842.5438842773438
            ],
            [
                -10.393158912658691,
                33.930057525634766,
                862.5438842773438
            ],
            [
                -10.614285469055176,
                34.61249923706055,
                882.5438842773438
            ],
            [
                -10.835372924804688,
                35.29494094848633,
                902.5438842773438
            ],
            [
                -11.056425094604492,
                35.977386474609375,
                922.5438842773438
            ],
            [
                -11.27742862701416,
                36.659828186035156,
                942.5438842773438
            ],
            [
                -11.498387336730957,
                37.34226989746094,
                962.5438842773438
            ],
            [
                -11.719303131103516,
                38.024715423583984,
                982.5438842773438
            ],
            [
                -11.940176963806152,
                38.707157135009766,
                1002.5438842773438
            ],
            [
                -13.043916702270508,
                42.11937713623047,
                1102.5439453125
            ],
            [
                -14.146071434020996,
                45.531593322753906,
                1202.5439453125
            ],
            [
                -15.247304916381836,
                48.943817138671875,
                1302.5439453125
            ],
            [
                -16.347387313842773,
                52.35604476928711,
                1402.5439453125
            ],
            [
                -17.446224212646484,
                55.76827621459961,
                1502.5439453125
            ],
            [
                -18.544071197509766,
                59.180503845214844,
                1602.5439453125
            ],
            [
                -19.64064598083496,
                62.59273147583008,
                1702.5439453125
            ],
            [
                -20.73586654663086,
                66.00496673583984,
                1802.5439453125
            ],
            [
                -21.829517364501953,
                69.41720581054688,
                1902.5439453125
            ],
            [
                -22.921567916870117,
                72.82943725585938,
                2002.5439453125
            ],
            [
                -24.011348724365234,
                76.24166107177734,
                2102.5439453125
            ],
            [
                -25.098188400268555,
                79.65386962890625,
                2202.5439453125
            ],
            [
                -26.183029174804688,
                83.06608581542969,
                2302.5439453125
            ],
            [
                -27.26396369934082,
                86.47830200195313,
                2402.5439453125
            ],
            [
                -28.340789794921875,
                89.8905029296875,
                2502.5439453125
            ],
            [
                -29.41195297241211,
                93.30269622802734,
                2602.5439453125
            ],
            [
                -30.477279663085938,
                96.71489715576172,
                2702.5439453125
            ],
            [
                -31.535045623779297,
                100.12708282470703,
                2802.5439453125
            ],
            [
                -32.58425521850586,
                103.53926086425781,
                2902.5439453125
            ],
            [
                -33.62299728393555,
                106.95142364501953,
                3002.5439453125
            ],
            [
                -34.65029525756836,
                110.36356353759766,
                3102.5439453125
            ],
            [
                -35.66252136230469,
                113.77564239501953,
                3202.5439453125
            ],
            [
                -36.661006927490234,
                117.18770599365234,
                3302.5439453125
            ],
            [
                -37.64097595214844,
                120.59976196289063,
                3402.5439453125
            ],
            [
                -38.60088348388672,
                124.01179504394531,
                3502.5439453125
            ],
            [
                -39.54063034057617,
                127.42374420166016,
                3602.5439453125
            ],
            [
                -40.456722259521484,
                130.83572387695313,
                3702.5439453125
            ],
            [
                -41.34749221801758,
                134.2476806640625,
                3802.5439453125
            ],
            [
                -42.21222686767578,
                137.65956115722656,
                3902.5439453125
            ],
            [
                -43.046607971191406,
                141.07142639160156,
                4002.5439453125
            ],
            [
                -43.8529052734375,
                144.4833526611328,
                4102.5439453125
            ],
            [
                -44.62473678588867,
                147.895263671875,
                4202.5439453125
            ],
            [
                -45.36343765258789,
                151.30726623535156,
                4302.5439453125
            ],
            [
                -46.06917953491211,
                154.7192840576172,
                4402.5439453125
            ],
            [
                -46.742610931396484,
                158.1312713623047,
                4502.5439453125
            ],
            [
                -47.380191802978516,
                161.54345703125,
                4602.5439453125
            ],
            [
                -47.98320007324219,
                164.95570373535156,
                4702.5439453125
            ],
            [
                -48.205806732177734,
                168.497314453125,
                4802.5439453125
            ],
            [
                -48.72902297973633,
                171.91314697265625,
                4902.5439453125
            ],
            [
                -49.218502044677734,
                175.32901000976563,
                5002.5439453125
            ],
            [
                -49.6728515625,
                178.7451629638672,
                5102.5439453125
            ],
            [
                -50.09356689453125,
                182.16131591796875,
                5202.5439453125
            ],
            [
                -50.480289459228516,
                185.5775909423828,
                5302.5439453125
            ],
            [
                -50.834171295166016,
                188.99375915527344,
                5402.5439453125
            ],
            [
                -51.15556716918945,
                192.40994262695313,
                5502.5439453125
            ],
            [
                -51.445823669433594,
                195.82644653320313,
                5602.5439453125
            ],
            [
                -51.7040901184082,
                199.24288940429688,
                5702.5439453125
            ],
            [
                -51.93158721923828,
                202.659423828125,
                5802.5439453125
            ],
            [
                -52.13032913208008,
                206.07606506347656,
                5902.5439453125
            ],
            [
                -52.299224853515625,
                209.49288940429688,
                6002.5439453125
            ],
            [
                -52.44009780883789,
                212.90980529785156,
                6102.5439453125
            ],
            [
                -52.553680419921875,
                216.32672119140625,
                6202.5439453125
            ],
            [
                -52.64088821411133,
                219.74371337890625,
                6302.5439453125
            ],
            [
                -52.70281219482422,
                223.1607666015625,
                6402.5439453125
            ],
            [
                -52.74002456665039,
                226.57781982421875,
                6502.5439453125
            ],
            [
                -52.754051208496094,
                229.99497985839844,
                6602.5439453125
            ],
            [
                -52.745487213134766,
                233.4121856689453,
                6702.5439453125
            ],
            [
                -52.716060638427734,
                236.82945251464844,
                6802.5439453125
            ],
            [
                -52.66599655151367,
                240.24673461914063,
                6902.5439453125
            ],
            [
                -52.59680938720703,
                243.66407775878906,
                7002.5439453125
            ],
            [
                -52.50975036621094,
                247.08143615722656,
                7102.5439453125
            ],
            [
                -52.4058837890625,
                250.49884033203125,
                7202.5439453125
            ],
            [
                -52.28615188598633,
                253.91627502441406,
                7302.5439453125
            ],
            [
                -52.15135955810547,
                257.3337707519531,
                7402.5439453125
            ],
            [
                -52.00328826904297,
                260.75128173828125,
                7502.5439453125
            ],
            [
                -51.84217834472656,
                264.1688537597656,
                7602.5439453125
            ],
            [
                -51.6694450378418,
                267.5864562988281,
                7702.5439453125
            ],
            [
                -51.48557662963867,
                271.0041198730469,
                7802.5439453125
            ],
            [
                -51.29153060913086,
                274.4218444824219,
                7902.5439453125
            ],
            [
                -51.088199615478516,
                277.839599609375,
                8002.5439453125
            ],
            [
                -50.8761100769043,
                281.25738525390625,
                8102.5439453125
            ],
            [
                -50.65622329711914,
                284.6752624511719,
                8202.5439453125
            ],
            [
                -50.429073333740234,
                288.0931396484375,
                8302.5439453125
            ],
            [
                -50.195194244384766,
                291.5110778808594,
                8402.5439453125
            ],
            [
                -49.95514678955078,
                294.9290466308594,
                8502.5439453125
            ],
            [
                -49.70960235595703,
                298.3470458984375,
                8602.5439453125
            ],
            [
                -49.458866119384766,
                301.76507568359375,
                8702.5439453125
            ],
            [
                -49.20343017578125,
                305.18310546875,
                8802.5439453125
            ],
            [
                -48.94371795654297,
                308.6011962890625,
                8902.5439453125
            ],
            [
                -48.68003845214844,
                312.0193176269531,
                9002.5439453125
            ],
            [
                -48.41275405883789,
                315.43743896484375,
                9102.5439453125
            ],
            [
                -48.142189025878906,
                318.8555908203125,
                9202.5439453125
            ],
            [
                -47.86861801147461,
                322.2737731933594,
                9302.5439453125
            ],
            [
                -47.592308044433594,
                325.69195556640625,
                9402.5439453125
            ],
            [
                -47.31351089477539,
                329.11016845703125,
                9502.5439453125
            ],
            [
                -47.032432556152344,
                332.52838134765625,
                9602.5439453125
            ],
            [
                -46.74928283691406,
                335.9466247558594,
                9702.5439453125
            ],
            [
                -46.464237213134766,
                339.3648681640625,
                9802.5439453125
            ],
            [
                -46.1774787902832,
                342.7831115722656,
                9902.5439453125
            ],
            [
                -45.88914108276367,
                346.2013854980469,
                10002.5439453125
            ],
            [
                -45.30829620361328,
                353.0379333496094,
                10202.5439453125
            ],
            [
                -44.72266387939453,
                359.87451171875,
                10402.5439453125
            ],
            [
                -44.133113861083984,
                366.71112060546875,
                10602.5439453125
            ],
            [
                -43.54019546508789,
                373.5477294921875,
                10802.5439453125
            ],
            [
                -42.94464111328125,
                380.3843688964844,
                11002.5439453125
            ],
            [
                -42.346805572509766,
                387.22100830078125,
                11202.5439453125
            ],
            [
                -41.74702453613281,
                394.0576477050781,
                11402.5439453125
            ],
            [
                -41.14580154418945,
                400.894287109375,
                11602.5439453125
            ],
            [
                -40.54328918457031,
                407.7309265136719,
                11802.5439453125
            ],
            [
                -39.93980026245117,
                414.56756591796875,
                12002.5439453125
            ],
            [
                -39.33531188964844,
                421.40423583984375,
                12202.5439453125
            ],
            [
                -38.73017120361328,
                428.2408752441406,
                12402.5439453125
            ],
            [
                -38.1246452331543,
                435.0775146484375,
                12602.5439453125
            ],
            [
                -37.51869201660156,
                441.9141540527344,
                12802.5439453125
            ],
            [
                -36.91228103637695,
                448.75079345703125,
                13002.5439453125
            ],
            [
                -36.30554962158203,
                455.5874328613281,
                13202.5439453125
            ],
            [
                -35.69866180419922,
                462.424072265625,
                13402.5439453125
            ]
        ],
        "zFirstMeasurement": 109.4064
    },
    {
        "E": 8593.593467621398,
        "chi2": 2.0018863677978516,
        "ip": 0.05796868619319343,
        "ipchi2": 4.5132646721682335,
        "mass": 139.57018,
        "particleId": "pi+",
        "pvx": 0.6483,
        "pvy": 0.1034,
        "pvz": -130.9165,
        "px": -706.8331181828357,
        "py": 1727.5168573559624,
        "pz": 8387.278539680847,
        "q": 1.0,
        "trajectory": [
            [
                -2.0077764987945557,
                6.443023204803467,
                -100.0
            ],
            [
                -2.4291155338287354,
                7.472866058349609,
                -95.0
            ],
            [
                -2.850449562072754,
                8.502708435058594,
                -90.0
            ],
            [
                -3.2717785835266113,
                9.532551765441895,
                -85.0
            ],
            [
                -3.6931021213531494,
                10.562394142150879,
                -80.0
            ],
            [
                -4.114420413970947,
                11.592236518859863,
                -75.0
            ],
            [
                -4.535733222961426,
                12.622078895568848,
                -70.0
            ],
            [
                -4.957040786743164,
                13.651920318603516,
                -65.0
            ],
            [
                -5.378342628479004,
                14.6817626953125,
                -60.0
            ],
            [
                -5.799638748168945,
                15.711604118347168,
                -55.0
            ],
            [
                -6.220929145812988,
                16.741445541381836,
                -50.0
            ],
            [
                -6.642213344573975,
                17.77128791809082,
                -45.0
            ],
            [
                -7.063492298126221,
                18.801130294799805,
                -40.0
            ],
            [
                -7.484764575958252,
                19.830970764160156,
                -35.0
            ],
            [
                -7.906031131744385,
                20.860811233520508,
                -30.0
            ],
            [
                -8.327291488647461,
                21.890653610229492,
                -25.0
            ],
            [
                -8.74854564666748,
                22.920494079589844,
                -20.0
            ],
            [
                -9.169793128967285,
                23.950334548950195,
                -15.0
            ],
            [
                -9.591034889221191,
                24.980175018310547,
                -10.0
            ],
            [
                -10.012269020080566,
                26.0100154876709,
                -5.0
            ],
            [
                -10.433497428894043,
                27.03985595703125,
                0.0
            ],
            [
                -10.854719161987305,
                28.0696964263916,
                5.0
            ],
            [
                -11.275934219360352,
                29.099536895751953,
                10.0
            ],
            [
                -11.697141647338867,
                30.129377365112305,
                15.0
            ],
            [
                -12.118342399597168,
                31.159215927124023,
                20.0
            ],
            [
                -12.539536476135254,
                32.189056396484375,
                25.0
            ],
            [
                -12.960761070251465,
                33.218894958496094,
                30.0
            ],
            [
                -13.381946563720703,
                34.24873733520508,
                35.0
            ],
            [
                -13.803125381469727,
                35.2785758972168,
                40.0
            ],
            [
                -14.224297523498535,
                36.308414459228516,
                45.0
            ],
            [
                -14.645462989807129,
                37.338253021240234,
                50.0
            ],
            [
                -15.066619873046875,
                38.36809158325195,
                55.0
            ],
            [
                -15.487771034240723,
                39.39793014526367,
                60.0
            ],
            [
                -15.908914566040039,
                40.42776870727539,
                65.0
            ],
            [
                -16.33005142211914,
                41.45760726928711,
                70.0
            ],
            [
                -16.75118064880371,
                42.48744583129883,
                75.0
            ],
            [
                -17.17230224609375,
                43.51728439331055,
                80.0
            ],
            [
                -17.59341812133789,
                44.547119140625,
                85.0
            ],
            [
                -18.014524459838867,
                45.57695770263672,
                90.0
            ],
            [
                -18.435625076293945,
                46.60679626464844,
                95.0
            ],
            [
                -18.85671615600586,
                47.63663101196289,
                100.0
            ],
            [
                -20.54100799560547,
                51.755977630615234,
                120.0
            ],
            [
                -22.225173950195313,
                55.87532043457031,
                140.0
            ],
            [
                -23.909208297729492,
                59.99466323852539,
                160.0
            ],
            [
                -25.593101501464844,
                64.11399841308594,
                180.0
            ],
            [
                -27.276851654052734,
                68.23332977294922,
                200.0
            ],
            [
                -28.960447311401367,
                72.3526611328125,
                220.0
            ],
            [
                -30.64388084411621,
                76.47198486328125,
                240.0
            ],
            [
                -32.327152252197266,
                80.59130096435547,
                260.0
            ],
            [
                -34.01026153564453,
                84.71061706542969,
                280.0
            ],
            [
                -35.693199157714844,
                88.82992553710938,
                300.0
            ],
            [
                -37.37596130371094,
                92.94922637939453,
                320.0
            ],
            [
                -39.05854034423828,
                97.06852722167969,
                340.0
            ],
            [
                -40.74094009399414,
                101.18782043457031,
                360.0
            ],
            [
                -42.42314910888672,
                105.3071060180664,
                380.0
            ],
            [
                -44.10514450073242,
                109.4263916015625,
                400.0
            ],
            [
                -45.78691864013672,
                113.54566192626953,
                420.0
            ],
            [
                -47.468482971191406,
                117.66493225097656,
                440.0
            ],
            [
                -49.14982986450195,
                121.78418731689453,
                460.0
            ],
            [
                -50.830955505371094,
                125.9034423828125,
                480.0
            ],
            [
                -52.5118522644043,
                130.02268981933594,
                500.0
            ],
            [
                -54.192440032958984,
                134.1419219970703,
                520.0
            ],
            [
                -55.87278366088867,
                138.2611541748047,
                540.0
            ],
            [
                -57.55286407470703,
                142.38037109375,
                560.0
            ],
            [
                -59.23267364501953,
                146.49957275390625,
                580.0
            ],
            [
                -60.91222381591797,
                150.6187744140625,
                600.0
            ],
            [
                -62.59145736694336,
                154.73797607421875,
                620.0
            ],
            [
                -64.27041625976563,
                158.85716247558594,
                640.0
            ],
            [
                -65.94910430908203,
                162.97634887695313,
                660.0
            ],
            [
                -67.62749481201172,
                167.0955352783203,
                680.0
            ],
            [
                -69.30558776855469,
                171.21470642089844,
                700.0
            ],
            [
                -70.9832992553711,
                175.33389282226563,
                720.0
            ],
            [
                -72.6605453491211,
                179.45306396484375,
                740.0
            ],
            [
                -74.33744812011719,
                183.57223510742188,
                760.0
            ],
            [
                -76.01400756835938,
                187.69140625,
                780.0
            ],
            [
                -77.69021606445313,
                191.81056213378906,
                800.0
            ],
            [
                -79.3660659790039,
                195.9297332763672,
                820.0
            ],
            [
                -81.04150390625,
                200.04888916015625,
                840.0
            ],
            [
                -82.71651458740234,
                204.1680450439453,
                860.0
            ],
            [
                -84.39112854003906,
                208.28720092773438,
                880.0
            ],
            [
                -86.06521606445313,
                212.4063262939453,
                900.0
            ],
            [
                -87.739013671875,
                216.52545166015625,
                920.0
            ],
            [
                -89.41314697265625,
                220.6441192626953,
                940.0
            ],
            [
                -91.0861587524414,
                224.7632293701172,
                960.0
            ],
            [
                -92.7585220336914,
                228.88241577148438,
                980.0
            ],
            [
                -94.43041229248047,
                233.00161743164063,
                1000.0
            ],
            [
                -102.7820053100586,
                253.59776306152344,
                1100.0
            ],
            [
                -111.12083435058594,
                274.1944274902344,
                1200.0
            ],
            [
                -119.44683837890625,
                294.79168701171875,
                1300.0
            ],
            [
                -127.76029968261719,
                315.38946533203125,
                1400.0
            ],
            [
                -136.0637664794922,
                335.9872741699219,
                1500.0
            ],
            [
                -144.3541259765625,
                356.5859375,
                1600.0
            ],
            [
                -152.6383514404297,
                377.1842041015625,
                1700.0
            ],
            [
                -160.91424560546875,
                397.781982421875,
                1800.0
            ],
            [
                -169.18051147460938,
                418.3788146972656,
                1900.0
            ],
            [
                -177.43707275390625,
                438.97406005859375,
                2000.0
            ],
            [
                -185.68299865722656,
                459.5688781738281,
                2100.0
            ],
            [
                -193.91830444335938,
                480.1609802246094,
                2200.0
            ],
            [
                -202.1421356201172,
                500.7506408691406,
                2300.0
            ],
            [
                -210.3484649658203,
                521.33740234375,
                2400.0
            ],
            [
                -218.54959106445313,
                541.9176025390625,
                2500.0
            ],
            [
                -226.72021484375,
                562.4920043945313,
                2600.0
            ],
            [
                -234.86231994628906,
                583.057373046875,
                2700.0
            ],
            [
                -242.97003173828125,
                603.612548828125,
                2800.0
            ],
            [
                -251.0333251953125,
                624.1565551757813,
                2900.0
            ],
            [
                -259.01849365234375,
                644.6887817382813,
                3000.0
            ],
            [
                -266.92913818359375,
                665.2076416015625,
                3100.0
            ],
            [
                -274.73736572265625,
                685.7125244140625,
                3200.0
            ],
            [
                -282.4561767578125,
                706.1976318359375,
                3300.0
            ],
            [
                -290.0360107421875,
                726.661376953125,
                3400.0
            ],
            [
                -297.4442443847656,
                747.109130859375,
                3500.0
            ],
            [
                -304.6645812988281,
                767.5333251953125,
                3600.0
            ],
            [
                -311.66448974609375,
                787.9336547851563,
                3700.0
            ],
            [
                -318.33074951171875,
                808.304931640625,
                3800.0
            ],
            [
                -324.7185974121094,
                828.6599731445313,
                3900.0
            ],
            [
                -330.6822509765625,
                849.0003662109375,
                4000.0
            ],
            [
                -336.2552490234375,
                869.31787109375,
                4100.0
            ],
            [
                -341.3903503417969,
                889.6075439453125,
                4200.0
            ],
            [
                -346.0238952636719,
                909.9169311523438,
                4300.0
            ],
            [
                -350.2236633300781,
                930.20458984375,
                4400.0
            ],
            [
                -353.9288024902344,
                950.5161743164063,
                4500.0
            ],
            [
                -357.27154541015625,
                970.7698364257813,
                4600.0
            ],
            [
                -362.1697998046875,
                993.2319946289063,
                4700.0
            ],
            [
                -364.5435485839844,
                1013.564697265625,
                4800.0
            ],
            [
                -366.40618896484375,
                1033.914306640625,
                4900.0
            ],
            [
                -367.88946533203125,
                1054.216064453125,
                5000.0
            ],
            [
                -368.9515380859375,
                1074.560791015625,
                5100.0
            ],
            [
                -369.611083984375,
                1094.894287109375,
                5200.0
            ],
            [
                -369.8718566894531,
                1115.2364501953125,
                5300.0
            ],
            [
                -369.73370361328125,
                1135.5743408203125,
                5400.0
            ],
            [
                -369.2021179199219,
                1155.9095458984375,
                5500.0
            ],
            [
                -368.28082275390625,
                1176.24609375,
                5600.0
            ],
            [
                -367.0124206542969,
                1196.5816650390625,
                5700.0
            ],
            [
                -365.33837890625,
                1216.9200439453125,
                5800.0
            ],
            [
                -363.3245544433594,
                1237.257080078125,
                5900.0
            ],
            [
                -360.9083557128906,
                1257.594482421875,
                6000.0
            ],
            [
                -358.1123046875,
                1277.9345703125,
                6100.0
            ],
            [
                -354.9954833984375,
                1298.2772216796875,
                6200.0
            ],
            [
                -351.479248046875,
                1318.615966796875,
                6300.0
            ],
            [
                -347.59765625,
                1338.9520263671875,
                6400.0
            ],
            [
                -343.35546875,
                1359.28662109375,
                6500.0
            ],
            [
                -338.7554931640625,
                1379.61572265625,
                6600.0
            ],
            [
                -333.826416015625,
                1399.9376220703125,
                6700.0
            ],
            [
                -328.5974426269531,
                1420.2523193359375,
                6800.0
            ],
            [
                -323.0745849609375,
                1440.5574951171875,
                6900.0
            ],
            [
                -317.30731201171875,
                1460.8524169921875,
                7000.0
            ],
            [
                -311.3273620605469,
                1481.1361083984375,
                7100.0
            ],
            [
                -305.1664123535156,
                1501.4083251953125,
                7200.0
            ],
            [
                -298.8551330566406,
                1521.6688232421875,
                7300.0
            ],
            [
                -292.406005859375,
                1541.917236328125,
                7400.0
            ],
            [
                -285.8547058105469,
                1562.1546630859375,
                7500.0
            ],
            [
                -279.2124938964844,
                1582.38037109375,
                7600.0
            ],
            [
                -272.49920654296875,
                1602.595458984375,
                7700.0
            ],
            [
                -265.7265319824219,
                1622.8001708984375,
                7800.0
            ],
            [
                -258.9058532714844,
                1642.9954833984375,
                7900.0
            ],
            [
                -252.04600524902344,
                1663.18212890625,
                8000.0
            ],
            [
                -245.1536407470703,
                1683.360595703125,
                8100.0
            ],
            [
                -238.23435974121094,
                1703.5318603515625,
                8200.0
            ],
            [
                -231.29283142089844,
                1723.696533203125,
                8300.0
            ],
            [
                -224.3318634033203,
                1743.8551025390625,
                8400.0
            ],
            [
                -217.35394287109375,
                1764.00830078125,
                8500.0
            ],
            [
                -210.36219787597656,
                1784.1566162109375,
                8600.0
            ],
            [
                -203.35743713378906,
                1804.3004150390625,
                8700.0
            ],
            [
                -196.34117126464844,
                1824.4404296875,
                8800.0
            ],
            [
                -189.3144073486328,
                1844.5767822265625,
                8900.0
            ],
            [
                -182.27835083007813,
                1864.7098388671875,
                9000.0
            ],
            [
                -175.2339324951172,
                1884.840087890625,
                9100.0
            ],
            [
                -168.1819610595703,
                1904.9676513671875,
                9200.0
            ],
            [
                -161.12322998046875,
                1925.0927734375,
                9300.0
            ],
            [
                -154.0583953857422,
                1945.2158203125,
                9400.0
            ],
            [
                -146.98809814453125,
                1965.3369140625,
                9500.0
            ],
            [
                -139.91281127929688,
                1985.4561767578125,
                9600.0
            ],
            [
                -132.83303833007813,
                2005.5738525390625,
                9700.0
            ],
            [
                -125.74923706054688,
                2025.6900634765625,
                9800.0
            ],
            [
                -118.66173553466797,
                2045.8050537109375,
                9900.0
            ],
            [
                -111.57091522216797,
                2065.918701171875,
                10000.0
            ],
            [
                -97.38056945800781,
                2106.143310546875,
                10200.0
            ],
            [
                -83.18025207519531,
                2146.3642578125,
                10400.0
            ],
            [
                -68.97198486328125,
                2186.58251953125,
                10600.0
            ],
            [
                -54.75728225708008,
                2226.798583984375,
                10800.0
            ],
            [
                -40.53725814819336,
                2267.0126953125,
                11000.0
            ],
            [
                -26.31299591064453,
                2307.22509765625,
                11200.0
            ],
            [
                -12.085536003112793,
                2347.4365234375,
                11400.0
            ],
            [
                2.144218683242798,
                2387.646484375,
                11600.0
            ],
            [
                16.37613868713379,
                2427.855712890625,
                11800.0
            ],
            [
                30.6096248626709,
                2468.064208984375,
                12000.0
            ],
            [
                44.84404373168945,
                2508.272216796875,
                12200.0
            ],
            [
                59.07923889160156,
                2548.4794921875,
                12400.0
            ],
            [
                73.31468200683594,
                2588.6865234375,
                12600.0
            ],
            [
                87.55084228515625,
                2628.893310546875,
                12800.0
            ],
            [
                101.78707885742188,
                2669.099853515625,
                13000.0
            ],
            [
                116.02335357666016,
                2709.30615234375,
                13200.0
            ],
            [
                130.2597198486328,
                2749.51220703125,
                13400.0
            ]
        ],
        "zFirstMeasurement": -70.5024
    }
]
