[
    {
        "E": 32551.14128913982,
        "chi2": 0.0,
        "ip": 0.029031932639971045,
        "ipchi2": 1.4963222688408053,
        "mass": 1827.444,
        "particleId": "D0",
        "pvx": 0.6479,
        "pvy": 0.0734,
        "pvz": 12.3136,
        "px": 740.56,
        "py": -3240.97,
        "pz": 32329.32,
        "q": 0.0,
        "trajectory": [
            [
                0.6478999853134155,
                0.07339999824762344,
                12.313599586486816
            ],
            [
                0.640999972820282,
                -0.004900000058114529,
                13.198200225830078
            ]
        ],
        "zFirstMeasurement": -9999.0
    },
    {
        "E": 19831.495549954307,
        "chi2": 0.9143029451370239,
        "ip": 0.027763219142026514,
        "ipchi2": 0.6108722833069163,
        "mass": 493.677,
        "particleId": "K-",
        "pvx": 0.6479,
        "pvy": 0.0734,
        "pvz": 12.3136,
        "px": 523.44,
        "py": -1153.18,
        "pz": 19784.86,
        "q": -1.0,
        "trajectory": [
            [
                0.6675339937210083,
                -0.005706991534680128,
                13.198200225830078
            ],
            [
                0.7998129725456238,
                -0.2971368730068207,
                18.198200225830078
            ],
            [
                0.9320892095565796,
                -0.5885667204856873,
                23.198200225830078
            ],
            [
                1.064362645149231,
                -0.8799964785575867,
                28.198200225830078
            ],
            [
                1.1966333389282227,
                -1.1714261770248413,
                33.19820022583008
            ],
            [
                1.3289010524749756,
                -1.4628558158874512,
                38.19820022583008
            ],
            [
                1.4611659049987793,
                -1.754285454750061,
                43.19820022583008
            ],
            [
                1.5934278964996338,
                -2.045715093612671,
                48.19820022583008
            ],
            [
                1.72568678855896,
                -2.337144613265991,
                53.19820022583008
            ],
            [
                1.8579427003860474,
                -2.6285738945007324,
                58.19820022583008
            ],
            [
                1.990195393562317,
                -2.9200034141540527,
                63.19820022583008
            ],
            [
                2.1224451065063477,
                -3.211432695388794,
                68.19819641113281
            ],
            [
                2.2546913623809814,
                -3.502861976623535,
                73.19819641113281
            ],
            [
                2.386934757232666,
                -3.7942912578582764,
                78.19819641113281
            ],
            [
                2.5191762447357178,
                -4.085745811462402,
                83.19819641113281
            ],
            [
                2.6514127254486084,
                -4.3771748542785645,
                88.19819641113281
            ],
            [
                2.783646583557129,
                -4.668603897094727,
                93.19819641113281
            ],
            [
                2.915877342224121,
                -4.960032939910889,
                98.19819641113281
            ],
            [
                3.048105239868164,
                -5.251461982727051,
                103.19819641113281
            ],
            [
                3.5769858360290527,
                -6.417177200317383,
                123.19819641113281
            ],
            [
                4.105814456939697,
                -7.582891941070557,
                143.1981964111328
            ],
            [
                4.634586811065674,
                -8.748605728149414,
                163.1981964111328
            ],
            [
                5.163300037384033,
                -9.914318084716797,
                183.1981964111328
            ],
            [
                5.69195032119751,
                -11.08003044128418,
                203.1981964111328
            ],
            [
                6.22053337097168,
                -12.24574089050293,
                223.1981964111328
            ],
            [
                6.749046325683594,
                -13.41145133972168,
                243.1981964111328
            ],
            [
                7.277516841888428,
                -14.577160835266113,
                263.1982116699219
            ],
            [
                7.805898189544678,
                -15.74286937713623,
                283.1982116699219
            ],
            [
                8.33420467376709,
                -16.90857696533203,
                303.1982116699219
            ],
            [
                8.862433433532715,
                -18.074283599853516,
                323.1982116699219
            ],
            [
                9.390582084655762,
                -19.239990234375,
                343.1982116699219
            ],
            [
                9.918647766113281,
                -20.40569496154785,
                363.1982116699219
            ],
            [
                10.44662857055664,
                -21.571399688720703,
                383.1982116699219
            ],
            [
                10.974519729614258,
                -22.737104415893555,
                403.1982116699219
            ],
            [
                11.502315521240234,
                -23.902807235717773,
                423.1982116699219
            ],
            [
                12.03001594543457,
                -25.068510055541992,
                443.1982116699219
            ],
            [
                12.557619094848633,
                -26.234210968017578,
                463.1982116699219
            ],
            [
                13.085121154785156,
                -27.399911880493164,
                483.1982116699219
            ],
            [
                13.612519264221191,
                -28.56561279296875,
                503.1982116699219
            ],
            [
                14.13980770111084,
                -29.731311798095703,
                523.1981811523438
            ],
            [
                14.666984558105469,
                -30.897010803222656,
                543.1981811523438
            ],
            [
                15.194048881530762,
                -32.06270980834961,
                563.1981811523438
            ],
            [
                15.720979690551758,
                -33.2284049987793,
                583.1981811523438
            ],
            [
                16.247787475585938,
                -34.394100189208984,
                603.1981811523438
            ],
            [
                16.774465560913086,
                -35.55979919433594,
                623.1981811523438
            ],
            [
                17.30101203918457,
                -36.725494384765625,
                643.1981811523438
            ],
            [
                17.82741355895996,
                -37.89118957519531,
                663.1981811523438
            ],
            [
                18.35367774963379,
                -39.056888580322266,
                683.1981811523438
            ],
            [
                18.879802703857422,
                -40.22258377075195,
                703.1981811523438
            ],
            [
                19.40578842163086,
                -41.388275146484375,
                723.1981811523438
            ],
            [
                19.93160057067871,
                -42.55397033691406,
                743.1981811523438
            ],
            [
                20.45724105834961,
                -43.719661712646484,
                763.1981811523438
            ],
            [
                20.98272132873535,
                -44.88535690307617,
                783.1981811523438
            ],
            [
                21.508039474487305,
                -46.05105209350586,
                803.1981811523438
            ],
            [
                22.033193588256836,
                -47.21674346923828,
                823.1981811523438
            ],
            [
                22.558176040649414,
                -48.38243865966797,
                843.1981811523438
            ],
            [
                23.08298683166504,
                -49.548133850097656,
                863.1981811523438
            ],
            [
                23.60761833190918,
                -50.71382522583008,
                883.1981811523438
            ],
            [
                24.13205909729004,
                -51.879520416259766,
                903.1981811523438
            ],
            [
                24.656295776367188,
                -53.04522705078125,
                923.1981811523438
            ],
            [
                25.180339813232422,
                -54.21092987060547,
                943.1981811523438
            ],
            [
                25.70418930053711,
                -55.37663650512695,
                963.1981811523438
            ],
            [
                26.22780418395996,
                -56.54234313964844,
                983.1981811523438
            ],
            [
                26.751182556152344,
                -57.70805358886719,
                1003.1981811523438
            ],
            [
                29.365283966064453,
                -63.53658676147461,
                1103.1982421875
            ],
            [
                31.97273826599121,
                -69.3651123046875,
                1203.1982421875
            ],
            [
                34.5755729675293,
                -75.19371795654297,
                1303.1982421875
            ],
            [
                37.17290115356445,
                -81.02235412597656,
                1403.1982421875
            ],
            [
                39.76527786254883,
                -86.85095977783203,
                1503.1982421875
            ],
            [
                42.352439880371094,
                -92.67957305908203,
                1603.1982421875
            ],
            [
                44.93414306640625,
                -98.50821685791016,
                1703.1982421875
            ],
            [
                47.509185791015625,
                -104.3369140625,
                1803.1982421875
            ],
            [
                50.0774040222168,
                -110.16560363769531,
                1903.1982421875
            ],
            [
                52.63745880126953,
                -115.9942626953125,
                2003.1982421875
            ],
            [
                55.1883659362793,
                -121.82283020019531,
                2103.1982421875
            ],
            [
                57.72711944580078,
                -127.65140533447266,
                2203.1982421875
            ],
            [
                60.25579071044922,
                -133.47987365722656,
                2303.1982421875
            ],
            [
                62.76738357543945,
                -139.3083038330078,
                2403.1982421875
            ],
            [
                65.25923919677734,
                -145.1366729736328,
                2503.1982421875
            ],
            [
                67.72654724121094,
                -150.96490478515625,
                2603.1982421875
            ],
            [
                70.1668701171875,
                -156.79307556152344,
                2703.1982421875
            ],
            [
                72.57597351074219,
                -162.6210479736328,
                2803.1982421875
            ],
            [
                74.94345092773438,
                -168.44869995117188,
                2903.1982421875
            ],
            [
                77.26388549804688,
                -174.27609252929688,
                3003.1982421875
            ],
            [
                79.5354232788086,
                -180.1032257080078,
                3103.1982421875
            ],
            [
                81.74105072021484,
                -185.9295196533203,
                3203.1982421875
            ],
            [
                83.87899017333984,
                -191.7555389404297,
                3303.1982421875
            ],
            [
                85.93498992919922,
                -197.5810089111328,
                3403.1982421875
            ],
            [
                87.90156555175781,
                -203.40597534179688,
                3503.1982421875
            ],
            [
                89.77692413330078,
                -209.2307891845703,
                3603.1982421875
            ],
            [
                91.54557800292969,
                -215.05545043945313,
                3703.1982421875
            ],
            [
                93.19312286376953,
                -220.87908935546875,
                3803.1982421875
            ],
            [
                94.72267150878906,
                -226.70228576660156,
                3903.1982421875
            ],
            [
                96.114013671875,
                -232.52561950683594,
                4003.1982421875
            ],
            [
                97.3748550415039,
                -238.34927368164063,
                4103.1982421875
            ],
            [
                98.47756958007813,
                -244.17274475097656,
                4203.1982421875
            ],
            [
                99.42932891845703,
                -249.99559020996094,
                4303.1982421875
            ],
            [
                100.230224609375,
                -255.8196563720703,
                4403.1982421875
            ],
            [
                100.87399291992188,
                -261.64361572265625,
                4503.1982421875
            ],
            [
                101.36174774169922,
                -267.4681396484375,
                4603.1982421875
            ],
            [
                101.67768859863281,
                -273.2922668457031,
                4703.1982421875
            ],
            [
                101.7019271850586,
                -277.5006408691406,
                4803.1982421875
            ],
            [
                101.6903305053711,
                -283.2647705078125,
                4903.1982421875
            ],
            [
                101.52201080322266,
                -289.0286560058594,
                5003.1982421875
            ],
            [
                101.19083404541016,
                -294.7931213378906,
                5103.1982421875
            ],
            [
                100.70634460449219,
                -300.55792236328125,
                5203.1982421875
            ],
            [
                100.06588745117188,
                -306.3236389160156,
                5303.1982421875
            ],
            [
                99.27273559570313,
                -312.0890808105469,
                5403.1982421875
            ],
            [
                98.32891082763672,
                -317.8537902832031,
                5503.1982421875
            ],
            [
                97.24220275878906,
                -323.62005615234375,
                5603.1982421875
            ],
            [
                96.0074234008789,
                -329.38623046875,
                5703.1982421875
            ],
            [
                94.63118743896484,
                -335.1529235839844,
                5803.1982421875
            ],
            [
                93.12152862548828,
                -340.919677734375,
                5903.1982421875
            ],
            [
                91.47332763671875,
                -346.6866760253906,
                6003.1982421875
            ],
            [
                89.6966552734375,
                -352.4541015625,
                6103.1982421875
            ],
            [
                87.79312133789063,
                -358.2215270996094,
                6203.1982421875
            ],
            [
                85.76685333251953,
                -363.9887390136719,
                6303.1982421875
            ],
            [
                83.6233901977539,
                -369.75592041015625,
                6403.1982421875
            ],
            [
                81.36591339111328,
                -375.5229187011719,
                6503.1982421875
            ],
            [
                78.9996109008789,
                -381.2898254394531,
                6603.1982421875
            ],
            [
                76.52871704101563,
                -387.0566101074219,
                6703.1982421875
            ],
            [
                73.96150970458984,
                -392.8232116699219,
                6803.1982421875
            ],
            [
                71.29865264892578,
                -398.5893249511719,
                6903.1982421875
            ],
            [
                68.54730987548828,
                -404.3550720214844,
                7003.1982421875
            ],
            [
                65.7132568359375,
                -410.1204528808594,
                7103.1982421875
            ],
            [
                62.801761627197266,
                -415.88543701171875,
                7203.1982421875
            ],
            [
                59.81723403930664,
                -421.6500244140625,
                7303.1982421875
            ],
            [
                56.76347351074219,
                -427.41412353515625,
                7403.1982421875
            ],
            [
                53.64896011352539,
                -433.1778869628906,
                7503.1982421875
            ],
            [
                50.47434616088867,
                -438.941162109375,
                7603.1982421875
            ],
            [
                47.246826171875,
                -444.70404052734375,
                7703.1982421875
            ],
            [
                43.968666076660156,
                -450.466552734375,
                7803.1982421875
            ],
            [
                40.64435577392578,
                -456.2286682128906,
                7903.1982421875
            ],
            [
                37.27805709838867,
                -461.9904479980469,
                8003.1982421875
            ],
            [
                33.87223815917969,
                -467.7519226074219,
                8103.1982421875
            ],
            [
                30.43138885498047,
                -473.5130920410156,
                8203.1982421875
            ],
            [
                26.957962036132813,
                -479.2739562988281,
                8303.1982421875
            ],
            [
                23.45447540283203,
                -485.0345458984375,
                8403.1982421875
            ],
            [
                19.923418045043945,
                -490.79486083984375,
                8503.1982421875
            ],
            [
                16.36794090270996,
                -496.5549621582031,
                8603.1982421875
            ],
            [
                12.789440155029297,
                -502.3147888183594,
                8703.1982421875
            ],
            [
                9.190118789672852,
                -508.07440185546875,
                8803.1982421875
            ],
            [
                5.571905612945557,
                -513.8338012695313,
                8903.1982421875
            ],
            [
                1.9362170696258545,
                -519.593017578125,
                9003.1982421875
            ],
            [
                -1.7153428792953491,
                -525.3521118164063,
                9103.1982421875
            ],
            [
                -5.381302356719971,
                -531.1109619140625,
                9203.1982421875
            ],
            [
                -9.060445785522461,
                -536.8697509765625,
                9303.1982421875
            ],
            [
                -12.75158405303955,
                -542.62841796875,
                9403.1982421875
            ],
            [
                -16.45360565185547,
                -548.3869018554688,
                9503.1982421875
            ],
            [
                -20.165597915649414,
                -554.1453247070313,
                9603.1982421875
            ],
            [
                -23.886634826660156,
                -559.9036865234375,
                9703.1982421875
            ],
            [
                -27.615936279296875,
                -565.6619262695313,
                9803.1982421875
            ],
            [
                -31.352710723876953,
                -571.4201049804688,
                9903.1982421875
            ],
            [
                -35.096351623535156,
                -577.1781616210938,
                10003.1982421875
            ],
            [
                -42.601783752441406,
                -588.6942138671875,
                10203.1982421875
            ],
            [
                -50.128047943115234,
                -600.2100219726563,
                10403.1982421875
            ],
            [
                -57.671302795410156,
                -611.7257080078125,
                10603.1982421875
            ],
            [
                -65.22915649414063,
                -623.2412719726563,
                10803.1982421875
            ],
            [
                -72.79842376708984,
                -634.7567138671875,
                11003.1982421875
            ],
            [
                -80.3775634765625,
                -646.2720947265625,
                11203.1982421875
            ],
            [
                -87.96511840820313,
                -657.7874145507813,
                11403.1982421875
            ],
            [
                -95.55890655517578,
                -669.3026733398438,
                11603.1982421875
            ],
            [
                -103.158203125,
                -680.8179321289063,
                11803.1982421875
            ],
            [
                -110.76171112060547,
                -692.3331298828125,
                12003.1982421875
            ],
            [
                -118.36954498291016,
                -703.8483276367188,
                12203.1982421875
            ],
            [
                -125.9802017211914,
                -715.3634643554688,
                12403.1982421875
            ],
            [
                -133.5924835205078,
                -726.878662109375,
                12603.1982421875
            ],
            [
                -141.20655822753906,
                -738.3938598632813,
                12803.1982421875
            ],
            [
                -148.8226318359375,
                -749.9089965820313,
                13003.1982421875
            ],
            [
                -156.4401092529297,
                -761.4241333007813,
                13203.1982421875
            ],
            [
                -164.0582733154297,
                -772.9393310546875,
                13403.1982421875
            ]
        ],
        "zFirstMeasurement": 154.0981
    },
    {
        "E": 12719.262522858675,
        "chi2": 0.7829327583312988,
        "ip": 0.07791084226532993,
        "ipchi2": 10.406295433788843,
        "mass": 139.57,
        "particleId": "pi+",
        "pvx": 0.6479,
        "pvy": 0.0734,
        "pvz": 12.3136,
        "px": 215.18,
        "py": -2087.56,
        "pz": 12544.16,
        "q": 1.0,
        "trajectory": [
            [
                0.6242690682411194,
                -0.0052102371118962765,
                13.198200225830078
            ],
            [
                0.7100395560264587,
                -0.837295651435852,
                18.198200225830078
            ],
            [
                0.7958142161369324,
                -1.6693811416625977,
                23.198200225830078
            ],
            [
                0.8815931677818298,
                -2.501466751098633,
                28.198200225830078
            ],
            [
                0.9673764705657959,
                -3.333552598953247,
                33.19820022583008
            ],
            [
                1.0531642436981201,
                -4.165638446807861,
                38.19820022583008
            ],
            [
                1.1389362812042236,
                -4.997740745544434,
                43.19820022583008
            ],
            [
                1.224732756614685,
                -5.829826831817627,
                48.19820022583008
            ],
            [
                1.3105336427688599,
                -6.661912441253662,
                53.19820022583008
            ],
            [
                1.396338939666748,
                -7.4939985275268555,
                58.19820022583008
            ],
            [
                1.4821487665176392,
                -8.326085090637207,
                63.19820022583008
            ],
            [
                1.5679632425308228,
                -9.158171653747559,
                68.19819641113281
            ],
            [
                1.6537823677062988,
                -9.990257263183594,
                73.19819641113281
            ],
            [
                1.739606261253357,
                -10.822343826293945,
                78.19819641113281
            ],
            [
                1.825434923171997,
                -11.654430389404297,
                83.19819641113281
            ],
            [
                1.9112684726715088,
                -12.486516952514648,
                88.19819641113281
            ],
            [
                1.997106909751892,
                -13.318603515625,
                93.19819641113281
            ],
            [
                2.0829505920410156,
                -14.150691032409668,
                98.19819641113281
            ],
            [
                2.1687991619110107,
                -14.98277759552002,
                103.19819641113281
            ],
            [
                2.5122458934783936,
                -18.311126708984375,
                123.19819641113281
            ],
            [
                2.855781078338623,
                -21.639474868774414,
                143.1981964111328
            ],
            [
                3.199411630630493,
                -24.96782684326172,
                163.1981964111328
            ],
            [
                3.5430822372436523,
                -28.296178817749023,
                183.1981964111328
            ],
            [
                3.8868818283081055,
                -31.62453269958496,
                203.1981964111328
            ],
            [
                4.230780601501465,
                -34.95288848876953,
                223.1981964111328
            ],
            [
                4.574782371520996,
                -38.281246185302734,
                243.1981964111328
            ],
            [
                4.918890476226807,
                -41.60960388183594,
                263.1982116699219
            ],
            [
                5.263108253479004,
                -44.93796157836914,
                283.1982116699219
            ],
            [
                5.607442378997803,
                -48.26632308959961,
                303.1982116699219
            ],
            [
                5.951897621154785,
                -51.594688415527344,
                323.1982116699219
            ],
            [
                6.296475887298584,
                -54.92304992675781,
                343.1982116699219
            ],
            [
                6.641180515289307,
                -58.25141525268555,
                363.1982116699219
            ],
            [
                6.986016273498535,
                -61.57978057861328,
                383.1982116699219
            ],
            [
                7.330986976623535,
                -64.90814971923828,
                403.1982116699219
            ],
            [
                7.676100730895996,
                -68.23651885986328,
                423.1982116699219
            ],
            [
                8.021357536315918,
                -71.56488800048828,
                443.1982116699219
            ],
            [
                8.366765022277832,
                -74.89326477050781,
                463.1982116699219
            ],
            [
                8.712331771850586,
                -78.22163391113281,
                483.1982116699219
            ],
            [
                9.05805778503418,
                -81.55001068115234,
                503.1982116699219
            ],
            [
                9.403958320617676,
                -84.87837982177734,
                523.1981811523438
            ],
            [
                9.750038146972656,
                -88.20675659179688,
                543.1981811523438
            ],
            [
                10.096292495727539,
                -91.5351333618164,
                563.1981811523438
            ],
            [
                10.442724227905273,
                -94.86351013183594,
                583.1981811523438
            ],
            [
                10.78934097290039,
                -98.19189453125,
                603.1981811523438
            ],
            [
                11.13615608215332,
                -101.52027130126953,
                623.1981811523438
            ],
            [
                11.483213424682617,
                -104.84864807128906,
                643.1981811523438
            ],
            [
                11.830476760864258,
                -108.1770248413086,
                663.1981811523438
            ],
            [
                12.177949905395508,
                -111.50540924072266,
                683.1981811523438
            ],
            [
                12.52563762664795,
                -114.83379364013672,
                703.1981811523438
            ],
            [
                12.873542785644531,
                -118.16217803955078,
                723.1981811523438
            ],
            [
                13.221672058105469,
                -121.49057006835938,
                743.1981811523438
            ],
            [
                13.57003116607666,
                -124.81896209716797,
                763.1981811523438
            ],
            [
                13.918625831604004,
                -128.14735412597656,
                783.1981811523438
            ],
            [
                14.267518043518066,
                -131.47573852539063,
                803.1981811523438
            ],
            [
                14.616687774658203,
                -134.8041229248047,
                823.1981811523438
            ],
            [
                14.96611499786377,
                -138.13250732421875,
                843.1981811523438
            ],
            [
                15.315839767456055,
                -141.46087646484375,
                863.1981811523438
            ],
            [
                15.665853500366211,
                -144.7892608642578,
                883.1981811523438
            ],
            [
                16.016138076782227,
                -148.11764526367188,
                903.1981811523438
            ],
            [
                16.366662979125977,
                -151.44601440429688,
                923.1981811523438
            ],
            [
                16.717472076416016,
                -154.77438354492188,
                943.1981811523438
            ],
            [
                17.068614959716797,
                -158.10275268554688,
                963.1981811523438
            ],
            [
                17.420156478881836,
                -161.43109130859375,
                983.1981811523438
            ],
            [
                17.77197265625,
                -164.75942993164063,
                1003.1981811523438
            ],
            [
                19.53722381591797,
                -181.4011688232422,
                1103.1982421875
            ],
            [
                21.31036376953125,
                -198.0428924560547,
                1203.1982421875
            ],
            [
                23.09192657470703,
                -214.68453979492188,
                1303.1982421875
            ],
            [
                24.882038116455078,
                -231.3260498046875,
                1403.1982421875
            ],
            [
                26.68071937561035,
                -247.9674835205078,
                1503.1982421875
            ],
            [
                28.484878540039063,
                -264.60906982421875,
                1603.1982421875
            ],
            [
                30.297779083251953,
                -281.2506408691406,
                1703.1982421875
            ],
            [
                32.1182975769043,
                -297.8921813964844,
                1803.1982421875
            ],
            [
                33.9470100402832,
                -314.5336608886719,
                1903.1982421875
            ],
            [
                35.78512954711914,
                -331.17510986328125,
                2003.1982421875
            ],
            [
                37.63658142089844,
                -347.8165588378906,
                2103.1982421875
            ],
            [
                39.49871826171875,
                -364.4581298828125,
                2203.1982421875
            ],
            [
                41.37126922607422,
                -381.1000671386719,
                2303.1982421875
            ],
            [
                43.2606315612793,
                -397.7421875,
                2403.1982421875
            ],
            [
                45.171573638916016,
                -414.3847351074219,
                2503.1982421875
            ],
            [
                47.10954666137695,
                -431.0279235839844,
                2603.1982421875
            ],
            [
                49.078189849853516,
                -447.6713562011719,
                2703.1982421875
            ],
            [
                51.08451461791992,
                -464.3155517578125,
                2803.1982421875
            ],
            [
                53.13915252685547,
                -480.9605712890625,
                2903.1982421875
            ],
            [
                55.24477767944336,
                -497.60662841796875,
                3003.1982421875
            ],
            [
                57.426937103271484,
                -514.2544555664063,
                3103.1982421875
            ],
            [
                59.67949295043945,
                -530.9051513671875,
                3203.1982421875
            ],
            [
                62.02290344238281,
                -547.5585327148438,
                3303.1982421875
            ],
            [
                64.47250366210938,
                -564.2149658203125,
                3403.1982421875
            ],
            [
                67.04429626464844,
                -580.8732299804688,
                3503.1982421875
            ],
            [
                69.75437927246094,
                -597.5327758789063,
                3603.1982421875
            ],
            [
                72.634033203125,
                -614.1983032226563,
                3703.1982421875
            ],
            [
                75.69022369384766,
                -630.8677368164063,
                3803.1982421875
            ],
            [
                78.96639251708984,
                -647.5420532226563,
                3903.1982421875
            ],
            [
                82.46774291992188,
                -664.2183837890625,
                4003.1982421875
            ],
            [
                86.20515441894531,
                -680.8951416015625,
                4103.1982421875
            ],
            [
                90.21561431884766,
                -697.581787109375,
                4203.1982421875
            ],
            [
                94.50045013427734,
                -714.2680053710938,
                4303.1982421875
            ],
            [
                99.0650405883789,
                -730.9569091796875,
                4403.1982421875
            ],
            [
                103.90745544433594,
                -747.64794921875,
                4503.1982421875
            ],
            [
                109.05143737792969,
                -764.3425903320313,
                4603.1982421875
            ],
            [
                114.44271850585938,
                -781.03857421875,
                4703.1982421875
            ],
            [
                118.4305419921875,
                -797.0032348632813,
                4803.1982421875
            ],
            [
                124.38447570800781,
                -813.7168579101563,
                4903.1982421875
            ],
            [
                130.59910583496094,
                -830.4286499023438,
                5003.1982421875
            ],
            [
                137.0999298095703,
                -847.1395263671875,
                5103.1982421875
            ],
            [
                143.85015869140625,
                -863.8515014648438,
                5203.1982421875
            ],
            [
                150.87745666503906,
                -880.5657958984375,
                5303.1982421875
            ],
            [
                158.162353515625,
                -897.2799682617188,
                5403.1982421875
            ],
            [
                165.68634033203125,
                -913.9909057617188,
                5503.1982421875
            ],
            [
                173.47531127929688,
                -930.7026977539063,
                5603.1982421875
            ],
            [
                181.50308227539063,
                -947.4116821289063,
                5703.1982421875
            ],
            [
                189.79592895507813,
                -964.1214599609375,
                5803.1982421875
            ],
            [
                198.31036376953125,
                -980.828125,
                5903.1982421875
            ],
            [
                207.07550048828125,
                -997.5314331054688,
                6003.1982421875
            ],
            [
                216.06439208984375,
                -1014.2334594726563,
                6103.1982421875
            ],
            [
                225.2842254638672,
                -1030.932861328125,
                6203.1982421875
            ],
            [
                234.72732543945313,
                -1047.6273193359375,
                6303.1982421875
            ],
            [
                244.38954162597656,
                -1064.317626953125,
                6403.1982421875
            ],
            [
                254.2596435546875,
                -1081.002685546875,
                6503.1982421875
            ],
            [
                264.3421936035156,
                -1097.682373046875,
                6603.1982421875
            ],
            [
                274.6195983886719,
                -1114.3548583984375,
                6703.1982421875
            ],
            [
                285.0770263671875,
                -1131.020263671875,
                6803.1982421875
            ],
            [
                295.7120361328125,
                -1147.6767578125,
                6903.1982421875
            ],
            [
                306.50482177734375,
                -1164.32421875,
                7003.1982421875
            ],
            [
                317.4395751953125,
                -1180.9627685546875,
                7103.1982421875
            ],
            [
                328.50482177734375,
                -1197.592041015625,
                7203.1982421875
            ],
            [
                339.685302734375,
                -1214.2122802734375,
                7303.1982421875
            ],
            [
                350.9737243652344,
                -1230.8232421875,
                7403.1982421875
            ],
            [
                362.34954833984375,
                -1247.42626953125,
                7503.1982421875
            ],
            [
                373.8095703125,
                -1264.0206298828125,
                7603.1982421875
            ],
            [
                385.338623046875,
                -1280.607421875,
                7703.1982421875
            ],
            [
                396.9311218261719,
                -1297.18701171875,
                7803.1982421875
            ],
            [
                408.5778503417969,
                -1313.7598876953125,
                7903.1982421875
            ],
            [
                420.27154541015625,
                -1330.326904296875,
                8003.1982421875
            ],
            [
                432.0079040527344,
                -1346.8883056640625,
                8103.1982421875
            ],
            [
                443.78009033203125,
                -1363.4449462890625,
                8203.1982421875
            ],
            [
                455.58416748046875,
                -1379.9971923828125,
                8303.1982421875
            ],
            [
                467.4166564941406,
                -1396.5455322265625,
                8403.1982421875
            ],
            [
                479.27435302734375,
                -1413.09033203125,
                8503.1982421875
            ],
            [
                491.1531982421875,
                -1429.632080078125,
                8603.1982421875
            ],
            [
                503.0517272949219,
                -1446.1712646484375,
                8703.1982421875
            ],
            [
                514.967529296875,
                -1462.7080078125,
                8803.1982421875
            ],
            [
                526.8988647460938,
                -1479.24267578125,
                8903.1982421875
            ],
            [
                538.8441772460938,
                -1495.7755126953125,
                9003.1982421875
            ],
            [
                550.8019409179688,
                -1512.306884765625,
                9103.1982421875
            ],
            [
                562.7708740234375,
                -1528.8370361328125,
                9203.1982421875
            ],
            [
                574.7498168945313,
                -1545.365966796875,
                9303.1982421875
            ],
            [
                586.73779296875,
                -1561.8939208984375,
                9403.1982421875
            ],
            [
                598.7338256835938,
                -1578.4210205078125,
                9503.1982421875
            ],
            [
                610.7371826171875,
                -1594.9476318359375,
                9603.1982421875
            ],
            [
                622.7470703125,
                -1611.4736328125,
                9703.1982421875
            ],
            [
                634.7628784179688,
                -1627.9991455078125,
                9803.1982421875
            ],
            [
                646.7839965820313,
                -1644.5242919921875,
                9903.1982421875
            ],
            [
                658.8099365234375,
                -1661.0491943359375,
                10003.1982421875
            ],
            [
                682.87451171875,
                -1694.098388671875,
                10203.1982421875
            ],
            [
                706.9533081054688,
                -1727.1470947265625,
                10403.1982421875
            ],
            [
                731.0436401367188,
                -1760.1956787109375,
                10603.1982421875
            ],
            [
                755.1436157226563,
                -1793.244140625,
                10803.1982421875
            ],
            [
                779.2510986328125,
                -1826.2930908203125,
                11003.1982421875
            ],
            [
                803.3648681640625,
                -1859.3421630859375,
                11203.1982421875
            ],
            [
                827.4839477539063,
                -1892.3917236328125,
                11403.1982421875
            ],
            [
                851.6068115234375,
                -1925.441650390625,
                11603.1982421875
            ],
            [
                875.7330322265625,
                -1958.4920654296875,
                11803.1982421875
            ],
            [
                899.8616943359375,
                -1991.54296875,
                12003.1982421875
            ],
            [
                923.9927368164063,
                -2024.59423828125,
                12203.1982421875
            ],
            [
                948.1253662109375,
                -2057.64599609375,
                12403.1982421875
            ],
            [
                972.2588500976563,
                -2090.6982421875,
                12603.1982421875
            ],
            [
                996.3932495117188,
                -2123.750732421875,
                12803.1982421875
            ],
            [
                1020.5286254882813,
                -2156.803466796875,
                13003.1982421875
            ],
            [
                1044.66455078125,
                -2189.8564453125,
                13203.1982421875
            ],
            [
                1068.8009033203125,
                -2222.909423828125,
                13403.1982421875
            ]
        ],
        "zFirstMeasurement": 64.4073
    },
    {
        "E": 10919.382020757641,
        "chi2": 0.8232792615890503,
        "ip": 0.32391959295451395,
        "ipchi2": 16.80857113981616,
        "mass": 139.57018,
        "particleId": "pi+",
        "pvx": 0.6479,
        "pvy": 0.0734,
        "pvz": 12.3136,
        "px": -291.59274497322724,
        "py": -95.6449672834564,
        "pz": 10914.17654206731,
        "q": 1.0,
        "trajectory": [
            [
                3.934561252593994,
                0.9021397829055786,
                -100.0
            ],
            [
                3.8008534908294678,
                0.8583242893218994,
                -95.0
            ],
            [
                3.6671502590179443,
                0.8145087361335754,
                -90.0
            ],
            [
                3.5334506034851074,
                0.7706931233406067,
                -85.0
            ],
            [
                3.3997550010681152,
                0.7268774509429932,
                -80.0
            ],
            [
                3.2660634517669678,
                0.6830617785453796,
                -75.0
            ],
            [
                3.132375717163086,
                0.6392459869384766,
                -70.0
            ],
            [
                2.998692035675049,
                0.5954301953315735,
                -65.0
            ],
            [
                2.8650124073028564,
                0.5516142845153809,
                -60.0
            ],
            [
                2.7313053607940674,
                0.5077983140945435,
                -55.0
            ],
            [
                2.5976383686065674,
                0.46398234367370605,
                -50.0
            ],
            [
                2.463975429534912,
                0.42016634345054626,
                -45.0
            ],
            [
                2.3303160667419434,
                0.3763503134250641,
                -40.0
            ],
            [
                2.1966612339019775,
                0.33253416419029236,
                -35.0
            ],
            [
                2.0630104541778564,
                0.28871801495552063,
                -30.0
            ],
            [
                1.9293636083602905,
                0.24490179121494293,
                -25.0
            ],
            [
                1.7957208156585693,
                0.20108552277088165,
                -20.0
            ],
            [
                1.6620821952819824,
                0.1572691947221756,
                -15.0
            ],
            [
                1.5284478664398193,
                0.11345283687114716,
                -10.0
            ],
            [
                1.39481782913208,
                0.06963642686605453,
                -5.0
            ],
            [
                1.2611922025680542,
                0.025819974020123482,
                0.0
            ],
            [
                1.1275711059570313,
                -0.0179965291172266,
                5.0
            ],
            [
                0.9939546585083008,
                -0.061813078820705414,
                10.0
            ],
            [
                0.860342800617218,
                -0.10562967509031296,
                15.0
            ],
            [
                0.7267357707023621,
                -0.14944632351398468,
                20.0
            ],
            [
                0.5931335091590881,
                -0.1932630091905594,
                25.0
            ],
            [
                0.45953622460365295,
                -0.23707973957061768,
                30.0
            ],
            [
                0.3259439170360565,
                -0.28089651465415955,
                35.0
            ],
            [
                0.19235672056674957,
                -0.3247133493423462,
                40.0
            ],
            [
                0.058774687349796295,
                -0.3685302138328552,
                45.0
            ],
            [
                -0.07480209320783615,
                -0.41234713792800903,
                50.0
            ],
            [
                -0.2083735316991806,
                -0.45616409182548523,
                55.0
            ],
            [
                -0.3419395387172699,
                -0.4999811053276062,
                60.0
            ],
            [
                -0.47550004720687866,
                -0.5437981486320496,
                65.0
            ],
            [
                -0.6090549826622009,
                -0.5876152515411377,
                70.0
            ],
            [
                -0.7426041960716248,
                -0.6314324140548706,
                75.0
            ],
            [
                -0.8761476874351501,
                -0.6752495765686035,
                80.0
            ],
            [
                -1.0096853971481323,
                -0.7190667986869812,
                85.0
            ],
            [
                -1.1432170867919922,
                -0.7628840804100037,
                90.0
            ],
            [
                -1.2767428159713745,
                -0.8067014217376709,
                95.0
            ],
            [
                -1.4102624654769897,
                -0.8505187630653381,
                100.0
            ],
            [
                -1.9442784786224365,
                -1.02578866481781,
                120.0
            ],
            [
                -2.4781904220581055,
                -1.201059341430664,
                140.0
            ],
            [
                -3.012052536010742,
                -1.3763306140899658,
                160.0
            ],
            [
                -3.5457723140716553,
                -1.5516024827957153,
                180.0
            ],
            [
                -4.079381942749023,
                -1.7268750667572021,
                200.0
            ],
            [
                -4.612876892089844,
                -1.9021481275558472,
                220.0
            ],
            [
                -5.1462531089782715,
                -2.0774219036102295,
                240.0
            ],
            [
                -5.679540157318115,
                -2.2526867389678955,
                260.0
            ],
            [
                -6.212658405303955,
                -2.427961587905884,
                280.0
            ],
            [
                -6.745637893676758,
                -2.6032369136810303,
                300.0
            ],
            [
                -7.278476715087891,
                -2.778512716293335,
                320.0
            ],
            [
                -7.811172008514404,
                -2.9537887573242188,
                340.0
            ],
            [
                -8.343765258789063,
                -3.12906551361084,
                360.0
            ],
            [
                -8.876128196716309,
                -3.304342031478882,
                380.0
            ],
            [
                -9.408341407775879,
                -3.479618787765503,
                400.0
            ],
            [
                -9.940396308898926,
                -3.654895544052124,
                420.0
            ],
            [
                -10.472282409667969,
                -3.8301727771759033,
                440.0
            ],
            [
                -11.003990173339844,
                -4.0054497718811035,
                460.0
            ],
            [
                -11.535511016845703,
                -4.180727005004883,
                480.0
            ],
            [
                -12.066834449768066,
                -4.356004238128662,
                500.0
            ],
            [
                -12.597951889038086,
                -4.531281471252441,
                520.0
            ],
            [
                -13.128851890563965,
                -4.706558704376221,
                540.0
            ],
            [
                -13.659612655639648,
                -4.8818359375,
                560.0
            ],
            [
                -14.190104484558105,
                -5.057112693786621,
                580.0
            ],
            [
                -14.720369338989258,
                -5.2323899269104,
                600.0
            ],
            [
                -15.250398635864258,
                -5.4076666831970215,
                620.0
            ],
            [
                -15.780179023742676,
                -5.582942962646484,
                640.0
            ],
            [
                -16.309709548950195,
                -5.758219242095947,
                660.0
            ],
            [
                -16.838979721069336,
                -5.93349552154541,
                680.0
            ],
            [
                -17.367982864379883,
                -6.108771800994873,
                700.0
            ],
            [
                -17.896703720092773,
                -6.284046173095703,
                720.0
            ],
            [
                -18.425142288208008,
                -6.459320068359375,
                740.0
            ],
            [
                -18.953289031982422,
                -6.6345930099487305,
                760.0
            ],
            [
                -19.481136322021484,
                -6.8098649978637695,
                780.0
            ],
            [
                -20.00867462158203,
                -6.98513650894165,
                800.0
            ],
            [
                -20.53590202331543,
                -7.160407543182373,
                820.0
            ],
            [
                -21.062807083129883,
                -7.335677146911621,
                840.0
            ],
            [
                -21.589380264282227,
                -7.510945796966553,
                860.0
            ],
            [
                -22.115631103515625,
                -7.686215400695801,
                880.0
            ],
            [
                -22.641544342041016,
                -7.861485004425049,
                900.0
            ],
            [
                -23.167123794555664,
                -8.036754608154297,
                920.0
            ],
            [
                -23.692350387573242,
                -8.21202278137207,
                940.0
            ],
            [
                -24.217199325561523,
                -8.387288093566895,
                960.0
            ],
            [
                -24.741653442382813,
                -8.56254768371582,
                980.0
            ],
            [
                -25.26572608947754,
                -8.73780632019043,
                1000.0
            ],
            [
                -27.880502700805664,
                -9.614075660705566,
                1100.0
            ],
            [
                -30.48512840270996,
                -10.490302085876465,
                1200.0
            ],
            [
                -33.079795837402344,
                -11.366487503051758,
                1300.0
            ],
            [
                -35.66426467895508,
                -12.242680549621582,
                1400.0
            ],
            [
                -38.24214553833008,
                -13.119036674499512,
                1500.0
            ],
            [
                -40.80767059326172,
                -13.995196342468262,
                1600.0
            ],
            [
                -43.36248779296875,
                -14.871329307556152,
                1700.0
            ],
            [
                -45.90711975097656,
                -15.747430801391602,
                1800.0
            ],
            [
                -48.4384765625,
                -16.623485565185547,
                1900.0
            ],
            [
                -50.954322814941406,
                -17.499486923217773,
                2000.0
            ],
            [
                -53.45381164550781,
                -18.37542152404785,
                2100.0
            ],
            [
                -55.93251037597656,
                -19.251325607299805,
                2200.0
            ],
            [
                -58.385047912597656,
                -20.127140045166016,
                2300.0
            ],
            [
                -60.81071090698242,
                -21.002838134765625,
                2400.0
            ],
            [
                -63.1993408203125,
                -21.878658294677734,
                2500.0
            ],
            [
                -65.54618072509766,
                -22.7540283203125,
                2600.0
            ],
            [
                -67.834716796875,
                -23.629140853881836,
                2700.0
            ],
            [
                -70.06696319580078,
                -24.504030227661133,
                2800.0
            ],
            [
                -72.22259521484375,
                -25.378633499145508,
                2900.0
            ],
            [
                -74.29216766357422,
                -26.252944946289063,
                3000.0
            ],
            [
                -76.26730346679688,
                -27.127098083496094,
                3100.0
            ],
            [
                -78.11710357666016,
                -28.001142501831055,
                3200.0
            ],
            [
                -79.84449005126953,
                -28.875038146972656,
                3300.0
            ],
            [
                -81.43609619140625,
                -29.748592376708984,
                3400.0
            ],
            [
                -82.85358428955078,
                -30.62251091003418,
                3500.0
            ],
            [
                -84.1027603149414,
                -31.4954833984375,
                3600.0
            ],
            [
                -85.15176391601563,
                -32.36830139160156,
                3700.0
            ],
            [
                -85.98919677734375,
                -33.2408447265625,
                3800.0
            ],
            [
                -86.6125717163086,
                -34.113155364990234,
                3900.0
            ],
            [
                -87.00737762451172,
                -34.9848747253418,
                4000.0
            ],
            [
                -87.11384582519531,
                -35.85588836669922,
                4100.0
            ],
            [
                -86.97847747802734,
                -36.72676086425781,
                4200.0
            ],
            [
                -86.57470703125,
                -37.59714126586914,
                4300.0
            ],
            [
                -85.9151840209961,
                -38.46720886230469,
                4400.0
            ],
            [
                -84.95523834228516,
                -39.336917877197266,
                4500.0
            ],
            [
                -83.7059097290039,
                -40.20556640625,
                4600.0
            ],
            [
                -82.18484497070313,
                -41.07414245605469,
                4700.0
            ],
            [
                -80.3675765991211,
                -41.94160461425781,
                4800.0
            ],
            [
                -78.2825698852539,
                -42.808677673339844,
                4900.0
            ],
            [
                -79.47899627685547,
                -40.161067962646484,
                5000.0
            ],
            [
                -76.62857818603516,
                -41.31498336791992,
                5100.0
            ],
            [
                -73.49462890625,
                -42.46843719482422,
                5200.0
            ],
            [
                -70.0670166015625,
                -43.62013244628906,
                5300.0
            ],
            [
                -66.36708068847656,
                -44.77267837524414,
                5400.0
            ],
            [
                -62.366878509521484,
                -45.92618179321289,
                5500.0
            ],
            [
                -58.14329147338867,
                -47.0771369934082,
                5600.0
            ],
            [
                -53.649356842041016,
                -48.22835159301758,
                5700.0
            ],
            [
                -48.89622116088867,
                -49.3785400390625,
                5800.0
            ],
            [
                -43.89986801147461,
                -50.52811813354492,
                5900.0
            ],
            [
                -38.65254211425781,
                -51.67683410644531,
                6000.0
            ],
            [
                -33.16850662231445,
                -52.82443618774414,
                6100.0
            ],
            [
                -27.454198837280273,
                -53.971580505371094,
                6200.0
            ],
            [
                -21.51051139831543,
                -55.118534088134766,
                6300.0
            ],
            [
                -15.355246543884277,
                -56.26507568359375,
                6400.0
            ],
            [
                -8.996254920959473,
                -57.41135787963867,
                6500.0
            ],
            [
                -2.445047616958618,
                -58.556949615478516,
                6600.0
            ],
            [
                4.297640323638916,
                -59.70182418823242,
                6700.0
            ],
            [
                11.217191696166992,
                -60.846153259277344,
                6800.0
            ],
            [
                18.311336517333984,
                -61.990108489990234,
                6900.0
            ],
            [
                25.567598342895508,
                -63.13352966308594,
                7000.0
            ],
            [
                32.97579574584961,
                -64.27642822265625,
                7100.0
            ],
            [
                40.526695251464844,
                -65.41878509521484,
                7200.0
            ],
            [
                48.2128791809082,
                -66.56050872802734,
                7300.0
            ],
            [
                56.02754592895508,
                -67.70171356201172,
                7400.0
            ],
            [
                63.95685577392578,
                -68.84217071533203,
                7500.0
            ],
            [
                71.99608612060547,
                -69.9820556640625,
                7600.0
            ],
            [
                80.135498046875,
                -71.1212387084961,
                7700.0
            ],
            [
                88.37071990966797,
                -72.25968933105469,
                7800.0
            ],
            [
                96.69374084472656,
                -73.39739990234375,
                7900.0
            ],
            [
                105.0969467163086,
                -74.534423828125,
                8000.0
            ],
            [
                113.57608032226563,
                -75.67072296142578,
                8100.0
            ],
            [
                122.12266540527344,
                -76.80634307861328,
                8200.0
            ],
            [
                130.73243713378906,
                -77.94132232666016,
                8300.0
            ],
            [
                139.40074157714844,
                -79.07568359375,
                8400.0
            ],
            [
                148.1228790283203,
                -80.20946502685547,
                8500.0
            ],
            [
                156.89276123046875,
                -81.34273529052734,
                8600.0
            ],
            [
                165.70787048339844,
                -82.47550201416016,
                8700.0
            ],
            [
                174.5640869140625,
                -83.60783386230469,
                8800.0
            ],
            [
                183.4576416015625,
                -84.73971557617188,
                8900.0
            ],
            [
                192.3858642578125,
                -85.87117004394531,
                9000.0
            ],
            [
                201.3456573486328,
                -87.00225067138672,
                9100.0
            ],
            [
                210.33413696289063,
                -88.13297271728516,
                9200.0
            ],
            [
                219.34896850585938,
                -89.26335906982422,
                9300.0
            ],
            [
                228.38778686523438,
                -90.3934555053711,
                9400.0
            ],
            [
                237.44842529296875,
                -91.52327728271484,
                9500.0
            ],
            [
                246.52908325195313,
                -92.6528549194336,
                9600.0
            ],
            [
                255.62791442871094,
                -93.78221130371094,
                9700.0
            ],
            [
                264.7433776855469,
                -94.91136169433594,
                9800.0
            ],
            [
                273.8739013671875,
                -96.04032897949219,
                9900.0
            ],
            [
                283.01824951171875,
                -97.16913604736328,
                10000.0
            ],
            [
                301.3435974121094,
                -99.42632293701172,
                10200.0
            ],
            [
                319.7109680175781,
                -101.68303680419922,
                10400.0
            ],
            [
                338.1127624511719,
                -103.93937683105469,
                10600.0
            ],
            [
                356.5440368652344,
                -106.19541931152344,
                10800.0
            ],
            [
                374.9984436035156,
                -108.45125579833984,
                11000.0
            ],
            [
                393.4728088378906,
                -110.70691680908203,
                11200.0
            ],
            [
                411.9642028808594,
                -112.96244812011719,
                11400.0
            ],
            [
                430.4683532714844,
                -115.21790313720703,
                11600.0
            ],
            [
                448.98358154296875,
                -117.4732894897461,
                11800.0
            ],
            [
                467.50738525390625,
                -119.72864532470703,
                12000.0
            ],
            [
                486.0398864746094,
                -121.98395538330078,
                12200.0
            ],
            [
                504.5780944824219,
                -124.2392578125,
                12400.0
            ],
            [
                523.1198120117188,
                -126.49457550048828,
                12600.0
            ],
            [
                541.6651000976563,
                -128.74989318847656,
                12800.0
            ],
            [
                560.21435546875,
                -131.00518798828125,
                13000.0
            ],
            [
                578.7664184570313,
                -133.26048278808594,
                13200.0
            ],
            [
                597.3199462890625,
                -135.5157928466797,
                13400.0
            ]
        ],
        "zFirstMeasurement": 449.2342
    },
    {
        "E": 6091.318233250419,
        "chi2": 1.6072007417678833,
        "ip": 0.07059472841999263,
        "ipchi2": 5.098345876856848,
        "mass": 493.67699999999996,
        "particleId": "K+",
        "pvx": 0.6479,
        "pvy": 0.0734,
        "pvz": 12.3136,
        "px": 557.381212412859,
        "py": 608.9099397470677,
        "pz": 6014.897813573095,
        "q": 1.0,
        "trajectory": [
            [
                -9.799860000610352,
                -11.23976993560791,
                -100.0
            ],
            [
                -9.336697578430176,
                -10.733598709106445,
                -95.0
            ],
            [
                -8.873581886291504,
                -10.22742748260498,
                -90.0
            ],
            [
                -8.410396575927734,
                -9.7212553024292,
                -85.0
            ],
            [
                -7.947204113006592,
                -9.215084075927734,
                -80.0
            ],
            [
                -7.484005451202393,
                -8.70891284942627,
                -75.0
            ],
            [
                -7.02079963684082,
                -8.202741622924805,
                -70.0
            ],
            [
                -6.557586669921875,
                -7.69657039642334,
                -65.0
            ],
            [
                -6.094367027282715,
                -7.190399646759033,
                -60.0
            ],
            [
                -5.631139755249023,
                -6.684228897094727,
                -55.0
            ],
            [
                -5.167905807495117,
                -6.178058624267578,
                -50.0
            ],
            [
                -4.7046637535095215,
                -5.67188835144043,
                -45.0
            ],
            [
                -4.241414546966553,
                -5.1657185554504395,
                -40.0
            ],
            [
                -3.7781577110290527,
                -4.659548759460449,
                -35.0
            ],
            [
                -3.3148930072784424,
                -4.153378963470459,
                -30.0
            ],
            [
                -2.8516201972961426,
                -3.647209405899048,
                -25.0
            ],
            [
                -2.3883392810821533,
                -3.141040325164795,
                -20.0
            ],
            [
                -1.925050139427185,
                -2.634871244430542,
                -15.0
            ],
            [
                -1.4617527723312378,
                -2.128702402114868,
                -10.0
            ],
            [
                -0.9984468817710876,
                -1.6225336790084839,
                -5.0
            ],
            [
                -0.5351324081420898,
                -1.1163650751113892,
                0.0
            ],
            [
                -0.07180918008089066,
                -0.6101967096328735,
                5.0
            ],
            [
                0.3915228843688965,
                -0.10402855277061462,
                10.0
            ],
            [
                0.8548640012741089,
                0.40213945508003235,
                15.0
            ],
            [
                1.3182142972946167,
                0.9083073139190674,
                20.0
            ],
            [
                1.78157377243042,
                1.4144749641418457,
                25.0
            ],
            [
                2.2449429035186768,
                1.9206424951553345,
                30.0
            ],
            [
                2.7083215713500977,
                2.426809787750244,
                35.0
            ],
            [
                3.1717100143432617,
                2.9329771995544434,
                40.0
            ],
            [
                3.635108232498169,
                3.4391441345214844,
                45.0
            ],
            [
                4.098516464233398,
                3.9453110694885254,
                50.0
            ],
            [
                4.56204080581665,
                4.451467514038086,
                55.0
            ],
            [
                5.025468826293945,
                4.957633972167969,
                60.0
            ],
            [
                5.488906383514404,
                5.463800430297852,
                65.0
            ],
            [
                5.9523539543151855,
                5.969966888427734,
                70.0
            ],
            [
                6.415811061859131,
                6.476132869720459,
                75.0
            ],
            [
                6.879278659820557,
                6.982298851013184,
                80.0
            ],
            [
                7.342756271362305,
                7.488464832305908,
                85.0
            ],
            [
                7.806244373321533,
                7.994630336761475,
                90.0
            ],
            [
                8.269742965698242,
                8.5007963180542,
                95.0
            ],
            [
                8.73325252532959,
                9.006961822509766,
                100.0
            ],
            [
                10.587400436401367,
                11.031621932983398,
                120.0
            ],
            [
                12.441734313964844,
                13.056280136108398,
                140.0
            ],
            [
                14.296266555786133,
                15.080936431884766,
                160.0
            ],
            [
                16.15100860595703,
                17.105592727661133,
                180.0
            ],
            [
                18.005874633789063,
                19.1302433013916,
                200.0
            ],
            [
                19.861005783081055,
                21.154895782470703,
                220.0
            ],
            [
                21.716358184814453,
                23.179546356201172,
                240.0
            ],
            [
                23.57193946838379,
                25.20419692993164,
                260.0
            ],
            [
                25.42776107788086,
                27.228845596313477,
                280.0
            ],
            [
                27.283830642700195,
                29.253494262695313,
                300.0
            ],
            [
                29.14015769958496,
                31.27814292907715,
                320.0
            ],
            [
                30.996749877929688,
                33.302791595458984,
                340.0
            ],
            [
                32.853614807128906,
                35.32743835449219,
                360.0
            ],
            [
                34.710758209228516,
                37.35208511352539,
                380.0
            ],
            [
                36.56819534301758,
                39.37673568725586,
                400.0
            ],
            [
                38.42593765258789,
                41.40138626098633,
                420.0
            ],
            [
                40.28398895263672,
                43.4260368347168,
                440.0
            ],
            [
                42.14238739013672,
                45.450687408447266,
                460.0
            ],
            [
                44.00112533569336,
                47.475341796875,
                480.0
            ],
            [
                45.860206604003906,
                49.5,
                500.0
            ],
            [
                47.719661712646484,
                51.524658203125,
                520.0
            ],
            [
                49.57948684692383,
                53.549320220947266,
                540.0
            ],
            [
                51.4396858215332,
                55.5739860534668,
                560.0
            ],
            [
                53.30027389526367,
                57.59865188598633,
                580.0
            ],
            [
                55.1612548828125,
                59.62332534790039,
                600.0
            ],
            [
                57.02273178100586,
                61.64799880981445,
                620.0
            ],
            [
                58.88465881347656,
                63.672672271728516,
                640.0
            ],
            [
                60.74702072143555,
                65.69734954833984,
                660.0
            ],
            [
                62.60983657836914,
                67.72203826904297,
                680.0
            ],
            [
                64.47311401367188,
                69.74671936035156,
                700.0
            ],
            [
                66.33682250976563,
                71.77140045166016,
                720.0
            ],
            [
                68.20099639892578,
                73.79608154296875,
                740.0
            ],
            [
                70.06565856933594,
                75.82077026367188,
                760.0
            ],
            [
                71.93093872070313,
                77.845458984375,
                780.0
            ],
            [
                73.79694366455078,
                79.87017059326172,
                800.0
            ],
            [
                75.66349792480469,
                81.89488220214844,
                820.0
            ],
            [
                77.53062438964844,
                83.91960144042969,
                840.0
            ],
            [
                79.39832305908203,
                85.94432067871094,
                860.0
            ],
            [
                81.2666244506836,
                87.96904754638672,
                880.0
            ],
            [
                83.13552856445313,
                89.99378204345703,
                900.0
            ],
            [
                85.00495910644531,
                92.01851654052734,
                920.0
            ],
            [
                86.87505340576172,
                94.04325866699219,
                940.0
            ],
            [
                88.74602508544922,
                96.0679931640625,
                960.0
            ],
            [
                90.61768341064453,
                98.09272766113281,
                980.0
            ],
            [
                92.49002075195313,
                100.11746215820313,
                1000.0
            ],
            [
                101.86434173583984,
                110.24095153808594,
                1100.0
            ],
            [
                111.25508117675781,
                120.36419677734375,
                1200.0
            ],
            [
                120.6639404296875,
                130.48727416992188,
                1300.0
            ],
            [
                130.0905303955078,
                140.61004638671875,
                1400.0
            ],
            [
                139.53594970703125,
                150.7326202392578,
                1500.0
            ],
            [
                148.9942169189453,
                160.85504150390625,
                1600.0
            ],
            [
                158.47230529785156,
                170.9777374267578,
                1700.0
            ],
            [
                167.9686737060547,
                181.10084533691406,
                1800.0
            ],
            [
                177.48765563964844,
                191.22442626953125,
                1900.0
            ],
            [
                187.0286865234375,
                201.34896850585938,
                2000.0
            ],
            [
                196.60684204101563,
                211.47463989257813,
                2100.0
            ],
            [
                206.2127227783203,
                221.60182189941406,
                2200.0
            ],
            [
                215.84764099121094,
                231.73165893554688,
                2300.0
            ],
            [
                225.53419494628906,
                241.8641815185547,
                2400.0
            ],
            [
                235.27674865722656,
                252.00144958496094,
                2500.0
            ],
            [
                245.09347534179688,
                262.1446228027344,
                2600.0
            ],
            [
                254.9896240234375,
                272.2933349609375,
                2700.0
            ],
            [
                264.9883728027344,
                282.44927978515625,
                2800.0
            ],
            [
                275.1068420410156,
                292.6152648925781,
                2900.0
            ],
            [
                285.36572265625,
                302.7920227050781,
                3000.0
            ],
            [
                295.8048400878906,
                312.978759765625,
                3100.0
            ],
            [
                306.4283752441406,
                323.18023681640625,
                3200.0
            ],
            [
                317.2602844238281,
                333.39691162109375,
                3300.0
            ],
            [
                328.3590393066406,
                343.63189697265625,
                3400.0
            ],
            [
                339.74639892578125,
                353.8857421875,
                3500.0
            ],
            [
                351.43499755859375,
                364.15667724609375,
                3600.0
            ],
            [
                363.489013671875,
                374.4465026855469,
                3700.0
            ],
            [
                375.9278259277344,
                384.7593078613281,
                3800.0
            ],
            [
                388.7935485839844,
                395.09698486328125,
                3900.0
            ],
            [
                402.13140869140625,
                405.4573669433594,
                4000.0
            ],
            [
                415.9298095703125,
                415.82989501953125,
                4100.0
            ],
            [
                430.2565002441406,
                426.2289123535156,
                4200.0
            ],
            [
                445.1244201660156,
                436.6511535644531,
                4300.0
            ],
            [
                460.5354919433594,
                447.0901794433594,
                4400.0
            ],
            [
                476.4656066894531,
                457.543212890625,
                4500.0
            ],
            [
                492.9921569824219,
                468.0067138671875,
                4600.0
            ],
            [
                510.0702209472656,
                478.4864501953125,
                4700.0
            ],
            [
                518.7415161132813,
                481.9976501464844,
                4800.0
            ],
            [
                536.6905517578125,
                492.2964782714844,
                4900.0
            ],
            [
                555.1865234375,
                502.5990905761719,
                5000.0
            ],
            [
                574.2656860351563,
                512.9203491210938,
                5100.0
            ],
            [
                593.88671875,
                523.244873046875,
                5200.0
            ],
            [
                614.064208984375,
                533.5763549804688,
                5300.0
            ],
            [
                634.7775268554688,
                543.9068603515625,
                5400.0
            ],
            [
                656.0359497070313,
                554.2340087890625,
                5500.0
            ],
            [
                677.8023681640625,
                564.577392578125,
                5600.0
            ],
            [
                700.0972900390625,
                574.9134521484375,
                5700.0
            ],
            [
                722.910400390625,
                585.2496948242188,
                5800.0
            ],
            [
                746.2022705078125,
                595.580078125,
                5900.0
            ],
            [
                770.0075073242188,
                605.9120483398438,
                6000.0
            ],
            [
                794.282470703125,
                616.240234375,
                6100.0
            ],
            [
                819.0230102539063,
                626.5579833984375,
                6200.0
            ],
            [
                844.2200317382813,
                636.8676147460938,
                6300.0
            ],
            [
                869.8553466796875,
                647.1666870117188,
                6400.0
            ],
            [
                895.9165649414063,
                657.4500122070313,
                6500.0
            ],
            [
                922.3854370117188,
                667.7232666015625,
                6600.0
            ],
            [
                949.2457275390625,
                677.9791870117188,
                6700.0
            ],
            [
                976.4661865234375,
                688.2174072265625,
                6800.0
            ],
            [
                1004.048095703125,
                698.4351806640625,
                6900.0
            ],
            [
                1031.9581298828125,
                708.6324462890625,
                7000.0
            ],
            [
                1060.1727294921875,
                718.8087768554688,
                7100.0
            ],
            [
                1088.671875,
                728.963134765625,
                7200.0
            ],
            [
                1117.4334716796875,
                739.0960083007813,
                7300.0
            ],
            [
                1146.44775390625,
                749.20751953125,
                7400.0
            ],
            [
                1175.673095703125,
                759.3004760742188,
                7500.0
            ],
            [
                1205.1092529296875,
                769.3726806640625,
                7600.0
            ],
            [
                1234.72607421875,
                779.4275512695313,
                7700.0
            ],
            [
                1264.514404296875,
                789.4649658203125,
                7800.0
            ],
            [
                1294.4560546875,
                799.48681640625,
                7900.0
            ],
            [
                1324.534423828125,
                809.4949340820313,
                8000.0
            ],
            [
                1354.739990234375,
                819.490234375,
                8100.0
            ],
            [
                1385.0552978515625,
                829.4752197265625,
                8200.0
            ],
            [
                1415.4715576171875,
                839.4508666992188,
                8300.0
            ],
            [
                1445.979736328125,
                849.4183349609375,
                8400.0
            ],
            [
                1476.571044921875,
                859.3790893554688,
                8500.0
            ],
            [
                1507.2337646484375,
                869.3344116210938,
                8600.0
            ],
            [
                1537.96337890625,
                879.2852172851563,
                8700.0
            ],
            [
                1568.752685546875,
                889.232421875,
                8800.0
            ],
            [
                1599.595703125,
                899.1770629882813,
                8900.0
            ],
            [
                1630.4874267578125,
                909.1197509765625,
                9000.0
            ],
            [
                1661.4229736328125,
                919.0612182617188,
                9100.0
            ],
            [
                1692.3974609375,
                929.0020141601563,
                9200.0
            ],
            [
                1723.4073486328125,
                938.9425048828125,
                9300.0
            ],
            [
                1754.44873046875,
                948.883056640625,
                9400.0
            ],
            [
                1785.5184326171875,
                958.8240356445313,
                9500.0
            ],
            [
                1816.6136474609375,
                968.7656860351563,
                9600.0
            ],
            [
                1847.731689453125,
                978.7081298828125,
                9700.0
            ],
            [
                1878.8704833984375,
                988.6514892578125,
                9800.0
            ],
            [
                1910.027587890625,
                998.5958862304688,
                9900.0
            ],
            [
                1941.2015380859375,
                1008.5413818359375,
                10000.0
            ],
            [
                2003.5927734375,
                1028.435791015625,
                10200.0
            ],
            [
                2066.032958984375,
                1048.3348388671875,
                10400.0
            ],
            [
                2128.51220703125,
                1068.2386474609375,
                10600.0
            ],
            [
                2191.024169921875,
                1088.1466064453125,
                10800.0
            ],
            [
                2253.560546875,
                1108.058837890625,
                11000.0
            ],
            [
                2316.1181640625,
                1127.9747314453125,
                11200.0
            ],
            [
                2378.69287109375,
                1147.8939208984375,
                11400.0
            ],
            [
                2441.280029296875,
                1167.816650390625,
                11600.0
            ],
            [
                2503.87744140625,
                1187.7421875,
                11800.0
            ],
            [
                2566.482421875,
                1207.670166015625,
                12000.0
            ],
            [
                2629.09521484375,
                1227.600341796875,
                12200.0
            ],
            [
                2691.712646484375,
                1247.532470703125,
                12400.0
            ],
            [
                2754.33251953125,
                1267.466796875,
                12600.0
            ],
            [
                2816.954345703125,
                1287.40234375,
                12800.0
            ],
            [
                2879.57958984375,
                1307.3389892578125,
                13000.0
            ],
            [
                2942.20703125,
                1327.276611328125,
                13200.0
            ],
            [
                3004.8349609375,
                1347.2152099609375,
                13400.0
            ]
        ],
        "zFirstMeasurement": 94.1031
    }
]
