[
    {
        "E": 38588.82092230792,
        "chi2": 0.0,
        "ip": 0.018961222052430716,
        "ipchi2": 1.1425485574195164,
        "mass": 1848.804,
        "particleId": "D0",
        "pvx": 0.6034,
        "pvy": 0.0949,
        "pvz": 34.6673,
        "px": -2827.38,
        "py": 3298.48,
        "pz": 38298.89,
        "q": 0.0,
        "trajectory": [
            [
                0.6033999919891357,
                0.09489999711513519,
                34.667301177978516
            ],
            [
                0.5184000134468079,
                0.16500000655651093,
                35.63600158691406
            ]
        ],
        "zFirstMeasurement": -9999.0
    },
    {
        "E": 35467.27130671822,
        "chi2": 0.924694299697876,
        "ip": 0.004829061513463493,
        "ipchi2": 0.08279108580962799,
        "mass": 493.677,
        "particleId": "K-",
        "pvx": 0.6034,
        "pvy": 0.0949,
        "pvz": 34.6673,
        "px": -2570.58,
        "py": 2574.09,
        "pz": 35276.76,
        "q": -1.0,
        "trajectory": [
            [
                0.5304228663444519,
                0.16980840265750885,
                35.63600158691406
            ],
            [
                0.16607896983623505,
                0.5346506237983704,
                40.63600158691406
            ],
            [
                -0.19826655089855194,
                0.8994929194450378,
                45.63600158691406
            ],
            [
                -0.5626137256622314,
                1.2643351554870605,
                50.63600158691406
            ],
            [
                -0.9269626140594482,
                1.629177451133728,
                55.63600158691406
            ],
            [
                -1.2913131713867188,
                1.9940197467803955,
                60.63600158691406
            ],
            [
                -1.6556655168533325,
                2.3588621616363525,
                65.63600158691406
            ],
            [
                -2.02001953125,
                2.7237043380737305,
                70.63600158691406
            ],
            [
                -2.3843753337860107,
                3.0885467529296875,
                75.63600158691406
            ],
            [
                -2.7487330436706543,
                3.4533891677856445,
                80.63600158691406
            ],
            [
                -3.1130926609039307,
                3.8182315826416016,
                85.63600158691406
            ],
            [
                -3.4775452613830566,
                4.183047294616699,
                90.63600158691406
            ],
            [
                -3.8419084548950195,
                4.547889709472656,
                95.63600158691406
            ],
            [
                -4.206273555755615,
                4.912732124328613,
                100.63600158691406
            ],
            [
                -5.663751125335693,
                6.372101783752441,
                120.63600158691406
            ],
            [
                -7.121258735656738,
                7.831471920013428,
                140.63600158691406
            ],
            [
                -8.578798294067383,
                9.290842056274414,
                160.63600158691406
            ],
            [
                -10.036372184753418,
                10.750212669372559,
                180.63600158691406
            ],
            [
                -11.493982315063477,
                12.209583282470703,
                200.63600158691406
            ],
            [
                -12.951630592346191,
                13.668953895568848,
                220.63600158691406
            ],
            [
                -14.40930461883545,
                15.128325462341309,
                240.63600158691406
            ],
            [
                -15.867026329040527,
                16.587696075439453,
                260.635986328125
            ],
            [
                -17.324787139892578,
                18.047067642211914,
                280.635986328125
            ],
            [
                -18.782590866088867,
                19.506441116333008,
                300.635986328125
            ],
            [
                -20.24043846130371,
                20.96581268310547,
                320.635986328125
            ],
            [
                -21.69832992553711,
                22.425186157226563,
                340.635986328125
            ],
            [
                -23.15627098083496,
                23.884557723999023,
                360.635986328125
            ],
            [
                -24.6142578125,
                25.343931198120117,
                380.635986328125
            ],
            [
                -26.072296142578125,
                26.80330467224121,
                400.635986328125
            ],
            [
                -27.53038787841797,
                28.262680053710938,
                420.635986328125
            ],
            [
                -28.98853302001953,
                29.72205352783203,
                440.635986328125
            ],
            [
                -30.446733474731445,
                31.181428909301758,
                460.635986328125
            ],
            [
                -31.904991149902344,
                32.640804290771484,
                480.635986328125
            ],
            [
                -33.36330795288086,
                34.10017776489258,
                500.635986328125
            ],
            [
                -34.821685791015625,
                35.55955505371094,
                520.635986328125
            ],
            [
                -36.28012466430664,
                37.0189323425293,
                540.635986328125
            ],
            [
                -37.73862838745117,
                38.478309631347656,
                560.635986328125
            ],
            [
                -39.197200775146484,
                39.937686920166016,
                580.635986328125
            ],
            [
                -40.65584945678711,
                41.397064208984375,
                600.635986328125
            ],
            [
                -42.11457443237305,
                42.8564453125,
                620.635986328125
            ],
            [
                -43.573368072509766,
                44.31582260131836,
                640.635986328125
            ],
            [
                -45.03224182128906,
                45.77519989013672,
                660.635986328125
            ],
            [
                -46.491188049316406,
                47.234580993652344,
                680.635986328125
            ],
            [
                -47.95022201538086,
                48.69396209716797,
                700.635986328125
            ],
            [
                -49.40933609008789,
                50.153343200683594,
                720.635986328125
            ],
            [
                -50.868534088134766,
                51.61272048950195,
                740.635986328125
            ],
            [
                -52.32783126831055,
                53.072105407714844,
                760.635986328125
            ],
            [
                -53.78722381591797,
                54.53148651123047,
                780.635986328125
            ],
            [
                -55.2467041015625,
                55.990867614746094,
                800.635986328125
            ],
            [
                -56.70627212524414,
                57.450252532958984,
                820.635986328125
            ],
            [
                -58.16593933105469,
                58.90963363647461,
                840.635986328125
            ],
            [
                -59.625701904296875,
                60.3690185546875,
                860.635986328125
            ],
            [
                -61.08556365966797,
                61.82840347290039,
                880.635986328125
            ],
            [
                -62.54552459716797,
                63.28778839111328,
                900.635986328125
            ],
            [
                -64.0055923461914,
                64.7471694946289,
                920.635986328125
            ],
            [
                -65.46577453613281,
                66.20655059814453,
                940.635986328125
            ],
            [
                -66.92607116699219,
                67.66593170166016,
                960.635986328125
            ],
            [
                -68.386474609375,
                69.12531280517578,
                980.635986328125
            ],
            [
                -69.84698486328125,
                70.58468627929688,
                1000.635986328125
            ],
            [
                -77.15135955810547,
                77.88158416748047,
                1100.635986328125
            ],
            [
                -84.45952606201172,
                85.17843627929688,
                1200.635986328125
            ],
            [
                -91.77024841308594,
                92.4752426147461,
                1300.635986328125
            ],
            [
                -99.0839614868164,
                99.77203369140625,
                1400.635986328125
            ],
            [
                -106.40064239501953,
                107.06880187988281,
                1500.635986328125
            ],
            [
                -113.72006225585938,
                114.36555480957031,
                1600.635986328125
            ],
            [
                -121.04253387451172,
                121.66232299804688,
                1700.635986328125
            ],
            [
                -128.36859130859375,
                128.9591064453125,
                1800.635986328125
            ],
            [
                -135.69833374023438,
                136.2559356689453,
                1900.635986328125
            ],
            [
                -143.03256225585938,
                143.5529022216797,
                2000.635986328125
            ],
            [
                -150.3721160888672,
                150.84996032714844,
                2100.635986328125
            ],
            [
                -157.7179412841797,
                158.14723205566406,
                2200.635986328125
            ],
            [
                -165.06915283203125,
                165.4447021484375,
                2300.635986328125
            ],
            [
                -172.4296875,
                172.74249267578125,
                2400.635986328125
            ],
            [
                -179.8004608154297,
                180.04066467285156,
                2500.635986328125
            ],
            [
                -187.1849822998047,
                187.3393096923828,
                2600.635986328125
            ],
            [
                -194.58348083496094,
                194.63851928710938,
                2700.635986328125
            ],
            [
                -202.00009155273438,
                201.93838500976563,
                2800.635986328125
            ],
            [
                -209.43905639648438,
                209.23916625976563,
                2900.635986328125
            ],
            [
                -216.90390014648438,
                216.54086303710938,
                3000.635986328125
            ],
            [
                -224.396240234375,
                223.84359741210938,
                3100.635986328125
            ],
            [
                -231.9241943359375,
                231.14756774902344,
                3200.635986328125
            ],
            [
                -239.4895477294922,
                238.452880859375,
                3300.635986328125
            ],
            [
                -247.1005401611328,
                245.759521484375,
                3400.635986328125
            ],
            [
                -254.76083374023438,
                253.06773376464844,
                3500.635986328125
            ],
            [
                -262.473388671875,
                260.37774658203125,
                3600.635986328125
            ],
            [
                -270.24493408203125,
                267.6891174316406,
                3700.635986328125
            ],
            [
                -278.08514404296875,
                275.00225830078125,
                3800.635986328125
            ],
            [
                -285.99188232421875,
                282.3172912597656,
                3900.635986328125
            ],
            [
                -293.97930908203125,
                289.634033203125,
                4000.635986328125
            ],
            [
                -302.0385437011719,
                296.9520568847656,
                4100.63623046875
            ],
            [
                -310.1878662109375,
                304.2708740234375,
                4200.63623046875
            ],
            [
                -318.4228515625,
                311.5909729003906,
                4300.63623046875
            ],
            [
                -326.7435607910156,
                318.9123229980469,
                4400.63623046875
            ],
            [
                -335.1556396484375,
                326.23480224609375,
                4500.63623046875
            ],
            [
                -343.6559753417969,
                333.5572814941406,
                4600.63623046875
            ],
            [
                -352.2526550292969,
                340.8804016113281,
                4700.63623046875
            ],
            [
                -360.7021179199219,
                347.44390869140625,
                4800.63623046875
            ],
            [
                -369.4855041503906,
                354.7452697753906,
                4900.63623046875
            ],
            [
                -378.35723876953125,
                362.0466613769531,
                5000.63623046875
            ],
            [
                -387.32159423828125,
                369.3477478027344,
                5100.63623046875
            ],
            [
                -396.37408447265625,
                376.6490173339844,
                5200.63623046875
            ],
            [
                -405.5160217285156,
                383.95050048828125,
                5300.63623046875
            ],
            [
                -414.7446594238281,
                391.2519836425781,
                5400.63623046875
            ],
            [
                -424.0582275390625,
                398.5532531738281,
                5500.63623046875
            ],
            [
                -433.4534912109375,
                405.8541259765625,
                5600.63623046875
            ],
            [
                -442.93310546875,
                413.1546630859375,
                5700.63623046875
            ],
            [
                -452.4937438964844,
                420.45513916015625,
                5800.63623046875
            ],
            [
                -462.12969970703125,
                427.7550354003906,
                5900.63623046875
            ],
            [
                -471.844970703125,
                435.05413818359375,
                6000.63623046875
            ],
            [
                -481.634033203125,
                442.35284423828125,
                6100.63623046875
            ],
            [
                -491.4957580566406,
                449.6510009765625,
                6200.63623046875
            ],
            [
                -501.4273681640625,
                456.9483642578125,
                6300.63623046875
            ],
            [
                -511.426025390625,
                464.2450866699219,
                6400.63623046875
            ],
            [
                -521.4904174804688,
                471.54107666015625,
                6500.63623046875
            ],
            [
                -531.6165771484375,
                478.836181640625,
                6600.63623046875
            ],
            [
                -541.802734375,
                486.1303405761719,
                6700.63623046875
            ],
            [
                -552.0438842773438,
                493.4236145019531,
                6800.63623046875
            ],
            [
                -562.3399658203125,
                500.7158508300781,
                6900.63623046875
            ],
            [
                -572.6865234375,
                508.00701904296875,
                7000.63623046875
            ],
            [
                -583.0801391601563,
                515.2972412109375,
                7100.63623046875
            ],
            [
                -593.517822265625,
                522.58642578125,
                7200.63623046875
            ],
            [
                -603.9966430664063,
                529.8745727539063,
                7300.63623046875
            ],
            [
                -614.514892578125,
                537.1617431640625,
                7400.63623046875
            ],
            [
                -625.0672607421875,
                544.447998046875,
                7500.63623046875
            ],
            [
                -635.6531372070313,
                551.7332153320313,
                7600.63623046875
            ],
            [
                -646.2684326171875,
                559.0176391601563,
                7700.63623046875
            ],
            [
                -656.911865234375,
                566.3011474609375,
                7800.63623046875
            ],
            [
                -667.580810546875,
                573.5838623046875,
                7900.63623046875
            ],
            [
                -678.2727661132813,
                580.8659057617188,
                8000.63623046875
            ],
            [
                -688.9863891601563,
                588.147216796875,
                8100.63623046875
            ],
            [
                -699.7190551757813,
                595.4280395507813,
                8200.6357421875
            ],
            [
                -710.4694213867188,
                602.708251953125,
                8300.6357421875
            ],
            [
                -721.236083984375,
                609.9880981445313,
                8400.6357421875
            ],
            [
                -732.017578125,
                617.2674560546875,
                8500.6357421875
            ],
            [
                -742.8121948242188,
                624.5465698242188,
                8600.6357421875
            ],
            [
                -753.6190795898438,
                631.8253173828125,
                8700.6357421875
            ],
            [
                -764.4370727539063,
                639.1038818359375,
                8800.6357421875
            ],
            [
                -775.2650756835938,
                646.3822021484375,
                8900.6357421875
            ],
            [
                -786.1024169921875,
                653.660400390625,
                9000.6357421875
            ],
            [
                -796.9481201171875,
                660.9384155273438,
                9100.6357421875
            ],
            [
                -807.8014526367188,
                668.2163696289063,
                9200.6357421875
            ],
            [
                -818.6616821289063,
                675.4942626953125,
                9300.6357421875
            ],
            [
                -829.5281982421875,
                682.7720947265625,
                9400.6357421875
            ],
            [
                -840.4004516601563,
                690.0498657226563,
                9500.6357421875
            ],
            [
                -851.27783203125,
                697.3276977539063,
                9600.6357421875
            ],
            [
                -862.1599731445313,
                704.60546875,
                9700.6357421875
            ],
            [
                -873.0463256835938,
                711.88330078125,
                9800.6357421875
            ],
            [
                -883.9365844726563,
                719.1611938476563,
                9900.6357421875
            ],
            [
                -894.8303833007813,
                726.4390869140625,
                10000.6357421875
            ],
            [
                -916.6272583007813,
                740.9949951171875,
                10200.6357421875
            ],
            [
                -938.434814453125,
                755.5511474609375,
                10400.6357421875
            ],
            [
                -960.2509765625,
                770.1075439453125,
                10600.6357421875
            ],
            [
                -982.074462890625,
                784.6641845703125,
                10800.6357421875
            ],
            [
                -1003.9037475585938,
                799.2211303710938,
                11000.6357421875
            ],
            [
                -1025.7379150390625,
                813.7782592773438,
                11200.6357421875
            ],
            [
                -1047.5762939453125,
                828.3356323242188,
                11400.6357421875
            ],
            [
                -1069.417724609375,
                842.8932495117188,
                11600.6357421875
            ],
            [
                -1091.2618408203125,
                857.4510498046875,
                11800.6357421875
            ],
            [
                -1113.1080322265625,
                872.009033203125,
                12000.6357421875
            ],
            [
                -1134.956298828125,
                886.567138671875,
                12200.6357421875
            ],
            [
                -1156.8060302734375,
                901.1254272460938,
                12400.6357421875
            ],
            [
                -1178.656494140625,
                915.6838989257813,
                12600.6357421875
            ],
            [
                -1200.5076904296875,
                930.242431640625,
                12800.6357421875
            ],
            [
                -1222.35986328125,
                944.801025390625,
                13000.6357421875
            ],
            [
                -1244.2127685546875,
                959.3597412109375,
                13200.6357421875
            ],
            [
                -1266.06591796875,
                973.91845703125,
                13400.6357421875
            ]
        ],
        "zFirstMeasurement": 139.4112
    },
    {
        "E": 3107.0973720656443,
        "chi2": 1.6134257316589355,
        "ip": 0.1731109256418015,
        "ipchi2": 33.29465464162629,
        "mass": 139.57,
        "particleId": "pi+",
        "pvx": 0.6034,
        "pvy": 0.0949,
        "pvz": 34.6673,
        "px": -255.91,
        "py": 722.9,
        "pz": 3007.74,
        "q": 1.0,
        "trajectory": [
            [
                0.47446510195732117,
                0.15715916454792023,
                35.63600158691406
            ],
            [
                0.04905775561928749,
                1.3588844537734985,
                40.63600158691406
            ],
            [
                -0.3763298988342285,
                2.5606093406677246,
                45.63600158691406
            ],
            [
                -0.8016976118087769,
                3.762333869934082,
                50.63600158691406
            ],
            [
                -1.2270450592041016,
                4.964057922363281,
                55.63600158691406
            ],
            [
                -1.652315616607666,
                6.165788173675537,
                60.63600158691406
            ],
            [
                -2.077622652053833,
                7.36751127243042,
                65.63600158691406
            ],
            [
                -2.5029094219207764,
                8.569233894348145,
                70.63600158691406
            ],
            [
                -2.928175687789917,
                9.770956039428711,
                75.63600158691406
            ],
            [
                -3.353421211242676,
                10.972678184509277,
                80.63600158691406
            ],
            [
                -3.7786455154418945,
                12.174399375915527,
                85.63600158691406
            ],
            [
                -4.203848361968994,
                13.376119613647461,
                90.63600158691406
            ],
            [
                -4.629029750823975,
                14.577840805053711,
                95.63600158691406
            ],
            [
                -5.054189205169678,
                15.779560089111328,
                100.63600158691406
            ],
            [
                -6.75460147857666,
                20.58643341064453,
                120.63600158691406
            ],
            [
                -8.454632759094238,
                25.393299102783203,
                140.63600158691406
            ],
            [
                -10.154261589050293,
                30.200153350830078,
                160.63600158691406
            ],
            [
                -11.853619575500488,
                35.00700378417969,
                180.63600158691406
            ],
            [
                -13.552489280700684,
                39.813838958740234,
                200.63600158691406
            ],
            [
                -15.250931739807129,
                44.620662689208984,
                220.63600158691406
            ],
            [
                -16.94893455505371,
                49.4274787902832,
                240.63600158691406
            ],
            [
                -18.646482467651367,
                54.23427963256836,
                260.635986328125
            ],
            [
                -20.34356117248535,
                59.04106521606445,
                280.635986328125
            ],
            [
                -22.040142059326172,
                63.847843170166016,
                300.635986328125
            ],
            [
                -23.736215591430664,
                68.65460205078125,
                320.635986328125
            ],
            [
                -25.431772232055664,
                73.46134185791016,
                340.635986328125
            ],
            [
                -27.126792907714844,
                78.26807403564453,
                360.635986328125
            ],
            [
                -28.821266174316406,
                83.07478332519531,
                380.635986328125
            ],
            [
                -30.515172958374023,
                87.88147735595703,
                400.635986328125
            ],
            [
                -32.20847702026367,
                92.68815612792969,
                420.635986328125
            ],
            [
                -33.90117645263672,
                97.49480438232422,
                440.635986328125
            ],
            [
                -35.59324645996094,
                102.30144500732422,
                460.635986328125
            ],
            [
                -37.2846794128418,
                107.1080551147461,
                480.635986328125
            ],
            [
                -38.97541427612305,
                111.91464233398438,
                500.635986328125
            ],
            [
                -40.66545486450195,
                116.72120666503906,
                520.635986328125
            ],
            [
                -42.35480499267578,
                121.52774047851563,
                540.635986328125
            ],
            [
                -44.04344940185547,
                126.3342514038086,
                560.635986328125
            ],
            [
                -45.73136901855469,
                131.14073181152344,
                580.635986328125
            ],
            [
                -47.41855239868164,
                135.9471893310547,
                600.635986328125
            ],
            [
                -49.104820251464844,
                140.75363159179688,
                620.635986328125
            ],
            [
                -50.79010009765625,
                145.56004333496094,
                640.635986328125
            ],
            [
                -52.47453689575195,
                150.36642456054688,
                660.635986328125
            ],
            [
                -54.158111572265625,
                155.17279052734375,
                680.635986328125
            ],
            [
                -55.8408088684082,
                159.9791259765625,
                700.635986328125
            ],
            [
                -57.522621154785156,
                164.78546142578125,
                720.635986328125
            ],
            [
                -59.203521728515625,
                169.59178161621094,
                740.635986328125
            ],
            [
                -60.88349151611328,
                174.3980712890625,
                760.635986328125
            ],
            [
                -62.5625,
                179.204345703125,
                780.635986328125
            ],
            [
                -64.2403564453125,
                184.01058959960938,
                800.635986328125
            ],
            [
                -65.91714477539063,
                188.81680297851563,
                820.635986328125
            ],
            [
                -67.59281921386719,
                193.6230010986328,
                840.635986328125
            ],
            [
                -69.26741790771484,
                198.42916870117188,
                860.635986328125
            ],
            [
                -70.9409408569336,
                203.2353057861328,
                880.635986328125
            ],
            [
                -72.61335754394531,
                208.0414276123047,
                900.635986328125
            ],
            [
                -74.28490447998047,
                212.8474884033203,
                920.635986328125
            ],
            [
                -75.95533752441406,
                217.65353393554688,
                940.635986328125
            ],
            [
                -77.62413024902344,
                222.4596710205078,
                960.635986328125
            ],
            [
                -79.29145812988281,
                227.26585388183594,
                980.635986328125
            ],
            [
                -80.9575424194336,
                232.07203674316406,
                1000.635986328125
            ],
            [
                -89.26133728027344,
                256.1036071777344,
                1100.635986328125
            ],
            [
                -97.5334243774414,
                280.13616943359375,
                1200.635986328125
            ],
            [
                -105.76921844482422,
                304.1700744628906,
                1300.635986328125
            ],
            [
                -113.9712142944336,
                328.2052917480469,
                1400.635986328125
            ],
            [
                -122.1406478881836,
                352.2415771484375,
                1500.635986328125
            ],
            [
                -130.2902374267578,
                376.2781677246094,
                1600.635986328125
            ],
            [
                -138.41236877441406,
                400.31414794921875,
                1700.635986328125
            ],
            [
                -146.5135955810547,
                424.3480529785156,
                1800.635986328125
            ],
            [
                -154.58792114257813,
                448.38067626953125,
                1900.635986328125
            ],
            [
                -162.64535522460938,
                472.4101257324219,
                2000.635986328125
            ],
            [
                -170.65969848632813,
                496.43548583984375,
                2100.635986328125
            ],
            [
                -178.6619873046875,
                520.4566040039063,
                2200.635986328125
            ],
            [
                -186.6673583984375,
                544.4692993164063,
                2300.635986328125
            ],
            [
                -194.6419219970703,
                568.4701538085938,
                2400.635986328125
            ],
            [
                -202.59088134765625,
                592.453857421875,
                2500.635986328125
            ],
            [
                -210.4952850341797,
                616.4190673828125,
                2600.635986328125
            ],
            [
                -218.34445190429688,
                640.358154296875,
                2700.635986328125
            ],
            [
                -226.1016082763672,
                664.2685546875,
                2800.635986328125
            ],
            [
                -233.74850463867188,
                688.1575317382813,
                2900.635986328125
            ],
            [
                -241.29298400878906,
                712.0036010742188,
                3000.635986328125
            ],
            [
                -248.59681701660156,
                735.8118896484375,
                3100.635986328125
            ],
            [
                -255.74424743652344,
                759.5748291015625,
                3200.635986328125
            ],
            [
                -262.6527404785156,
                783.2845458984375,
                3300.635986328125
            ],
            [
                -269.17877197265625,
                806.9429321289063,
                3400.635986328125
            ],
            [
                -275.2849426269531,
                830.5380859375,
                3500.635986328125
            ],
            [
                -280.8972473144531,
                854.0801391601563,
                3600.635986328125
            ],
            [
                -285.8413391113281,
                877.5548706054688,
                3700.635986328125
            ],
            [
                -290.0585021972656,
                900.9828491210938,
                3800.635986328125
            ],
            [
                -293.3583984375,
                924.3828735351563,
                3900.635986328125
            ],
            [
                -295.59735107421875,
                947.7056884765625,
                4000.635986328125
            ],
            [
                -296.42559814453125,
                971.0442504882813,
                4100.63623046875
            ],
            [
                -295.8085021972656,
                994.45263671875,
                4200.63623046875
            ],
            [
                -293.732177734375,
                1017.9603881835938,
                4300.63623046875
            ],
            [
                -290.2630310058594,
                1041.4422607421875,
                4400.63623046875
            ],
            [
                -285.5218200683594,
                1064.9017333984375,
                4500.63623046875
            ],
            [
                -279.1927490234375,
                1088.3331298828125,
                4600.63623046875
            ],
            [
                -271.7252197265625,
                1111.7833251953125,
                4700.63623046875
            ],
            [
                -275.9683837890625,
                1131.8408203125,
                4800.63623046875
            ],
            [
                -266.50677490234375,
                1155.264404296875,
                4900.63623046875
            ],
            [
                -255.6904754638672,
                1178.52880859375,
                5000.63623046875
            ],
            [
                -243.8201141357422,
                1201.8460693359375,
                5100.63623046875
            ],
            [
                -230.8020477294922,
                1225.1280517578125,
                5200.63623046875
            ],
            [
                -216.52565002441406,
                1248.3485107421875,
                5300.63623046875
            ],
            [
                -201.2991180419922,
                1271.6719970703125,
                5400.63623046875
            ],
            [
                -184.69381713867188,
                1295.0955810546875,
                5500.63623046875
            ],
            [
                -166.97772216796875,
                1318.429443359375,
                5600.63623046875
            ],
            [
                -148.20315551757813,
                1341.760498046875,
                5700.63623046875
            ],
            [
                -128.40113830566406,
                1365.0380859375,
                5800.63623046875
            ],
            [
                -107.11815643310547,
                1388.403564453125,
                5900.63623046875
            ],
            [
                -85.05429077148438,
                1411.7406005859375,
                6000.63623046875
            ],
            [
                -61.62102127075195,
                1435.113037109375,
                6100.63623046875
            ],
            [
                -37.06155776977539,
                1458.406982421875,
                6200.63623046875
            ],
            [
                -11.26252555847168,
                1481.7364501953125,
                6300.63623046875
            ],
            [
                15.743571281433105,
                1504.981689453125,
                6400.63623046875
            ],
            [
                44.03678512573242,
                1528.08056640625,
                6500.63623046875
            ],
            [
                73.6336669921875,
                1551.0921630859375,
                6600.63623046875
            ],
            [
                104.4270248413086,
                1573.9388427734375,
                6700.63623046875
            ],
            [
                136.3351593017578,
                1596.56640625,
                6800.63623046875
            ],
            [
                169.08474731445313,
                1618.9617919921875,
                6900.63623046875
            ],
            [
                202.6700897216797,
                1641.09228515625,
                7000.63623046875
            ],
            [
                236.82029724121094,
                1663.0009765625,
                7100.63623046875
            ],
            [
                271.5131530761719,
                1684.657470703125,
                7200.63623046875
            ],
            [
                306.6006774902344,
                1706.087158203125,
                7300.63623046875
            ],
            [
                342.037353515625,
                1727.289306640625,
                7400.63623046875
            ],
            [
                377.70635986328125,
                1748.2974853515625,
                7500.63623046875
            ],
            [
                413.5600280761719,
                1769.1087646484375,
                7600.63623046875
            ],
            [
                449.54364013671875,
                1789.7489013671875,
                7700.63623046875
            ],
            [
                485.6102294921875,
                1810.2392578125,
                7800.63623046875
            ],
            [
                521.7371826171875,
                1830.594482421875,
                7900.63623046875
            ],
            [
                557.8914794921875,
                1850.8363037109375,
                8000.63623046875
            ],
            [
                594.065673828125,
                1870.975341796875,
                8100.63623046875
            ],
            [
                630.2584228515625,
                1891.030517578125,
                8200.6357421875
            ],
            [
                666.4613647460938,
                1911.0111083984375,
                8300.6357421875
            ],
            [
                702.6735229492188,
                1930.9267578125,
                8400.6357421875
            ],
            [
                738.8952026367188,
                1950.7861328125,
                8500.6357421875
            ],
            [
                775.1221923828125,
                1970.5982666015625,
                8600.6357421875
            ],
            [
                811.3565673828125,
                1990.3680419921875,
                8700.6357421875
            ],
            [
                847.5985107421875,
                2010.1015625,
                8800.6357421875
            ],
            [
                883.8486328125,
                2029.804443359375,
                8900.6357421875
            ],
            [
                920.1052856445313,
                2049.48046875,
                9000.6357421875
            ],
            [
                956.36865234375,
                2069.1337890625,
                9100.6357421875
            ],
            [
                992.638427734375,
                2088.767822265625,
                9200.6357421875
            ],
            [
                1028.9140625,
                2108.3857421875,
                9300.6357421875
            ],
            [
                1065.195068359375,
                2127.989990234375,
                9400.6357421875
            ],
            [
                1101.4813232421875,
                2147.582763671875,
                9500.6357421875
            ],
            [
                1137.7723388671875,
                2167.166015625,
                9600.6357421875
            ],
            [
                1174.067626953125,
                2186.741455078125,
                9700.6357421875
            ],
            [
                1210.3670654296875,
                2206.310302734375,
                9800.6357421875
            ],
            [
                1246.6702880859375,
                2225.8740234375,
                9900.6357421875
            ],
            [
                1282.976806640625,
                2245.433349609375,
                10000.6357421875
            ],
            [
                1355.598876953125,
                2284.542236328125,
                10200.6357421875
            ],
            [
                1428.2305908203125,
                2323.642333984375,
                10400.6357421875
            ],
            [
                1500.870361328125,
                2362.73828125,
                10600.6357421875
            ],
            [
                1573.515380859375,
                2401.831787109375,
                10800.6357421875
            ],
            [
                1646.165283203125,
                2440.925537109375,
                11000.6357421875
            ],
            [
                1718.817626953125,
                2480.020751953125,
                11200.6357421875
            ],
            [
                1791.4705810546875,
                2519.11767578125,
                11400.6357421875
            ],
            [
                1864.125244140625,
                2558.217529296875,
                11600.6357421875
            ],
            [
                1936.779541015625,
                2597.32080078125,
                11800.6357421875
            ],
            [
                2009.43310546875,
                2636.427978515625,
                12000.6357421875
            ],
            [
                2082.083984375,
                2675.53759765625,
                12200.6357421875
            ],
            [
                2154.7333984375,
                2714.650390625,
                12400.6357421875
            ],
            [
                2227.383544921875,
                2753.7666015625,
                12600.6357421875
            ],
            [
                2300.03125,
                2792.886474609375,
                12800.6357421875
            ],
            [
                2372.67626953125,
                2832.008056640625,
                13000.6357421875
            ],
            [
                2445.319091796875,
                2871.130615234375,
                13200.6357421875
            ],
            [
                2517.9609375,
                2910.256103515625,
                13400.6357421875
            ]
        ],
        "zFirstMeasurement": 79.5152
    },
    {
        "E": 1621.0097270668155,
        "chi2": 1.33574378490448,
        "ip": 0.0773491216465338,
        "ipchi2": 4.289450164745707,
        "mass": 139.57018,
        "particleId": "pi+",
        "pvx": 0.6034,
        "pvy": 0.0949,
        "pvz": 34.6673,
        "px": -201.72920984705152,
        "py": -226.17522705748019,
        "pz": 1586.2984563631085,
        "q": 1.0,
        "trajectory": [
            [
                17.81810760498047,
                19.308725357055664,
                -100.0
            ],
            [
                17.181440353393555,
                18.595806121826172,
                -95.0
            ],
            [
                16.5447998046875,
                17.88288688659668,
                -90.0
            ],
            [
                15.908185005187988,
                17.16996955871582,
                -85.0
            ],
            [
                15.271599769592285,
                16.45705223083496,
                -80.0
            ],
            [
                14.635041236877441,
                15.744134902954102,
                -75.0
            ],
            [
                13.998510360717773,
                15.031218528747559,
                -70.0
            ],
            [
                13.362006187438965,
                14.318302154541016,
                -65.0
            ],
            [
                12.72530460357666,
                13.605376243591309,
                -60.0
            ],
            [
                12.088887214660645,
                12.892462730407715,
                -55.0
            ],
            [
                11.452495574951172,
                12.179549217224121,
                -50.0
            ],
            [
                10.816129684448242,
                11.466636657714844,
                -45.0
            ],
            [
                10.179790496826172,
                10.753724098205566,
                -40.0
            ],
            [
                9.543479919433594,
                10.040811538696289,
                -35.0
            ],
            [
                8.907198905944824,
                9.327899932861328,
                -30.0
            ],
            [
                8.270944595336914,
                8.614989280700684,
                -25.0
            ],
            [
                7.634718418121338,
                7.902078628540039,
                -20.0
            ],
            [
                6.998521327972412,
                7.189168453216553,
                -15.0
            ],
            [
                6.3623528480529785,
                6.476259231567383,
                -10.0
            ],
            [
                5.726214408874512,
                5.763350009918213,
                -5.0
            ],
            [
                5.09010648727417,
                5.050441741943359,
                0.0
            ],
            [
                4.454029083251953,
                4.337534427642822,
                5.0
            ],
            [
                3.8179831504821777,
                3.624627113342285,
                10.0
            ],
            [
                3.181969404220581,
                2.9117209911346436,
                15.0
            ],
            [
                2.5459883213043213,
                2.19881534576416,
                20.0
            ],
            [
                1.9100406169891357,
                1.4859106540679932,
                25.0
            ],
            [
                1.274126648902893,
                0.7730066180229187,
                30.0
            ],
            [
                0.6382470726966858,
                0.0601033978164196,
                35.0
            ],
            [
                0.0024024713784456253,
                -0.6527990102767944,
                40.0
            ],
            [
                -0.6334065794944763,
                -1.365700602531433,
                45.0
            ],
            [
                -1.2691794633865356,
                -2.078601360321045,
                50.0
            ],
            [
                -1.9049155712127686,
                -2.791501045227051,
                55.0
            ],
            [
                -2.5405945777893066,
                -3.504335403442383,
                60.0
            ],
            [
                -3.1762571334838867,
                -4.217233657836914,
                65.0
            ],
            [
                -3.811882734298706,
                -4.930130481719971,
                70.0
            ],
            [
                -4.4474711418151855,
                -5.643026828765869,
                75.0
            ],
            [
                -5.08302116394043,
                -6.355922222137451,
                80.0
            ],
            [
                -5.718533039093018,
                -7.068816661834717,
                85.0
            ],
            [
                -6.354005813598633,
                -7.781710147857666,
                90.0
            ],
            [
                -6.989439010620117,
                -8.49460220336914,
                95.0
            ],
            [
                -7.624831676483154,
                -9.207493782043457,
                100.0
            ],
            [
                -10.165989875793457,
                -12.059048652648926,
                120.0
            ],
            [
                -12.706445693969727,
                -14.910584449768066,
                140.0
            ],
            [
                -15.24615478515625,
                -17.762100219726563,
                160.0
            ],
            [
                -17.785377502441406,
                -20.613605499267578,
                180.0
            ],
            [
                -20.32368278503418,
                -23.46508026123047,
                200.0
            ],
            [
                -22.86119270324707,
                -26.3165340423584,
                220.0
            ],
            [
                -25.397878646850586,
                -29.16796112060547,
                240.0
            ],
            [
                -27.9337100982666,
                -32.01936340332031,
                260.0
            ],
            [
                -30.468658447265625,
                -34.87073516845703,
                280.0
            ],
            [
                -33.00266647338867,
                -37.722076416015625,
                300.0
            ],
            [
                -35.53571319580078,
                -40.573387145996094,
                320.0
            ],
            [
                -38.06776809692383,
                -43.42466354370117,
                340.0
            ],
            [
                -40.59880828857422,
                -46.27590560913086,
                360.0
            ],
            [
                -43.1287956237793,
                -49.12710952758789,
                380.0
            ],
            [
                -45.65769958496094,
                -51.978271484375,
                400.0
            ],
            [
                -48.18545150756836,
                -54.82939529418945,
                420.0
            ],
            [
                -50.7120475769043,
                -57.680477142333984,
                440.0
            ],
            [
                -53.23740768432617,
                -60.53150939941406,
                460.0
            ],
            [
                -55.761512756347656,
                -63.38249588012695,
                480.0
            ],
            [
                -58.28425216674805,
                -66.23342895507813,
                500.0
            ],
            [
                -60.805599212646484,
                -69.08430480957031,
                520.0
            ],
            [
                -63.32558059692383,
                -71.93513488769531,
                540.0
            ],
            [
                -65.84415435791016,
                -74.78590393066406,
                560.0
            ],
            [
                -68.36129760742188,
                -77.6366195678711,
                580.0
            ],
            [
                -70.87696838378906,
                -80.4872817993164,
                600.0
            ],
            [
                -73.39089965820313,
                -83.337890625,
                620.0
            ],
            [
                -75.90298461914063,
                -86.1884536743164,
                640.0
            ],
            [
                -78.41340637207031,
                -89.03895568847656,
                660.0
            ],
            [
                -80.9221420288086,
                -91.889404296875,
                680.0
            ],
            [
                -83.42913818359375,
                -94.73979187011719,
                700.0
            ],
            [
                -85.93439483642578,
                -97.59015655517578,
                720.0
            ],
            [
                -88.43785095214844,
                -100.44046783447266,
                740.0
            ],
            [
                -90.93946838378906,
                -103.29071807861328,
                760.0
            ],
            [
                -93.43919372558594,
                -106.14092254638672,
                780.0
            ],
            [
                -95.93630981445313,
                -108.9910659790039,
                800.0
            ],
            [
                -98.4313735961914,
                -111.84114074707031,
                820.0
            ],
            [
                -100.92407989501953,
                -114.69114685058594,
                840.0
            ],
            [
                -103.41458892822266,
                -117.54109191894531,
                860.0
            ],
            [
                -105.90289306640625,
                -120.39098358154297,
                880.0
            ],
            [
                -108.38894653320313,
                -123.24082946777344,
                900.0
            ],
            [
                -110.87310791015625,
                -126.0905990600586,
                920.0
            ],
            [
                -113.35497283935547,
                -128.9403076171875,
                940.0
            ],
            [
                -115.83380889892578,
                -131.7900848388672,
                960.0
            ],
            [
                -118.3097915649414,
                -134.63990783691406,
                980.0
            ],
            [
                -120.78323364257813,
                -137.48973083496094,
                1000.0
            ],
            [
                -133.09996032714844,
                -151.74005126953125,
                1100.0
            ],
            [
                -145.35426330566406,
                -165.9912567138672,
                1200.0
            ],
            [
                -157.53900146484375,
                -180.24339294433594,
                1300.0
            ],
            [
                -169.6540985107422,
                -194.4974365234375,
                1400.0
            ],
            [
                -181.69903564453125,
                -208.7529754638672,
                1500.0
            ],
            [
                -193.6953125,
                -223.00900268554688,
                1600.0
            ],
            [
                -205.61827087402344,
                -237.2639617919922,
                1700.0
            ],
            [
                -217.47865295410156,
                -251.51622009277344,
                1800.0
            ],
            [
                -229.2609100341797,
                -265.76348876953125,
                1900.0
            ],
            [
                -240.95289611816406,
                -280.0057373046875,
                2000.0
            ],
            [
                -252.53883361816406,
                -294.2358703613281,
                2100.0
            ],
            [
                -264.021240234375,
                -308.458740234375,
                2200.0
            ],
            [
                -275.41326904296875,
                -322.66363525390625,
                2300.0
            ],
            [
                -286.63739013671875,
                -336.8484802246094,
                2400.0
            ],
            [
                -297.6707763671875,
                -351.00494384765625,
                2500.0
            ],
            [
                -308.4656066894531,
                -365.1278076171875,
                2600.0
            ],
            [
                -318.9879150390625,
                -379.2113952636719,
                2700.0
            ],
            [
                -329.1647033691406,
                -393.24920654296875,
                2800.0
            ],
            [
                -338.93719482421875,
                -407.23834228515625,
                2900.0
            ],
            [
                -348.2287902832031,
                -421.1692810058594,
                3000.0
            ],
            [
                -356.8993835449219,
                -435.043212890625,
                3100.0
            ],
            [
                -364.9459533691406,
                -448.8622131347656,
                3200.0
            ],
            [
                -372.25531005859375,
                -462.61627197265625,
                3300.0
            ],
            [
                -378.6507568359375,
                -476.3099060058594,
                3400.0
            ],
            [
                -384.02947998046875,
                -489.9359130859375,
                3500.0
            ],
            [
                -388.31494140625,
                -503.49359130859375,
                3600.0
            ],
            [
                -391.1856384277344,
                -517.0198974609375,
                3700.0
            ],
            [
                -392.7250671386719,
                -530.5147705078125,
                3800.0
            ],
            [
                -392.5640563964844,
                -543.984130859375,
                3900.0
            ],
            [
                -390.7648620605469,
                -557.4285888671875,
                4000.0
            ],
            [
                -387.0924377441406,
                -570.8872680664063,
                4100.0
            ],
            [
                -381.394287109375,
                -584.3779907226563,
                4200.0
            ],
            [
                -373.68670654296875,
                -597.8673095703125,
                4300.0
            ],
            [
                -363.7772521972656,
                -611.395263671875,
                4400.0
            ],
            [
                -351.82489013671875,
                -624.944580078125,
                4500.0
            ],
            [
                -337.46368408203125,
                -638.5488891601563,
                4600.0
            ],
            [
                -321.0093688964844,
                -652.2054443359375,
                4700.0
            ],
            [
                -280.8957214355469,
                -682.3011474609375,
                4800.0
            ],
            [
                -259.2560729980469,
                -696.1527709960938,
                4900.0
            ],
            [
                -235.36122131347656,
                -710.0562133789063,
                5000.0
            ],
            [
                -209.11029052734375,
                -723.9872436523438,
                5100.0
            ],
            [
                -180.4856719970703,
                -737.9041137695313,
                5200.0
            ],
            [
                -149.73553466796875,
                -751.854248046875,
                5300.0
            ],
            [
                -116.5774154663086,
                -765.8516845703125,
                5400.0
            ],
            [
                -81.08714294433594,
                -779.7880249023438,
                5500.0
            ],
            [
                -43.40921401977539,
                -793.7174072265625,
                5600.0
            ],
            [
                -3.2112882137298584,
                -807.607177734375,
                5700.0
            ],
            [
                39.226585388183594,
                -821.470703125,
                5800.0
            ],
            [
                84.00733184814453,
                -835.2756958007813,
                5900.0
            ],
            [
                131.24586486816406,
                -849.0031127929688,
                6000.0
            ],
            [
                180.85911560058594,
                -862.601806640625,
                6100.0
            ],
            [
                232.85745239257813,
                -876.12841796875,
                6200.0
            ],
            [
                287.3191833496094,
                -889.411376953125,
                6300.0
            ],
            [
                344.1419677734375,
                -902.5502319335938,
                6400.0
            ],
            [
                403.2547607421875,
                -915.5062866210938,
                6500.0
            ],
            [
                464.75750732421875,
                -928.1115112304688,
                6600.0
            ],
            [
                528.6279907226563,
                -940.3977661132813,
                6700.0
            ],
            [
                594.66064453125,
                -952.3154907226563,
                6800.0
            ],
            [
                662.907958984375,
                -963.8023681640625,
                6900.0
            ],
            [
                733.1461181640625,
                -974.8572387695313,
                7000.0
            ],
            [
                805.3475341796875,
                -985.396240234375,
                7100.0
            ],
            [
                879.325439453125,
                -995.4506225585938,
                7200.0
            ],
            [
                954.9602661132813,
                -1004.9833374023438,
                7300.0
            ],
            [
                1032.1944580078125,
                -1013.985107421875,
                7400.0
            ],
            [
                1110.7147216796875,
                -1022.5343017578125,
                7500.0
            ],
            [
                1190.60791015625,
                -1030.5194091796875,
                7600.0
            ],
            [
                1271.635498046875,
                -1038.031982421875,
                7700.0
            ],
            [
                1353.72021484375,
                -1045.080322265625,
                7800.0
            ],
            [
                1436.7442626953125,
                -1051.69677734375,
                7900.0
            ],
            [
                1520.5872802734375,
                -1057.9317626953125,
                8000.0
            ],
            [
                1605.1925048828125,
                -1063.796875,
                8100.0
            ],
            [
                1690.44384765625,
                -1069.3468017578125,
                8200.0
            ],
            [
                1776.282470703125,
                -1074.608642578125,
                8300.0
            ],
            [
                1862.6478271484375,
                -1079.6129150390625,
                8400.0
            ],
            [
                1949.47021484375,
                -1084.4083251953125,
                8500.0
            ],
            [
                2036.6968994140625,
                -1089.0006103515625,
                8600.0
            ],
            [
                2124.2802734375,
                -1093.43505859375,
                8700.0
            ],
            [
                2212.1748046875,
                -1097.7381591796875,
                8800.0
            ],
            [
                2300.342041015625,
                -1101.9324951171875,
                8900.0
            ],
            [
                2388.75439453125,
                -1106.033203125,
                9000.0
            ],
            [
                2477.3798828125,
                -1110.0604248046875,
                9100.0
            ],
            [
                2566.19140625,
                -1114.028564453125,
                9200.0
            ],
            [
                2655.16943359375,
                -1117.947265625,
                9300.0
            ],
            [
                2744.293701171875,
                -1121.826416015625,
                9400.0
            ],
            [
                2833.5458984375,
                -1125.6744384765625,
                9500.0
            ],
            [
                2922.910400390625,
                -1129.498291015625,
                9600.0
            ],
            [
                3012.37255859375,
                -1133.3046875,
                9700.0
            ],
            [
                3101.91943359375,
                -1137.098388671875,
                9800.0
            ],
            [
                3191.5400390625,
                -1140.8831787109375,
                9900.0
            ],
            [
                3281.22509765625,
                -1144.662109375,
                10000.0
            ],
            [
                3460.7548828125,
                -1152.212158203125,
                10200.0
            ],
            [
                3640.454345703125,
                -1159.7606201171875,
                10400.0
            ],
            [
                3820.28564453125,
                -1167.3194580078125,
                10600.0
            ],
            [
                4000.24951171875,
                -1174.891357421875,
                10800.0
            ],
            [
                4180.1962890625,
                -1182.4698486328125,
                11000.0
            ],
            [
                4360.1416015625,
                -1190.0450439453125,
                11200.0
            ],
            [
                4540.13671875,
                -1197.632568359375,
                11400.0
            ],
            [
                4720.181640625,
                -1205.2115478515625,
                11600.0
            ],
            [
                4900.07861328125,
                -1212.78369140625,
                11800.0
            ],
            [
                5079.90673828125,
                -1220.33447265625,
                12000.0
            ],
            [
                5260.08203125,
                -1227.9630126953125,
                12200.0
            ],
            [
                5439.64306640625,
                -1235.4593505859375,
                12400.0
            ],
            [
                5619.97802734375,
                -1243.101318359375,
                12600.0
            ],
            [
                5799.701171875,
                -1250.6300048828125,
                12800.0
            ],
            [
                5979.85986328125,
                -1258.25341796875,
                13000.0
            ],
            [
                6159.9873046875,
                -1265.8739013671875,
                13200.0
            ],
            [
                6339.7958984375,
                -1273.421630859375,
                13400.0
            ]
        ],
        "zFirstMeasurement": 79.5152
    }
]
