[
    {
        "E": 24056.940179209087,
        "chi2": 0.0,
        "ip": 0.02350685364624352,
        "ipchi2": 2.223802319535471,
        "mass": 1863.962,
        "particleId": "D0",
        "pvx": 0.6216,
        "pvy": 0.0566,
        "pvz": 25.1378,
        "px": -3196.39,
        "py": -2287.77,
        "pz": 23660.33,
        "q": 0.0,
        "trajectory": [
            [
                0.6215999722480774,
                0.05660000070929527,
                25.137800216674805
            ],
            [
                0.39079999923706055,
                -0.10249999910593033,
                26.965099334716797
            ]
        ],
        "zFirstMeasurement": -9999.0
    },
    {
        "E": 17108.790766446862,
        "chi2": 1.0568643808364868,
        "ip": 0.08315374393355773,
        "ipchi2": 15.384955448334534,
        "mass": 493.677,
        "particleId": "K-",
        "pvx": 0.6216,
        "pvy": 0.0566,
        "pvz": 25.1378,
        "px": -2296.31,
        "py": -839.54,
        "pz": 16925.99,
        "q": -1.0,
        "trajectory": [
            [
                0.40498170256614685,
                -0.11107953637838364,
                26.965099334716797
            ],
            [
                -0.2733573913574219,
                -0.35908204317092896,
                31.965099334716797
            ],
            [
                -0.9516997933387756,
                -0.6070845723152161,
                36.9650993347168
            ],
            [
                -1.6300456523895264,
                -0.855087161064148,
                41.9650993347168
            ],
            [
                -2.3083949089050293,
                -1.1030898094177246,
                46.9650993347168
            ],
            [
                -2.9867475032806396,
                -1.3510924577713013,
                51.9650993347168
            ],
            [
                -3.6651039123535156,
                -1.5990952253341675,
                56.9650993347168
            ],
            [
                -4.343463897705078,
                -1.8470979928970337,
                61.9650993347168
            ],
            [
                -5.021827220916748,
                -2.0951008796691895,
                66.96510314941406
            ],
            [
                -5.700195789337158,
                -2.343088150024414,
                71.96510314941406
            ],
            [
                -6.378566741943359,
                -2.5910911560058594,
                76.96510314941406
            ],
            [
                -7.056941032409668,
                -2.8390941619873047,
                81.96510314941406
            ],
            [
                -7.735318660736084,
                -3.08709716796875,
                86.96510314941406
            ],
            [
                -8.413700103759766,
                -3.3351004123687744,
                91.96510314941406
            ],
            [
                -9.092084884643555,
                -3.5831034183502197,
                96.96510314941406
            ],
            [
                -9.770474433898926,
                -3.831106662750244,
                101.96510314941406
            ],
            [
                -12.484067916870117,
                -4.8231201171875,
                121.96510314941406
            ],
            [
                -15.19772720336914,
                -5.815134048461914,
                141.96510314941406
            ],
            [
                -17.911455154418945,
                -6.807149410247803,
                161.96510314941406
            ],
            [
                -20.62525749206543,
                -7.799165725708008,
                181.96510314941406
            ],
            [
                -23.33913803100586,
                -8.791183471679688,
                201.96510314941406
            ],
            [
                -26.053058624267578,
                -9.783201217651367,
                221.96510314941406
            ],
            [
                -28.767080307006836,
                -10.77522087097168,
                241.96510314941406
            ],
            [
                -31.481185913085938,
                -11.767242431640625,
                261.965087890625
            ],
            [
                -34.195377349853516,
                -12.759264945983887,
                281.965087890625
            ],
            [
                -36.9096565246582,
                -13.751288414001465,
                301.965087890625
            ],
            [
                -39.624027252197266,
                -14.743313789367676,
                321.965087890625
            ],
            [
                -42.3384895324707,
                -15.73534107208252,
                341.965087890625
            ],
            [
                -45.05305480957031,
                -16.72736930847168,
                361.965087890625
            ],
            [
                -47.76771926879883,
                -17.71940040588379,
                381.965087890625
            ],
            [
                -50.482486724853516,
                -18.71143341064453,
                401.965087890625
            ],
            [
                -53.19736862182617,
                -19.703466415405273,
                421.965087890625
            ],
            [
                -55.9123649597168,
                -20.69550323486328,
                441.965087890625
            ],
            [
                -58.62748336791992,
                -21.687541961669922,
                461.965087890625
            ],
            [
                -61.34272003173828,
                -22.679584503173828,
                481.965087890625
            ],
            [
                -64.0580825805664,
                -23.671627044677734,
                501.965087890625
            ],
            [
                -66.77357482910156,
                -24.663673400878906,
                521.965087890625
            ],
            [
                -69.48919677734375,
                -25.655719757080078,
                541.965087890625
            ],
            [
                -72.20496368408203,
                -26.64777183532715,
                561.965087890625
            ],
            [
                -74.92086029052734,
                -27.63982391357422,
                581.965087890625
            ],
            [
                -77.63690948486328,
                -28.631879806518555,
                601.965087890625
            ],
            [
                -80.35313415527344,
                -29.623937606811523,
                621.965087890625
            ],
            [
                -83.06951904296875,
                -30.615999221801758,
                641.965087890625
            ],
            [
                -85.78605651855469,
                -31.608062744140625,
                661.965087890625
            ],
            [
                -88.50276184082031,
                -32.600128173828125,
                681.965087890625
            ],
            [
                -91.21963500976563,
                -33.59219741821289,
                701.965087890625
            ],
            [
                -93.9366683959961,
                -34.584266662597656,
                721.965087890625
            ],
            [
                -96.65386962890625,
                -35.57633972167969,
                741.965087890625
            ],
            [
                -99.37127685546875,
                -36.568416595458984,
                761.965087890625
            ],
            [
                -102.08892822265625,
                -37.56049728393555,
                781.965087890625
            ],
            [
                -104.80677795410156,
                -38.55257797241211,
                801.965087890625
            ],
            [
                -107.52481842041016,
                -39.54465866088867,
                821.965087890625
            ],
            [
                -110.2430648803711,
                -40.536746978759766,
                841.965087890625
            ],
            [
                -112.96150970458984,
                -41.52883529663086,
                861.965087890625
            ],
            [
                -115.68017578125,
                -42.52092361450195,
                881.965087890625
            ],
            [
                -118.3990478515625,
                -43.51301956176758,
                901.965087890625
            ],
            [
                -121.11811065673828,
                -44.5051155090332,
                921.965087890625
            ],
            [
                -123.83745574951172,
                -45.49721145629883,
                941.965087890625
            ],
            [
                -126.55704498291016,
                -46.48931121826172,
                961.965087890625
            ],
            [
                -129.27687072753906,
                -47.48141098022461,
                981.965087890625
            ],
            [
                -131.9969482421875,
                -48.4735107421875,
                1001.965087890625
            ],
            [
                -145.60069274902344,
                -53.43402862548828,
                1101.965087890625
            ],
            [
                -159.2131805419922,
                -58.39442825317383,
                1201.965087890625
            ],
            [
                -172.83084106445313,
                -63.3548698425293,
                1301.965087890625
            ],
            [
                -186.454833984375,
                -68.31527709960938,
                1401.965087890625
            ],
            [
                -200.08575439453125,
                -73.275634765625,
                1501.965087890625
            ],
            [
                -213.7220001220703,
                -78.2359848022461,
                1601.965087890625
            ],
            [
                -227.36538696289063,
                -83.1964111328125,
                1701.965087890625
            ],
            [
                -241.01617431640625,
                -88.15695190429688,
                1801.965087890625
            ],
            [
                -254.6755828857422,
                -93.11766815185547,
                1901.965087890625
            ],
            [
                -268.34368896484375,
                -98.07868194580078,
                2001.965087890625
            ],
            [
                -282.0240173339844,
                -103.03999328613281,
                2101.965087890625
            ],
            [
                -295.720458984375,
                -108.0018310546875,
                2201.965087890625
            ],
            [
                -309.4273681640625,
                -112.96431732177734,
                2301.965087890625
            ],
            [
                -323.1551818847656,
                -117.92764282226563,
                2401.965087890625
            ],
            [
                -336.9049072265625,
                -122.89215087890625,
                2501.965087890625
            ],
            [
                -350.6849060058594,
                -127.85806274414063,
                2601.965087890625
            ],
            [
                -364.49566650390625,
                -132.82559204101563,
                2701.965087890625
            ],
            [
                -378.3465881347656,
                -137.7949981689453,
                2801.965087890625
            ],
            [
                -392.2430725097656,
                -142.76683044433594,
                2901.965087890625
            ],
            [
                -406.1952819824219,
                -147.74142456054688,
                3001.965087890625
            ],
            [
                -420.2082824707031,
                -152.71864318847656,
                3101.965087890625
            ],
            [
                -434.3022766113281,
                -157.69874572753906,
                3201.965087890625
            ],
            [
                -448.469482421875,
                -162.6825408935547,
                3301.965087890625
            ],
            [
                -462.736083984375,
                -167.67002868652344,
                3401.965087890625
            ],
            [
                -477.1101989746094,
                -172.6616973876953,
                3501.965087890625
            ],
            [
                -491.5921630859375,
                -177.65838623046875,
                3601.965087890625
            ],
            [
                -506.2021179199219,
                -182.65884399414063,
                3701.965087890625
            ],
            [
                -520.9495239257813,
                -187.6634521484375,
                3801.965087890625
            ],
            [
                -535.8388061523438,
                -192.6733856201172,
                3901.965087890625
            ],
            [
                -550.893310546875,
                -197.68869018554688,
                4001.965087890625
            ],
            [
                -566.1014404296875,
                -202.70823669433594,
                4101.96533203125
            ],
            [
                -581.498779296875,
                -207.7301025390625,
                4201.96533203125
            ],
            [
                -597.0781860351563,
                -212.75672912597656,
                4301.96533203125
            ],
            [
                -612.8377685546875,
                -217.7878875732422,
                4401.96533203125
            ],
            [
                -628.7760620117188,
                -222.82281494140625,
                4501.96533203125
            ],
            [
                -644.9121704101563,
                -227.85955810546875,
                4601.96533203125
            ],
            [
                -661.2396240234375,
                -232.89808654785156,
                4701.96533203125
            ],
            [
                -675.9293823242188,
                -239.9663848876953,
                4801.96533203125
            ],
            [
                -692.6153564453125,
                -245.0727996826172,
                4901.96533203125
            ],
            [
                -709.4891357421875,
                -250.18043518066406,
                5001.96533203125
            ],
            [
                -726.559326171875,
                -255.29054260253906,
                5101.96533203125
            ],
            [
                -743.8152465820313,
                -260.4019775390625,
                5201.96533203125
            ],
            [
                -761.2598266601563,
                -265.5150451660156,
                5301.96533203125
            ],
            [
                -778.8877563476563,
                -270.6280517578125,
                5401.96533203125
            ],
            [
                -796.6989135742188,
                -275.7412109375,
                5501.96533203125
            ],
            [
                -814.6820678710938,
                -280.85748291015625,
                5601.96533203125
            ],
            [
                -832.8442993164063,
                -285.9731750488281,
                5701.96533203125
            ],
            [
                -851.1788940429688,
                -291.0898132324219,
                5801.96533203125
            ],
            [
                -869.6749267578125,
                -296.2063903808594,
                5901.96533203125
            ],
            [
                -888.339111328125,
                -301.3232421875,
                6001.96533203125
            ],
            [
                -907.1597290039063,
                -306.44012451171875,
                6101.96533203125
            ],
            [
                -926.1336669921875,
                -311.55609130859375,
                6201.96533203125
            ],
            [
                -945.2565307617188,
                -316.67156982421875,
                6301.96533203125
            ],
            [
                -964.5217895507813,
                -321.786376953125,
                6401.96533203125
            ],
            [
                -983.9254150390625,
                -326.89984130859375,
                6501.96533203125
            ],
            [
                -1003.460205078125,
                -332.0124816894531,
                6601.96533203125
            ],
            [
                -1023.1220092773438,
                -337.1238098144531,
                6701.96533203125
            ],
            [
                -1042.90087890625,
                -342.2337951660156,
                6801.96533203125
            ],
            [
                -1062.7960205078125,
                -347.3417663574219,
                6901.96533203125
            ],
            [
                -1082.7982177734375,
                -352.44781494140625,
                7001.96533203125
            ],
            [
                -1102.900390625,
                -357.55224609375,
                7101.96533203125
            ],
            [
                -1123.0963134765625,
                -362.655029296875,
                7201.96533203125
            ],
            [
                -1143.38037109375,
                -367.7561340332031,
                7301.96533203125
            ],
            [
                -1163.748046875,
                -372.8554382324219,
                7401.96533203125
            ],
            [
                -1184.188720703125,
                -377.9533996582031,
                7501.96533203125
            ],
            [
                -1204.701416015625,
                -383.04962158203125,
                7601.96533203125
            ],
            [
                -1225.27783203125,
                -388.1446228027344,
                7701.96533203125
            ],
            [
                -1245.9149169921875,
                -393.2384338378906,
                7801.96533203125
            ],
            [
                -1266.6070556640625,
                -398.3311462402344,
                7901.96533203125
            ],
            [
                -1287.3492431640625,
                -403.4229736328125,
                8001.96533203125
            ],
            [
                -1308.1383056640625,
                -408.5140075683594,
                8101.96533203125
            ],
            [
                -1328.968505859375,
                -413.6044921875,
                8201.96484375
            ],
            [
                -1349.837158203125,
                -418.6944580078125,
                8301.96484375
            ],
            [
                -1370.740966796875,
                -423.7840881347656,
                8401.96484375
            ],
            [
                -1391.6768798828125,
                -428.87347412109375,
                8501.96484375
            ],
            [
                -1412.6409912109375,
                -433.9627380371094,
                8601.96484375
            ],
            [
                -1433.631591796875,
                -439.0519104003906,
                8701.96484375
            ],
            [
                -1454.6458740234375,
                -444.1411437988281,
                8801.96484375
            ],
            [
                -1475.6817626953125,
                -449.23046875,
                8901.96484375
            ],
            [
                -1496.7373046875,
                -454.3199462890625,
                9001.96484375
            ],
            [
                -1517.810546875,
                -459.40966796875,
                9101.96484375
            ],
            [
                -1538.89990234375,
                -464.4996643066406,
                9201.96484375
            ],
            [
                -1560.0037841796875,
                -469.5899353027344,
                9301.96484375
            ],
            [
                -1581.120849609375,
                -474.6805114746094,
                9401.96484375
            ],
            [
                -1602.249755859375,
                -479.7714538574219,
                9501.96484375
            ],
            [
                -1623.389404296875,
                -484.86273193359375,
                9601.96484375
            ],
            [
                -1644.538818359375,
                -489.9543762207031,
                9701.96484375
            ],
            [
                -1665.6968994140625,
                -495.0463562011719,
                9801.96484375
            ],
            [
                -1686.863037109375,
                -500.138671875,
                9901.96484375
            ],
            [
                -1708.0362548828125,
                -505.2313537597656,
                10001.96484375
            ],
            [
                -1750.401611328125,
                -515.417724609375,
                10201.96484375
            ],
            [
                -1792.7882080078125,
                -525.6053466796875,
                10401.96484375
            ],
            [
                -1835.1920166015625,
                -535.7941284179688,
                10601.96484375
            ],
            [
                -1877.6103515625,
                -545.9840087890625,
                10801.96484375
            ],
            [
                -1920.039794921875,
                -556.1748046875,
                11001.96484375
            ],
            [
                -1962.478759765625,
                -566.366455078125,
                11201.96484375
            ],
            [
                -2004.9256591796875,
                -576.5588989257813,
                11401.96484375
            ],
            [
                -2047.3782958984375,
                -586.7520751953125,
                11601.96484375
            ],
            [
                -2089.8359375,
                -596.94580078125,
                11801.96484375
            ],
            [
                -2132.29736328125,
                -607.1400756835938,
                12001.96484375
            ],
            [
                -2174.7626953125,
                -617.3348388671875,
                12201.96484375
            ],
            [
                -2217.230224609375,
                -627.530029296875,
                12401.96484375
            ],
            [
                -2259.69921875,
                -637.7255249023438,
                12601.96484375
            ],
            [
                -2302.169677734375,
                -647.9213256835938,
                12801.96484375
            ],
            [
                -2344.6416015625,
                -658.1173095703125,
                13001.96484375
            ],
            [
                -2387.114990234375,
                -668.3135375976563,
                13201.96484375
            ],
            [
                -2429.5888671875,
                -678.5099487304688,
                13401.96484375
            ]
        ],
        "zFirstMeasurement": 109.4064
    },
    {
        "E": 6945.560376405724,
        "chi2": 1.4807769060134888,
        "ip": 0.24717549152749257,
        "ipchi2": 114.20534969652505,
        "mass": 139.57,
        "particleId": "pi+",
        "pvx": 0.6216,
        "pvy": 0.0566,
        "pvz": 25.1378,
        "px": -897.47,
        "py": -1448.24,
        "pz": 6731.9,
        "q": 1.0,
        "trajectory": [
            [
                0.34048596024513245,
                -0.08770788460969925,
                26.965099334716797
            ],
            [
                -0.3260878026485443,
                -1.1633626222610474,
                31.965099334716797
            ],
            [
                -0.9926534295082092,
                -2.2390170097351074,
                36.9650993347168
            ],
            [
                -1.6592106819152832,
                -3.314671277999878,
                41.9650993347168
            ],
            [
                -2.3257596492767334,
                -4.39032506942749,
                46.9650993347168
            ],
            [
                -2.992300033569336,
                -5.465978622436523,
                51.9650993347168
            ],
            [
                -3.6587345600128174,
                -6.541586399078369,
                56.9650993347168
            ],
            [
                -4.325257778167725,
                -7.617239475250244,
                61.9650993347168
            ],
            [
                -4.991772651672363,
                -8.692892074584961,
                66.96510314941406
            ],
            [
                -5.658278942108154,
                -9.76854419708252,
                71.96510314941406
            ],
            [
                -6.3247761726379395,
                -10.844196319580078,
                76.96510314941406
            ],
            [
                -6.991264820098877,
                -11.91984748840332,
                81.96510314941406
            ],
            [
                -7.657744407653809,
                -12.995498657226563,
                86.96510314941406
            ],
            [
                -8.324214935302734,
                -14.071149826049805,
                91.96510314941406
            ],
            [
                -8.990675926208496,
                -15.14680004119873,
                96.96510314941406
            ],
            [
                -9.657127380371094,
                -16.222450256347656,
                101.96510314941406
            ],
            [
                -12.322837829589844,
                -20.525047302246094,
                121.96510314941406
            ],
            [
                -14.988383293151855,
                -24.82763671875,
                141.96510314941406
            ],
            [
                -17.65375328063965,
                -29.130220413208008,
                161.96510314941406
            ],
            [
                -20.319013595581055,
                -33.43280029296875,
                181.96510314941406
            ],
            [
                -22.984058380126953,
                -37.73536682128906,
                201.96510314941406
            ],
            [
                -25.64891815185547,
                -42.03792953491211,
                221.96510314941406
            ],
            [
                -28.31358528137207,
                -46.34048080444336,
                241.96510314941406
            ],
            [
                -30.978055953979492,
                -50.64302062988281,
                261.965087890625
            ],
            [
                -33.64231872558594,
                -54.945552825927734,
                281.965087890625
            ],
            [
                -36.306365966796875,
                -59.24807357788086,
                301.965087890625
            ],
            [
                -38.97018814086914,
                -63.55058288574219,
                321.965087890625
            ],
            [
                -41.63378143310547,
                -67.85308074951172,
                341.965087890625
            ],
            [
                -44.29713821411133,
                -72.15556335449219,
                361.965087890625
            ],
            [
                -46.96025466918945,
                -76.4580307006836,
                381.965087890625
            ],
            [
                -49.62311553955078,
                -80.76049041748047,
                401.965087890625
            ],
            [
                -52.28571701049805,
                -85.06293487548828,
                421.965087890625
            ],
            [
                -54.94804763793945,
                -89.3653564453125,
                441.965087890625
            ],
            [
                -57.61009216308594,
                -93.66777038574219,
                461.965087890625
            ],
            [
                -60.2718505859375,
                -97.97016143798828,
                481.965087890625
            ],
            [
                -62.933292388916016,
                -102.27253723144531,
                501.965087890625
            ],
            [
                -65.59442138671875,
                -106.57489013671875,
                521.965087890625
            ],
            [
                -68.25523376464844,
                -110.87722778320313,
                541.965087890625
            ],
            [
                -70.91572570800781,
                -115.1795425415039,
                561.965087890625
            ],
            [
                -73.57589721679688,
                -119.4818344116211,
                581.965087890625
            ],
            [
                -76.23572540283203,
                -123.78411102294922,
                601.965087890625
            ],
            [
                -78.8951416015625,
                -128.0863800048828,
                621.965087890625
            ],
            [
                -81.55413818359375,
                -132.38861083984375,
                641.965087890625
            ],
            [
                -84.21275329589844,
                -136.6908416748047,
                661.965087890625
            ],
            [
                -86.87098693847656,
                -140.9930419921875,
                681.965087890625
            ],
            [
                -89.52881622314453,
                -145.2952117919922,
                701.965087890625
            ],
            [
                -92.18623352050781,
                -149.59739685058594,
                721.965087890625
            ],
            [
                -94.84323120117188,
                -153.89955139160156,
                741.965087890625
            ],
            [
                -97.49980163574219,
                -158.20167541503906,
                761.965087890625
            ],
            [
                -100.15594482421875,
                -162.5037841796875,
                781.965087890625
            ],
            [
                -102.81150817871094,
                -166.80587768554688,
                801.965087890625
            ],
            [
                -105.46659851074219,
                -171.10794067382813,
                821.965087890625
            ],
            [
                -108.12115478515625,
                -175.4099884033203,
                841.965087890625
            ],
            [
                -110.77523040771484,
                -179.71200561523438,
                861.965087890625
            ],
            [
                -113.42879486083984,
                -184.01402282714844,
                881.965087890625
            ],
            [
                -116.08185577392578,
                -188.31600952148438,
                901.965087890625
            ],
            [
                -118.73450469970703,
                -192.6179656982422,
                921.965087890625
            ],
            [
                -121.38662719726563,
                -196.919921875,
                941.965087890625
            ],
            [
                -124.0379867553711,
                -201.22190856933594,
                961.965087890625
            ],
            [
                -126.68868255615234,
                -205.52392578125,
                981.965087890625
            ],
            [
                -129.3388214111328,
                -209.825927734375,
                1001.965087890625
            ],
            [
                -142.57749938964844,
                -231.33636474609375,
                1101.965087890625
            ],
            [
                -155.8011016845703,
                -252.84719848632813,
                1201.965087890625
            ],
            [
                -169.008544921875,
                -274.3584899902344,
                1301.965087890625
            ],
            [
                -182.1999053955078,
                -295.87060546875,
                1401.965087890625
            ],
            [
                -195.3756561279297,
                -317.3833312988281,
                1501.965087890625
            ],
            [
                -208.54104614257813,
                -338.8960876464844,
                1601.965087890625
            ],
            [
                -221.6918487548828,
                -360.4085388183594,
                1701.965087890625
            ],
            [
                -234.83123779296875,
                -381.919677734375,
                1801.965087890625
            ],
            [
                -247.95748901367188,
                -403.42926025390625,
                1901.965087890625
            ],
            [
                -261.0716247558594,
                -424.9368896484375,
                2001.965087890625
            ],
            [
                -274.1642761230469,
                -446.4413757324219,
                2101.965087890625
            ],
            [
                -287.24420166015625,
                -467.9425964355469,
                2201.965087890625
            ],
            [
                -300.3174743652344,
                -489.4371337890625,
                2301.965087890625
            ],
            [
                -313.36712646484375,
                -510.9235534667969,
                2401.965087890625
            ],
            [
                -326.3923645019531,
                -532.3986206054688,
                2501.965087890625
            ],
            [
                -339.3825988769531,
                -553.8606567382813,
                2601.965087890625
            ],
            [
                -352.33697509765625,
                -575.3057250976563,
                2701.965087890625
            ],
            [
                -365.2361145019531,
                -596.730712890625,
                2801.965087890625
            ],
            [
                -378.06597900390625,
                -618.1357421875,
                2901.965087890625
            ],
            [
                -390.82147216796875,
                -639.5172729492188,
                3001.965087890625
            ],
            [
                -403.4727478027344,
                -660.8743896484375,
                3101.965087890625
            ],
            [
                -416.0141906738281,
                -682.2003173828125,
                3201.965087890625
            ],
            [
                -428.425048828125,
                -703.4915771484375,
                3301.965087890625
            ],
            [
                -440.6716003417969,
                -724.7418823242188,
                3401.965087890625
            ],
            [
                -452.6960144042969,
                -745.952880859375,
                3501.965087890625
            ],
            [
                -464.5108947753906,
                -767.1184692382813,
                3601.965087890625
            ],
            [
                -476.001220703125,
                -788.2373046875,
                3701.965087890625
            ],
            [
                -487.1361083984375,
                -809.3165893554688,
                3801.965087890625
            ],
            [
                -497.8734436035156,
                -830.351318359375,
                3901.965087890625
            ],
            [
                -508.1271057128906,
                -851.3462524414063,
                4001.965087890625
            ],
            [
                -517.9513549804688,
                -872.3052368164063,
                4101.96533203125
            ],
            [
                -527.14453125,
                -893.2391967773438,
                4201.96533203125
            ],
            [
                -535.8248291015625,
                -914.1331176757813,
                4301.96533203125
            ],
            [
                -543.8743286132813,
                -935.0118408203125,
                4401.96533203125
            ],
            [
                -551.405517578125,
                -955.8762817382813,
                4501.96533203125
            ],
            [
                -558.317138671875,
                -976.717529296875,
                4601.96533203125
            ],
            [
                -564.625,
                -997.5534057617188,
                4701.96533203125
            ],
            [
                -558.948974609375,
                -1028.9976806640625,
                4801.96533203125
            ],
            [
                -563.9760131835938,
                -1050.134033203125,
                4901.96533203125
            ],
            [
                -568.5195922851563,
                -1071.264404296875,
                5001.96533203125
            ],
            [
                -572.4868774414063,
                -1092.388427734375,
                5101.96533203125
            ],
            [
                -575.9313354492188,
                -1113.51513671875,
                5201.96533203125
            ],
            [
                -578.90625,
                -1134.6368408203125,
                5301.96533203125
            ],
            [
                -581.4732666015625,
                -1155.7606201171875,
                5401.96533203125
            ],
            [
                -583.4743041992188,
                -1176.877197265625,
                5501.96533203125
            ],
            [
                -585.010986328125,
                -1197.990966796875,
                5601.96533203125
            ],
            [
                -586.0810546875,
                -1219.0977783203125,
                5701.96533203125
            ],
            [
                -586.662353515625,
                -1240.2042236328125,
                5801.96533203125
            ],
            [
                -586.82275390625,
                -1261.306640625,
                5901.96533203125
            ],
            [
                -586.4686889648438,
                -1282.40673828125,
                6001.96533203125
            ],
            [
                -585.6192626953125,
                -1303.5045166015625,
                6101.96533203125
            ],
            [
                -584.4207153320313,
                -1324.598388671875,
                6201.96533203125
            ],
            [
                -582.7097778320313,
                -1345.6851806640625,
                6301.96533203125
            ],
            [
                -580.5347290039063,
                -1366.7652587890625,
                6401.96533203125
            ],
            [
                -577.9011840820313,
                -1387.843505859375,
                6501.96533203125
            ],
            [
                -574.8284301757813,
                -1408.908447265625,
                6601.96533203125
            ],
            [
                -571.3291625976563,
                -1429.9620361328125,
                6701.96533203125
            ],
            [
                -567.4661865234375,
                -1451.00341796875,
                6801.96533203125
            ],
            [
                -563.2197265625,
                -1472.0311279296875,
                6901.96533203125
            ],
            [
                -558.6686401367188,
                -1493.0419921875,
                7001.96533203125
            ],
            [
                -553.8529052734375,
                -1514.03515625,
                7101.96533203125
            ],
            [
                -548.8091430664063,
                -1535.0106201171875,
                7201.96533203125
            ],
            [
                -543.5760498046875,
                -1555.968994140625,
                7301.96533203125
            ],
            [
                -538.169189453125,
                -1576.9091796875,
                7401.96533203125
            ],
            [
                -532.6312866210938,
                -1597.8328857421875,
                7501.96533203125
            ],
            [
                -526.9797973632813,
                -1618.73779296875,
                7601.96533203125
            ],
            [
                -521.2440185546875,
                -1639.625732421875,
                7701.96533203125
            ],
            [
                -515.435302734375,
                -1660.49755859375,
                7801.96533203125
            ],
            [
                -509.56787109375,
                -1681.354248046875,
                7901.96533203125
            ],
            [
                -503.6539611816406,
                -1702.1968994140625,
                8001.96533203125
            ],
            [
                -497.70220947265625,
                -1723.0262451171875,
                8101.96533203125
            ],
            [
                -491.7192687988281,
                -1743.843505859375,
                8201.96484375
            ],
            [
                -485.7110290527344,
                -1764.6495361328125,
                8301.96484375
            ],
            [
                -479.6811218261719,
                -1785.445068359375,
                8401.96484375
            ],
            [
                -473.6324768066406,
                -1806.230712890625,
                8501.96484375
            ],
            [
                -467.56951904296875,
                -1827.007568359375,
                8601.96484375
            ],
            [
                -461.4928894042969,
                -1847.776123046875,
                8701.96484375
            ],
            [
                -455.40460205078125,
                -1868.536865234375,
                8801.96484375
            ],
            [
                -449.3055419921875,
                -1889.2904052734375,
                8901.96484375
            ],
            [
                -443.19720458984375,
                -1910.0372314453125,
                9001.96484375
            ],
            [
                -437.08050537109375,
                -1930.77783203125,
                9101.96484375
            ],
            [
                -430.9563903808594,
                -1951.5125732421875,
                9201.96484375
            ],
            [
                -424.82562255859375,
                -1972.241943359375,
                9301.96484375
            ],
            [
                -418.68896484375,
                -1992.96630859375,
                9401.96484375
            ],
            [
                -412.5469970703125,
                -2013.68603515625,
                9501.96484375
            ],
            [
                -406.4002990722656,
                -2034.4013671875,
                9601.96484375
            ],
            [
                -400.24932861328125,
                -2055.11279296875,
                9701.96484375
            ],
            [
                -394.09454345703125,
                -2075.820556640625,
                9801.96484375
            ],
            [
                -387.9363098144531,
                -2096.524658203125,
                9901.96484375
            ],
            [
                -381.7749938964844,
                -2117.225830078125,
                10001.96484375
            ],
            [
                -369.4443359375,
                -2158.619140625,
                10201.96484375
            ],
            [
                -357.10467529296875,
                -2200.002685546875,
                10401.96484375
            ],
            [
                -344.7577819824219,
                -2241.377685546875,
                10601.96484375
            ],
            [
                -332.40521240234375,
                -2282.74560546875,
                10801.96484375
            ],
            [
                -320.04791259765625,
                -2324.107666015625,
                11001.96484375
            ],
            [
                -307.6869201660156,
                -2365.46484375,
                11201.96484375
            ],
            [
                -295.3233337402344,
                -2406.81787109375,
                11401.96484375
            ],
            [
                -282.9574890136719,
                -2448.16748046875,
                11601.96484375
            ],
            [
                -270.58990478515625,
                -2489.5146484375,
                11801.96484375
            ],
            [
                -258.2209167480469,
                -2530.859619140625,
                12001.96484375
            ],
            [
                -245.8515167236328,
                -2572.20263671875,
                12201.96484375
            ],
            [
                -233.48153686523438,
                -2613.544189453125,
                12401.96484375
            ],
            [
                -221.11093139648438,
                -2654.884765625,
                12601.96484375
            ],
            [
                -208.73989868164063,
                -2696.224609375,
                12801.96484375
            ],
            [
                -196.369140625,
                -2737.5634765625,
                13001.96484375
            ],
            [
                -183.9985809326172,
                -2778.901611328125,
                13201.96484375
            ],
            [
                -171.62803649902344,
                -2820.239501953125,
                13401.96484375
            ]
        ],
        "zFirstMeasurement": 79.5152
    },
    {
        "E": 11215.948432546631,
        "chi2": 1.2408777475357056,
        "ip": 0.19497596554584926,
        "ipchi2": 6.923160382212657,
        "mass": 139.57018,
        "particleId": "pi+",
        "pvx": 0.6216,
        "pvy": 0.0566,
        "pvz": 25.1378,
        "px": 240.2647553315154,
        "py": -311.5512258358599,
        "pz": 11208.176840477921,
        "q": 1.0,
        "trajectory": [
            [
                -1.9688422679901123,
                3.707613945007324,
                -100.0
            ],
            [
                -1.8617631196975708,
                3.568632125854492,
                -95.0
            ],
            [
                -1.7546802759170532,
                3.42965030670166,
                -90.0
            ],
            [
                -1.64759361743927,
                3.290668249130249,
                -85.0
            ],
            [
                -1.5405032634735107,
                3.151686191558838,
                -80.0
            ],
            [
                -1.4334404468536377,
                3.0127038955688477,
                -75.0
            ],
            [
                -1.3263378143310547,
                2.8737215995788574,
                -70.0
            ],
            [
                -1.2192316055297852,
                2.734739303588867,
                -65.0
            ],
            [
                -1.112121820449829,
                2.595756769180298,
                -60.0
            ],
            [
                -1.0050084590911865,
                2.4567744731903076,
                -55.0
            ],
            [
                -0.8978913426399231,
                2.317791700363159,
                -50.0
            ],
            [
                -0.790770411491394,
                2.17880916595459,
                -45.0
            ],
            [
                -0.6836456656455994,
                2.0398263931274414,
                -40.0
            ],
            [
                -0.5765169262886047,
                1.9008433818817139,
                -35.0
            ],
            [
                -0.46938425302505493,
                1.7618604898452759,
                -30.0
            ],
            [
                -0.362247496843338,
                1.6228774785995483,
                -25.0
            ],
            [
                -0.25510644912719727,
                1.4838943481445313,
                -20.0
            ],
            [
                -0.14796125888824463,
                1.3449110984802246,
                -15.0
            ],
            [
                -0.04081185162067413,
                1.205927848815918,
                -10.0
            ],
            [
                0.06634185463190079,
                1.0669444799423218,
                -5.0
            ],
            [
                0.1734999418258667,
                0.9279610514640808,
                0.0
            ],
            [
                0.280662477016449,
                0.7889775037765503,
                5.0
            ],
            [
                0.38782957196235657,
                0.6499938368797302,
                10.0
            ],
            [
                0.49500125646591187,
                0.5110101699829102,
                15.0
            ],
            [
                0.6021776795387268,
                0.37202638387680054,
                20.0
            ],
            [
                0.7093588709831238,
                0.23304250836372375,
                25.0
            ],
            [
                0.8165449500083923,
                0.09405854344367981,
                30.0
            ],
            [
                0.9237359166145325,
                -0.044925495982170105,
                35.0
            ],
            [
                1.0309319496154785,
                -0.18390962481498718,
                40.0
            ],
            [
                1.1381330490112305,
                -0.32289382815361023,
                45.0
            ],
            [
                1.2453393936157227,
                -0.46187812089920044,
                50.0
            ],
            [
                1.352550983428955,
                -0.6008625030517578,
                55.0
            ],
            [
                1.4597679376602173,
                -0.73984694480896,
                60.0
            ],
            [
                1.5669903755187988,
                -0.8788315057754517,
                65.0
            ],
            [
                1.6742182970046997,
                -1.017816185951233,
                70.0
            ],
            [
                1.78145170211792,
                -1.1568008661270142,
                75.0
            ],
            [
                1.8886909484863281,
                -1.295785665512085,
                80.0
            ],
            [
                1.9959357976913452,
                -1.4347705841064453,
                85.0
            ],
            [
                2.10318660736084,
                -1.5737555027008057,
                90.0
            ],
            [
                2.2104432582855225,
                -1.7127405405044556,
                95.0
            ],
            [
                2.3177061080932617,
                -1.851725697517395,
                100.0
            ],
            [
                2.7468183040618896,
                -2.4076671600341797,
                120.0
            ],
            [
                3.175978183746338,
                -2.9636099338531494,
                140.0
            ],
            [
                3.605271577835083,
                -3.5195024013519287,
                160.0
            ],
            [
                4.034625053405762,
                -4.075448036193848,
                180.0
            ],
            [
                4.464148998260498,
                -4.631394863128662,
                200.0
            ],
            [
                4.893776893615723,
                -5.187342643737793,
                220.0
            ],
            [
                5.32351541519165,
                -5.743291854858398,
                240.0
            ],
            [
                5.753371238708496,
                -6.2992424964904785,
                260.0
            ],
            [
                6.183352470397949,
                -6.855194091796875,
                280.0
            ],
            [
                6.613465785980225,
                -7.411147117614746,
                300.0
            ],
            [
                7.043718338012695,
                -7.967101097106934,
                320.0
            ],
            [
                7.474117755889893,
                -8.523056030273438,
                340.0
            ],
            [
                7.904672622680664,
                -9.079012870788574,
                360.0
            ],
            [
                8.335328102111816,
                -9.634970664978027,
                380.0
            ],
            [
                8.766172409057617,
                -10.190929412841797,
                400.0
            ],
            [
                9.19718074798584,
                -10.746888160705566,
                420.0
            ],
            [
                9.62835693359375,
                -11.302848815917969,
                440.0
            ],
            [
                10.05970573425293,
                -11.858810424804688,
                460.0
            ],
            [
                10.491232872009277,
                -12.414772987365723,
                480.0
            ],
            [
                10.922951698303223,
                -12.970736503601074,
                500.0
            ],
            [
                11.354866027832031,
                -13.526700973510742,
                520.0
            ],
            [
                11.786979675292969,
                -14.082666397094727,
                540.0
            ],
            [
                12.219297409057617,
                -14.638632774353027,
                560.0
            ],
            [
                12.651825904846191,
                -15.194599151611328,
                580.0
            ],
            [
                13.08457088470459,
                -15.750567436218262,
                600.0
            ],
            [
                13.517542839050293,
                -16.306535720825195,
                620.0
            ],
            [
                13.950742721557617,
                -16.862503051757813,
                640.0
            ],
            [
                14.38419246673584,
                -17.418472290039063,
                660.0
            ],
            [
                14.817904472351074,
                -17.97443962097168,
                680.0
            ],
            [
                15.251882553100586,
                -18.53040885925293,
                700.0
            ],
            [
                15.686141014099121,
                -19.086380004882813,
                720.0
            ],
            [
                16.12067222595215,
                -19.642351150512695,
                740.0
            ],
            [
                16.55548095703125,
                -20.19832420349121,
                760.0
            ],
            [
                16.990577697753906,
                -20.754295349121094,
                780.0
            ],
            [
                17.425966262817383,
                -21.31026840209961,
                800.0
            ],
            [
                17.861656188964844,
                -21.866239547729492,
                820.0
            ],
            [
                18.297691345214844,
                -22.422203063964844,
                840.0
            ],
            [
                18.734045028686523,
                -22.978166580200195,
                860.0
            ],
            [
                19.170726776123047,
                -23.534130096435547,
                880.0
            ],
            [
                19.60774040222168,
                -24.090091705322266,
                900.0
            ],
            [
                20.045068740844727,
                -24.64604949951172,
                920.0
            ],
            [
                20.48274040222168,
                -25.202009201049805,
                940.0
            ],
            [
                20.92076301574707,
                -25.757965087890625,
                960.0
            ],
            [
                21.359146118164063,
                -26.313919067382813,
                980.0
            ],
            [
                21.797826766967773,
                -26.869882583618164,
                1000.0
            ],
            [
                23.9968204498291,
                -29.649696350097656,
                1100.0
            ],
            [
                26.205583572387695,
                -32.429500579833984,
                1200.0
            ],
            [
                28.42535972595215,
                -35.209110260009766,
                1300.0
            ],
            [
                30.653602600097656,
                -37.98881530761719,
                1400.0
            ],
            [
                32.89058303833008,
                -40.768463134765625,
                1500.0
            ],
            [
                35.13743209838867,
                -43.5480842590332,
                1600.0
            ],
            [
                37.39531326293945,
                -46.327674865722656,
                1700.0
            ],
            [
                39.66173553466797,
                -49.10734558105469,
                1800.0
            ],
            [
                41.94270324707031,
                -51.886993408203125,
                1900.0
            ],
            [
                44.236759185791016,
                -54.666656494140625,
                2000.0
            ],
            [
                46.54755783081055,
                -57.446346282958984,
                2100.0
            ],
            [
                48.87698745727539,
                -60.2260627746582,
                2200.0
            ],
            [
                51.23494338989258,
                -63.005306243896484,
                2300.0
            ],
            [
                53.617713928222656,
                -65.78489685058594,
                2400.0
            ],
            [
                56.03711700439453,
                -68.56461334228516,
                2500.0
            ],
            [
                58.49807357788086,
                -71.34436798095703,
                2600.0
            ],
            [
                61.00957489013672,
                -74.1241226196289,
                2700.0
            ],
            [
                63.58054733276367,
                -76.90399169921875,
                2800.0
            ],
            [
                66.22063446044922,
                -79.6840591430664,
                2900.0
            ],
            [
                68.94764709472656,
                -82.46414947509766,
                3000.0
            ],
            [
                71.76693725585938,
                -85.24443054199219,
                3100.0
            ],
            [
                74.69318389892578,
                -88.02529907226563,
                3200.0
            ],
            [
                77.75856018066406,
                -90.80648803710938,
                3300.0
            ],
            [
                80.96039581298828,
                -93.58850860595703,
                3400.0
            ],
            [
                84.3188705444336,
                -96.37097930908203,
                3500.0
            ],
            [
                87.8456039428711,
                -99.15397644042969,
                3600.0
            ],
            [
                91.55757141113281,
                -101.93744659423828,
                3700.0
            ],
            [
                95.47493743896484,
                -104.72193908691406,
                3800.0
            ],
            [
                99.61595153808594,
                -107.50719451904297,
                3900.0
            ],
            [
                103.97775268554688,
                -110.29220581054688,
                4000.0
            ],
            [
                108.59185028076172,
                -113.07768249511719,
                4100.0
            ],
            [
                113.47252655029297,
                -115.8636703491211,
                4200.0
            ],
            [
                118.61825561523438,
                -118.65070343017578,
                4300.0
            ],
            [
                124.02014923095703,
                -121.4375991821289,
                4400.0
            ],
            [
                129.7034912109375,
                -124.22384643554688,
                4500.0
            ],
            [
                135.66754150390625,
                -127.01131439208984,
                4600.0
            ],
            [
                141.9156036376953,
                -129.798583984375,
                4700.0
            ],
            [
                148.43922424316406,
                -132.58651733398438,
                4800.0
            ],
            [
                156.47044372558594,
                -139.1652374267578,
                4900.0
            ],
            [
                163.7067413330078,
                -142.0535430908203,
                5000.0
            ],
            [
                171.22842407226563,
                -144.94140625,
                5100.0
            ],
            [
                179.02398681640625,
                -147.8289031982422,
                5200.0
            ],
            [
                187.09580993652344,
                -150.71507263183594,
                5300.0
            ],
            [
                195.43539428710938,
                -153.60177612304688,
                5400.0
            ],
            [
                204.0487823486328,
                -156.48959350585938,
                5500.0
            ],
            [
                212.90835571289063,
                -159.37538146972656,
                5600.0
            ],
            [
                222.0301513671875,
                -162.26080322265625,
                5700.0
            ],
            [
                231.4036102294922,
                -165.14537048339844,
                5800.0
            ],
            [
                241.01390075683594,
                -168.02915954589844,
                5900.0
            ],
            [
                250.86827087402344,
                -170.91188049316406,
                6000.0
            ],
            [
                260.9523010253906,
                -173.79319763183594,
                6100.0
            ],
            [
                271.2596740722656,
                -176.67349243164063,
                6200.0
            ],
            [
                281.7850646972656,
                -179.55319213867188,
                6300.0
            ],
            [
                292.5182189941406,
                -182.4319610595703,
                6400.0
            ],
            [
                303.45672607421875,
                -185.30967712402344,
                6500.0
            ],
            [
                314.5823059082031,
                -188.18609619140625,
                6600.0
            ],
            [
                325.8941345214844,
                -191.0609588623047,
                6700.0
            ],
            [
                337.37799072265625,
                -193.9344482421875,
                6800.0
            ],
            [
                349.0318908691406,
                -196.80650329589844,
                6900.0
            ],
            [
                360.84326171875,
                -199.677001953125,
                7000.0
            ],
            [
                372.80255126953125,
                -202.54600524902344,
                7100.0
            ],
            [
                384.90032958984375,
                -205.4134979248047,
                7200.0
            ],
            [
                397.12933349609375,
                -208.27935791015625,
                7300.0
            ],
            [
                409.4830017089844,
                -211.1436309814453,
                7400.0
            ],
            [
                421.9477233886719,
                -214.0062713623047,
                7500.0
            ],
            [
                434.5187072753906,
                -216.8673095703125,
                7600.0
            ],
            [
                447.1865539550781,
                -219.72677612304688,
                7700.0
            ],
            [
                459.94683837890625,
                -222.58462524414063,
                7800.0
            ],
            [
                472.7916564941406,
                -225.44091796875,
                7900.0
            ],
            [
                485.713623046875,
                -228.2957763671875,
                8000.0
            ],
            [
                498.70849609375,
                -231.1492156982422,
                8100.0
            ],
            [
                511.7679748535156,
                -234.00137329101563,
                8200.0
            ],
            [
                524.887939453125,
                -236.85232543945313,
                8300.0
            ],
            [
                538.0638427734375,
                -239.70213317871094,
                8400.0
            ],
            [
                551.2911987304688,
                -242.55091857910156,
                8500.0
            ],
            [
                564.5638427734375,
                -245.3988037109375,
                8600.0
            ],
            [
                577.8794555664063,
                -248.24581909179688,
                8700.0
            ],
            [
                591.234130859375,
                -251.09210205078125,
                8800.0
            ],
            [
                604.6240844726563,
                -253.93768310546875,
                8900.0
            ],
            [
                618.046875,
                -256.7826232910156,
                9000.0
            ],
            [
                631.4994506835938,
                -259.6269836425781,
                9100.0
            ],
            [
                644.9790649414063,
                -262.4708557128906,
                9200.0
            ],
            [
                658.4834594726563,
                -265.31427001953125,
                9300.0
            ],
            [
                672.0103759765625,
                -268.1573181152344,
                9400.0
            ],
            [
                685.5577392578125,
                -271.0,
                9500.0
            ],
            [
                699.123779296875,
                -273.8424072265625,
                9600.0
            ],
            [
                712.7068481445313,
                -276.6845703125,
                9700.0
            ],
            [
                726.305419921875,
                -279.5265197753906,
                9800.0
            ],
            [
                739.91796875,
                -282.3682861328125,
                9900.0
            ],
            [
                753.5433349609375,
                -285.2099304199219,
                10000.0
            ],
            [
                780.828125,
                -290.8927917480469,
                10200.0
            ],
            [
                808.1517944335938,
                -296.5753479003906,
                10400.0
            ],
            [
                835.5071411132813,
                -302.2576904296875,
                10600.0
            ],
            [
                862.8895263671875,
                -307.93994140625,
                10800.0
            ],
            [
                890.2930908203125,
                -313.6221618652344,
                11000.0
            ],
            [
                917.71484375,
                -319.3044128417969,
                11200.0
            ],
            [
                945.152099609375,
                -324.9867248535156,
                11400.0
            ],
            [
                972.6008911132813,
                -330.6691589355469,
                11600.0
            ],
            [
                1000.0596313476563,
                -336.3516845703125,
                11800.0
            ],
            [
                1027.5260009765625,
                -342.0343322753906,
                12000.0
            ],
            [
                1055.000244140625,
                -347.7170715332031,
                12200.0
            ],
            [
                1082.4796142578125,
                -353.39990234375,
                12400.0
            ],
            [
                1109.9619140625,
                -359.0829162597656,
                12600.0
            ],
            [
                1137.4473876953125,
                -364.7659912109375,
                12800.0
            ],
            [
                1164.9364013671875,
                -370.4491271972656,
                13000.0
            ],
            [
                1192.427978515625,
                -376.1322937011719,
                13200.0
            ],
            [
                1219.9207763671875,
                -381.8155517578125,
                13400.0
            ]
        ],
        "zFirstMeasurement": 274.1328
    },
    {
        "E": 3147.5259903685037,
        "chi2": 1.501587986946106,
        "ip": 109.94445368774228,
        "ipchi2": 305786.8616156308,
        "mass": 139.57018,
        "particleId": "pi-",
        "pvx": 0.6216,
        "pvy": 0.0566,
        "pvz": 25.1378,
        "px": -400.53552818816814,
        "py": 463.72651369300536,
        "pz": 3084.148024342728,
        "q": -1.0,
        "trajectory": [
            [
                84.45066833496094,
                -108.06206512451172,
                -100.0
            ],
            [
                83.8055648803711,
                -107.310302734375,
                -95.0
            ],
            [
                83.16044616699219,
                -106.55854034423828,
                -90.0
            ],
            [
                82.51531219482422,
                -105.80677795410156,
                -85.0
            ],
            [
                81.87017059326172,
                -105.05500793457031,
                -80.0
            ],
            [
                81.22501373291016,
                -104.3032455444336,
                -75.0
            ],
            [
                80.57984161376953,
                -103.55148315429688,
                -70.0
            ],
            [
                79.93466186523438,
                -102.79972076416016,
                -65.0
            ],
            [
                79.28945922851563,
                -102.04795837402344,
                -60.0
            ],
            [
                78.64421844482422,
                -101.29619598388672,
                -55.0
            ],
            [
                77.99896240234375,
                -100.54443359375,
                -50.0
            ],
            [
                77.35369110107422,
                -99.79267120361328,
                -45.0
            ],
            [
                76.70834350585938,
                -99.04090118408203,
                -40.0
            ],
            [
                76.06298065185547,
                -98.28913879394531,
                -35.0
            ],
            [
                75.4176025390625,
                -97.53736877441406,
                -30.0
            ],
            [
                74.772216796875,
                -96.78560638427734,
                -25.0
            ],
            [
                74.12681579589844,
                -96.03384399414063,
                -20.0
            ],
            [
                73.48139953613281,
                -95.28207397460938,
                -15.0
            ],
            [
                72.83596801757813,
                -94.53031158447266,
                -10.0
            ],
            [
                72.19052124023438,
                -93.7785415649414,
                -5.0
            ],
            [
                71.54505920410156,
                -93.02677917480469,
                0.0
            ],
            [
                70.89957427978516,
                -92.27501678466797,
                5.0
            ],
            [
                70.25407409667969,
                -91.52325439453125,
                10.0
            ],
            [
                69.60855865478516,
                -90.77149200439453,
                15.0
            ],
            [
                68.96302795410156,
                -90.01972198486328,
                20.0
            ],
            [
                68.3174819946289,
                -89.26795959472656,
                25.0
            ],
            [
                67.67192077636719,
                -88.51619720458984,
                30.0
            ],
            [
                67.02633666992188,
                -87.76443481445313,
                35.0
            ],
            [
                66.3807373046875,
                -87.0126724243164,
                40.0
            ],
            [
                65.73512268066406,
                -86.26091003417969,
                45.0
            ],
            [
                65.08949279785156,
                -85.50914001464844,
                50.0
            ],
            [
                64.44384002685547,
                -84.75737762451172,
                55.0
            ],
            [
                63.79817199707031,
                -84.005615234375,
                60.0
            ],
            [
                63.15248489379883,
                -83.25385284423828,
                65.0
            ],
            [
                62.50677490234375,
                -82.50209045410156,
                70.0
            ],
            [
                61.86104965209961,
                -81.75032043457031,
                75.0
            ],
            [
                61.21530532836914,
                -80.9985580444336,
                80.0
            ],
            [
                60.56953811645508,
                -80.24679565429688,
                85.0
            ],
            [
                59.92375183105469,
                -79.49503326416016,
                90.0
            ],
            [
                59.27794647216797,
                -78.7432632446289,
                95.0
            ],
            [
                58.632118225097656,
                -77.99150085449219,
                100.0
            ],
            [
                56.04852294921875,
                -74.98444366455078,
                120.0
            ],
            [
                53.464561462402344,
                -71.97738647460938,
                140.0
            ],
            [
                50.880245208740234,
                -68.97032165527344,
                160.0
            ],
            [
                48.29554748535156,
                -65.96326446533203,
                180.0
            ],
            [
                45.710453033447266,
                -62.95620346069336,
                200.0
            ],
            [
                43.12492370605469,
                -59.94913864135742,
                220.0
            ],
            [
                40.538963317871094,
                -56.942073822021484,
                240.0
            ],
            [
                37.95254135131836,
                -53.93500900268555,
                260.0
            ],
            [
                35.36561965942383,
                -50.927940368652344,
                280.0
            ],
            [
                32.778133392333984,
                -47.920867919921875,
                300.0
            ],
            [
                30.19011688232422,
                -44.91379165649414,
                320.0
            ],
            [
                27.601593017578125,
                -41.906715393066406,
                340.0
            ],
            [
                25.01253318786621,
                -38.899635314941406,
                360.0
            ],
            [
                22.422916412353516,
                -35.89255142211914,
                380.0
            ],
            [
                19.83271598815918,
                -32.885459899902344,
                400.0
            ],
            [
                17.241905212402344,
                -29.878368377685547,
                420.0
            ],
            [
                14.65046501159668,
                -26.87127113342285,
                440.0
            ],
            [
                12.058358192443848,
                -23.864168167114258,
                460.0
            ],
            [
                9.465580940246582,
                -20.857059478759766,
                480.0
            ],
            [
                6.87230920791626,
                -17.849950790405273,
                500.0
            ],
            [
                4.278002738952637,
                -14.84282398223877,
                520.0
            ],
            [
                1.6829930543899536,
                -11.835689544677734,
                540.0
            ],
            [
                -0.9127587676048279,
                -8.828548431396484,
                560.0
            ],
            [
                -3.5092926025390625,
                -5.8213982582092285,
                580.0
            ],
            [
                -6.106647491455078,
                -2.814237594604492,
                600.0
            ],
            [
                -8.704894065856934,
                0.19287517666816711,
                620.0
            ],
            [
                -11.303994178771973,
                3.2000608444213867,
                640.0
            ],
            [
                -13.903998374938965,
                6.2072601318359375,
                660.0
            ],
            [
                -16.50494956970215,
                9.214473724365234,
                680.0
            ],
            [
                -19.106891632080078,
                12.221702575683594,
                700.0
            ],
            [
                -21.709863662719727,
                15.228948593139648,
                720.0
            ],
            [
                -24.31391143798828,
                18.2362117767334,
                740.0
            ],
            [
                -26.91866683959961,
                21.243484497070313,
                760.0
            ],
            [
                -29.524721145629883,
                24.25078010559082,
                780.0
            ],
            [
                -32.13188171386719,
                27.258094787597656,
                800.0
            ],
            [
                -34.74017333984375,
                30.26542854309082,
                820.0
            ],
            [
                -37.349605560302734,
                33.27278137207031,
                840.0
            ],
            [
                -39.96022415161133,
                36.2801513671875,
                860.0
            ],
            [
                -42.572052001953125,
                39.28754425048828,
                880.0
            ],
            [
                -45.18511199951172,
                42.294952392578125,
                900.0
            ],
            [
                -47.799400329589844,
                45.3023796081543,
                920.0
            ],
            [
                -50.41497039794922,
                48.30982208251953,
                940.0
            ],
            [
                -53.03184509277344,
                51.317283630371094,
                960.0
            ],
            [
                -55.65005111694336,
                54.324764251708984,
                980.0
            ],
            [
                -58.26961898803711,
                57.33225631713867,
                1000.0
            ],
            [
                -71.38786315917969,
                72.36991119384766,
                1100.0
            ],
            [
                -84.54151153564453,
                87.40782165527344,
                1200.0
            ],
            [
                -97.73015594482422,
                102.44583892822266,
                1300.0
            ],
            [
                -110.9557876586914,
                117.48384094238281,
                1400.0
            ],
            [
                -124.21709442138672,
                132.52203369140625,
                1500.0
            ],
            [
                -137.5142059326172,
                147.56053161621094,
                1600.0
            ],
            [
                -150.8308868408203,
                162.59930419921875,
                1700.0
            ],
            [
                -164.19688415527344,
                177.63967895507813,
                1800.0
            ],
            [
                -177.60360717773438,
                192.68194580078125,
                1900.0
            ],
            [
                -191.05462646484375,
                207.7271728515625,
                2000.0
            ],
            [
                -204.5579376220703,
                222.77621459960938,
                2100.0
            ],
            [
                -218.12818908691406,
                237.83140563964844,
                2200.0
            ],
            [
                -231.77096557617188,
                252.89462280273438,
                2300.0
            ],
            [
                -245.4937744140625,
                267.9673767089844,
                2400.0
            ],
            [
                -259.325439453125,
                283.0530090332031,
                2500.0
            ],
            [
                -273.27813720703125,
                298.155029296875,
                2600.0
            ],
            [
                -287.38397216796875,
                313.27789306640625,
                2700.0
            ],
            [
                -301.67279052734375,
                328.4246826171875,
                2800.0
            ],
            [
                -316.2140808105469,
                343.6012878417969,
                2900.0
            ],
            [
                -330.9989929199219,
                358.8124694824219,
                3000.0
            ],
            [
                -346.1053161621094,
                374.064697265625,
                3100.0
            ],
            [
                -361.5643310546875,
                389.36407470703125,
                3200.0
            ],
            [
                -377.42437744140625,
                404.71820068359375,
                3300.0
            ],
            [
                -393.77301025390625,
                420.130859375,
                3400.0
            ],
            [
                -410.6412658691406,
                435.6080322265625,
                3500.0
            ],
            [
                -428.1347351074219,
                451.1621398925781,
                3600.0
            ],
            [
                -446.3451843261719,
                466.8012390136719,
                3700.0
            ],
            [
                -465.31976318359375,
                482.52130126953125,
                3800.0
            ],
            [
                -485.1447448730469,
                498.3297119140625,
                3900.0
            ],
            [
                -505.9261779785156,
                514.2235107421875,
                4000.0
            ],
            [
                -527.6911010742188,
                530.204833984375,
                4100.0
            ],
            [
                -550.4699096679688,
                546.2731323242188,
                4200.0
            ],
            [
                -574.4443359375,
                562.4229736328125,
                4300.0
            ],
            [
                -599.4890747070313,
                578.6390991210938,
                4400.0
            ],
            [
                -625.7905883789063,
                594.920166015625,
                4500.0
            ],
            [
                -653.306884765625,
                611.2723999023438,
                4600.0
            ],
            [
                -682.0873413085938,
                627.69189453125,
                4700.0
            ],
            [
                -712.0379028320313,
                644.1339111328125,
                4800.0
            ],
            [
                -743.30859375,
                660.6268920898438,
                4900.0
            ],
            [
                -775.806640625,
                677.15283203125,
                5000.0
            ],
            [
                -815.8328857421875,
                685.9115600585938,
                5100.0
            ],
            [
                -851.1260986328125,
                702.298583984375,
                5200.0
            ],
            [
                -887.6539306640625,
                718.7295532226563,
                5300.0
            ],
            [
                -925.44873046875,
                735.1279907226563,
                5400.0
            ],
            [
                -964.470458984375,
                751.5443725585938,
                5500.0
            ],
            [
                -1004.6821899414063,
                767.9976196289063,
                5600.0
            ],
            [
                -1046.1640625,
                784.4459838867188,
                5700.0
            ],
            [
                -1088.824462890625,
                800.8770751953125,
                5800.0
            ],
            [
                -1132.6661376953125,
                817.3206787109375,
                5900.0
            ],
            [
                -1177.8035888671875,
                833.68310546875,
                6000.0
            ],
            [
                -1224.085205078125,
                850.0332641601563,
                6100.0
            ],
            [
                -1271.5606689453125,
                866.312255859375,
                6200.0
            ],
            [
                -1320.2142333984375,
                882.5346069335938,
                6300.0
            ],
            [
                -1370.01904296875,
                898.7005615234375,
                6400.0
            ],
            [
                -1420.9158935546875,
                914.779052734375,
                6500.0
            ],
            [
                -1472.9283447265625,
                930.7626342773438,
                6600.0
            ],
            [
                -1526.0067138671875,
                946.6238403320313,
                6700.0
            ],
            [
                -1580.0540771484375,
                962.3675537109375,
                6800.0
            ],
            [
                -1635.1202392578125,
                977.9259643554688,
                6900.0
            ],
            [
                -1691.0582275390625,
                993.3406372070313,
                7000.0
            ],
            [
                -1747.8414306640625,
                1008.5921630859375,
                7100.0
            ],
            [
                -1805.38134765625,
                1023.6806640625,
                7200.0
            ],
            [
                -1863.5830078125,
                1038.6260986328125,
                7300.0
            ],
            [
                -1922.458251953125,
                1053.3939208984375,
                7400.0
            ],
            [
                -1981.8447265625,
                1068.034912109375,
                7500.0
            ],
            [
                -2041.75537109375,
                1082.53662109375,
                7600.0
            ],
            [
                -2102.088134765625,
                1096.9267578125,
                7700.0
            ],
            [
                -2162.81298828125,
                1111.2056884765625,
                7800.0
            ],
            [
                -2223.86279296875,
                1125.40234375,
                7900.0
            ],
            [
                -2285.1865234375,
                1139.5340576171875,
                8000.0
            ],
            [
                -2346.75537109375,
                1153.6121826171875,
                8100.0
            ],
            [
                -2408.527587890625,
                1167.650390625,
                8200.0
            ],
            [
                -2470.47265625,
                1181.662841796875,
                8300.0
            ],
            [
                -2532.574951171875,
                1195.65234375,
                8400.0
            ],
            [
                -2594.797119140625,
                1209.6375732421875,
                8500.0
            ],
            [
                -2657.137939453125,
                1223.61279296875,
                8600.0
            ],
            [
                -2719.57470703125,
                1237.5869140625,
                8700.0
            ],
            [
                -2782.0908203125,
                1251.5657958984375,
                8800.0
            ],
            [
                -2844.685791015625,
                1265.545654296875,
                8900.0
            ],
            [
                -2907.349609375,
                1279.5291748046875,
                9000.0
            ],
            [
                -2970.068603515625,
                1293.521240234375,
                9100.0
            ],
            [
                -3032.83740234375,
                1307.52197265625,
                9200.0
            ],
            [
                -3095.648681640625,
                1321.5323486328125,
                9300.0
            ],
            [
                -3158.497802734375,
                1335.5523681640625,
                9400.0
            ],
            [
                -3221.379638671875,
                1349.58154296875,
                9500.0
            ],
            [
                -3284.290771484375,
                1363.61962890625,
                9600.0
            ],
            [
                -3347.227783203125,
                1377.666015625,
                9700.0
            ],
            [
                -3410.1875,
                1391.720458984375,
                9800.0
            ],
            [
                -3473.16748046875,
                1405.7822265625,
                9900.0
            ],
            [
                -3536.1650390625,
                1419.8511962890625,
                10000.0
            ],
            [
                -3662.20556640625,
                1448.0079345703125,
                10200.0
            ],
            [
                -3788.294921875,
                1476.187744140625,
                10400.0
            ],
            [
                -3914.422119140625,
                1504.38916015625,
                10600.0
            ],
            [
                -4040.576904296875,
                1532.6070556640625,
                10800.0
            ],
            [
                -4166.75048828125,
                1560.839599609375,
                11000.0
            ],
            [
                -4292.93701171875,
                1589.0828857421875,
                11200.0
            ],
            [
                -4419.09326171875,
                1617.30029296875,
                11400.0
            ],
            [
                -4545.294921875,
                1645.556396484375,
                11600.0
            ],
            [
                -4671.44189453125,
                1673.76611328125,
                11800.0
            ],
            [
                -4797.6171875,
                1701.9993896484375,
                12000.0
            ],
            [
                -4923.81689453125,
                1730.2554931640625,
                12200.0
            ],
            [
                -5049.9599609375,
                1758.4608154296875,
                12400.0
            ],
            [
                -5176.14208984375,
                1786.7000732421875,
                12600.0
            ],
            [
                -5302.29345703125,
                1814.913330078125,
                12800.0
            ],
            [
                -5428.57275390625,
                1843.23583984375,
                13000.0
            ],
            [
                -5554.57470703125,
                1871.3258056640625,
                13200.0
            ],
            [
                -5680.8310546875,
                1899.624755859375,
                13400.0
            ]
        ],
        "zFirstMeasurement": 649.1563
    }
]
