[
    {
        "E": 58016.12971168253,
        "chi2": 0.0,
        "ip": 0.04669972336897636,
        "ipchi2": 3.933969312604975,
        "mass": 1869.123,
        "particleId": "D0",
        "pvx": 0.5554,
        "pvy": 0.0478,
        "pvz": 87.7877,
        "px": -1721.63,
        "py": -2334.16,
        "pz": 57913.43,
        "q": 0.0,
        "trajectory": [
            [
                0.555400013923645,
                0.04780000075697899,
                87.7876968383789
            ],
            [
                0.4074000120162964,
                -0.20550000667572021,
                94.30599975585938
            ]
        ],
        "zFirstMeasurement": -9999.0
    },
    {
        "E": 15510.489861875976,
        "chi2": 1.1030980348587036,
        "ip": 0.3126003464048721,
        "ipchi2": 176.5700352103875,
        "mass": 493.677,
        "particleId": "K-",
        "pvx": 0.5554,
        "pvy": 0.0478,
        "pvz": 87.7877,
        "px": -491.39,
        "py": -1329.37,
        "pz": 15437.71,
        "q": -1.0,
        "trajectory": [
            [
                0.40887492895126343,
                -0.20559853315353394,
                94.30599975585938
            ],
            [
                0.2497183382511139,
                -0.636159360408783,
                99.30599975585938
            ],
            [
                0.09055763483047485,
                -1.0667201280593872,
                104.30599975585938
            ],
            [
                -0.5461278557777405,
                -2.7889633178710938,
                124.30599975585938
            ],
            [
                -1.1828851699829102,
                -4.511206150054932,
                144.30599975585938
            ],
            [
                -1.8196640014648438,
                -6.233413219451904,
                164.30599975585938
            ],
            [
                -2.45656681060791,
                -7.955655574798584,
                184.30599975585938
            ],
            [
                -3.0935471057891846,
                -9.677897453308105,
                204.30599975585938
            ],
            [
                -3.730609655380249,
                -11.400139808654785,
                224.30599975585938
            ],
            [
                -4.367759704589844,
                -13.122381210327148,
                244.30599975585938
            ],
            [
                -5.005002021789551,
                -14.844623565673828,
                264.3059997558594
            ],
            [
                -5.642341613769531,
                -16.566865921020508,
                284.3059997558594
            ],
            [
                -6.279743194580078,
                -18.289106369018555,
                304.3059997558594
            ],
            [
                -6.917264938354492,
                -20.011348724365234,
                324.3059997558594
            ],
            [
                -7.554889678955078,
                -21.733591079711914,
                344.3059997558594
            ],
            [
                -8.192620277404785,
                -23.455833435058594,
                364.3059997558594
            ],
            [
                -8.830460548400879,
                -25.178075790405273,
                384.3059997558594
            ],
            [
                -9.468416213989258,
                -26.900320053100586,
                404.3059997558594
            ],
            [
                -10.106489181518555,
                -28.622562408447266,
                424.3059997558594
            ],
            [
                -10.744684219360352,
                -30.344806671142578,
                444.3059997558594
            ],
            [
                -11.383003234863281,
                -32.06705093383789,
                464.3059997558594
            ],
            [
                -12.021450996398926,
                -33.7892951965332,
                484.3059997558594
            ],
            [
                -12.66003131866455,
                -35.51154327392578,
                504.3059997558594
            ],
            [
                -13.298750877380371,
                -37.233787536621094,
                524.3060302734375
            ],
            [
                -13.937621116638184,
                -38.95603561401367,
                544.3060302734375
            ],
            [
                -14.576650619506836,
                -40.67828369140625,
                564.3060302734375
            ],
            [
                -15.215834617614746,
                -42.400535583496094,
                584.3060302734375
            ],
            [
                -15.855175971984863,
                -44.12278366088867,
                604.3060302734375
            ],
            [
                -16.49468421936035,
                -45.845035552978516,
                624.3060302734375
            ],
            [
                -17.134357452392578,
                -47.56728744506836,
                644.3060302734375
            ],
            [
                -17.774202346801758,
                -49.28954315185547,
                664.3060302734375
            ],
            [
                -18.414222717285156,
                -51.01179885864258,
                684.3060302734375
            ],
            [
                -19.054428100585938,
                -52.73405456542969,
                704.3060302734375
            ],
            [
                -19.694843292236328,
                -54.4563102722168,
                724.3060302734375
            ],
            [
                -20.335453033447266,
                -56.17856979370117,
                744.3060302734375
            ],
            [
                -20.976259231567383,
                -57.90082931518555,
                764.3060302734375
            ],
            [
                -21.617267608642578,
                -59.62308883666992,
                784.3060302734375
            ],
            [
                -22.258480072021484,
                -61.34535217285156,
                804.3060302734375
            ],
            [
                -22.899900436401367,
                -63.0676155090332,
                824.3060302734375
            ],
            [
                -23.541536331176758,
                -64.78987884521484,
                844.3060302734375
            ],
            [
                -24.18338966369629,
                -66.51214599609375,
                864.3060302734375
            ],
            [
                -24.825565338134766,
                -68.23442077636719,
                884.3060302734375
            ],
            [
                -25.467998504638672,
                -69.95669555664063,
                904.3060302734375
            ],
            [
                -26.11065673828125,
                -71.67897033691406,
                924.3060302734375
            ],
            [
                -26.753564834594727,
                -73.4012451171875,
                944.3060302734375
            ],
            [
                -27.396728515625,
                -75.12352752685547,
                964.3060302734375
            ],
            [
                -28.040151596069336,
                -76.84580993652344,
                984.3060302734375
            ],
            [
                -28.68382453918457,
                -78.5680923461914,
                1004.3060302734375
            ],
            [
                -31.90578842163086,
                -87.17948150634766,
                1104.3060302734375
            ],
            [
                -35.13629150390625,
                -95.7908706665039,
                1204.3060302734375
            ],
            [
                -38.372737884521484,
                -104.40228271484375,
                1304.3060302734375
            ],
            [
                -41.61605453491211,
                -113.013671875,
                1404.3060302734375
            ],
            [
                -44.86543655395508,
                -121.62504577636719,
                1504.3060302734375
            ],
            [
                -48.122314453125,
                -130.2364501953125,
                1604.3060302734375
            ],
            [
                -51.38620376586914,
                -138.84793090820313,
                1704.3060302734375
            ],
            [
                -54.658382415771484,
                -147.45950317382813,
                1804.3060302734375
            ],
            [
                -57.9376106262207,
                -156.07115173339844,
                1904.3060302734375
            ],
            [
                -61.22798538208008,
                -164.68289184570313,
                2004.3060302734375
            ],
            [
                -64.52777862548828,
                -173.29486083984375,
                2104.305908203125
            ],
            [
                -67.84371185302734,
                -181.90719604492188,
                2204.305908203125
            ],
            [
                -71.17343139648438,
                -190.51983642578125,
                2304.305908203125
            ],
            [
                -74.52210998535156,
                -199.13302612304688,
                2404.305908203125
            ],
            [
                -77.89779663085938,
                -207.74676513671875,
                2504.305908203125
            ],
            [
                -81.30118560791016,
                -216.36129760742188,
                2604.305908203125
            ],
            [
                -84.73689270019531,
                -224.9767608642578,
                2704.305908203125
            ],
            [
                -88.2122802734375,
                -233.59307861328125,
                2804.305908203125
            ],
            [
                -91.739501953125,
                -242.2106170654297,
                2904.305908203125
            ],
            [
                -95.32389831542969,
                -250.82972717285156,
                3004.305908203125
            ],
            [
                -98.97047424316406,
                -259.45025634765625,
                3104.305908203125
            ],
            [
                -102.70022583007813,
                -268.0719909667969,
                3204.305908203125
            ],
            [
                -106.51499938964844,
                -276.6954650878906,
                3304.305908203125
            ],
            [
                -110.4283676147461,
                -285.3209533691406,
                3404.305908203125
            ],
            [
                -114.4537353515625,
                -293.9488220214844,
                3504.305908203125
            ],
            [
                -118.59886932373047,
                -302.5791320800781,
                3604.305908203125
            ],
            [
                -122.88182067871094,
                -311.2117614746094,
                3704.305908203125
            ],
            [
                -127.3155746459961,
                -319.8463134765625,
                3804.305908203125
            ],
            [
                -131.91152954101563,
                -328.4844055175781,
                3904.305908203125
            ],
            [
                -136.67129516601563,
                -337.12567138671875,
                4004.305908203125
            ],
            [
                -141.61851501464844,
                -345.76995849609375,
                4104.30615234375
            ],
            [
                -146.7643280029297,
                -354.416015625,
                4204.30615234375
            ],
            [
                -152.1085662841797,
                -363.0647277832031,
                4304.30615234375
            ],
            [
                -157.6480255126953,
                -371.71710205078125,
                4404.30615234375
            ],
            [
                -163.39479064941406,
                -380.37139892578125,
                4504.30615234375
            ],
            [
                -169.3530731201172,
                -389.02703857421875,
                4604.30615234375
            ],
            [
                -175.5221405029297,
                -397.68402099609375,
                4704.30615234375
            ],
            [
                -181.9016571044922,
                -406.3439025878906,
                4804.30615234375
            ],
            [
                -190.09078979492188,
                -414.81097412109375,
                4904.30615234375
            ],
            [
                -196.94448852539063,
                -423.48248291015625,
                5004.30615234375
            ],
            [
                -204.0106964111328,
                -432.1562805175781,
                5104.30615234375
            ],
            [
                -211.2757568359375,
                -440.8311462402344,
                5204.30615234375
            ],
            [
                -218.7447052001953,
                -449.5073547363281,
                5304.30615234375
            ],
            [
                -226.41273498535156,
                -458.1834716796875,
                5404.30615234375
            ],
            [
                -234.2825469970703,
                -466.8585510253906,
                5504.30615234375
            ],
            [
                -242.33705139160156,
                -475.5369567871094,
                5604.30615234375
            ],
            [
                -250.5833282470703,
                -484.2146911621094,
                5704.30615234375
            ],
            [
                -259.0174560546875,
                -492.89306640625,
                5804.30615234375
            ],
            [
                -267.6282653808594,
                -501.5708312988281,
                5904.30615234375
            ],
            [
                -276.4215087890625,
                -510.2488098144531,
                6004.30615234375
            ],
            [
                -285.3831787109375,
                -518.9268188476563,
                6104.30615234375
            ],
            [
                -294.5118408203125,
                -527.6036987304688,
                6204.30615234375
            ],
            [
                -303.8045959472656,
                -536.2794799804688,
                6304.30615234375
            ],
            [
                -313.25250244140625,
                -544.9544067382813,
                6404.30615234375
            ],
            [
                -322.8531188964844,
                -553.627685546875,
                6504.30615234375
            ],
            [
                -332.5973815917969,
                -562.2997436523438,
                6604.30615234375
            ],
            [
                -342.48004150390625,
                -570.9700927734375,
                6704.30615234375
            ],
            [
                -352.4911193847656,
                -579.6386108398438,
                6804.30615234375
            ],
            [
                -362.6290588378906,
                -588.3046264648438,
                6904.30615234375
            ],
            [
                -372.8838195800781,
                -596.9682006835938,
                7004.30615234375
            ],
            [
                -383.24755859375,
                -605.62939453125,
                7104.30615234375
            ],
            [
                -393.71307373046875,
                -614.2882080078125,
                7204.30615234375
            ],
            [
                -404.2738037109375,
                -622.944580078125,
                7304.30615234375
            ],
            [
                -414.9249572753906,
                -631.5983276367188,
                7404.30615234375
            ],
            [
                -425.65472412109375,
                -640.2499389648438,
                7504.30615234375
            ],
            [
                -436.4614562988281,
                -648.8989868164063,
                7604.30615234375
            ],
            [
                -447.3358154296875,
                -657.5458984375,
                7704.30615234375
            ],
            [
                -458.2745361328125,
                -666.1906127929688,
                7804.30615234375
            ],
            [
                -469.27130126953125,
                -674.8333740234375,
                7904.30615234375
            ],
            [
                -480.3205261230469,
                -683.4743041992188,
                8004.30615234375
            ],
            [
                -491.41888427734375,
                -692.1135864257813,
                8104.30615234375
            ],
            [
                -502.56048583984375,
                -700.7513427734375,
                8204.3056640625
            ],
            [
                -513.7420654296875,
                -709.3876953125,
                8304.3056640625
            ],
            [
                -524.9602661132813,
                -718.0228271484375,
                8404.3056640625
            ],
            [
                -536.2118530273438,
                -726.6568603515625,
                8504.3056640625
            ],
            [
                -547.4928588867188,
                -735.2899780273438,
                8604.3056640625
            ],
            [
                -558.8014526367188,
                -743.9221801757813,
                8704.3056640625
            ],
            [
                -570.1348266601563,
                -752.5536499023438,
                8804.3056640625
            ],
            [
                -581.4906005859375,
                -761.1845092773438,
                8904.3056640625
            ],
            [
                -592.8670654296875,
                -769.8147583007813,
                9004.3056640625
            ],
            [
                -604.2621459960938,
                -778.444580078125,
                9104.3056640625
            ],
            [
                -615.6741333007813,
                -787.0740356445313,
                9204.3056640625
            ],
            [
                -627.1015014648438,
                -795.7031860351563,
                9304.3056640625
            ],
            [
                -638.5428466796875,
                -804.3320922851563,
                9404.3056640625
            ],
            [
                -649.9967651367188,
                -812.9608154296875,
                9504.3056640625
            ],
            [
                -661.4622192382813,
                -821.5894165039063,
                9604.3056640625
            ],
            [
                -672.9380493164063,
                -830.2179565429688,
                9704.3056640625
            ],
            [
                -684.4234008789063,
                -838.846435546875,
                9804.3056640625
            ],
            [
                -695.917236328125,
                -847.474853515625,
                9904.3056640625
            ],
            [
                -707.4189453125,
                -856.1033325195313,
                10004.3056640625
            ],
            [
                -730.44287109375,
                -873.3604125976563,
                10204.3056640625
            ],
            [
                -753.4903564453125,
                -890.61767578125,
                10404.3056640625
            ],
            [
                -776.556884765625,
                -907.8753662109375,
                10604.3056640625
            ],
            [
                -799.6397705078125,
                -925.1333618164063,
                10804.3056640625
            ],
            [
                -822.7352905273438,
                -942.391845703125,
                11004.3056640625
            ],
            [
                -845.8417358398438,
                -959.6507568359375,
                11204.3056640625
            ],
            [
                -868.9573974609375,
                -976.9099731445313,
                11404.3056640625
            ],
            [
                -892.079833984375,
                -994.169677734375,
                11604.3056640625
            ],
            [
                -915.2083129882813,
                -1011.4297485351563,
                11804.3056640625
            ],
            [
                -938.34130859375,
                -1028.690185546875,
                12004.3056640625
            ],
            [
                -961.4788818359375,
                -1045.950927734375,
                12204.3056640625
            ],
            [
                -984.6194458007813,
                -1063.2119140625,
                12404.3056640625
            ],
            [
                -1007.7617797851563,
                -1080.47314453125,
                12604.3056640625
            ],
            [
                -1030.9058837890625,
                -1097.734619140625,
                12804.3056640625
            ],
            [
                -1054.0521240234375,
                -1114.9962158203125,
                13004.3056640625
            ],
            [
                -1077.1998291015625,
                -1132.258056640625,
                13204.3056640625
            ],
            [
                -1100.3482666015625,
                -1149.5198974609375,
                13404.3056640625
            ]
        ],
        "zFirstMeasurement": 199.2057
    },
    {
        "E": 42506.266611797335,
        "chi2": 0.7162724733352661,
        "ip": 0.10598824242228705,
        "ipchi2": 5.36295020220413,
        "mass": 139.57,
        "particleId": "pi+",
        "pvx": 0.5554,
        "pvy": 0.0478,
        "pvz": 87.7877,
        "px": -1229.87,
        "py": -1004.73,
        "pz": 42476.36,
        "q": 1.0,
        "trajectory": [
            [
                0.40177178382873535,
                -0.2063966691493988,
                94.30599975585938
            ],
            [
                0.25700029730796814,
                -0.3246656060218811,
                99.30599975585938
            ],
            [
                0.11223029345273972,
                -0.4429345726966858,
                104.30599975585938
            ],
            [
                -0.4668341875076294,
                -0.9160104990005493,
                124.30599975585938
            ],
            [
                -1.0458725690841675,
                -1.3890866041183472,
                144.30599975585938
            ],
            [
                -1.6248832941055298,
                -1.8621628284454346,
                164.30599975585938
            ],
            [
                -2.203864336013794,
                -2.3352391719818115,
                184.30599975585938
            ],
            [
                -2.782827854156494,
                -2.8083157539367676,
                204.30599975585938
            ],
            [
                -3.3617544174194336,
                -3.2813923358917236,
                224.30599975585938
            ],
            [
                -3.9406495094299316,
                -3.754469156265259,
                244.30599975585938
            ],
            [
                -4.51951265335083,
                -4.227545738220215,
                264.3059997558594
            ],
            [
                -5.098300933837891,
                -4.700611591339111,
                284.3059997558594
            ],
            [
                -5.677093505859375,
                -5.173688888549805,
                304.3059997558594
            ],
            [
                -6.255850315093994,
                -5.64676570892334,
                324.3059997558594
            ],
            [
                -6.834569931030273,
                -6.119843006134033,
                344.3059997558594
            ],
            [
                -7.413261413574219,
                -6.592920303344727,
                364.3059997558594
            ],
            [
                -7.99189567565918,
                -7.06599760055542,
                384.3059997558594
            ],
            [
                -8.570491790771484,
                -7.539074420928955,
                404.3059997558594
            ],
            [
                -9.149045944213867,
                -8.012151718139648,
                424.3059997558594
            ],
            [
                -9.727556228637695,
                -8.4852294921875,
                444.3059997558594
            ],
            [
                -10.306020736694336,
                -8.958306312561035,
                464.3059997558594
            ],
            [
                -10.88443660736084,
                -9.43138313293457,
                484.3059997558594
            ],
            [
                -11.462800979614258,
                -9.904460906982422,
                504.3059997558594
            ],
            [
                -12.041111946105957,
                -10.377537727355957,
                524.3060302734375
            ],
            [
                -12.619366645812988,
                -10.850614547729492,
                544.3060302734375
            ],
            [
                -13.197587966918945,
                -11.323691368103027,
                564.3060302734375
            ],
            [
                -13.775737762451172,
                -11.796768188476563,
                584.3060302734375
            ],
            [
                -14.353829383850098,
                -12.269845008850098,
                604.3060302734375
            ],
            [
                -14.931859970092773,
                -12.742921829223633,
                624.3060302734375
            ],
            [
                -15.509825706481934,
                -13.215998649597168,
                644.3060302734375
            ],
            [
                -16.087726593017578,
                -13.689074516296387,
                664.3060302734375
            ],
            [
                -16.66556167602539,
                -14.162151336669922,
                684.3060302734375
            ],
            [
                -17.24332618713379,
                -14.63522720336914,
                704.3060302734375
            ],
            [
                -17.821020126342773,
                -15.10830307006836,
                724.3060302734375
            ],
            [
                -18.398639678955078,
                -15.581377983093262,
                744.3060302734375
            ],
            [
                -18.97618293762207,
                -16.054452896118164,
                764.3060302734375
            ],
            [
                -19.55364990234375,
                -16.527528762817383,
                784.3060302734375
            ],
            [
                -20.13103675842285,
                -17.00060272216797,
                804.3060302734375
            ],
            [
                -20.708343505859375,
                -17.473676681518555,
                824.3060302734375
            ],
            [
                -21.285568237304688,
                -17.94675064086914,
                844.3060302734375
            ],
            [
                -21.862707138061523,
                -18.419824600219727,
                864.3060302734375
            ],
            [
                -22.439762115478516,
                -18.892898559570313,
                884.3060302734375
            ],
            [
                -23.01673126220703,
                -19.3659725189209,
                904.3060302734375
            ],
            [
                -23.593612670898438,
                -19.839046478271484,
                924.3060302734375
            ],
            [
                -24.17040252685547,
                -20.31212043762207,
                944.3060302734375
            ],
            [
                -24.747093200683594,
                -20.785192489624023,
                964.3060302734375
            ],
            [
                -25.323684692382813,
                -21.258262634277344,
                984.3060302734375
            ],
            [
                -25.900178909301758,
                -21.731334686279297,
                1004.3060302734375
            ],
            [
                -28.781204223632813,
                -24.096681594848633,
                1104.3060302734375
            ],
            [
                -31.659618377685547,
                -26.462017059326172,
                1204.3060302734375
            ],
            [
                -34.535465240478516,
                -28.827342987060547,
                1304.3060302734375
            ],
            [
                -37.40870666503906,
                -31.19267463684082,
                1404.3060302734375
            ],
            [
                -40.280269622802734,
                -33.55805587768555,
                1504.3060302734375
            ],
            [
                -43.148658752441406,
                -35.923377990722656,
                1604.3060302734375
            ],
            [
                -46.014320373535156,
                -38.28868865966797,
                1704.3060302734375
            ],
            [
                -48.877357482910156,
                -40.65399169921875,
                1804.3060302734375
            ],
            [
                -51.73695373535156,
                -43.01927185058594,
                1904.3060302734375
            ],
            [
                -54.59261703491211,
                -45.3845329284668,
                2004.3060302734375
            ],
            [
                -57.444026947021484,
                -47.749759674072266,
                2104.305908203125
            ],
            [
                -60.2901496887207,
                -50.11497116088867,
                2204.305908203125
            ],
            [
                -63.129486083984375,
                -52.480140686035156,
                2304.305908203125
            ],
            [
                -65.96189880371094,
                -54.84524917602539,
                2404.305908203125
            ],
            [
                -68.78498840332031,
                -57.21037292480469,
                2504.305908203125
            ],
            [
                -71.5972900390625,
                -59.57533264160156,
                2604.305908203125
            ],
            [
                -74.39447784423828,
                -61.9401741027832,
                2704.305908203125
            ],
            [
                -77.17719268798828,
                -64.30490112304688,
                2804.305908203125
            ],
            [
                -79.94023895263672,
                -66.66949462890625,
                2904.305908203125
            ],
            [
                -82.68103790283203,
                -69.03394317626953,
                3004.305908203125
            ],
            [
                -85.39781951904297,
                -71.39828491210938,
                3104.305908203125
            ],
            [
                -88.08204650878906,
                -73.76251983642578,
                3204.305908203125
            ],
            [
                -90.73501586914063,
                -76.12662506103516,
                3304.305908203125
            ],
            [
                -93.3528823852539,
                -78.49054718017578,
                3404.305908203125
            ],
            [
                -95.92649841308594,
                -80.8544692993164,
                3504.305908203125
            ],
            [
                -98.45639038085938,
                -83.21800231933594,
                3604.305908203125
            ],
            [
                -100.93482208251953,
                -85.58140563964844,
                3704.305908203125
            ],
            [
                -103.35882568359375,
                -87.94458770751953,
                3804.305908203125
            ],
            [
                -105.7278060913086,
                -90.30754089355469,
                3904.305908203125
            ],
            [
                -108.03755950927734,
                -92.6702651977539,
                4004.305908203125
            ],
            [
                -110.2730712890625,
                -95.03272247314453,
                4104.30615234375
            ],
            [
                -112.44696044921875,
                -97.39501953125,
                4204.30615234375
            ],
            [
                -114.55204772949219,
                -99.7570571899414,
                4304.30615234375
            ],
            [
                -116.59021759033203,
                -102.1189193725586,
                4404.30615234375
            ],
            [
                -118.55213165283203,
                -104.48075103759766,
                4504.30615234375
            ],
            [
                -120.43919372558594,
                -106.84212493896484,
                4604.30615234375
            ],
            [
                -122.25689697265625,
                -109.203369140625,
                4704.30615234375
            ],
            [
                -123.99791717529297,
                -111.56420135498047,
                4804.30615234375
            ],
            [
                -125.67024230957031,
                -113.92494201660156,
                4904.30615234375
            ],
            [
                -127.06019592285156,
                -116.03764343261719,
                5004.30615234375
            ],
            [
                -128.56716918945313,
                -118.39073181152344,
                5104.30615234375
            ],
            [
                -130.0029754638672,
                -120.74361419677734,
                5204.30615234375
            ],
            [
                -131.36660766601563,
                -123.09606170654297,
                5304.30615234375
            ],
            [
                -132.66038513183594,
                -125.44866180419922,
                5404.30615234375
            ],
            [
                -133.88470458984375,
                -127.801513671875,
                5504.30615234375
            ],
            [
                -135.0428924560547,
                -130.15367126464844,
                5604.30615234375
            ],
            [
                -136.1332244873047,
                -132.50588989257813,
                5704.30615234375
            ],
            [
                -137.15809631347656,
                -134.85780334472656,
                5804.30615234375
            ],
            [
                -138.12158203125,
                -137.20956420898438,
                5904.30615234375
            ],
            [
                -139.02169799804688,
                -139.56117248535156,
                6004.30615234375
            ],
            [
                -139.86236572265625,
                -141.91249084472656,
                6104.30615234375
            ],
            [
                -140.64511108398438,
                -144.2637176513672,
                6204.30615234375
            ],
            [
                -141.37168884277344,
                -146.6149444580078,
                6304.30615234375
            ],
            [
                -142.04452514648438,
                -148.966064453125,
                6404.30615234375
            ],
            [
                -142.6649627685547,
                -151.31715393066406,
                6504.30615234375
            ],
            [
                -143.23602294921875,
                -153.66812133789063,
                6604.30615234375
            ],
            [
                -143.75921630859375,
                -156.01895141601563,
                6704.30615234375
            ],
            [
                -144.23800659179688,
                -158.3696746826172,
                6804.30615234375
            ],
            [
                -144.67303466796875,
                -160.72039794921875,
                6904.30615234375
            ],
            [
                -145.06736755371094,
                -163.071044921875,
                7004.30615234375
            ],
            [
                -145.4237060546875,
                -165.421630859375,
                7104.30615234375
            ],
            [
                -145.7442626953125,
                -167.7721405029297,
                7204.30615234375
            ],
            [
                -146.0309600830078,
                -170.12254333496094,
                7304.30615234375
            ],
            [
                -146.28573608398438,
                -172.47288513183594,
                7404.30615234375
            ],
            [
                -146.51206970214844,
                -174.8231201171875,
                7504.30615234375
            ],
            [
                -146.71058654785156,
                -177.17327880859375,
                7604.30615234375
            ],
            [
                -146.8842010498047,
                -179.5233154296875,
                7704.30615234375
            ],
            [
                -147.0339813232422,
                -181.8732147216797,
                7804.30615234375
            ],
            [
                -147.16192626953125,
                -184.2230224609375,
                7904.30615234375
            ],
            [
                -147.26991271972656,
                -186.57269287109375,
                8004.30615234375
            ],
            [
                -147.3590850830078,
                -188.9222412109375,
                8104.30615234375
            ],
            [
                -147.43148803710938,
                -191.27166748046875,
                8204.3056640625
            ],
            [
                -147.4882354736328,
                -193.6209716796875,
                8304.3056640625
            ],
            [
                -147.53048706054688,
                -195.9701690673828,
                8404.3056640625
            ],
            [
                -147.55943298339844,
                -198.3192596435547,
                8504.3056640625
            ],
            [
                -147.57652282714844,
                -200.6682586669922,
                8604.3056640625
            ],
            [
                -147.58242797851563,
                -203.01715087890625,
                8704.3056640625
            ],
            [
                -147.5781707763672,
                -205.36598205566406,
                8804.3056640625
            ],
            [
                -147.564697265625,
                -207.71470642089844,
                8904.3056640625
            ],
            [
                -147.5426483154297,
                -210.06336975097656,
                9004.3056640625
            ],
            [
                -147.5128173828125,
                -212.4119415283203,
                9104.3056640625
            ],
            [
                -147.4759063720703,
                -214.76043701171875,
                9204.3056640625
            ],
            [
                -147.4324951171875,
                -217.10888671875,
                9304.3056640625
            ],
            [
                -147.38316345214844,
                -219.45726013183594,
                9404.3056640625
            ],
            [
                -147.3284454345703,
                -221.80557250976563,
                9504.3056640625
            ],
            [
                -147.268798828125,
                -224.15382385253906,
                9604.3056640625
            ],
            [
                -147.20468139648438,
                -226.50204467773438,
                9704.3056640625
            ],
            [
                -147.13644409179688,
                -228.85020446777344,
                9804.3056640625
            ],
            [
                -147.06451416015625,
                -231.19833374023438,
                9904.3056640625
            ],
            [
                -146.98916625976563,
                -233.54641723632813,
                10004.3056640625
            ],
            [
                -146.8294219970703,
                -238.2424774169922,
                10204.3056640625
            ],
            [
                -146.65931701660156,
                -242.93841552734375,
                10404.3056640625
            ],
            [
                -146.48072814941406,
                -247.63424682617188,
                10604.3056640625
            ],
            [
                -146.2948455810547,
                -252.32998657226563,
                10804.3056640625
            ],
            [
                -146.10325622558594,
                -257.0256652832031,
                11004.3056640625
            ],
            [
                -145.90672302246094,
                -261.7212829589844,
                11204.3056640625
            ],
            [
                -145.70596313476563,
                -266.4168701171875,
                11404.3056640625
            ],
            [
                -145.50209045410156,
                -271.1123962402344,
                11604.3056640625
            ],
            [
                -145.29542541503906,
                -275.80792236328125,
                11804.3056640625
            ],
            [
                -145.08663940429688,
                -280.50341796875,
                12004.3056640625
            ],
            [
                -144.8756866455078,
                -285.1988830566406,
                12204.3056640625
            ],
            [
                -144.66331481933594,
                -289.8943176269531,
                12404.3056640625
            ],
            [
                -144.45010375976563,
                -294.5897521972656,
                12604.3056640625
            ],
            [
                -144.23597717285156,
                -299.2851867675781,
                12804.3056640625
            ],
            [
                -144.02084350585938,
                -303.9806213378906,
                13004.3056640625
            ],
            [
                -143.80502319335938,
                -308.676025390625,
                13204.3056640625
            ],
            [
                -143.58885192871094,
                -313.3714294433594,
                13404.3056640625
            ]
        ],
        "zFirstMeasurement": 449.2342
    }
]
