[
    {
        "E": 97309.21671110272,
        "chi2": 0.0,
        "ip": 0.07971588071107373,
        "ipchi2": 3.946168400660726,
        "mass": 1833.525,
        "particleId": "D0",
        "pvx": 0.5956,
        "pvy": 0.062,
        "pvz": 7.5307,
        "px": -2264.3,
        "py": -1066.66,
        "pz": 97259.74,
        "q": 0.0,
        "trajectory": [
            [
                0.5956000089645386,
                0.06199999898672104,
                7.530700206756592
            ],
            [
                0.48579999804496765,
                0.019200000911951065,
                15.181900024414063
            ]
        ],
        "zFirstMeasurement": -9999.0
    },
    {
        "E": 73723.65862716227,
        "chi2": 1.1601722240447998,
        "ip": 0.08594321673174823,
        "ipchi2": 2.0876352115782804,
        "mass": 493.677,
        "particleId": "K-",
        "pvx": 0.5956,
        "pvy": 0.062,
        "pvz": 7.5307,
        "px": -1056.04,
        "py": -478.28,
        "pz": 73712.89,
        "q": -1.0,
        "trajectory": [
            [
                0.4557989239692688,
                0.0928197130560875,
                15.181900024414063
            ],
            [
                0.3841710686683655,
                0.06037726625800133,
                20.181900024414063
            ],
            [
                0.31254249811172485,
                0.027934832498431206,
                25.181900024414063
            ],
            [
                0.24091321229934692,
                -0.004507595207542181,
                30.181900024414063
            ],
            [
                0.1692831814289093,
                -0.036950014531612396,
                35.18190002441406
            ],
            [
                0.09765239804983139,
                -0.06939242780208588,
                40.18190002441406
            ],
            [
                0.026020856574177742,
                -0.10183482617139816,
                45.18190002441406
            ],
            [
                -0.045611459761857986,
                -0.13427722454071045,
                50.18190002441406
            ],
            [
                -0.11724456399679184,
                -0.16671961545944214,
                55.18190002441406
            ],
            [
                -0.18887847661972046,
                -0.19916199147701263,
                60.18190002441406
            ],
            [
                -0.26051318645477295,
                -0.23160435259342194,
                65.18190002441406
            ],
            [
                -0.3321487307548523,
                -0.26404672861099243,
                70.18190002441406
            ],
            [
                -0.4037851095199585,
                -0.29648905992507935,
                75.18190002441406
            ],
            [
                -0.47542232275009155,
                -0.32893142104148865,
                80.18190002441406
            ],
            [
                -0.5470604300498962,
                -0.36137375235557556,
                85.18190002441406
            ],
            [
                -0.6186993718147278,
                -0.3938160836696625,
                90.18190002441406
            ],
            [
                -0.690339207649231,
                -0.4262584149837494,
                95.18190002441406
            ],
            [
                -0.7619799971580505,
                -0.4587007164955139,
                100.18190002441406
            ],
            [
                -1.04855215549469,
                -0.5884698629379272,
                120.18190002441406
            ],
            [
                -1.3351397514343262,
                -0.7182389497756958,
                140.18190002441406
            ],
            [
                -1.6217355728149414,
                -0.84800785779953,
                160.18190002441406
            ],
            [
                -1.9083517789840698,
                -0.9777766466140747,
                180.18190002441406
            ],
            [
                -2.1949844360351563,
                -1.1075453758239746,
                200.18190002441406
            ],
            [
                -2.4816339015960693,
                -1.2373138666152954,
                220.18190002441406
            ],
            [
                -2.768301486968994,
                -1.3670823574066162,
                240.18190002441406
            ],
            [
                -3.054987907409668,
                -1.4968507289886475,
                260.181884765625
            ],
            [
                -3.341693878173828,
                -1.6266189813613892,
                280.181884765625
            ],
            [
                -3.6284196376800537,
                -1.7563871145248413,
                300.181884765625
            ],
            [
                -3.9151666164398193,
                -1.8861552476882935,
                320.181884765625
            ],
            [
                -4.2019500732421875,
                -2.015920639038086,
                340.181884765625
            ],
            [
                -4.48874044418335,
                -2.145688533782959,
                360.181884765625
            ],
            [
                -4.775553226470947,
                -2.275456190109253,
                380.181884765625
            ],
            [
                -5.062389850616455,
                -2.405223846435547,
                400.181884765625
            ],
            [
                -5.3492512702941895,
                -2.534991502761841,
                420.181884765625
            ],
            [
                -5.636138439178467,
                -2.6647591590881348,
                440.181884765625
            ],
            [
                -5.9230523109436035,
                -2.7945268154144287,
                460.181884765625
            ],
            [
                -6.209993362426758,
                -2.9242944717407227,
                480.181884765625
            ],
            [
                -6.496952056884766,
                -3.0540618896484375,
                500.181884765625
            ],
            [
                -6.783956527709961,
                -3.1838293075561523,
                520.181884765625
            ],
            [
                -7.070989608764648,
                -3.3135969638824463,
                540.181884765625
            ],
            [
                -7.3580522537231445,
                -3.443364381790161,
                560.181884765625
            ],
            [
                -7.64514684677124,
                -3.573131799697876,
                580.181884765625
            ],
            [
                -7.93227481842041,
                -3.702899217605591,
                600.181884765625
            ],
            [
                -8.219437599182129,
                -3.8326666355133057,
                620.181884765625
            ],
            [
                -8.506636619567871,
                -3.9624340534210205,
                640.181884765625
            ],
            [
                -8.793874740600586,
                -4.092201232910156,
                660.181884765625
            ],
            [
                -9.081153869628906,
                -4.221969127655029,
                680.181884765625
            ],
            [
                -9.368460655212402,
                -4.351736545562744,
                700.181884765625
            ],
            [
                -9.655816078186035,
                -4.481503963470459,
                720.181884765625
            ],
            [
                -9.94321346282959,
                -4.611271858215332,
                740.181884765625
            ],
            [
                -10.230653762817383,
                -4.741039276123047,
                760.181884765625
            ],
            [
                -10.518138885498047,
                -4.870807647705078,
                780.181884765625
            ],
            [
                -10.805668830871582,
                -5.000575542449951,
                800.181884765625
            ],
            [
                -11.093245506286621,
                -5.130343437194824,
                820.181884765625
            ],
            [
                -11.380868911743164,
                -5.2601118087768555,
                840.181884765625
            ],
            [
                -11.66854190826416,
                -5.389880180358887,
                860.181884765625
            ],
            [
                -11.956265449523926,
                -5.519649028778076,
                880.181884765625
            ],
            [
                -12.244039535522461,
                -5.649417877197266,
                900.181884765625
            ],
            [
                -12.531865119934082,
                -5.779186725616455,
                920.181884765625
            ],
            [
                -12.819743156433105,
                -5.908956050872803,
                940.181884765625
            ],
            [
                -13.107672691345215,
                -6.038724899291992,
                960.181884765625
            ],
            [
                -13.39565658569336,
                -6.16849422454834,
                980.181884765625
            ],
            [
                -13.683696746826172,
                -6.2982635498046875,
                1000.181884765625
            ],
            [
                -15.124740600585938,
                -6.947113037109375,
                1100.181884765625
            ],
            [
                -16.567222595214844,
                -7.595966339111328,
                1200.181884765625
            ],
            [
                -18.011192321777344,
                -8.244823455810547,
                1300.181884765625
            ],
            [
                -19.45660400390625,
                -8.893681526184082,
                1400.181884765625
            ],
            [
                -20.903566360473633,
                -9.542543411254883,
                1500.181884765625
            ],
            [
                -22.351621627807617,
                -10.191414833068848,
                1600.181884765625
            ],
            [
                -23.8013973236084,
                -10.84028434753418,
                1700.181884765625
            ],
            [
                -25.252920150756836,
                -11.489156723022461,
                1800.181884765625
            ],
            [
                -26.706401824951172,
                -12.138033866882324,
                1900.181884765625
            ],
            [
                -28.161922454833984,
                -12.786913871765137,
                2000.181884765625
            ],
            [
                -29.61991310119629,
                -13.435798645019531,
                2100.181884765625
            ],
            [
                -31.081090927124023,
                -14.084692001342773,
                2200.181884765625
            ],
            [
                -32.54608917236328,
                -14.733595848083496,
                2300.181884765625
            ],
            [
                -34.01530456542969,
                -15.382513999938965,
                2400.181884765625
            ],
            [
                -35.49003982543945,
                -16.031448364257813,
                2500.181884765625
            ],
            [
                -36.97104263305664,
                -16.680418014526367,
                2600.181884765625
            ],
            [
                -38.4592399597168,
                -17.329397201538086,
                2700.181884765625
            ],
            [
                -39.95733642578125,
                -17.978412628173828,
                2800.181884765625
            ],
            [
                -41.4662971496582,
                -18.627456665039063,
                2900.181884765625
            ],
            [
                -42.987770080566406,
                -19.276533126831055,
                3000.181884765625
            ],
            [
                -44.52462387084961,
                -19.92563247680664,
                3100.181884765625
            ],
            [
                -46.077884674072266,
                -20.57474136352539,
                3200.181884765625
            ],
            [
                -47.64975357055664,
                -21.223873138427734,
                3300.181884765625
            ],
            [
                -49.24289321899414,
                -21.873031616210938,
                3400.181884765625
            ],
            [
                -50.86042785644531,
                -22.5222110748291,
                3500.181884765625
            ],
            [
                -52.50406265258789,
                -23.171436309814453,
                3600.181884765625
            ],
            [
                -54.17723083496094,
                -23.820711135864258,
                3700.181884765625
            ],
            [
                -55.87967300415039,
                -24.46999740600586,
                3800.181884765625
            ],
            [
                -57.61618423461914,
                -25.11936378479004,
                3900.181884765625
            ],
            [
                -59.38874053955078,
                -25.768815994262695,
                4000.181884765625
            ],
            [
                -61.19902420043945,
                -26.418352127075195,
                4100.18212890625
            ],
            [
                -63.045989990234375,
                -27.067941665649414,
                4200.18212890625
            ],
            [
                -64.93080139160156,
                -27.717580795288086,
                4300.18212890625
            ],
            [
                -66.85742950439453,
                -28.367341995239258,
                4400.18212890625
            ],
            [
                -68.82917022705078,
                -29.017166137695313,
                4500.18212890625
            ],
            [
                -70.8409423828125,
                -29.667110443115234,
                4600.18212890625
            ],
            [
                -72.89501190185547,
                -30.317174911499023,
                4700.18212890625
            ],
            [
                -74.99238586425781,
                -30.96738052368164,
                4800.18212890625
            ],
            [
                -77.13490295410156,
                -31.617691040039063,
                4900.18212890625
            ],
            [
                -79.31826782226563,
                -32.26808166503906,
                5000.18212890625
            ],
            [
                -81.42666625976563,
                -32.960418701171875,
                5100.18212890625
            ],
            [
                -83.68948364257813,
                -33.612789154052734,
                5200.18212890625
            ],
            [
                -85.99390411376953,
                -34.265411376953125,
                5300.18212890625
            ],
            [
                -88.33855438232422,
                -34.917903900146484,
                5400.18212890625
            ],
            [
                -90.72309112548828,
                -35.57030487060547,
                5500.18212890625
            ],
            [
                -93.14569854736328,
                -36.22309494018555,
                5600.18212890625
            ],
            [
                -95.60758972167969,
                -36.875831604003906,
                5700.18212890625
            ],
            [
                -98.10713958740234,
                -37.52873229980469,
                5800.18212890625
            ],
            [
                -100.64203643798828,
                -38.181732177734375,
                5900.18212890625
            ],
            [
                -103.21339416503906,
                -38.834861755371094,
                6000.18212890625
            ],
            [
                -105.81902313232422,
                -39.488128662109375,
                6100.18212890625
            ],
            [
                -108.45807647705078,
                -40.141441345214844,
                6200.18212890625
            ],
            [
                -111.12944030761719,
                -40.794776916503906,
                6300.18212890625
            ],
            [
                -113.83177947998047,
                -41.448158264160156,
                6400.18212890625
            ],
            [
                -116.56430053710938,
                -42.10154724121094,
                6500.18212890625
            ],
            [
                -119.32516479492188,
                -42.7550163269043,
                6600.18212890625
            ],
            [
                -122.11373138427734,
                -43.40855407714844,
                6700.18212890625
            ],
            [
                -124.92789459228516,
                -44.0621337890625,
                6800.18212890625
            ],
            [
                -127.76732635498047,
                -44.71571731567383,
                6900.18212890625
            ],
            [
                -130.63018798828125,
                -45.36933135986328,
                7000.18212890625
            ],
            [
                -133.51502990722656,
                -46.022972106933594,
                7100.18212890625
            ],
            [
                -136.42050170898438,
                -46.67664337158203,
                7200.18212890625
            ],
            [
                -139.34552001953125,
                -47.330352783203125,
                7300.18212890625
            ],
            [
                -142.28909301757813,
                -47.98408126831055,
                7400.18212890625
            ],
            [
                -145.2490692138672,
                -48.63786697387695,
                7500.18212890625
            ],
            [
                -148.22511291503906,
                -49.29167556762695,
                7600.18212890625
            ],
            [
                -151.21560668945313,
                -49.945533752441406,
                7700.18212890625
            ],
            [
                -154.2199249267578,
                -50.59944534301758,
                7800.18212890625
            ],
            [
                -157.23690795898438,
                -51.25341033935547,
                7900.18212890625
            ],
            [
                -160.26547241210938,
                -51.90742492675781,
                8000.18212890625
            ],
            [
                -163.3049774169922,
                -52.561492919921875,
                8100.18212890625
            ],
            [
                -166.35423278808594,
                -53.215614318847656,
                8200.181640625
            ],
            [
                -169.41258239746094,
                -53.869789123535156,
                8300.181640625
            ],
            [
                -172.47938537597656,
                -54.52400588989258,
                8400.181640625
            ],
            [
                -175.55392456054688,
                -55.17827224731445,
                8500.181640625
            ],
            [
                -178.63536071777344,
                -55.832576751708984,
                8600.181640625
            ],
            [
                -181.7233428955078,
                -56.486915588378906,
                8700.181640625
            ],
            [
                -184.81723022460938,
                -57.14128875732422,
                8800.181640625
            ],
            [
                -187.91651916503906,
                -57.79570007324219,
                8900.181640625
            ],
            [
                -191.02078247070313,
                -58.45014190673828,
                9000.181640625
            ],
            [
                -194.12962341308594,
                -59.1046142578125,
                9100.181640625
            ],
            [
                -197.24258422851563,
                -59.759117126464844,
                9200.181640625
            ],
            [
                -200.35934448242188,
                -60.41364669799805,
                9300.181640625
            ],
            [
                -203.4795684814453,
                -61.06820297241211,
                9400.181640625
            ],
            [
                -206.6029510498047,
                -61.722782135009766,
                9500.181640625
            ],
            [
                -209.7292022705078,
                -62.377384185791016,
                9600.181640625
            ],
            [
                -212.8580780029297,
                -63.032005310058594,
                9700.181640625
            ],
            [
                -215.98936462402344,
                -63.686641693115234,
                9800.181640625
            ],
            [
                -219.12281799316406,
                -64.34130096435547,
                9900.181640625
            ],
            [
                -222.25827026367188,
                -64.9959716796875,
                10000.181640625
            ],
            [
                -228.5344696044922,
                -66.30535125732422,
                10200.181640625
            ],
            [
                -234.8167266845703,
                -67.61478424072266,
                10400.181640625
            ],
            [
                -241.10397338867188,
                -68.92425537109375,
                10600.181640625
            ],
            [
                -247.3954620361328,
                -70.23375701904297,
                10800.181640625
            ],
            [
                -253.6903076171875,
                -71.54328155517578,
                11000.181640625
            ],
            [
                -259.9880676269531,
                -72.85282897949219,
                11200.181640625
            ],
            [
                -266.28826904296875,
                -74.16239166259766,
                11400.181640625
            ],
            [
                -272.59033203125,
                -75.47196960449219,
                11600.181640625
            ],
            [
                -278.89398193359375,
                -76.78155517578125,
                11800.181640625
            ],
            [
                -285.19891357421875,
                -78.09114837646484,
                12000.181640625
            ],
            [
                -291.5050964355469,
                -79.40074157714844,
                12200.181640625
            ],
            [
                -297.8121032714844,
                -80.7103500366211,
                12400.181640625
            ],
            [
                -304.11962890625,
                -82.01995086669922,
                12600.181640625
            ],
            [
                -310.42767333984375,
                -83.32955932617188,
                12800.181640625
            ],
            [
                -316.7362976074219,
                -84.63916778564453,
                13000.181640625
            ],
            [
                -323.0453186035156,
                -85.94878387451172,
                13200.181640625
            ],
            [
                -329.35455322265625,
                -87.25839233398438,
                13400.181640625
            ]
        ],
        "zFirstMeasurement": 599.2573
    },
    {
        "E": 23651.267049346367,
        "chi2": 1.4679343700408936,
        "ip": 0.027230717750751143,
        "ipchi2": 1.7343903580934175,
        "mass": 139.57,
        "particleId": "pi+",
        "pvx": 0.6507,
        "pvy": 0.0715,
        "pvz": 11.8149,
        "px": -1205.86,
        "py": -596.94,
        "pz": 23612.55,
        "q": 1.0,
        "trajectory": [
            [
                0.48937010765075684,
                0.01148115936666727,
                15.181900024414063
            ],
            [
                0.23402395844459534,
                -0.1149224266409874,
                20.181900024414063
            ],
            [
                -0.02131992019712925,
                -0.24132603406906128,
                25.181900024414063
            ],
            [
                -0.2766614854335785,
                -0.36772963404655457,
                30.181900024414063
            ],
            [
                -0.5320006608963013,
                -0.49413326382637024,
                35.18190002441406
            ],
            [
                -0.7873374819755554,
                -0.6205368638038635,
                40.18190002441406
            ],
            [
                -1.0426719188690186,
                -0.746940553188324,
                45.18190002441406
            ],
            [
                -1.2980037927627563,
                -0.8733441829681396,
                50.18190002441406
            ],
            [
                -1.5533331632614136,
                -0.9997478127479553,
                55.18190002441406
            ],
            [
                -1.8086600303649902,
                -1.126151442527771,
                60.18190002441406
            ],
            [
                -2.0639841556549072,
                -1.2525551319122314,
                65.18190002441406
            ],
            [
                -2.319305896759033,
                -1.378958821296692,
                70.18190002441406
            ],
            [
                -2.57462477684021,
                -1.5053625106811523,
                75.18190002441406
            ],
            [
                -2.8299410343170166,
                -1.6317662000656128,
                80.18190002441406
            ],
            [
                -3.085254430770874,
                -1.7581700086593628,
                85.18190002441406
            ],
            [
                -3.3405652046203613,
                -1.8845736980438232,
                90.18190002441406
            ],
            [
                -3.5958731174468994,
                -2.0109775066375732,
                95.18190002441406
            ],
            [
                -3.8511860370635986,
                -2.1373536586761475,
                100.18190002441406
            ],
            [
                -4.872380256652832,
                -2.6429686546325684,
                120.18190002441406
            ],
            [
                -5.893531322479248,
                -3.1485838890075684,
                140.18190002441406
            ],
            [
                -6.914637088775635,
                -3.6541991233825684,
                160.18190002441406
            ],
            [
                -7.935693740844727,
                -4.159814834594727,
                180.18190002441406
            ],
            [
                -8.956698417663574,
                -4.665430068969727,
                200.18190002441406
            ],
            [
                -9.97764778137207,
                -5.171045780181885,
                220.18190002441406
            ],
            [
                -10.998538970947266,
                -5.676661014556885,
                240.18190002441406
            ],
            [
                -12.019368171691895,
                -6.182276725769043,
                260.181884765625
            ],
            [
                -13.040163040161133,
                -6.687892436981201,
                280.181884765625
            ],
            [
                -14.060877799987793,
                -7.193507671356201,
                300.181884765625
            ],
            [
                -15.081527709960938,
                -7.699122905731201,
                320.181884765625
            ],
            [
                -16.102109909057617,
                -8.20473861694336,
                340.181884765625
            ],
            [
                -17.122623443603516,
                -8.71035385131836,
                360.181884765625
            ],
            [
                -18.14306640625,
                -9.21596908569336,
                380.181884765625
            ],
            [
                -19.163433074951172,
                -9.721583366394043,
                400.181884765625
            ],
            [
                -20.183719635009766,
                -10.227198600769043,
                420.181884765625
            ],
            [
                -21.203927993774414,
                -10.732812881469727,
                440.181884765625
            ],
            [
                -22.22405433654785,
                -11.238426208496094,
                460.181884765625
            ],
            [
                -23.244094848632813,
                -11.744040489196777,
                480.181884765625
            ],
            [
                -24.264049530029297,
                -12.249653816223145,
                500.181884765625
            ],
            [
                -25.283910751342773,
                -12.755267143249512,
                520.181884765625
            ],
            [
                -26.303680419921875,
                -13.260880470275879,
                540.181884765625
            ],
            [
                -27.32335090637207,
                -13.76649284362793,
                560.181884765625
            ],
            [
                -28.342912673950195,
                -14.27210521697998,
                580.181884765625
            ],
            [
                -29.36237335205078,
                -14.777717590332031,
                600.181884765625
            ],
            [
                -30.381717681884766,
                -15.28332805633545,
                620.181884765625
            ],
            [
                -31.400949478149414,
                -15.788938522338867,
                640.181884765625
            ],
            [
                -32.42007064819336,
                -16.29454803466797,
                660.181884765625
            ],
            [
                -33.4390754699707,
                -16.80015754699707,
                680.181884765625
            ],
            [
                -34.45795822143555,
                -17.30576515197754,
                700.181884765625
            ],
            [
                -35.47672653198242,
                -17.81137466430664,
                720.181884765625
            ],
            [
                -36.49534225463867,
                -18.31698226928711,
                740.181884765625
            ],
            [
                -37.51382827758789,
                -18.822589874267578,
                760.181884765625
            ],
            [
                -38.53218078613281,
                -19.328197479248047,
                780.181884765625
            ],
            [
                -39.55039978027344,
                -19.833805084228516,
                800.181884765625
            ],
            [
                -40.568477630615234,
                -20.339412689208984,
                820.181884765625
            ],
            [
                -41.58641815185547,
                -20.84501838684082,
                840.181884765625
            ],
            [
                -42.604209899902344,
                -21.350624084472656,
                860.181884765625
            ],
            [
                -43.621856689453125,
                -21.85622787475586,
                880.181884765625
            ],
            [
                -44.63932800292969,
                -22.36182975769043,
                900.181884765625
            ],
            [
                -45.656654357910156,
                -22.867429733276367,
                920.181884765625
            ],
            [
                -46.67380905151367,
                -23.373027801513672,
                940.181884765625
            ],
            [
                -47.69075012207031,
                -23.878625869750977,
                960.181884765625
            ],
            [
                -48.70751953125,
                -24.38422393798828,
                980.181884765625
            ],
            [
                -49.72411346435547,
                -24.889820098876953,
                1000.181884765625
            ],
            [
                -54.80475997924805,
                -27.417800903320313,
                1100.181884765625
            ],
            [
                -59.8798942565918,
                -29.94580841064453,
                1200.181884765625
            ],
            [
                -64.95112609863281,
                -32.473777770996094,
                1300.181884765625
            ],
            [
                -70.01779174804688,
                -35.001747131347656,
                1400.181884765625
            ],
            [
                -75.08026885986328,
                -37.529727935791016,
                1500.181884765625
            ],
            [
                -80.13822937011719,
                -40.05770492553711,
                1600.181884765625
            ],
            [
                -85.19160461425781,
                -42.585636138916016,
                1700.181884765625
            ],
            [
                -90.23900604248047,
                -45.11354064941406,
                1800.181884765625
            ],
            [
                -95.28106689453125,
                -47.64140319824219,
                1900.181884765625
            ],
            [
                -100.31595611572266,
                -50.169227600097656,
                2000.181884765625
            ],
            [
                -105.3432388305664,
                -52.69700241088867,
                2100.181884765625
            ],
            [
                -110.3600845336914,
                -55.224700927734375,
                2200.181884765625
            ],
            [
                -115.36772918701172,
                -57.75228500366211,
                2300.181884765625
            ],
            [
                -120.36099243164063,
                -60.27967834472656,
                2400.181884765625
            ],
            [
                -125.33675384521484,
                -62.806888580322266,
                2500.181884765625
            ],
            [
                -130.29161071777344,
                -65.3338623046875,
                2600.181884765625
            ],
            [
                -135.22361755371094,
                -67.86054992675781,
                2700.181884765625
            ],
            [
                -140.12841796875,
                -70.3869400024414,
                2800.181884765625
            ],
            [
                -144.9979248046875,
                -72.9129638671875,
                2900.181884765625
            ],
            [
                -149.8270263671875,
                -75.43856048583984,
                3000.181884765625
            ],
            [
                -154.6151885986328,
                -77.9637222290039,
                3100.181884765625
            ],
            [
                -159.3465118408203,
                -80.48870086669922,
                3200.181884765625
            ],
            [
                -164.0199432373047,
                -83.01312255859375,
                3300.181884765625
            ],
            [
                -168.62452697753906,
                -85.53705596923828,
                3400.181884765625
            ],
            [
                -173.15286254882813,
                -88.06048583984375,
                3500.181884765625
            ],
            [
                -177.60562133789063,
                -90.583251953125,
                3600.181884765625
            ],
            [
                -181.9676971435547,
                -93.10540771484375,
                3700.181884765625
            ],
            [
                -186.22943115234375,
                -95.62723541259766,
                3800.181884765625
            ],
            [
                -190.3918914794922,
                -98.1484375,
                3900.181884765625
            ],
            [
                -194.44349670410156,
                -100.66887664794922,
                4000.181884765625
            ],
            [
                -198.38316345214844,
                -103.18853759765625,
                4100.18212890625
            ],
            [
                -202.19473266601563,
                -105.70799255371094,
                4200.18212890625
            ],
            [
                -205.87953186035156,
                -108.22698974609375,
                4300.18212890625
            ],
            [
                -209.4405059814453,
                -110.74494171142578,
                4400.18212890625
            ],
            [
                -212.87342834472656,
                -113.2625503540039,
                4500.18212890625
            ],
            [
                -216.17323303222656,
                -115.77955627441406,
                4600.18212890625
            ],
            [
                -219.33541870117188,
                -118.29646301269531,
                4700.18212890625
            ],
            [
                -222.37571716308594,
                -120.81295013427734,
                4800.18212890625
            ],
            [
                -226.40919494628906,
                -124.08729553222656,
                4900.18212890625
            ],
            [
                -229.1537628173828,
                -126.61868286132813,
                5000.18212890625
            ],
            [
                -231.76405334472656,
                -129.1496124267578,
                5100.18212890625
            ],
            [
                -234.24595642089844,
                -131.6802215576172,
                5200.18212890625
            ],
            [
                -236.59793090820313,
                -134.20993041992188,
                5300.18212890625
            ],
            [
                -238.82437133789063,
                -136.7399139404297,
                5400.18212890625
            ],
            [
                -240.92434692382813,
                -139.27035522460938,
                5500.18212890625
            ],
            [
                -242.90728759765625,
                -141.79953002929688,
                5600.18212890625
            ],
            [
                -244.76751708984375,
                -144.32876586914063,
                5700.18212890625
            ],
            [
                -246.51007080078125,
                -146.85745239257813,
                5800.18212890625
            ],
            [
                -248.14195251464844,
                -149.3858642578125,
                5900.18212890625
            ],
            [
                -249.65982055664063,
                -151.91400146484375,
                6000.18212890625
            ],
            [
                -251.070556640625,
                -154.441650390625,
                6100.18212890625
            ],
            [
                -252.37710571289063,
                -156.96908569335938,
                6200.18212890625
            ],
            [
                -253.5824432373047,
                -159.49649047851563,
                6300.18212890625
            ],
            [
                -254.6909637451172,
                -162.0237274169922,
                6400.18212890625
            ],
            [
                -255.70416259765625,
                -164.55087280273438,
                6500.18212890625
            ],
            [
                -256.62982177734375,
                -167.0778045654297,
                6600.18212890625
            ],
            [
                -257.46893310546875,
                -169.60447692871094,
                6700.18212890625
            ],
            [
                -258.22802734375,
                -172.13092041015625,
                6800.18212890625
            ],
            [
                -258.9081726074219,
                -174.6573486328125,
                6900.18212890625
            ],
            [
                -259.51507568359375,
                -177.18365478515625,
                7000.18212890625
            ],
            [
                -260.0534973144531,
                -179.70977783203125,
                7100.18212890625
            ],
            [
                -260.52752685546875,
                -182.23573303222656,
                7200.18212890625
            ],
            [
                -260.94061279296875,
                -184.761474609375,
                7300.18212890625
            ],
            [
                -261.2958068847656,
                -187.28707885742188,
                7400.18212890625
            ],
            [
                -261.5994567871094,
                -189.8124237060547,
                7500.18212890625
            ],
            [
                -261.8536682128906,
                -192.33758544921875,
                7600.18212890625
            ],
            [
                -262.0629577636719,
                -194.8625030517578,
                7700.18212890625
            ],
            [
                -262.2292175292969,
                -197.38714599609375,
                7800.18212890625
            ],
            [
                -262.35614013671875,
                -199.91151428222656,
                7900.18212890625
            ],
            [
                -262.4471740722656,
                -202.43563842773438,
                8000.18212890625
            ],
            [
                -262.5042419433594,
                -204.95947265625,
                8100.18212890625
            ],
            [
                -262.5311584472656,
                -207.4830322265625,
                8200.181640625
            ],
            [
                -262.5298767089844,
                -210.00633239746094,
                8300.181640625
            ],
            [
                -262.5024719238281,
                -212.5293731689453,
                8400.181640625
            ],
            [
                -262.4510192871094,
                -215.05218505859375,
                8500.181640625
            ],
            [
                -262.3783874511719,
                -217.5747528076172,
                8600.181640625
            ],
            [
                -262.28564453125,
                -220.0971221923828,
                8700.181640625
            ],
            [
                -262.17462158203125,
                -222.61929321289063,
                8800.181640625
            ],
            [
                -262.0469665527344,
                -225.14126586914063,
                8900.181640625
            ],
            [
                -261.9039611816406,
                -227.6630401611328,
                9000.181640625
            ],
            [
                -261.7469482421875,
                -230.1846466064453,
                9100.181640625
            ],
            [
                -261.5771789550781,
                -232.70608520507813,
                9200.181640625
            ],
            [
                -261.3957214355469,
                -235.22735595703125,
                9300.181640625
            ],
            [
                -261.2036437988281,
                -237.74847412109375,
                9400.181640625
            ],
            [
                -261.00189208984375,
                -240.2694549560547,
                9500.181640625
            ],
            [
                -260.7912902832031,
                -242.79031372070313,
                9600.181640625
            ],
            [
                -260.5726013183594,
                -245.31105041503906,
                9700.181640625
            ],
            [
                -260.3465576171875,
                -247.8316650390625,
                9800.181640625
            ],
            [
                -260.1138610839844,
                -250.3521728515625,
                9900.181640625
            ],
            [
                -259.8750305175781,
                -252.87258911132813,
                10000.181640625
            ],
            [
                -259.381103515625,
                -257.91314697265625,
                10200.181640625
            ],
            [
                -258.8685607910156,
                -262.95343017578125,
                10400.181640625
            ],
            [
                -258.3407897949219,
                -267.9934387207031,
                10600.181640625
            ],
            [
                -257.7999267578125,
                -273.033203125,
                10800.181640625
            ],
            [
                -257.248779296875,
                -278.07281494140625,
                11000.181640625
            ],
            [
                -256.68878173828125,
                -283.1122741699219,
                11200.181640625
            ],
            [
                -256.1212158203125,
                -288.151611328125,
                11400.181640625
            ],
            [
                -255.5479736328125,
                -293.1908264160156,
                11600.181640625
            ],
            [
                -254.96978759765625,
                -298.22998046875,
                11800.181640625
            ],
            [
                -254.38778686523438,
                -303.2690734863281,
                12000.181640625
            ],
            [
                -253.80189514160156,
                -308.3080749511719,
                12200.181640625
            ],
            [
                -253.21343994140625,
                -313.3470458984375,
                12400.181640625
            ],
            [
                -252.6234588623047,
                -318.385986328125,
                12600.181640625
            ],
            [
                -252.03184509277344,
                -323.4248962402344,
                12800.181640625
            ],
            [
                -251.43846130371094,
                -328.46380615234375,
                13000.181640625
            ],
            [
                -250.8437957763672,
                -333.5026550292969,
                13200.181640625
            ],
            [
                -250.24850463867188,
                -338.54150390625,
                13400.181640625
            ]
        ],
        "zFirstMeasurement": 169.4538
    },
    {
        "E": 6533.201004044284,
        "chi2": 0.6714975237846375,
        "ip": 9.539148833293993,
        "ipchi2": 2956.669873463529,
        "mass": 139.57018,
        "particleId": "pi+",
        "pvx": 0.5956,
        "pvy": 0.062,
        "pvz": 7.5307,
        "px": 191.47553277495757,
        "py": -174.6833321729136,
        "pz": 6526.565588263824,
        "q": 1.0,
        "trajectory": [
            [
                -6.344511032104492,
                11.697602272033691,
                -100.0
            ],
            [
                -6.19839334487915,
                11.563787460327148,
                -95.0
            ],
            [
                -6.052269458770752,
                11.429971694946289,
                -90.0
            ],
            [
                -5.906139373779297,
                11.29615592956543,
                -85.0
            ],
            [
                -5.760003566741943,
                11.16234016418457,
                -80.0
            ],
            [
                -5.613861083984375,
                11.028524398803711,
                -75.0
            ],
            [
                -5.467712879180908,
                10.894707679748535,
                -70.0
            ],
            [
                -5.321557998657227,
                10.76089096069336,
                -65.0
            ],
            [
                -5.17539644241333,
                10.6270751953125,
                -60.0
            ],
            [
                -5.029228687286377,
                10.493258476257324,
                -55.0
            ],
            [
                -4.883053779602051,
                10.359441757202148,
                -50.0
            ],
            [
                -4.73687219619751,
                10.225625038146973,
                -45.0
            ],
            [
                -4.590683937072754,
                10.09180736541748,
                -40.0
            ],
            [
                -4.444488048553467,
                9.957990646362305,
                -35.0
            ],
            [
                -4.298285484313965,
                9.824172973632813,
                -30.0
            ],
            [
                -4.15207576751709,
                9.69035530090332,
                -25.0
            ],
            [
                -4.005858421325684,
                9.556537628173828,
                -20.0
            ],
            [
                -3.8596339225769043,
                9.422719955444336,
                -15.0
            ],
            [
                -3.7134017944335938,
                9.288901329040527,
                -10.0
            ],
            [
                -3.567162036895752,
                9.155083656311035,
                -5.0
            ],
            [
                -3.4209144115448,
                9.021265029907227,
                0.0
            ],
            [
                -3.274658679962158,
                8.887446403503418,
                5.0
            ],
            [
                -3.128394842147827,
                8.75362777709961,
                10.0
            ],
            [
                -2.9821231365203857,
                8.6198091506958,
                15.0
            ],
            [
                -2.835843086242676,
                8.485990524291992,
                20.0
            ],
            [
                -2.6895534992218018,
                8.352170944213867,
                25.0
            ],
            [
                -2.543255090713501,
                8.218352317810059,
                30.0
            ],
            [
                -2.3969480991363525,
                8.084532737731934,
                35.0
            ],
            [
                -2.2506330013275146,
                7.950713157653809,
                40.0
            ],
            [
                -2.104309558868408,
                7.816893577575684,
                45.0
            ],
            [
                -1.957977533340454,
                7.683073997497559,
                50.0
            ],
            [
                -1.8116368055343628,
                7.549253940582275,
                55.0
            ],
            [
                -1.6652873754501343,
                7.415433883666992,
                60.0
            ],
            [
                -1.5189290046691895,
                7.281613349914551,
                65.0
            ],
            [
                -1.3725616931915283,
                7.147792816162109,
                70.0
            ],
            [
                -1.2261853218078613,
                7.013972282409668,
                75.0
            ],
            [
                -1.0797996520996094,
                6.880151748657227,
                80.0
            ],
            [
                -0.9334046840667725,
                6.746330738067627,
                85.0
            ],
            [
                -0.7870002388954163,
                6.612509727478027,
                90.0
            ],
            [
                -0.640586256980896,
                6.478688716888428,
                95.0
            ],
            [
                -0.49416258931159973,
                6.34486722946167,
                100.0
            ],
            [
                0.0915587916970253,
                5.809580326080322,
                120.0
            ],
            [
                0.6775526404380798,
                5.274291038513184,
                140.0
            ],
            [
                1.2637028694152832,
                4.738999843597412,
                160.0
            ],
            [
                1.8500206470489502,
                4.203705787658691,
                180.0
            ],
            [
                2.4365172386169434,
                3.6684093475341797,
                200.0
            ],
            [
                3.0232036113739014,
                3.133111000061035,
                220.0
            ],
            [
                3.6100916862487793,
                2.5978100299835205,
                240.0
            ],
            [
                4.1971940994262695,
                2.062506914138794,
                260.0
            ],
            [
                4.784522533416748,
                1.527201771736145,
                280.0
            ],
            [
                5.372089862823486,
                0.9918943047523499,
                300.0
            ],
            [
                5.959815979003906,
                0.45658448338508606,
                320.0
            ],
            [
                6.547731399536133,
                -0.07877067476511002,
                340.0
            ],
            [
                7.136044025421143,
                -0.6140843033790588,
                360.0
            ],
            [
                7.724603652954102,
                -1.1494001150131226,
                380.0
            ],
            [
                8.3134183883667,
                -1.6847177743911743,
                400.0
            ],
            [
                8.90250301361084,
                -2.2200374603271484,
                420.0
            ],
            [
                9.491872787475586,
                -2.755359172821045,
                440.0
            ],
            [
                10.081543922424316,
                -3.290682554244995,
                460.0
            ],
            [
                10.67153263092041,
                -3.826007843017578,
                480.0
            ],
            [
                11.261855125427246,
                -4.361334800720215,
                500.0
            ],
            [
                11.852524757385254,
                -4.896663665771484,
                520.0
            ],
            [
                12.443432807922363,
                -5.4319939613342285,
                540.0
            ],
            [
                13.034767150878906,
                -5.9673261642456055,
                560.0
            ],
            [
                13.626469612121582,
                -6.502660274505615,
                580.0
            ],
            [
                14.218552589416504,
                -7.0379958152771,
                600.0
            ],
            [
                14.811029434204102,
                -7.5733323097229,
                620.0
            ],
            [
                15.403910636901855,
                -8.108670234680176,
                640.0
            ],
            [
                15.997214317321777,
                -8.644009590148926,
                660.0
            ],
            [
                16.590965270996094,
                -9.179349899291992,
                680.0
            ],
            [
                17.18516731262207,
                -9.714691162109375,
                700.0
            ],
            [
                17.77983283996582,
                -10.250032424926758,
                720.0
            ],
            [
                18.374984741210938,
                -10.785372734069824,
                740.0
            ],
            [
                18.97062873840332,
                -11.320712089538574,
                760.0
            ],
            [
                19.56678009033203,
                -11.856051445007324,
                780.0
            ],
            [
                20.163448333740234,
                -12.391389846801758,
                800.0
            ],
            [
                20.76064682006836,
                -12.926728248596191,
                820.0
            ],
            [
                21.35839080810547,
                -13.462065696716309,
                840.0
            ],
            [
                21.956693649291992,
                -13.997401237487793,
                860.0
            ],
            [
                22.555559158325195,
                -14.532736778259277,
                880.0
            ],
            [
                23.15495491027832,
                -15.06807804107666,
                900.0
            ],
            [
                23.754911422729492,
                -15.603419303894043,
                920.0
            ],
            [
                24.3554630279541,
                -16.13875961303711,
                940.0
            ],
            [
                24.956623077392578,
                -16.674100875854492,
                960.0
            ],
            [
                25.558401107788086,
                -17.209440231323242,
                980.0
            ],
            [
                26.160869598388672,
                -17.744768142700195,
                1000.0
            ],
            [
                29.182783126831055,
                -20.421348571777344,
                1100.0
            ],
            [
                32.22182083129883,
                -23.097841262817383,
                1200.0
            ],
            [
                35.277923583984375,
                -25.774221420288086,
                1300.0
            ],
            [
                38.35118865966797,
                -28.45062255859375,
                1400.0
            ],
            [
                41.433841705322266,
                -31.127473831176758,
                1500.0
            ],
            [
                44.5378532409668,
                -33.80390548706055,
                1600.0
            ],
            [
                47.65973663330078,
                -36.48025894165039,
                1700.0
            ],
            [
                50.79938507080078,
                -39.15658950805664,
                1800.0
            ],
            [
                53.960418701171875,
                -41.8328857421875,
                1900.0
            ],
            [
                57.14862823486328,
                -44.509151458740234,
                2000.0
            ],
            [
                60.3625373840332,
                -47.18540573120117,
                2100.0
            ],
            [
                63.612823486328125,
                -49.86164093017578,
                2200.0
            ],
            [
                66.90522003173828,
                -52.5380973815918,
                2300.0
            ],
            [
                70.24273681640625,
                -55.21461868286133,
                2400.0
            ],
            [
                73.63916778564453,
                -57.892005920410156,
                2500.0
            ],
            [
                77.10858917236328,
                -60.56871032714844,
                2600.0
            ],
            [
                80.67288208007813,
                -63.24551010131836,
                2700.0
            ],
            [
                84.33362579345703,
                -65.92256927490234,
                2800.0
            ],
            [
                88.12003326416016,
                -68.59996795654297,
                2900.0
            ],
            [
                92.04988098144531,
                -71.27757263183594,
                3000.0
            ],
            [
                96.14202880859375,
                -73.95578002929688,
                3100.0
            ],
            [
                100.436279296875,
                -76.63555908203125,
                3200.0
            ],
            [
                104.94407653808594,
                -79.31660461425781,
                3300.0
            ],
            [
                109.67098999023438,
                -81.99840545654297,
                3400.0
            ],
            [
                114.6937255859375,
                -84.68311309814453,
                3500.0
            ],
            [
                119.99629974365234,
                -87.36744689941406,
                3600.0
            ],
            [
                125.6362533569336,
                -90.05377197265625,
                3700.0
            ],
            [
                131.62986755371094,
                -92.74161529541016,
                3800.0
            ],
            [
                137.98817443847656,
                -95.43107604980469,
                3900.0
            ],
            [
                144.73155212402344,
                -98.12146759033203,
                4000.0
            ],
            [
                151.94845581054688,
                -100.8133316040039,
                4100.0
            ],
            [
                159.58900451660156,
                -103.50749206542969,
                4200.0
            ],
            [
                167.69151306152344,
                -106.20270538330078,
                4300.0
            ],
            [
                176.20574951171875,
                -108.89910125732422,
                4400.0
            ],
            [
                185.2435302734375,
                -111.59783172607422,
                4500.0
            ],
            [
                194.76116943359375,
                -114.29572296142578,
                4600.0
            ],
            [
                204.7559051513672,
                -116.99510955810547,
                4700.0
            ],
            [
                215.250244140625,
                -119.69383239746094,
                4800.0
            ],
            [
                226.1939239501953,
                -122.39354705810547,
                4900.0
            ],
            [
                242.33810424804688,
                -126.31853485107422,
                5000.0
            ],
            [
                254.16461181640625,
                -129.02293395996094,
                5100.0
            ],
            [
                266.4661865234375,
                -131.72683715820313,
                5200.0
            ],
            [
                279.2442321777344,
                -134.42910766601563,
                5300.0
            ],
            [
                292.4891357421875,
                -137.13230895996094,
                5400.0
            ],
            [
                306.1973876953125,
                -139.83775329589844,
                5500.0
            ],
            [
                320.357666015625,
                -142.53973388671875,
                5600.0
            ],
            [
                334.9736633300781,
                -145.24093627929688,
                5700.0
            ],
            [
                350.02630615234375,
                -147.941162109375,
                5800.0
            ],
            [
                365.49468994140625,
                -150.6398162841797,
                5900.0
            ],
            [
                381.3966979980469,
                -153.33604431152344,
                6000.0
            ],
            [
                397.6968994140625,
                -156.02963256835938,
                6100.0
            ],
            [
                414.3893737792969,
                -158.72105407714844,
                6200.0
            ],
            [
                431.4669494628906,
                -161.4110565185547,
                6300.0
            ],
            [
                448.9103698730469,
                -164.09898376464844,
                6400.0
            ],
            [
                466.70550537109375,
                -166.78468322753906,
                6500.0
            ],
            [
                484.8476867675781,
                -169.46701049804688,
                6600.0
            ],
            [
                503.3125305175781,
                -172.14599609375,
                6700.0
            ],
            [
                522.0819702148438,
                -174.82179260253906,
                6800.0
            ],
            [
                541.1544799804688,
                -177.49380493164063,
                6900.0
            ],
            [
                560.5040893554688,
                -180.16197204589844,
                7000.0
            ],
            [
                580.116455078125,
                -182.8264617919922,
                7100.0
            ],
            [
                599.9741821289063,
                -185.48733520507813,
                7200.0
            ],
            [
                620.06494140625,
                -188.1442413330078,
                7300.0
            ],
            [
                640.3771362304688,
                -190.79708862304688,
                7400.0
            ],
            [
                660.8831176757813,
                -193.4461669921875,
                7500.0
            ],
            [
                681.5830688476563,
                -196.09109497070313,
                7600.0
            ],
            [
                702.4536743164063,
                -198.73226928710938,
                7700.0
            ],
            [
                723.4885864257813,
                -201.3695831298828,
                7800.0
            ],
            [
                744.6737670898438,
                -204.00318908691406,
                7900.0
            ],
            [
                765.9959106445313,
                -206.63336181640625,
                8000.0
            ],
            [
                787.447509765625,
                -209.2601776123047,
                8100.0
            ],
            [
                809.0137939453125,
                -211.88397216796875,
                8200.0
            ],
            [
                830.6871948242188,
                -214.50494384765625,
                8300.0
            ],
            [
                852.4596557617188,
                -217.12326049804688,
                8400.0
            ],
            [
                874.3231201171875,
                -219.73916625976563,
                8500.0
            ],
            [
                896.2667236328125,
                -222.35296630859375,
                8600.0
            ],
            [
                918.2861938476563,
                -224.96478271484375,
                8700.0
            ],
            [
                940.3743896484375,
                -227.57485961914063,
                8800.0
            ],
            [
                962.5247192382813,
                -230.18333435058594,
                8900.0
            ],
            [
                984.7326049804688,
                -232.7903594970703,
                9000.0
            ],
            [
                1006.9926147460938,
                -235.39614868164063,
                9100.0
            ],
            [
                1029.2998046875,
                -238.00082397460938,
                9200.0
            ],
            [
                1051.6502685546875,
                -240.6045379638672,
                9300.0
            ],
            [
                1074.039794921875,
                -243.20742797851563,
                9400.0
            ],
            [
                1096.46484375,
                -245.8096160888672,
                9500.0
            ],
            [
                1118.922119140625,
                -248.4112091064453,
                9600.0
            ],
            [
                1141.4088134765625,
                -251.01229858398438,
                9700.0
            ],
            [
                1163.9219970703125,
                -253.6129608154297,
                9800.0
            ],
            [
                1186.459228515625,
                -256.2132873535156,
                9900.0
            ],
            [
                1209.0184326171875,
                -258.8133544921875,
                10000.0
            ],
            [
                1254.1947021484375,
                -264.0128173828125,
                10200.0
            ],
            [
                1299.4366455078125,
                -269.2117919921875,
                10400.0
            ],
            [
                1344.7318115234375,
                -274.4105224609375,
                10600.0
            ],
            [
                1390.072265625,
                -279.60919189453125,
                10800.0
            ],
            [
                1435.4476318359375,
                -284.8080139160156,
                11000.0
            ],
            [
                1480.8531494140625,
                -290.00701904296875,
                11200.0
            ],
            [
                1526.283935546875,
                -295.2062683105469,
                11400.0
            ],
            [
                1571.7333984375,
                -300.4058837890625,
                11600.0
            ],
            [
                1617.19873046875,
                -305.6058349609375,
                11800.0
            ],
            [
                1662.6763916015625,
                -310.80615234375,
                12000.0
            ],
            [
                1708.16650390625,
                -316.0066833496094,
                12200.0
            ],
            [
                1753.6646728515625,
                -321.2075500488281,
                12400.0
            ],
            [
                1799.167236328125,
                -326.40875244140625,
                12600.0
            ],
            [
                1844.6744384765625,
                -331.6101989746094,
                12800.0
            ],
            [
                1890.1873779296875,
                -336.811767578125,
                13000.0
            ],
            [
                1935.7042236328125,
                -342.01348876953125,
                13200.0
            ],
            [
                1981.222900390625,
                -347.21539306640625,
                13400.0
            ]
        ],
        "zFirstMeasurement": 434.2704
    }
]
