[
    {
        "E": 19879.043092078457,
        "chi2": 0.0,
        "ip": 0.019240552750147855,
        "ipchi2": 0.5315274467455945,
        "mass": 1868.95,
        "particleId": "D0",
        "pvx": 0.5532,
        "pvy": 0.1048,
        "pvz": 23.2389,
        "px": -1215.8,
        "py": 2823.58,
        "pz": 19550.77,
        "q": 0.0,
        "trajectory": [
            [
                0.5532000064849854,
                0.10480000078678131,
                23.23889923095703
            ],
            [
                0.5293999910354614,
                0.20829999446868896,
                23.886999130249023
            ]
        ],
        "zFirstMeasurement": -9999.0
    },
    {
        "E": 5184.463644887234,
        "chi2": 1.5063304901123047,
        "ip": 0.10381495440148636,
        "ipchi2": 11.037265774434001,
        "mass": 493.677,
        "particleId": "K-",
        "pvx": 0.5532,
        "pvy": 0.1048,
        "pvz": 23.2389,
        "px": -970.57,
        "py": 495.74,
        "pz": 5044.52,
        "q": -1.0,
        "trajectory": [
            [
                0.5298603773117065,
                0.19630321860313416,
                23.886999130249023
            ],
            [
                -0.4321399927139282,
                0.6876721382141113,
                28.886999130249023
            ],
            [
                -1.3941519260406494,
                1.1790410280227661,
                33.887001037597656
            ],
            [
                -2.356175661087036,
                1.6704100370407104,
                38.887001037597656
            ],
            [
                -3.318211078643799,
                2.1617791652679443,
                43.887001037597656
            ],
            [
                -4.280258655548096,
                2.6531481742858887,
                48.887001037597656
            ],
            [
                -5.242237091064453,
                3.144517421722412,
                53.887001037597656
            ],
            [
                -6.204308986663818,
                3.6358866691589355,
                58.887001037597656
            ],
            [
                -7.166392803192139,
                4.127255916595459,
                63.887001037597656
            ],
            [
                -8.128488540649414,
                4.618625164031982,
                68.88700103759766
            ],
            [
                -9.090597152709961,
                5.109994888305664,
                73.88700103759766
            ],
            [
                -10.052718162536621,
                5.6013641357421875,
                78.88700103759766
            ],
            [
                -11.014851570129395,
                6.092733860015869,
                83.88700103759766
            ],
            [
                -11.976998329162598,
                6.584103584289551,
                88.88700103759766
            ],
            [
                -12.939157485961914,
                7.075473308563232,
                93.88700103759766
            ],
            [
                -13.901330947875977,
                7.566843509674072,
                98.88700103759766
            ],
            [
                -14.863516807556152,
                8.058213233947754,
                103.88700103759766
            ],
            [
                -18.712400436401367,
                10.02369499206543,
                123.88700103759766
            ],
            [
                -22.561519622802734,
                11.989178657531738,
                143.88699340820313
            ],
            [
                -26.410886764526367,
                13.954665184020996,
                163.88699340820313
            ],
            [
                -30.260406494140625,
                15.920150756835938,
                183.88699340820313
            ],
            [
                -34.1102409362793,
                17.88564109802246,
                203.88699340820313
            ],
            [
                -37.96033477783203,
                19.85113525390625,
                223.88699340820313
            ],
            [
                -41.81070327758789,
                21.816633224487305,
                243.88699340820313
            ],
            [
                -45.661354064941406,
                23.782135009765625,
                263.8869934082031
            ],
            [
                -49.51230239868164,
                25.74764060974121,
                283.8869934082031
            ],
            [
                -53.363555908203125,
                27.713150024414063,
                303.8869934082031
            ],
            [
                -57.21512985229492,
                29.678665161132813,
                323.8869934082031
            ],
            [
                -61.06703186035156,
                31.64418601989746,
                343.8869934082031
            ],
            [
                -64.91926574707031,
                33.609710693359375,
                363.8869934082031
            ],
            [
                -68.7718505859375,
                35.57524490356445,
                383.8869934082031
            ],
            [
                -72.62479400634766,
                37.54078674316406,
                403.8869934082031
            ],
            [
                -76.47811889648438,
                39.50633239746094,
                423.8869934082031
            ],
            [
                -80.33182525634766,
                41.471885681152344,
                443.8869934082031
            ],
            [
                -84.1859359741211,
                43.43745040893555,
                463.8869934082031
            ],
            [
                -88.04046630859375,
                45.40302276611328,
                483.8869934082031
            ],
            [
                -91.89543914794922,
                47.36860656738281,
                503.8869934082031
            ],
            [
                -95.75086975097656,
                49.33420181274414,
                523.8870239257813
            ],
            [
                -99.60675048828125,
                51.299808502197266,
                543.8870239257813
            ],
            [
                -103.46309661865234,
                53.26542663574219,
                563.8870239257813
            ],
            [
                -107.31991577148438,
                55.231056213378906,
                583.8870239257813
            ],
            [
                -111.1772232055664,
                57.19669723510742,
                603.8870239257813
            ],
            [
                -115.03512573242188,
                59.1623420715332,
                623.8870239257813
            ],
            [
                -118.89363098144531,
                61.12799835205078,
                643.8870239257813
            ],
            [
                -122.752685546875,
                63.093666076660156,
                663.8870239257813
            ],
            [
                -126.6123046875,
                65.0593490600586,
                683.8870239257813
            ],
            [
                -130.47250366210938,
                67.02503967285156,
                703.8870239257813
            ],
            [
                -134.33323669433594,
                68.99073028564453,
                723.8870239257813
            ],
            [
                -138.194580078125,
                70.95642852783203,
                743.8870239257813
            ],
            [
                -142.0565185546875,
                72.9221420288086,
                763.8870239257813
            ],
            [
                -145.9191131591797,
                74.88786315917969,
                783.8870239257813
            ],
            [
                -149.78253173828125,
                76.85360717773438,
                803.8870239257813
            ],
            [
                -153.64663696289063,
                78.81936645507813,
                823.8870239257813
            ],
            [
                -157.51148986816406,
                80.78514099121094,
                843.8870239257813
            ],
            [
                -161.37705993652344,
                82.75092315673828,
                863.8870239257813
            ],
            [
                -165.24337768554688,
                84.71672058105469,
                883.8870239257813
            ],
            [
                -169.1104278564453,
                86.68252563476563,
                903.8870239257813
            ],
            [
                -172.97813415527344,
                88.64836120605469,
                923.8870239257813
            ],
            [
                -176.84661865234375,
                90.61421203613281,
                943.8870239257813
            ],
            [
                -180.7161407470703,
                92.57998657226563,
                963.8870239257813
            ],
            [
                -184.5865478515625,
                94.54574584960938,
                983.8870239257813
            ],
            [
                -188.45774841308594,
                96.51152038574219,
                1003.8870239257813
            ],
            [
                -207.83102416992188,
                106.34008026123047,
                1103.886962890625
            ],
            [
                -227.2240447998047,
                116.16808319091797,
                1203.886962890625
            ],
            [
                -246.6400604248047,
                125.99541473388672,
                1303.886962890625
            ],
            [
                -266.07879638671875,
                135.82205200195313,
                1403.886962890625
            ],
            [
                -285.54083251953125,
                145.64817810058594,
                1503.886962890625
            ],
            [
                -305.01885986328125,
                155.47389221191406,
                1603.886962890625
            ],
            [
                -324.5215759277344,
                165.30015563964844,
                1703.886962890625
            ],
            [
                -344.0467834472656,
                175.126953125,
                1803.886962890625
            ],
            [
                -363.59954833984375,
                184.95458984375,
                1903.886962890625
            ],
            [
                -383.1813659667969,
                194.78407287597656,
                2003.886962890625
            ],
            [
                -402.8106384277344,
                204.61680603027344,
                2103.886962890625
            ],
            [
                -422.4745788574219,
                214.45254516601563,
                2203.886962890625
            ],
            [
                -442.1728820800781,
                224.294677734375,
                2303.886962890625
            ],
            [
                -461.9341735839844,
                234.14405822753906,
                2403.886962890625
            ],
            [
                -481.7655029296875,
                244.0047149658203,
                2503.886962890625
            ],
            [
                -501.6871643066406,
                253.8783416748047,
                2603.886962890625
            ],
            [
                -521.7061157226563,
                263.76654052734375,
                2703.886962890625
            ],
            [
                -541.8489990234375,
                273.6728210449219,
                2803.886962890625
            ],
            [
                -562.1406860351563,
                283.60009765625,
                2903.886962890625
            ],
            [
                -582.5994873046875,
                293.55340576171875,
                3003.886962890625
            ],
            [
                -603.2875366210938,
                303.5334167480469,
                3103.886962890625
            ],
            [
                -624.1934814453125,
                313.54693603515625,
                3203.886962890625
            ],
            [
                -645.3565673828125,
                323.5986022949219,
                3303.886962890625
            ],
            [
                -666.843994140625,
                333.6891174316406,
                3403.886962890625
            ],
            [
                -688.6873168945313,
                343.82427978515625,
                3503.886962890625
            ],
            [
                -710.8937377929688,
                354.00750732421875,
                3603.886962890625
            ],
            [
                -733.5543212890625,
                364.2373046875,
                3703.886962890625
            ],
            [
                -756.67919921875,
                374.513916015625,
                3803.886962890625
            ],
            [
                -780.3477172851563,
                384.8438720703125,
                3903.886962890625
            ],
            [
                -804.5734252929688,
                395.2210693359375,
                4003.886962890625
            ],
            [
                -829.3990478515625,
                405.64056396484375,
                4103.88720703125
            ],
            [
                -854.8658447265625,
                416.1061096191406,
                4203.88720703125
            ],
            [
                -881.01123046875,
                426.6072998046875,
                4303.88720703125
            ],
            [
                -907.853515625,
                437.1523132324219,
                4403.88720703125
            ],
            [
                -935.330078125,
                447.7289733886719,
                4503.88720703125
            ],
            [
                -963.573486328125,
                458.3234558105469,
                4603.88720703125
            ],
            [
                -992.4776000976563,
                468.94171142578125,
                4703.88720703125
            ],
            [
                -1026.501708984375,
                479.4884338378906,
                4803.88720703125
            ],
            [
                -1057.034912109375,
                490.11181640625,
                4903.88720703125
            ],
            [
                -1088.26171875,
                500.7488708496094,
                5003.88720703125
            ],
            [
                -1120.2598876953125,
                511.40313720703125,
                5103.88720703125
            ],
            [
                -1152.964599609375,
                522.0388793945313,
                5203.88720703125
            ],
            [
                -1186.38818359375,
                532.7051391601563,
                5303.88720703125
            ],
            [
                -1220.5169677734375,
                543.3680419921875,
                5403.88720703125
            ],
            [
                -1255.3387451171875,
                554.05078125,
                5503.88720703125
            ],
            [
                -1290.8497314453125,
                564.7393798828125,
                5603.88720703125
            ],
            [
                -1327.0572509765625,
                575.40673828125,
                5703.88720703125
            ],
            [
                -1363.957763671875,
                586.0802001953125,
                5803.88720703125
            ],
            [
                -1401.482421875,
                596.7559814453125,
                5903.88720703125
            ],
            [
                -1439.70751953125,
                607.4165649414063,
                6003.88720703125
            ],
            [
                -1478.5604248046875,
                618.0637817382813,
                6103.88720703125
            ],
            [
                -1518.0360107421875,
                628.6954956054688,
                6203.88720703125
            ],
            [
                -1558.1226806640625,
                639.3201293945313,
                6303.88720703125
            ],
            [
                -1598.797119140625,
                649.9295654296875,
                6403.88720703125
            ],
            [
                -1640.0435791015625,
                660.5186767578125,
                6503.88720703125
            ],
            [
                -1681.854248046875,
                671.0789794921875,
                6603.88720703125
            ],
            [
                -1724.1937255859375,
                681.6090087890625,
                6703.88720703125
            ],
            [
                -1767.015380859375,
                692.116943359375,
                6803.88720703125
            ],
            [
                -1810.3349609375,
                702.5830688476563,
                6903.88720703125
            ],
            [
                -1854.0968017578125,
                713.0161743164063,
                7003.88720703125
            ],
            [
                -1898.2655029296875,
                723.419921875,
                7103.88720703125
            ],
            [
                -1942.814453125,
                733.7920532226563,
                7203.88720703125
            ],
            [
                -1987.7093505859375,
                744.1369018554688,
                7303.88720703125
            ],
            [
                -2032.938232421875,
                754.4495849609375,
                7403.88720703125
            ],
            [
                -2078.437255859375,
                764.7423095703125,
                7503.88720703125
            ],
            [
                -2124.216552734375,
                775.0022583007813,
                7603.88720703125
            ],
            [
                -2170.22216796875,
                785.244873046875,
                7703.88720703125
            ],
            [
                -2216.440185546875,
                795.4727172851563,
                7803.88720703125
            ],
            [
                -2262.843017578125,
                805.6884765625,
                7903.88720703125
            ],
            [
                -2309.406982421875,
                815.8960571289063,
                8003.88720703125
            ],
            [
                -2356.117431640625,
                826.0988159179688,
                8103.88720703125
            ],
            [
                -2402.951904296875,
                836.2987060546875,
                8203.88671875
            ],
            [
                -2449.897216796875,
                846.4983520507813,
                8303.88671875
            ],
            [
                -2496.941650390625,
                856.6990966796875,
                8403.88671875
            ],
            [
                -2544.071044921875,
                866.9046020507813,
                8503.88671875
            ],
            [
                -2591.275146484375,
                877.1121826171875,
                8603.88671875
            ],
            [
                -2638.5458984375,
                887.3247680664063,
                8703.88671875
            ],
            [
                -2685.875244140625,
                897.5420532226563,
                8803.88671875
            ],
            [
                -2733.256103515625,
                907.7645263671875,
                8903.88671875
            ],
            [
                -2780.68359375,
                917.9923706054688,
                9003.88671875
            ],
            [
                -2828.15087890625,
                928.2261962890625,
                9103.88671875
            ],
            [
                -2875.653564453125,
                938.4658203125,
                9203.88671875
            ],
            [
                -2923.1875,
                948.7112426757813,
                9303.88671875
            ],
            [
                -2970.748779296875,
                958.9622192382813,
                9403.88671875
            ],
            [
                -3018.334228515625,
                969.2183837890625,
                9503.88671875
            ],
            [
                -3065.94140625,
                979.4794921875,
                9603.88671875
            ],
            [
                -3113.5673828125,
                989.7452392578125,
                9703.88671875
            ],
            [
                -3161.210205078125,
                1000.0153198242188,
                9803.88671875
            ],
            [
                -3208.867919921875,
                1010.2893676757813,
                9903.88671875
            ],
            [
                -3256.5390625,
                1020.5671997070313,
                10003.88671875
            ],
            [
                -3351.914794921875,
                1041.1331787109375,
                10203.88671875
            ],
            [
                -3447.327880859375,
                1061.711181640625,
                10403.88671875
            ],
            [
                -3542.77001953125,
                1082.3001708984375,
                10603.88671875
            ],
            [
                -3638.23681640625,
                1102.8995361328125,
                10803.88671875
            ],
            [
                -3733.717529296875,
                1123.5057373046875,
                11003.88671875
            ],
            [
                -3829.211669921875,
                1144.1187744140625,
                11203.88671875
            ],
            [
                -3924.7158203125,
                1164.7386474609375,
                11403.88671875
            ],
            [
                -4020.233642578125,
                1185.366943359375,
                11603.88671875
            ],
            [
                -4115.74853515625,
                1205.995849609375,
                11803.88671875
            ],
            [
                -4211.26806640625,
                1226.629638671875,
                12003.88671875
            ],
            [
                -4306.78271484375,
                1247.257568359375,
                12203.88671875
            ],
            [
                -4402.3076171875,
                1267.899169921875,
                12403.88671875
            ],
            [
                -4497.82958984375,
                1288.5294189453125,
                12603.88671875
            ],
            [
                -4593.34130859375,
                1309.154052734375,
                12803.88671875
            ],
            [
                -4688.87255859375,
                1329.8023681640625,
                13003.88671875
            ],
            [
                -4784.3818359375,
                1350.4241943359375,
                13203.88671875
            ],
            [
                -4879.9150390625,
                1371.07666015625,
                13403.88671875
            ]
        ],
        "zFirstMeasurement": 79.5152
    },
    {
        "E": 14694.46548994543,
        "chi2": 0.9810875058174133,
        "ip": 0.019137894674388842,
        "ipchi2": 0.38853145427724334,
        "mass": 139.57,
        "particleId": "pi+",
        "pvx": 0.5532,
        "pvy": 0.1048,
        "pvz": 23.2389,
        "px": -244.73,
        "py": 2327.62,
        "pz": 14506.21,
        "q": 1.0,
        "trajectory": [
            [
                0.524297297000885,
                0.21551764011383057,
                23.886999130249023
            ],
            [
                0.43994787335395813,
                1.0178008079528809,
                28.886999130249023
            ],
            [
                0.35560235381126404,
                1.8200839757919312,
                33.887001037597656
            ],
            [
                0.2712608277797699,
                2.6223671436309814,
                38.887001037597656
            ],
            [
                0.1869233399629593,
                3.424650192260742,
                43.887001037597656
            ],
            [
                0.1025899350643158,
                4.226933002471924,
                48.887001037597656
            ],
            [
                0.018277563154697418,
                5.029187202453613,
                53.887001037597656
            ],
            [
                -0.06604772061109543,
                5.831470012664795,
                58.887001037597656
            ],
            [
                -0.15036895871162415,
                6.633752822875977,
                63.887001037597656
            ],
            [
                -0.23468607664108276,
                7.436035633087158,
                68.88700103759766
            ],
            [
                -0.3189990222454071,
                8.23831844329834,
                73.88700103759766
            ],
            [
                -0.4033077657222748,
                9.040600776672363,
                78.88700103759766
            ],
            [
                -0.48761218786239624,
                9.842884063720703,
                83.88700103759766
            ],
            [
                -0.5719122886657715,
                10.645166397094727,
                88.88700103759766
            ],
            [
                -0.6562079191207886,
                11.44744873046875,
                93.88700103759766
            ],
            [
                -0.7404991388320923,
                12.249731063842773,
                98.88700103759766
            ],
            [
                -0.8247858285903931,
                13.052013397216797,
                103.88700103759766
            ],
            [
                -1.1618858575820923,
                16.26114273071289,
                123.88700103759766
            ],
            [
                -1.4989068508148193,
                19.47027015686035,
                143.88699340820313
            ],
            [
                -1.8358442783355713,
                22.679397583007813,
                163.88699340820313
            ],
            [
                -2.1727294921875,
                25.888525009155273,
                183.88699340820313
            ],
            [
                -2.5095107555389404,
                29.0976505279541,
                203.88699340820313
            ],
            [
                -2.846203327178955,
                32.3067741394043,
                223.88699340820313
            ],
            [
                -3.182804584503174,
                35.515899658203125,
                243.88699340820313
            ],
            [
                -3.51931095123291,
                38.72502136230469,
                263.8869934082031
            ],
            [
                -3.8557190895080566,
                41.93414306640625,
                283.8869934082031
            ],
            [
                -4.192023754119873,
                45.14326477050781,
                303.8869934082031
            ],
            [
                -4.52822208404541,
                48.35238265991211,
                323.8869934082031
            ],
            [
                -4.864311695098877,
                51.56150436401367,
                343.8869934082031
            ],
            [
                -5.200289249420166,
                54.77062225341797,
                363.8869934082031
            ],
            [
                -5.53615140914917,
                57.979740142822266,
                383.8869934082031
            ],
            [
                -5.871893882751465,
                61.1888542175293,
                403.8869934082031
            ],
            [
                -6.207509994506836,
                64.3979721069336,
                423.8869934082031
            ],
            [
                -6.542999267578125,
                67.60708618164063,
                443.8869934082031
            ],
            [
                -6.878353118896484,
                70.81620025634766,
                463.8869934082031
            ],
            [
                -7.2135701179504395,
                74.02530670166016,
                483.8869934082031
            ],
            [
                -7.548638343811035,
                77.23442077636719,
                503.8869934082031
            ],
            [
                -7.883559703826904,
                80.44352722167969,
                523.8870239257813
            ],
            [
                -8.21833324432373,
                83.65264129638672,
                543.8870239257813
            ],
            [
                -8.552955627441406,
                86.86174774169922,
                563.8870239257813
            ],
            [
                -8.887423515319824,
                90.07085418701172,
                583.8870239257813
            ],
            [
                -9.221731185913086,
                93.27996063232422,
                603.8870239257813
            ],
            [
                -9.555840492248535,
                96.48906707763672,
                623.8870239257813
            ],
            [
                -9.889750480651855,
                99.69816589355469,
                643.8870239257813
            ],
            [
                -10.223481178283691,
                102.90727233886719,
                663.8870239257813
            ],
            [
                -10.557027816772461,
                106.11637115478516,
                683.8870239257813
            ],
            [
                -10.890386581420898,
                109.32546997070313,
                703.8870239257813
            ],
            [
                -11.223552703857422,
                112.5345687866211,
                723.8870239257813
            ],
            [
                -11.556522369384766,
                115.74366760253906,
                743.8870239257813
            ],
            [
                -11.889289855957031,
                118.9527587890625,
                763.8870239257813
            ],
            [
                -12.221846580505371,
                122.16185760498047,
                783.8870239257813
            ],
            [
                -12.554159164428711,
                125.3709487915039,
                803.8870239257813
            ],
            [
                -12.88624382019043,
                128.58004760742188,
                823.8870239257813
            ],
            [
                -13.21808910369873,
                131.7891387939453,
                843.8870239257813
            ],
            [
                -13.549705505371094,
                134.9982452392578,
                863.8870239257813
            ],
            [
                -13.881088256835938,
                138.20733642578125,
                883.8870239257813
            ],
            [
                -14.21224308013916,
                141.4164276123047,
                903.8870239257813
            ],
            [
                -14.543196678161621,
                144.62551879882813,
                923.8870239257813
            ],
            [
                -14.873908996582031,
                147.83460998535156,
                943.8870239257813
            ],
            [
                -15.204272270202637,
                151.043701171875,
                963.8870239257813
            ],
            [
                -15.534355163574219,
                154.25279235839844,
                983.8870239257813
            ],
            [
                -15.864192962646484,
                157.46188354492188,
                1003.8870239257813
            ],
            [
                -17.50782012939453,
                173.50735473632813,
                1103.886962890625
            ],
            [
                -19.14488983154297,
                189.5528564453125,
                1203.886962890625
            ],
            [
                -20.774560928344727,
                205.59841918945313,
                1303.886962890625
            ],
            [
                -22.397024154663086,
                221.6439666748047,
                1403.886962890625
            ],
            [
                -24.012306213378906,
                237.68951416015625,
                1503.886962890625
            ],
            [
                -25.622512817382813,
                253.7351531982422,
                1603.886962890625
            ],
            [
                -27.225622177124023,
                269.7807922363281,
                1703.886962890625
            ],
            [
                -28.82219886779785,
                285.826416015625,
                1803.886962890625
            ],
            [
                -30.41094207763672,
                301.8719482421875,
                1903.886962890625
            ],
            [
                -31.992534637451172,
                317.91729736328125,
                2003.886962890625
            ],
            [
                -33.561309814453125,
                333.9623107910156,
                2103.886962890625
            ],
            [
                -35.12125778198242,
                350.0072021484375,
                2203.886962890625
            ],
            [
                -36.6734733581543,
                366.0518493652344,
                2303.886962890625
            ],
            [
                -38.20926284790039,
                382.09619140625,
                2403.886962890625
            ],
            [
                -39.72748947143555,
                398.14007568359375,
                2503.886962890625
            ],
            [
                -41.22224044799805,
                414.18341064453125,
                2603.886962890625
            ],
            [
                -42.69077682495117,
                430.2260437011719,
                2703.886962890625
            ],
            [
                -44.12371826171875,
                446.26788330078125,
                2803.886962890625
            ],
            [
                -45.51521301269531,
                462.3089599609375,
                2903.886962890625
            ],
            [
                -46.861778259277344,
                478.34869384765625,
                3003.886962890625
            ],
            [
                -48.14116668701172,
                494.3868713378906,
                3103.886962890625
            ],
            [
                -49.35618591308594,
                510.4244384765625,
                3203.886962890625
            ],
            [
                -50.49439239501953,
                526.4603271484375,
                3303.886962890625
            ],
            [
                -51.53600311279297,
                542.4953002929688,
                3403.886962890625
            ],
            [
                -52.47008514404297,
                558.5292358398438,
                3503.886962890625
            ],
            [
                -53.28650665283203,
                574.5607299804688,
                3603.886962890625
            ],
            [
                -53.94991683959961,
                590.5910034179688,
                3703.886962890625
            ],
            [
                -54.455814361572266,
                606.6206665039063,
                3803.886962890625
            ],
            [
                -54.77943420410156,
                622.64892578125,
                3903.886962890625
            ],
            [
                -54.9050407409668,
                638.6766357421875,
                4003.886962890625
            ],
            [
                -54.828208923339844,
                654.7042236328125,
                4103.88720703125
            ],
            [
                -54.51228332519531,
                670.7318115234375,
                4203.88720703125
            ],
            [
                -53.96369934082031,
                686.7618408203125,
                4303.88720703125
            ],
            [
                -53.180328369140625,
                702.792236328125,
                4403.88720703125
            ],
            [
                -52.161293029785156,
                718.822021484375,
                4503.88720703125
            ],
            [
                -50.87514114379883,
                734.8532104492188,
                4603.88720703125
            ],
            [
                -49.37027359008789,
                750.886474609375,
                4703.88720703125
            ],
            [
                -44.734291076660156,
                766.9178466796875,
                4803.88720703125
            ],
            [
                -42.640743255615234,
                782.960693359375,
                4903.88720703125
            ],
            [
                -40.32148361206055,
                799.0032348632813,
                5003.88720703125
            ],
            [
                -37.7575798034668,
                815.0477905273438,
                5103.88720703125
            ],
            [
                -34.98197555541992,
                831.0941772460938,
                5203.88720703125
            ],
            [
                -31.97844696044922,
                847.141357421875,
                5303.88720703125
            ],
            [
                -28.755207061767578,
                863.1907348632813,
                5403.88720703125
            ],
            [
                -25.313919067382813,
                879.2371826171875,
                5503.88720703125
            ],
            [
                -21.659624099731445,
                895.2876586914063,
                5603.88720703125
            ],
            [
                -17.797542572021484,
                911.339111328125,
                5703.88720703125
            ],
            [
                -13.710904121398926,
                927.3904418945313,
                5803.88720703125
            ],
            [
                -9.432942390441895,
                943.4403686523438,
                5903.88720703125
            ],
            [
                -4.941259860992432,
                959.4910278320313,
                6003.88720703125
            ],
            [
                -0.2620430588722229,
                975.542236328125,
                6103.88720703125
            ],
            [
                4.608795166015625,
                991.593017578125,
                6203.88720703125
            ],
            [
                9.671680450439453,
                1007.6425170898438,
                6303.88720703125
            ],
            [
                14.921113014221191,
                1023.691162109375,
                6403.88720703125
            ],
            [
                20.346948623657227,
                1039.73828125,
                6503.88720703125
            ],
            [
                25.95002555847168,
                1055.78369140625,
                6603.88720703125
            ],
            [
                31.71683692932129,
                1071.826904296875,
                6703.88720703125
            ],
            [
                37.63495635986328,
                1087.867431640625,
                6803.88720703125
            ],
            [
                43.70326614379883,
                1103.9049072265625,
                6903.88720703125
            ],
            [
                49.903018951416016,
                1119.93896484375,
                7003.88720703125
            ],
            [
                56.2226676940918,
                1135.9693603515625,
                7103.88720703125
            ],
            [
                62.653133392333984,
                1151.9962158203125,
                7203.88720703125
            ],
            [
                69.18030548095703,
                1168.019287109375,
                7303.88720703125
            ],
            [
                75.79940795898438,
                1184.03857421875,
                7403.88720703125
            ],
            [
                82.4933853149414,
                1200.0545654296875,
                7503.88720703125
            ],
            [
                89.25885772705078,
                1216.0667724609375,
                7603.88720703125
            ],
            [
                96.08365631103516,
                1232.07568359375,
                7703.88720703125
            ],
            [
                102.96312713623047,
                1248.081298828125,
                7803.88720703125
            ],
            [
                109.88954162597656,
                1264.083984375,
                7903.88720703125
            ],
            [
                116.85722351074219,
                1280.0838623046875,
                8003.88720703125
            ],
            [
                123.8622817993164,
                1296.0811767578125,
                8103.88720703125
            ],
            [
                130.89901733398438,
                1312.076171875,
                8203.88671875
            ],
            [
                137.96412658691406,
                1328.0689697265625,
                8303.88671875
            ],
            [
                145.05459594726563,
                1344.0599365234375,
                8403.88671875
            ],
            [
                152.16766357421875,
                1360.0491943359375,
                8503.88671875
            ],
            [
                159.300048828125,
                1376.036865234375,
                8603.88671875
            ],
            [
                166.450439453125,
                1392.0230712890625,
                8703.88671875
            ],
            [
                173.6167449951172,
                1408.0081787109375,
                8803.88671875
            ],
            [
                180.7974090576172,
                1423.9921875,
                8903.88671875
            ],
            [
                187.99105834960938,
                1439.9752197265625,
                9003.88671875
            ],
            [
                195.1963653564453,
                1455.9573974609375,
                9103.88671875
            ],
            [
                202.412109375,
                1471.93896484375,
                9203.88671875
            ],
            [
                209.63729858398438,
                1487.9197998046875,
                9303.88671875
            ],
            [
                216.87100219726563,
                1503.9002685546875,
                9403.88671875
            ],
            [
                224.1123504638672,
                1519.880126953125,
                9503.88671875
            ],
            [
                231.36062622070313,
                1535.859619140625,
                9603.88671875
            ],
            [
                238.6151580810547,
                1551.8388671875,
                9703.88671875
            ],
            [
                245.87535095214844,
                1567.8177490234375,
                9803.88671875
            ],
            [
                253.140625,
                1583.79638671875,
                9903.88671875
            ],
            [
                260.4105529785156,
                1599.77490234375,
                10003.88671875
            ],
            [
                274.9626159667969,
                1631.7314453125,
                10203.88671875
            ],
            [
                289.52850341796875,
                1663.6875,
                10403.88671875
            ],
            [
                304.1055908203125,
                1695.643310546875,
                10603.88671875
            ],
            [
                318.6921081542969,
                1727.598876953125,
                10803.88671875
            ],
            [
                333.28607177734375,
                1759.5545654296875,
                11003.88671875
            ],
            [
                347.88629150390625,
                1791.51025390625,
                11203.88671875
            ],
            [
                362.4917297363281,
                1823.4659423828125,
                11403.88671875
            ],
            [
                377.10101318359375,
                1855.4217529296875,
                11603.88671875
            ],
            [
                391.713623046875,
                1887.377685546875,
                11803.88671875
            ],
            [
                406.3288269042969,
                1919.333740234375,
                12003.88671875
            ],
            [
                420.9464111328125,
                1951.289794921875,
                12203.88671875
            ],
            [
                435.56561279296875,
                1983.2459716796875,
                12403.88671875
            ],
            [
                450.1856994628906,
                2015.202392578125,
                12603.88671875
            ],
            [
                464.8067932128906,
                2047.158935546875,
                12803.88671875
            ],
            [
                479.4289245605469,
                2079.115478515625,
                13003.88671875
            ],
            [
                494.0516662597656,
                2111.072021484375,
                13203.88671875
            ],
            [
                508.6747131347656,
                2143.028564453125,
                13403.88671875
            ]
        ],
        "zFirstMeasurement": 79.5152
    },
    {
        "E": 9927.301172904205,
        "chi2": 0.962288498878479,
        "ip": 0.22223321497209944,
        "ipchi2": 7.432573583651446,
        "mass": 139.57018,
        "particleId": "pi+",
        "pvx": 0.5532,
        "pvy": 0.1048,
        "pvz": 23.2389,
        "px": 205.8690371285435,
        "py": -305.16513563606645,
        "pz": 9919.491968943972,
        "q": 1.0,
        "trajectory": [
            [
                -2.178166151046753,
                4.033115863800049,
                -100.0
            ],
            [
                -2.0745110511779785,
                3.8792974948883057,
                -95.0
            ],
            [
                -1.9708516597747803,
                3.7254786491394043,
                -90.0
            ],
            [
                -1.8671880960464478,
                3.571659803390503,
                -85.0
            ],
            [
                -1.7635202407836914,
                3.4178409576416016,
                -80.0
            ],
            [
                -1.6598812341690063,
                3.264021635055542,
                -75.0
            ],
            [
                -1.5561997890472412,
                3.1102025508880615,
                -70.0
            ],
            [
                -1.4525142908096313,
                2.956383466720581,
                -65.0
            ],
            [
                -1.3488248586654663,
                2.8025641441345215,
                -60.0
            ],
            [
                -1.2451311349868774,
                2.648744583129883,
                -55.0
            ],
            [
                -1.1414333581924438,
                2.494925022125244,
                -50.0
            ],
            [
                -1.0377311706542969,
                2.3411054611206055,
                -45.0
            ],
            [
                -0.9340246915817261,
                2.1872856616973877,
                -40.0
            ],
            [
                -0.8303137421607971,
                2.03346586227417,
                -35.0
            ],
            [
                -0.7265982627868652,
                1.8796460628509521,
                -30.0
            ],
            [
                -0.6228781938552856,
                1.7258260250091553,
                -25.0
            ],
            [
                -0.519153356552124,
                1.5720058679580688,
                -20.0
            ],
            [
                -0.41542375087738037,
                1.4181857109069824,
                -15.0
            ],
            [
                -0.3116893470287323,
                1.2643654346466064,
                -10.0
            ],
            [
                -0.20795008540153503,
                1.110545039176941,
                -5.0
            ],
            [
                -0.10420586168766022,
                0.9567245244979858,
                0.0
            ],
            [
                -0.0004565985291264951,
                0.802903950214386,
                5.0
            ],
            [
                0.10329780727624893,
                0.6490832567214966,
                10.0
            ],
            [
                0.20705744624137878,
                0.4952625036239624,
                15.0
            ],
            [
                0.31082239747047424,
                0.34144163131713867,
                20.0
            ],
            [
                0.41459277272224426,
                0.18762068450450897,
                25.0
            ],
            [
                0.518368661403656,
                0.033799633383750916,
                30.0
            ],
            [
                0.6221501231193542,
                -0.1200215145945549,
                35.0
            ],
            [
                0.7259373068809509,
                -0.2738427519798279,
                40.0
            ],
            [
                0.8297302722930908,
                -0.4276641011238098,
                45.0
            ],
            [
                0.9335290789604187,
                -0.5814855098724365,
                50.0
            ],
            [
                1.0373338460922241,
                -0.7353070378303528,
                55.0
            ],
            [
                1.1411447525024414,
                -0.8891286849975586,
                60.0
            ],
            [
                1.2449617385864258,
                -1.0429503917694092,
                65.0
            ],
            [
                1.3487850427627563,
                -1.1967722177505493,
                70.0
            ],
            [
                1.4526145458221436,
                -1.350594162940979,
                75.0
            ],
            [
                1.556450605392456,
                -1.5044161081314087,
                80.0
            ],
            [
                1.6602931022644043,
                -1.658238172531128,
                85.0
            ],
            [
                1.7641421556472778,
                -1.8120603561401367,
                90.0
            ],
            [
                1.8679980039596558,
                -1.965882658958435,
                95.0
            ],
            [
                1.971860647201538,
                -2.1197052001953125,
                100.0
            ],
            [
                2.387380838394165,
                -2.7349956035614014,
                120.0
            ],
            [
                2.8029513359069824,
                -3.350287437438965,
                140.0
            ],
            [
                3.2187371253967285,
                -3.9655137062072754,
                160.0
            ],
            [
                3.634528875350952,
                -4.580808639526367,
                180.0
            ],
            [
                4.050512790679932,
                -5.196105003356934,
                200.0
            ],
            [
                4.46661376953125,
                -5.811402797698975,
                220.0
            ],
            [
                4.882840156555176,
                -6.426702499389648,
                240.0
            ],
            [
                5.299199104309082,
                -7.042003154754639,
                260.0
            ],
            [
                5.715699672698975,
                -7.6573052406311035,
                280.0
            ],
            [
                6.132349014282227,
                -8.272608757019043,
                300.0
            ],
            [
                6.5491557121276855,
                -8.887913703918457,
                320.0
            ],
            [
                6.966128826141357,
                -9.503219604492188,
                340.0
            ],
            [
                7.38327693939209,
                -10.118526458740234,
                360.0
            ],
            [
                7.800538539886475,
                -10.733835220336914,
                380.0
            ],
            [
                8.21801471710205,
                -11.34914493560791,
                400.0
            ],
            [
                8.635674476623535,
                -11.964456558227539,
                420.0
            ],
            [
                9.053524017333984,
                -12.579768180847168,
                440.0
            ],
            [
                9.471570014953613,
                -13.19508171081543,
                460.0
            ],
            [
                9.889816284179688,
                -13.810396194458008,
                480.0
            ],
            [
                10.30827808380127,
                -14.425710678100586,
                500.0
            ],
            [
                10.726962089538574,
                -15.041027069091797,
                520.0
            ],
            [
                11.14587116241455,
                -15.656344413757324,
                540.0
            ],
            [
                11.565011024475098,
                -16.271663665771484,
                560.0
            ],
            [
                11.98438835144043,
                -16.886981964111328,
                580.0
            ],
            [
                12.404009819030762,
                -17.502302169799805,
                600.0
            ],
            [
                12.82388687133789,
                -18.11762237548828,
                620.0
            ],
            [
                13.244023323059082,
                -18.732942581176758,
                640.0
            ],
            [
                13.664440155029297,
                -19.348264694213867,
                660.0
            ],
            [
                14.08515453338623,
                -19.963584899902344,
                680.0
            ],
            [
                14.506168365478516,
                -20.578907012939453,
                700.0
            ],
            [
                14.927498817443848,
                -21.194231033325195,
                720.0
            ],
            [
                15.349137306213379,
                -21.809555053710938,
                740.0
            ],
            [
                15.771090507507324,
                -22.42487907409668,
                760.0
            ],
            [
                16.19336700439453,
                -23.040205001831055,
                780.0
            ],
            [
                16.61597442626953,
                -23.655529022216797,
                800.0
            ],
            [
                17.038921356201172,
                -24.27085304260254,
                820.0
            ],
            [
                17.46225929260254,
                -24.886171340942383,
                840.0
            ],
            [
                17.885957717895508,
                -25.50148582458496,
                860.0
            ],
            [
                18.31002426147461,
                -26.11680030822754,
                880.0
            ],
            [
                18.734466552734375,
                -26.732112884521484,
                900.0
            ],
            [
                19.159263610839844,
                -27.347423553466797,
                920.0
            ],
            [
                19.584449768066406,
                -27.962732315063477,
                940.0
            ],
            [
                20.010032653808594,
                -28.578039169311523,
                960.0
            ],
            [
                20.436019897460938,
                -29.193344116210938,
                980.0
            ],
            [
                20.862346649169922,
                -29.808658599853516,
                1000.0
            ],
            [
                23.000293731689453,
                -32.885231018066406,
                1100.0
            ],
            [
                25.14927101135254,
                -35.9617919921875,
                1200.0
            ],
            [
                27.31068992614746,
                -39.03812789916992,
                1300.0
            ],
            [
                29.481679916381836,
                -42.11457061767578,
                1400.0
            ],
            [
                31.66253662109375,
                -45.190948486328125,
                1500.0
            ],
            [
                33.85456085205078,
                -48.267303466796875,
                1600.0
            ],
            [
                36.05931091308594,
                -51.3436164855957,
                1700.0
            ],
            [
                38.27346420288086,
                -54.42001724243164,
                1800.0
            ],
            [
                40.50403594970703,
                -57.496402740478516,
                1900.0
            ],
            [
                42.74937438964844,
                -60.57279968261719,
                2000.0
            ],
            [
                45.013607025146484,
                -63.64923095703125,
                2100.0
            ],
            [
                47.29886245727539,
                -66.72569274902344,
                2200.0
            ],
            [
                49.61652755737305,
                -69.80162811279297,
                2300.0
            ],
            [
                51.96231460571289,
                -72.8779525756836,
                2400.0
            ],
            [
                54.34922409057617,
                -75.95445251464844,
                2500.0
            ],
            [
                56.783058166503906,
                -79.031005859375,
                2600.0
            ],
            [
                59.273983001708984,
                -82.10755920410156,
                2700.0
            ],
            [
                61.83210372924805,
                -85.18428039550781,
                2800.0
            ],
            [
                64.46830749511719,
                -88.26126098632813,
                2900.0
            ],
            [
                67.20272064208984,
                -91.33829498291016,
                3000.0
            ],
            [
                70.04142761230469,
                -94.41559600830078,
                3100.0
            ],
            [
                73.00098419189453,
                -97.49362182617188,
                3200.0
            ],
            [
                76.11831665039063,
                -100.57213592529297,
                3300.0
            ],
            [
                79.39002990722656,
                -103.65166473388672,
                3400.0
            ],
            [
                82.83843231201172,
                -106.7317886352539,
                3500.0
            ],
            [
                86.47716522216797,
                -109.81260681152344,
                3600.0
            ],
            [
                90.32528686523438,
                -112.89411163330078,
                3700.0
            ],
            [
                94.40505981445313,
                -115.97693634033203,
                3800.0
            ],
            [
                98.73892211914063,
                -119.06076049804688,
                3900.0
            ],
            [
                103.3227767944336,
                -122.1444320678711,
                4000.0
            ],
            [
                108.19232177734375,
                -125.22880554199219,
                4100.0
            ],
            [
                113.364013671875,
                -128.31394958496094,
                4200.0
            ],
            [
                118.84046936035156,
                -131.40049743652344,
                4300.0
            ],
            [
                124.60343933105469,
                -134.4869842529297,
                4400.0
            ],
            [
                130.68548583984375,
                -137.57286071777344,
                4500.0
            ],
            [
                137.0834503173828,
                -140.6603546142578,
                4600.0
            ],
            [
                143.801513671875,
                -143.7477264404297,
                4700.0
            ],
            [
                150.83535766601563,
                -146.83592224121094,
                4800.0
            ],
            [
                153.38662719726563,
                -148.83799743652344,
                4900.0
            ],
            [
                160.8929901123047,
                -151.87852478027344,
                5000.0
            ],
            [
                168.73049926757813,
                -154.91859436035156,
                5100.0
            ],
            [
                176.87490844726563,
                -157.95826721191406,
                5200.0
            ],
            [
                185.3274383544922,
                -160.99655151367188,
                5300.0
            ],
            [
                194.08370971679688,
                -164.03536987304688,
                5400.0
            ],
            [
                203.14610290527344,
                -167.07554626464844,
                5500.0
            ],
            [
                212.49269104003906,
                -170.1134033203125,
                5600.0
            ],
            [
                222.13661193847656,
                -173.15072631835938,
                5700.0
            ],
            [
                232.06605529785156,
                -176.1870880126953,
                5800.0
            ],
            [
                242.2663116455078,
                -179.22247314453125,
                5900.0
            ],
            [
                252.74681091308594,
                -182.256591796875,
                6000.0
            ],
            [
                263.4820556640625,
                -185.28909301757813,
                6100.0
            ],
            [
                274.4708557128906,
                -188.3203125,
                6200.0
            ],
            [
                285.7074890136719,
                -191.3507537841797,
                6300.0
            ],
            [
                297.1799621582031,
                -194.3800048828125,
                6400.0
            ],
            [
                308.8841552734375,
                -197.40794372558594,
                6500.0
            ],
            [
                320.8026123046875,
                -200.43421936035156,
                6600.0
            ],
            [
                332.93267822265625,
                -203.45852661132813,
                6700.0
            ],
            [
                345.2594299316406,
                -206.4810791015625,
                6800.0
            ],
            [
                357.77911376953125,
                -209.50177001953125,
                6900.0
            ],
            [
                370.4765625,
                -212.52047729492188,
                7000.0
            ],
            [
                383.34222412109375,
                -215.5372314453125,
                7100.0
            ],
            [
                396.3652038574219,
                -218.55206298828125,
                7200.0
            ],
            [
                409.5373229980469,
                -221.5647735595703,
                7300.0
            ],
            [
                422.8511657714844,
                -224.57542419433594,
                7400.0
            ],
            [
                436.29071044921875,
                -227.58399963378906,
                7500.0
            ],
            [
                449.8516540527344,
                -230.59046936035156,
                7600.0
            ],
            [
                463.5225524902344,
                -233.5949249267578,
                7700.0
            ],
            [
                477.2984313964844,
                -236.5973358154297,
                7800.0
            ],
            [
                491.1703796386719,
                -239.59774780273438,
                7900.0
            ],
            [
                505.1298828125,
                -242.5963134765625,
                8000.0
            ],
            [
                519.1721801757813,
                -245.5930938720703,
                8100.0
            ],
            [
                533.287841796875,
                -248.5882110595703,
                8200.0
            ],
            [
                547.47216796875,
                -251.58180236816406,
                8300.0
            ],
            [
                561.7199096679688,
                -254.57395935058594,
                8400.0
            ],
            [
                576.0259399414063,
                -257.5647888183594,
                8500.0
            ],
            [
                590.383544921875,
                -260.5544738769531,
                8600.0
            ],
            [
                604.7899169921875,
                -263.5430603027344,
                8700.0
            ],
            [
                619.240478515625,
                -266.53070068359375,
                8800.0
            ],
            [
                633.731201171875,
                -269.5174560546875,
                8900.0
            ],
            [
                648.259033203125,
                -272.50335693359375,
                9000.0
            ],
            [
                662.8206176757813,
                -275.48858642578125,
                9100.0
            ],
            [
                677.412841796875,
                -278.47314453125,
                9200.0
            ],
            [
                692.0331420898438,
                -281.4571838378906,
                9300.0
            ],
            [
                706.678955078125,
                -284.4407043457031,
                9400.0
            ],
            [
                721.3479614257813,
                -287.4237976074219,
                9500.0
            ],
            [
                736.0380859375,
                -290.4065246582031,
                9600.0
            ],
            [
                750.7474975585938,
                -293.3889465332031,
                9700.0
            ],
            [
                765.4744262695313,
                -296.37109375,
                9800.0
            ],
            [
                780.2171630859375,
                -299.35302734375,
                9900.0
            ],
            [
                794.9744873046875,
                -302.33477783203125,
                10000.0
            ],
            [
                824.5274658203125,
                -308.29779052734375,
                10200.0
            ],
            [
                854.1243896484375,
                -314.2604064941406,
                10400.0
            ],
            [
                883.7570190429688,
                -320.2227783203125,
                10600.0
            ],
            [
                913.4202270507813,
                -326.18499755859375,
                10800.0
            ],
            [
                943.1072387695313,
                -332.147216796875,
                11000.0
            ],
            [
                972.8148193359375,
                -338.1094970703125,
                11200.0
            ],
            [
                1002.539794921875,
                -344.0718078613281,
                11400.0
            ],
            [
                1032.2777099609375,
                -350.0342712402344,
                11600.0
            ],
            [
                1062.02685546875,
                -355.9968566894531,
                11800.0
            ],
            [
                1091.7845458984375,
                -361.9596252441406,
                12000.0
            ],
            [
                1121.5511474609375,
                -367.9224853515625,
                12200.0
            ],
            [
                1151.323486328125,
                -373.8854675292969,
                12400.0
            ],
            [
                1181.0989990234375,
                -379.8486633300781,
                12600.0
            ],
            [
                1210.878173828125,
                -385.81195068359375,
                12800.0
            ],
            [
                1240.6612548828125,
                -391.7752990722656,
                13000.0
            ],
            [
                1270.447265625,
                -397.7387390136719,
                13200.0
            ],
            [
                1300.234619140625,
                -403.7022399902344,
                13400.0
            ]
        ],
        "zFirstMeasurement": 274.1328
    }
]
