[
    {
        "E": 15025.178622811964,
        "chi2": 0.0,
        "ip": 0.04629974456110935,
        "ipchi2": 4.710469656099939,
        "mass": 1861.952,
        "particleId": "D0",
        "pvx": 0.6033,
        "pvy": 0.1404,
        "pvz": 45.2614,
        "px": -2611.42,
        "py": -2296.61,
        "pz": 14498.11,
        "q": 0.0,
        "trajectory": [
            [
                0.6032999753952026,
                0.1404000073671341,
                45.26139831542969
            ],
            [
                -0.010200000368058681,
                -0.41519999504089355,
                48.52000045776367
            ]
        ],
        "zFirstMeasurement": -9999.0
    },
    {
        "E": 11536.713612119243,
        "chi2": 1.2824207544326782,
        "ip": 0.2084593576340754,
        "ipchi2": 110.60092227966959,
        "mass": 493.677,
        "particleId": "K-",
        "pvx": 0.6033,
        "pvy": 0.1404,
        "pvz": 45.2614,
        "px": -2700.29,
        "py": -1513.89,
        "pz": 11102.64,
        "q": -1.0,
        "trajectory": [
            [
                -0.009746691212058067,
                -0.4134972095489502,
                48.52000045776367
            ],
            [
                -1.2258068323135376,
                -1.0952661037445068,
                53.52000045776367
            ],
            [
                -2.4418725967407227,
                -1.777035117149353,
                58.52000045776367
            ],
            [
                -3.6579437255859375,
                -2.4588046073913574,
                63.52000045776367
            ],
            [
                -4.874078750610352,
                -3.1405601501464844,
                68.5199966430664
            ],
            [
                -6.090161323547363,
                -3.8223302364349365,
                73.5199966430664
            ],
            [
                -7.306249141693115,
                -4.504100322723389,
                78.5199966430664
            ],
            [
                -8.522342681884766,
                -5.185871124267578,
                83.5199966430664
            ],
            [
                -9.738442420959473,
                -5.867641925811768,
                88.5199966430664
            ],
            [
                -10.954547882080078,
                -6.549413204193115,
                93.5199966430664
            ],
            [
                -12.170659065246582,
                -7.231184482574463,
                98.5199966430664
            ],
            [
                -13.3867769241333,
                -7.912956714630127,
                103.5199966430664
            ],
            [
                -18.25130844116211,
                -10.640047073364258,
                123.5199966430664
            ],
            [
                -23.11594581604004,
                -13.367144584655762,
                143.52000427246094
            ],
            [
                -27.980697631835938,
                -16.094247817993164,
                163.52000427246094
            ],
            [
                -32.845516204833984,
                -18.821353912353516,
                183.52000427246094
            ],
            [
                -37.71047592163086,
                -21.54846954345703,
                203.52000427246094
            ],
            [
                -42.575557708740234,
                -24.275590896606445,
                223.52000427246094
            ],
            [
                -47.44076156616211,
                -27.002721786499023,
                243.52000427246094
            ],
            [
                -52.30609130859375,
                -29.7298583984375,
                263.5199890136719
            ],
            [
                -57.17155838012695,
                -32.45700454711914,
                283.5199890136719
            ],
            [
                -62.03716278076172,
                -35.18415832519531,
                303.5199890136719
            ],
            [
                -66.90291595458984,
                -37.91132354736328,
                323.5199890136719
            ],
            [
                -71.76881408691406,
                -40.63849639892578,
                343.5199890136719
            ],
            [
                -76.6348648071289,
                -43.36567687988281,
                363.5199890136719
            ],
            [
                -81.5010757446289,
                -46.092872619628906,
                383.5199890136719
            ],
            [
                -86.36744689941406,
                -48.82007598876953,
                403.5199890136719
            ],
            [
                -91.23399353027344,
                -51.54729080200195,
                423.5199890136719
            ],
            [
                -96.1007080078125,
                -54.27452087402344,
                443.5199890136719
            ],
            [
                -100.96762084960938,
                -57.00176239013672,
                463.5199890136719
            ],
            [
                -105.83470916748047,
                -59.7290153503418,
                483.5199890136719
            ],
            [
                -110.70201110839844,
                -62.45627975463867,
                503.5199890136719
            ],
            [
                -115.56951904296875,
                -65.18356323242188,
                523.52001953125
            ],
            [
                -120.4372329711914,
                -67.91085815429688,
                543.52001953125
            ],
            [
                -125.30516052246094,
                -70.63816833496094,
                563.52001953125
            ],
            [
                -130.17330932617188,
                -73.36549377441406,
                583.52001953125
            ],
            [
                -135.0416717529297,
                -76.09283447265625,
                603.52001953125
            ],
            [
                -139.9103240966797,
                -78.8201904296875,
                623.52001953125
            ],
            [
                -144.7792510986328,
                -81.54756164550781,
                643.52001953125
            ],
            [
                -149.64842224121094,
                -84.27494812011719,
                663.52001953125
            ],
            [
                -154.5178680419922,
                -87.00234985351563,
                683.52001953125
            ],
            [
                -159.3875732421875,
                -89.72976684570313,
                703.52001953125
            ],
            [
                -164.25750732421875,
                -92.45719146728516,
                723.52001953125
            ],
            [
                -169.12771606445313,
                -95.18463134765625,
                743.52001953125
            ],
            [
                -173.99818420410156,
                -97.9120864868164,
                763.52001953125
            ],
            [
                -178.86895751953125,
                -100.63955688476563,
                783.52001953125
            ],
            [
                -183.74012756347656,
                -103.3670425415039,
                803.52001953125
            ],
            [
                -188.61163330078125,
                -106.09454345703125,
                823.52001953125
            ],
            [
                -193.48348999023438,
                -108.82205963134766,
                843.52001953125
            ],
            [
                -198.35568237304688,
                -111.54959869384766,
                863.52001953125
            ],
            [
                -203.2282257080078,
                -114.27715301513672,
                883.52001953125
            ],
            [
                -208.10110473632813,
                -117.00472259521484,
                903.52001953125
            ],
            [
                -212.97430419921875,
                -119.7323226928711,
                923.52001953125
            ],
            [
                -217.84786987304688,
                -122.45993041992188,
                943.52001953125
            ],
            [
                -222.7220001220703,
                -125.18751525878906,
                963.52001953125
            ],
            [
                -227.5965576171875,
                -127.91510009765625,
                983.52001953125
            ],
            [
                -232.47152709960938,
                -130.6427001953125,
                1003.52001953125
            ],
            [
                -256.85400390625,
                -144.2804718017578,
                1103.52001953125
            ],
            [
                -281.2457275390625,
                -157.91812133789063,
                1203.52001953125
            ],
            [
                -305.6484375,
                -171.5555877685547,
                1303.52001953125
            ],
            [
                -330.0622253417969,
                -185.19284057617188,
                1403.52001953125
            ],
            [
                -354.48699951171875,
                -198.8297576904297,
                1503.52001953125
            ],
            [
                -378.91827392578125,
                -212.46641540527344,
                1603.52001953125
            ],
            [
                -403.3604736328125,
                -226.1033172607422,
                1703.52001953125
            ],
            [
                -427.8125915527344,
                -239.74063110351563,
                1803.52001953125
            ],
            [
                -452.27728271484375,
                -253.37884521484375,
                1903.52001953125
            ],
            [
                -476.7551574707031,
                -267.01910400390625,
                2003.52001953125
            ],
            [
                -501.2528381347656,
                -280.66119384765625,
                2103.52001953125
            ],
            [
                -525.7651977539063,
                -294.3056945800781,
                2203.52001953125
            ],
            [
                -550.2894897460938,
                -307.954833984375,
                2303.52001953125
            ],
            [
                -574.839111328125,
                -321.6097717285156,
                2403.52001953125
            ],
            [
                -599.4166870117188,
                -335.2731018066406,
                2503.52001953125
            ],
            [
                -624.0310668945313,
                -348.9465637207031,
                2603.52001953125
            ],
            [
                -648.6849975585938,
                -362.6318359375,
                2703.52001953125
            ],
            [
                -673.392333984375,
                -376.3309326171875,
                2803.52001953125
            ],
            [
                -698.1629028320313,
                -390.0468444824219,
                2903.52001953125
            ],
            [
                -723.0006713867188,
                -403.7827453613281,
                3003.52001953125
            ],
            [
                -747.9371948242188,
                -417.53704833984375,
                3103.52001953125
            ],
            [
                -772.9624633789063,
                -431.3167724609375,
                3203.52001953125
            ],
            [
                -798.096435546875,
                -445.1244812011719,
                3303.52001953125
            ],
            [
                -823.3690795898438,
                -458.9616394042969,
                3403.52001953125
            ],
            [
                -848.7947998046875,
                -472.8342590332031,
                3503.52001953125
            ],
            [
                -874.3827514648438,
                -486.7440185546875,
                3603.52001953125
            ],
            [
                -900.175537109375,
                -500.6874694824219,
                3703.52001953125
            ],
            [
                -926.1854858398438,
                -514.6669311523438,
                3803.52001953125
            ],
            [
                -952.4436645507813,
                -528.6865844726563,
                3903.52001953125
            ],
            [
                -978.96630859375,
                -542.7450561523438,
                4003.52001953125
            ],
            [
                -1005.7658081054688,
                -556.8243408203125,
                4103.52001953125
            ],
            [
                -1032.871337890625,
                -570.93994140625,
                4203.52001953125
            ],
            [
                -1060.29931640625,
                -585.0852661132813,
                4303.52001953125
            ],
            [
                -1088.052734375,
                -599.2590942382813,
                4403.52001953125
            ],
            [
                -1116.116943359375,
                -613.4559326171875,
                4503.52001953125
            ],
            [
                -1144.5400390625,
                -627.6614990234375,
                4603.52001953125
            ],
            [
                -1173.27978515625,
                -641.8819580078125,
                4703.52001953125
            ],
            [
                -1197.3966064453125,
                -649.9967041015625,
                4803.52001953125
            ],
            [
                -1226.73095703125,
                -664.0849609375,
                4903.52001953125
            ],
            [
                -1256.381103515625,
                -678.1698608398438,
                5003.52001953125
            ],
            [
                -1286.38671875,
                -692.259765625,
                5103.52001953125
            ],
            [
                -1316.7073974609375,
                -706.3589477539063,
                5203.52001953125
            ],
            [
                -1347.359130859375,
                -720.4838256835938,
                5303.52001953125
            ],
            [
                -1378.329345703125,
                -734.6035766601563,
                5403.52001953125
            ],
            [
                -1409.617919921875,
                -748.7227783203125,
                5503.52001953125
            ],
            [
                -1441.22119140625,
                -762.8505859375,
                5603.52001953125
            ],
            [
                -1473.133056640625,
                -776.9830322265625,
                5703.52001953125
            ],
            [
                -1505.36279296875,
                -791.1151123046875,
                5803.52001953125
            ],
            [
                -1537.873291015625,
                -805.2420043945313,
                5903.52001953125
            ],
            [
                -1570.701904296875,
                -819.3658447265625,
                6003.52001953125
            ],
            [
                -1603.8074951171875,
                -833.493408203125,
                6103.52001953125
            ],
            [
                -1637.1932373046875,
                -847.6198120117188,
                6203.52001953125
            ],
            [
                -1670.8582763671875,
                -861.7378540039063,
                6303.52001953125
            ],
            [
                -1704.79248046875,
                -875.8470458984375,
                6403.52001953125
            ],
            [
                -1738.983154296875,
                -889.9472045898438,
                6503.52001953125
            ],
            [
                -1773.4306640625,
                -904.0410766601563,
                6603.52001953125
            ],
            [
                -1808.112548828125,
                -918.1236572265625,
                6703.52001953125
            ],
            [
                -1843.011962890625,
                -932.1904907226563,
                6803.52001953125
            ],
            [
                -1878.1324462890625,
                -946.2409057617188,
                6903.52001953125
            ],
            [
                -1913.44580078125,
                -960.2800903320313,
                7003.52001953125
            ],
            [
                -1948.937255859375,
                -974.3050537109375,
                7103.52001953125
            ],
            [
                -1984.5943603515625,
                -988.3148193359375,
                7203.52001953125
            ],
            [
                -2020.3963623046875,
                -1002.314208984375,
                7303.52001953125
            ],
            [
                -2056.33837890625,
                -1016.3024291992188,
                7403.52001953125
            ],
            [
                -2092.3935546875,
                -1030.2818603515625,
                7503.52001953125
            ],
            [
                -2128.559326171875,
                -1044.2530517578125,
                7603.52001953125
            ],
            [
                -2164.81396484375,
                -1058.21875,
                7703.52001953125
            ],
            [
                -2201.150146484375,
                -1072.181640625,
                7803.52001953125
            ],
            [
                -2237.556884765625,
                -1086.14306640625,
                7903.52001953125
            ],
            [
                -2274.0244140625,
                -1100.104248046875,
                8003.52001953125
            ],
            [
                -2310.5458984375,
                -1114.067138671875,
                8103.52001953125
            ],
            [
                -2347.1123046875,
                -1128.032470703125,
                8203.51953125
            ],
            [
                -2383.71826171875,
                -1142.0009765625,
                8303.51953125
            ],
            [
                -2420.358642578125,
                -1155.9736328125,
                8403.51953125
            ],
            [
                -2457.02978515625,
                -1169.95068359375,
                8503.51953125
            ],
            [
                -2493.725341796875,
                -1183.932373046875,
                8603.51953125
            ],
            [
                -2530.444091796875,
                -1197.9189453125,
                8703.51953125
            ],
            [
                -2567.182861328125,
                -1211.9097900390625,
                8803.51953125
            ],
            [
                -2603.939208984375,
                -1225.9053955078125,
                8903.51953125
            ],
            [
                -2640.71142578125,
                -1239.9053955078125,
                9003.51953125
            ],
            [
                -2677.49755859375,
                -1253.90966796875,
                9103.51953125
            ],
            [
                -2714.296142578125,
                -1267.9178466796875,
                9203.51953125
            ],
            [
                -2751.105712890625,
                -1281.9296875,
                9303.51953125
            ],
            [
                -2787.92529296875,
                -1295.945068359375,
                9403.51953125
            ],
            [
                -2824.75341796875,
                -1309.963623046875,
                9503.51953125
            ],
            [
                -2861.58935546875,
                -1323.985107421875,
                9603.51953125
            ],
            [
                -2898.43212890625,
                -1338.00927734375,
                9703.51953125
            ],
            [
                -2935.28125,
                -1352.0361328125,
                9803.51953125
            ],
            [
                -2972.1357421875,
                -1366.0653076171875,
                9903.51953125
            ],
            [
                -3008.9951171875,
                -1380.0966796875,
                10003.51953125
            ],
            [
                -3082.7265625,
                -1408.165283203125,
                10203.51953125
            ],
            [
                -3156.471923828125,
                -1436.2408447265625,
                10403.51953125
            ],
            [
                -3230.22802734375,
                -1464.3221435546875,
                10603.51953125
            ],
            [
                -3303.992919921875,
                -1492.4090576171875,
                10803.51953125
            ],
            [
                -3377.763916015625,
                -1520.5003662109375,
                11003.51953125
            ],
            [
                -3451.5400390625,
                -1548.595703125,
                11203.51953125
            ],
            [
                -3525.3203125,
                -1576.6944580078125,
                11403.51953125
            ],
            [
                -3599.103271484375,
                -1604.7960205078125,
                11603.51953125
            ],
            [
                -3672.8876953125,
                -1632.9007568359375,
                11803.51953125
            ],
            [
                -3746.673583984375,
                -1661.0078125,
                12003.51953125
            ],
            [
                -3820.460693359375,
                -1689.1168212890625,
                12203.51953125
            ],
            [
                -3894.24853515625,
                -1717.2275390625,
                12403.51953125
            ],
            [
                -3968.0361328125,
                -1745.3397216796875,
                12603.51953125
            ],
            [
                -4041.823486328125,
                -1773.453369140625,
                12803.51953125
            ],
            [
                -4115.61181640625,
                -1801.5677490234375,
                13003.51953125
            ],
            [
                -4189.39990234375,
                -1829.6832275390625,
                13203.51953125
            ],
            [
                -4263.18798828125,
                -1857.7969970703125,
                13403.51953125
            ]
        ],
        "zFirstMeasurement": 79.5152
    },
    {
        "E": 3488.3594189098744,
        "chi2": 1.1110622882843018,
        "ip": 0.7269397419307128,
        "ipchi2": 463.279426768561,
        "mass": 139.57,
        "particleId": "pi+",
        "pvx": 0.6033,
        "pvy": 0.1404,
        "pvz": 45.2614,
        "px": 89.34,
        "py": -781.94,
        "pz": 3395.55,
        "q": 1.0,
        "trajectory": [
            [
                -0.017576364800333977,
                -0.4295381009578705,
                48.52000045776367
            ],
            [
                0.11399859935045242,
                -1.5809532403945923,
                53.52000045776367
            ],
            [
                0.24559025466442108,
                -2.7323687076568604,
                58.52000045776367
            ],
            [
                0.37719884514808655,
                -3.883784770965576,
                63.52000045776367
            ],
            [
                0.5088246464729309,
                -5.035201072692871,
                68.5199966430664
            ],
            [
                0.6404943466186523,
                -6.18665075302124,
                73.5199966430664
            ],
            [
                0.7721543908119202,
                -7.338067531585693,
                78.5199966430664
            ],
            [
                0.9038316607475281,
                -8.489485740661621,
                83.5199966430664
            ],
            [
                1.0355262756347656,
                -9.64090347290039,
                88.5199966430664
            ],
            [
                1.1672385931015015,
                -10.79232120513916,
                93.5199966430664
            ],
            [
                1.29896879196167,
                -11.943739891052246,
                98.5199966430664
            ],
            [
                1.43071711063385,
                -13.095159530639648,
                103.5199966430664
            ],
            [
                1.957898736000061,
                -17.70083999633789,
                123.5199966430664
            ],
            [
                2.485396385192871,
                -22.306528091430664,
                143.52000427246094
            ],
            [
                3.013230323791504,
                -26.912221908569336,
                163.52000427246094
            ],
            [
                3.5414206981658936,
                -31.51792335510254,
                183.52000427246094
            ],
            [
                4.069806098937988,
                -36.12363052368164,
                203.52000427246094
            ],
            [
                4.598650932312012,
                -40.729347229003906,
                223.52000427246094
            ],
            [
                5.127869606018066,
                -45.33506774902344,
                243.52000427246094
            ],
            [
                5.657474517822266,
                -49.940799713134766,
                263.5199890136719
            ],
            [
                6.187485694885254,
                -54.54653549194336,
                283.5199890136719
            ],
            [
                6.717916011810303,
                -59.152278900146484,
                303.5199890136719
            ],
            [
                7.248779773712158,
                -63.758033752441406,
                323.5199890136719
            ],
            [
                7.780089378356934,
                -68.3637924194336,
                343.5199890136719
            ],
            [
                8.311857223510742,
                -72.96955871582031,
                363.5199890136719
            ],
            [
                8.844098091125488,
                -77.57533264160156,
                383.5199890136719
            ],
            [
                9.376827239990234,
                -82.18111419677734,
                403.5199890136719
            ],
            [
                9.91006851196289,
                -86.78691101074219,
                423.5199890136719
            ],
            [
                10.44383716583252,
                -91.39270782470703,
                443.5199890136719
            ],
            [
                10.978190422058105,
                -95.99851989746094,
                463.5199890136719
            ],
            [
                11.513108253479004,
                -100.60433197021484,
                483.5199890136719
            ],
            [
                12.048599243164063,
                -105.21015930175781,
                503.5199890136719
            ],
            [
                12.58470344543457,
                -109.81598663330078,
                523.52001953125
            ],
            [
                13.121415138244629,
                -114.42182159423828,
                543.52001953125
            ],
            [
                13.658747673034668,
                -119.02766418457031,
                563.52001953125
            ],
            [
                14.196717262268066,
                -123.63351440429688,
                583.52001953125
            ],
            [
                14.735346794128418,
                -128.2393798828125,
                603.52001953125
            ],
            [
                15.274849891662598,
                -132.84524536132813,
                623.52001953125
            ],
            [
                15.815071105957031,
                -137.45111083984375,
                643.52001953125
            ],
            [
                16.35602569580078,
                -142.05699157714844,
                663.52001953125
            ],
            [
                16.89773178100586,
                -146.66287231445313,
                683.52001953125
            ],
            [
                17.44020652770996,
                -151.26878356933594,
                703.52001953125
            ],
            [
                17.98348617553711,
                -155.87469482421875,
                723.52001953125
            ],
            [
                18.52756118774414,
                -160.4806365966797,
                743.52001953125
            ],
            [
                19.07241439819336,
                -165.08657836914063,
                763.52001953125
            ],
            [
                19.618316650390625,
                -169.69248962402344,
                783.52001953125
            ],
            [
                20.16531753540039,
                -174.2983856201172,
                803.52001953125
            ],
            [
                20.713193893432617,
                -178.90428161621094,
                823.52001953125
            ],
            [
                21.262001037597656,
                -183.5101776123047,
                843.52001953125
            ],
            [
                21.8117618560791,
                -188.11607360839844,
                863.52001953125
            ],
            [
                22.362489700317383,
                -192.72195434570313,
                883.52001953125
            ],
            [
                22.914175033569336,
                -197.32785034179688,
                903.52001953125
            ],
            [
                23.46668815612793,
                -201.93373107910156,
                923.52001953125
            ],
            [
                24.020383834838867,
                -206.53958129882813,
                943.52001953125
            ],
            [
                24.575557708740234,
                -211.14535522460938,
                963.52001953125
            ],
            [
                25.13184928894043,
                -215.75111389160156,
                983.52001953125
            ],
            [
                25.68918228149414,
                -220.3568572998047,
                1003.52001953125
            ],
            [
                28.500171661376953,
                -243.38580322265625,
                1103.52001953125
            ],
            [
                31.339677810668945,
                -266.41448974609375,
                1203.52001953125
            ],
            [
                34.209651947021484,
                -289.4425964355469,
                1303.52001953125
            ],
            [
                37.10941696166992,
                -312.47039794921875,
                1403.52001953125
            ],
            [
                40.03925323486328,
                -335.497802734375,
                1503.52001953125
            ],
            [
                42.98951721191406,
                -358.5257263183594,
                1603.52001953125
            ],
            [
                45.96534729003906,
                -381.55377197265625,
                1703.52001953125
            ],
            [
                48.96179962158203,
                -404.58203125,
                1803.52001953125
            ],
            [
                51.98435974121094,
                -427.60992431640625,
                1903.52001953125
            ],
            [
                55.02480697631836,
                -450.63824462890625,
                2003.52001953125
            ],
            [
                58.10707473754883,
                -473.66778564453125,
                2103.52001953125
            ],
            [
                61.20478439331055,
                -496.69830322265625,
                2203.52001953125
            ],
            [
                64.31523132324219,
                -519.7316284179688,
                2303.52001953125
            ],
            [
                67.46210479736328,
                -542.7664794921875,
                2403.52001953125
            ],
            [
                70.64564514160156,
                -565.8068237304688,
                2503.52001953125
            ],
            [
                73.89033508300781,
                -588.8522338867188,
                2603.52001953125
            ],
            [
                77.1878890991211,
                -611.9017944335938,
                2703.52001953125
            ],
            [
                80.59000396728516,
                -634.9603271484375,
                2803.52001953125
            ],
            [
                84.10424041748047,
                -658.0263671875,
                2903.52001953125
            ],
            [
                87.75218963623047,
                -681.101806640625,
                3003.52001953125
            ],
            [
                91.58573913574219,
                -704.19677734375,
                3103.52001953125
            ],
            [
                95.591552734375,
                -727.3103637695313,
                3203.52001953125
            ],
            [
                99.84617614746094,
                -750.448974609375,
                3303.52001953125
            ],
            [
                104.43722534179688,
                -773.611572265625,
                3403.52001953125
            ],
            [
                109.4164047241211,
                -796.8076171875,
                3503.52001953125
            ],
            [
                114.83448028564453,
                -820.0281372070313,
                3603.52001953125
            ],
            [
                120.84769439697266,
                -843.3060913085938,
                3703.52001953125
            ],
            [
                127.53851318359375,
                -866.6331176757813,
                3803.52001953125
            ],
            [
                134.98989868164063,
                -890.0062866210938,
                3903.52001953125
            ],
            [
                143.38929748535156,
                -913.4185791015625,
                4003.52001953125
            ],
            [
                152.89962768554688,
                -936.9097290039063,
                4103.52001953125
            ],
            [
                163.58277893066406,
                -960.4605102539063,
                4203.52001953125
            ],
            [
                175.5067901611328,
                -984.0661010742188,
                4303.52001953125
            ],
            [
                188.7172088623047,
                -1007.7166748046875,
                4403.52001953125
            ],
            [
                203.0938262939453,
                -1031.3917236328125,
                4503.52001953125
            ],
            [
                218.73573303222656,
                -1055.1180419921875,
                4603.52001953125
            ],
            [
                235.72328186035156,
                -1078.8876953125,
                4703.52001953125
            ],
            [
                259.8548583984375,
                -1108.07861328125,
                4803.52001953125
            ],
            [
                279.0555419921875,
                -1132.2059326171875,
                4903.52001953125
            ],
            [
                299.5106201171875,
                -1156.286376953125,
                5003.52001953125
            ],
            [
                320.9683837890625,
                -1180.4520263671875,
                5103.52001953125
            ],
            [
                343.523681640625,
                -1204.5802001953125,
                5203.52001953125
            ],
            [
                367.3608093261719,
                -1228.8045654296875,
                5303.52001953125
            ],
            [
                392.0611267089844,
                -1252.8887939453125,
                5403.52001953125
            ],
            [
                417.8285217285156,
                -1277.096923828125,
                5503.52001953125
            ],
            [
                444.572998046875,
                -1301.2828369140625,
                5603.52001953125
            ],
            [
                472.58306884765625,
                -1325.4468994140625,
                5703.52001953125
            ],
            [
                501.61505126953125,
                -1349.5927734375,
                5803.52001953125
            ],
            [
                531.7643432617188,
                -1373.70751953125,
                5903.52001953125
            ],
            [
                562.9847412109375,
                -1397.83154296875,
                6003.52001953125
            ],
            [
                595.35791015625,
                -1421.9603271484375,
                6103.52001953125
            ],
            [
                628.69873046875,
                -1445.9967041015625,
                6203.52001953125
            ],
            [
                663.2418823242188,
                -1470.017333984375,
                6303.52001953125
            ],
            [
                698.9696655273438,
                -1493.97119140625,
                6403.52001953125
            ],
            [
                735.9653930664063,
                -1517.837158203125,
                6503.52001953125
            ],
            [
                774.0859985351563,
                -1541.558837890625,
                6603.52001953125
            ],
            [
                813.3592529296875,
                -1565.08447265625,
                6703.52001953125
            ],
            [
                853.6845703125,
                -1588.36376953125,
                6803.52001953125
            ],
            [
                894.8637084960938,
                -1611.3984375,
                6903.52001953125
            ],
            [
                936.8285522460938,
                -1634.148193359375,
                7003.52001953125
            ],
            [
                979.378173828125,
                -1656.6282958984375,
                7103.52001953125
            ],
            [
                1022.4375610351563,
                -1678.8358154296875,
                7203.52001953125
            ],
            [
                1065.908935546875,
                -1700.8070068359375,
                7303.52001953125
            ],
            [
                1109.732177734375,
                -1722.5191650390625,
                7403.52001953125
            ],
            [
                1153.8106689453125,
                -1744.013427734375,
                7503.52001953125
            ],
            [
                1198.071533203125,
                -1765.2987060546875,
                7603.52001953125
            ],
            [
                1242.465087890625,
                -1786.393798828125,
                7703.52001953125
            ],
            [
                1286.95654296875,
                -1807.3287353515625,
                7803.52001953125
            ],
            [
                1331.4931640625,
                -1828.1199951171875,
                7903.52001953125
            ],
            [
                1376.070556640625,
                -1848.7919921875,
                8003.52001953125
            ],
            [
                1420.6729736328125,
                -1869.361083984375,
                8103.52001953125
            ],
            [
                1465.29541015625,
                -1889.845947265625,
                8203.51953125
            ],
            [
                1509.9298095703125,
                -1910.2593994140625,
                8303.51953125
            ],
            [
                1554.5731201171875,
                -1930.6136474609375,
                8403.51953125
            ],
            [
                1599.223388671875,
                -1950.9178466796875,
                8503.51953125
            ],
            [
                1643.8770751953125,
                -1971.1820068359375,
                8603.51953125
            ],
            [
                1688.5338134765625,
                -1991.412353515625,
                8703.51953125
            ],
            [
                1733.1925048828125,
                -2011.615234375,
                8803.51953125
            ],
            [
                1777.8544921875,
                -2031.795654296875,
                8903.51953125
            ],
            [
                1822.5179443359375,
                -2051.95751953125,
                9003.51953125
            ],
            [
                1867.1829833984375,
                -2072.104736328125,
                9103.51953125
            ],
            [
                1911.8494873046875,
                -2092.240234375,
                9203.51953125
            ],
            [
                1956.5169677734375,
                -2112.3662109375,
                9303.51953125
            ],
            [
                2001.185546875,
                -2132.48486328125,
                9403.51953125
            ],
            [
                2045.854736328125,
                -2152.59765625,
                9503.51953125
            ],
            [
                2090.524658203125,
                -2172.7060546875,
                9603.51953125
            ],
            [
                2135.19482421875,
                -2192.81103515625,
                9703.51953125
            ],
            [
                2179.865234375,
                -2212.91357421875,
                9803.51953125
            ],
            [
                2224.53564453125,
                -2233.014404296875,
                9903.51953125
            ],
            [
                2269.206298828125,
                -2253.1142578125,
                10003.51953125
            ],
            [
                2358.54736328125,
                -2293.31298828125,
                10203.51953125
            ],
            [
                2447.88671875,
                -2333.512939453125,
                10403.51953125
            ],
            [
                2537.227294921875,
                -2373.71875,
                10603.51953125
            ],
            [
                2626.56494140625,
                -2413.9296875,
                10803.51953125
            ],
            [
                2715.90087890625,
                -2454.147216796875,
                11003.51953125
            ],
            [
                2805.233642578125,
                -2494.371826171875,
                11203.51953125
            ],
            [
                2894.563232421875,
                -2534.6044921875,
                11403.51953125
            ],
            [
                2983.894287109375,
                -2574.848388671875,
                11603.51953125
            ],
            [
                3073.218017578125,
                -2615.096923828125,
                11803.51953125
            ],
            [
                3162.538330078125,
                -2655.3525390625,
                12003.51953125
            ],
            [
                3251.853759765625,
                -2695.6142578125,
                12203.51953125
            ],
            [
                3341.16796875,
                -2735.883056640625,
                12403.51953125
            ],
            [
                3430.4833984375,
                -2776.160400390625,
                12603.51953125
            ],
            [
                3519.792236328125,
                -2816.43896484375,
                12803.51953125
            ],
            [
                3609.0966796875,
                -2856.72021484375,
                13003.51953125
            ],
            [
                3698.400390625,
                -2897.0048828125,
                13203.51953125
            ],
            [
                3787.70361328125,
                -2937.293701171875,
                13403.51953125
            ]
        ],
        "zFirstMeasurement": 94.1031
    },
    {
        "E": 22440.414038861785,
        "chi2": 0.8587990999221802,
        "ip": 0.09821950522684363,
        "ipchi2": 5.448112887819229,
        "mass": 139.57018,
        "particleId": "pi-",
        "pvx": 0.6033,
        "pvy": 0.1404,
        "pvz": 45.2614,
        "px": 85.29870846356249,
        "py": 1056.3620921628778,
        "pz": 22414.939787136962,
        "q": -1.0,
        "trajectory": [
            [
                0.09688868373632431,
                -6.619199752807617,
                -100.0
            ],
            [
                0.11597586423158646,
                -6.3835625648498535,
                -95.0
            ],
            [
                0.1350610852241516,
                -6.14792537689209,
                -90.0
            ],
            [
                0.1541442573070526,
                -5.912288665771484,
                -85.0
            ],
            [
                0.1732255220413208,
                -5.676651477813721,
                -80.0
            ],
            [
                0.19230486452579498,
                -5.441014289855957,
                -75.0
            ],
            [
                0.21138222515583038,
                -5.205377101898193,
                -70.0
            ],
            [
                0.2304576188325882,
                -4.96973991394043,
                -65.0
            ],
            [
                0.24954794347286224,
                -4.734102725982666,
                -60.0
            ],
            [
                0.26861706376075745,
                -4.498465061187744,
                -55.0
            ],
            [
                0.2876843512058258,
                -4.2628278732299805,
                -50.0
            ],
            [
                0.30674973130226135,
                -4.027190685272217,
                -45.0
            ],
            [
                0.3258131742477417,
                -3.791553258895874,
                -40.0
            ],
            [
                0.3448745012283325,
                -3.5559158325195313,
                -35.0
            ],
            [
                0.36393383145332336,
                -3.3202784061431885,
                -30.0
            ],
            [
                0.3829911947250366,
                -3.0846407413482666,
                -25.0
            ],
            [
                0.4020465314388275,
                -2.849003314971924,
                -20.0
            ],
            [
                0.42109984159469604,
                -2.613365650177002,
                -15.0
            ],
            [
                0.44015103578567505,
                -2.377728223800659,
                -10.0
            ],
            [
                0.45920008420944214,
                -2.1420905590057373,
                -5.0
            ],
            [
                0.4782469868659973,
                -1.9064527750015259,
                0.0
            ],
            [
                0.4972916543483734,
                -1.670815110206604,
                5.0
            ],
            [
                0.516334056854248,
                -1.4351773262023926,
                10.0
            ],
            [
                0.5353741645812988,
                -1.1995396614074707,
                15.0
            ],
            [
                0.5544119477272034,
                -0.9639018177986145,
                20.0
            ],
            [
                0.5734473466873169,
                -0.7282639741897583,
                25.0
            ],
            [
                0.5924803018569946,
                -0.4926261007785797,
                30.0
            ],
            [
                0.6115108132362366,
                -0.25698819756507874,
                35.0
            ],
            [
                0.6305388808250427,
                -0.021350251510739326,
                40.0
            ],
            [
                0.6495643258094788,
                0.21428772807121277,
                45.0
            ],
            [
                0.6685872077941895,
                0.4499257206916809,
                50.0
            ],
            [
                0.6876075267791748,
                0.6855637431144714,
                55.0
            ],
            [
                0.7066251039505005,
                0.9212018251419067,
                60.0
            ],
            [
                0.725640058517456,
                1.1568399667739868,
                65.0
            ],
            [
                0.7446522116661072,
                1.392478108406067,
                70.0
            ],
            [
                0.7636616230010986,
                1.628116250038147,
                75.0
            ],
            [
                0.7826681733131409,
                1.8637545108795166,
                80.0
            ],
            [
                0.8016718626022339,
                2.0993926525115967,
                85.0
            ],
            [
                0.8206726908683777,
                2.335031032562256,
                90.0
            ],
            [
                0.8396705389022827,
                2.570669412612915,
                95.0
            ],
            [
                0.858665406703949,
                2.806307554244995,
                100.0
            ],
            [
                0.9346143007278442,
                3.748861312866211,
                120.0
            ],
            [
                1.0105301141738892,
                4.691415786743164,
                140.0
            ],
            [
                1.086381435394287,
                5.633970260620117,
                160.0
            ],
            [
                1.1622059345245361,
                6.576525688171387,
                180.0
            ],
            [
                1.2379450798034668,
                7.5190815925598145,
                200.0
            ],
            [
                1.3136321306228638,
                8.461637496948242,
                220.0
            ],
            [
                1.389263391494751,
                9.404193878173828,
                240.0
            ],
            [
                1.4648354053497314,
                10.34675121307373,
                260.0
            ],
            [
                1.5403447151184082,
                11.289308547973633,
                280.0
            ],
            [
                1.6157876253128052,
                12.231866836547852,
                300.0
            ],
            [
                1.691160798072815,
                13.17442512512207,
                320.0
            ],
            [
                1.7664601802825928,
                14.116983413696289,
                340.0
            ],
            [
                1.8416818380355835,
                15.059542655944824,
                360.0
            ],
            [
                1.9168529510498047,
                16.00210189819336,
                380.0
            ],
            [
                1.991929054260254,
                16.94466209411621,
                400.0
            ],
            [
                2.0669236183166504,
                17.887222290039063,
                420.0
            ],
            [
                2.141834020614624,
                18.829782485961914,
                440.0
            ],
            [
                2.216658115386963,
                19.772342681884766,
                460.0
            ],
            [
                2.2913928031921387,
                20.71490478515625,
                480.0
            ],
            [
                2.3660318851470947,
                21.6574649810791,
                500.0
            ],
            [
                2.44057297706604,
                22.600027084350586,
                520.0
            ],
            [
                2.515014410018921,
                23.54258918762207,
                540.0
            ],
            [
                2.589353561401367,
                24.485151290893555,
                560.0
            ],
            [
                2.6635875701904297,
                25.42771339416504,
                580.0
            ],
            [
                2.737713575363159,
                26.370275497436523,
                600.0
            ],
            [
                2.8117265701293945,
                27.312837600708008,
                620.0
            ],
            [
                2.885625123977661,
                28.255399703979492,
                640.0
            ],
            [
                2.9594006538391113,
                29.197961807250977,
                660.0
            ],
            [
                3.033047676086426,
                30.14052391052246,
                680.0
            ],
            [
                3.106562852859497,
                31.083087921142578,
                700.0
            ],
            [
                3.1799354553222656,
                32.02565002441406,
                720.0
            ],
            [
                3.2531726360321045,
                32.96821212768555,
                740.0
            ],
            [
                3.326270580291748,
                33.9107780456543,
                760.0
            ],
            [
                3.399226427078247,
                34.85334014892578,
                780.0
            ],
            [
                3.472036600112915,
                35.79590606689453,
                800.0
            ],
            [
                3.5446975231170654,
                36.738468170166016,
                820.0
            ],
            [
                3.6171865463256836,
                37.6810302734375,
                840.0
            ],
            [
                3.689517021179199,
                38.623592376708984,
                860.0
            ],
            [
                3.761685371398926,
                39.5661506652832,
                880.0
            ],
            [
                3.8336877822875977,
                40.50871276855469,
                900.0
            ],
            [
                3.905535936355591,
                41.451271057128906,
                920.0
            ],
            [
                3.9772133827209473,
                42.39383316040039,
                940.0
            ],
            [
                4.048716068267822,
                43.33639144897461,
                960.0
            ],
            [
                4.120041370391846,
                44.278953552246094,
                980.0
            ],
            [
                4.1912055015563965,
                45.22151565551758,
                1000.0
            ],
            [
                4.544278144836426,
                49.934322357177734,
                1100.0
            ],
            [
                4.8925299644470215,
                54.647125244140625,
                1200.0
            ],
            [
                5.235402584075928,
                59.35988235473633,
                1300.0
            ],
            [
                5.573934555053711,
                64.07266998291016,
                1400.0
            ],
            [
                5.908134460449219,
                68.78543090820313,
                1500.0
            ],
            [
                6.237429618835449,
                73.4981918334961,
                1600.0
            ],
            [
                6.561312675476074,
                78.21095275878906,
                1700.0
            ],
            [
                6.88092041015625,
                82.9237289428711,
                1800.0
            ],
            [
                7.193410873413086,
                87.63651275634766,
                1900.0
            ],
            [
                7.499500751495361,
                92.34928894042969,
                2000.0
            ],
            [
                7.7974042892456055,
                97.06206512451172,
                2100.0
            ],
            [
                8.086183547973633,
                101.77482604980469,
                2200.0
            ],
            [
                8.361078262329102,
                106.4874496459961,
                2300.0
            ],
            [
                8.623745918273926,
                111.20014953613281,
                2400.0
            ],
            [
                8.868398666381836,
                115.912841796875,
                2500.0
            ],
            [
                9.092717170715332,
                120.62548828125,
                2600.0
            ],
            [
                9.292134284973145,
                125.33811950683594,
                2700.0
            ],
            [
                9.46243953704834,
                130.0507049560547,
                2800.0
            ],
            [
                9.598848342895508,
                134.76315307617188,
                2900.0
            ],
            [
                9.692486763000488,
                139.4755859375,
                3000.0
            ],
            [
                9.740469932556152,
                144.18798828125,
                3100.0
            ],
            [
                9.735636711120605,
                148.90040588378906,
                3200.0
            ],
            [
                9.661924362182617,
                153.61257934570313,
                3300.0
            ],
            [
                9.52061653137207,
                158.32481384277344,
                3400.0
            ],
            [
                9.301267623901367,
                163.0371551513672,
                3500.0
            ],
            [
                8.997880935668945,
                167.74972534179688,
                3600.0
            ],
            [
                8.602612495422363,
                172.4619903564453,
                3700.0
            ],
            [
                8.104034423828125,
                177.17431640625,
                3800.0
            ],
            [
                7.492739677429199,
                181.88693237304688,
                3900.0
            ],
            [
                6.771016597747803,
                186.5994873046875,
                4000.0
            ],
            [
                5.923067569732666,
                191.31192016601563,
                4100.0
            ],
            [
                4.941676139831543,
                196.0241241455078,
                4200.0
            ],
            [
                3.8257436752319336,
                200.7362823486328,
                4300.0
            ],
            [
                2.5818116664886475,
                205.44869995117188,
                4400.0
            ],
            [
                1.197772741317749,
                210.16067504882813,
                4500.0
            ],
            [
                -0.32731661200523376,
                214.87228393554688,
                4600.0
            ],
            [
                -1.9940226078033447,
                219.58363342285156,
                4700.0
            ],
            [
                -3.8007655143737793,
                224.2954864501953,
                4800.0
            ],
            [
                -7.279720783233643,
                229.52345275878906,
                4900.0
            ],
            [
                -9.36591625213623,
                234.25296020507813,
                5000.0
            ],
            [
                -11.594352722167969,
                238.9814453125,
                5100.0
            ],
            [
                -13.959280967712402,
                243.7098846435547,
                5200.0
            ],
            [
                -16.463441848754883,
                248.43798828125,
                5300.0
            ],
            [
                -19.10030746459961,
                253.1664276123047,
                5400.0
            ],
            [
                -21.867965698242188,
                257.8946228027344,
                5500.0
            ],
            [
                -24.762493133544922,
                262.62176513671875,
                5600.0
            ],
            [
                -27.786954879760742,
                267.3489074707031,
                5700.0
            ],
            [
                -30.936506271362305,
                272.07568359375,
                5800.0
            ],
            [
                -34.20326614379883,
                276.8018493652344,
                5900.0
            ],
            [
                -37.5913200378418,
                281.527099609375,
                6000.0
            ],
            [
                -41.093994140625,
                286.25189208984375,
                6100.0
            ],
            [
                -44.707515716552734,
                290.97637939453125,
                6200.0
            ],
            [
                -48.42816162109375,
                295.7003479003906,
                6300.0
            ],
            [
                -52.251808166503906,
                300.423828125,
                6400.0
            ],
            [
                -56.175865173339844,
                305.1469421386719,
                6500.0
            ],
            [
                -60.19465637207031,
                309.86932373046875,
                6600.0
            ],
            [
                -64.30558013916016,
                314.5910339355469,
                6700.0
            ],
            [
                -68.5016098022461,
                319.31219482421875,
                6800.0
            ],
            [
                -72.7818603515625,
                324.03271484375,
                6900.0
            ],
            [
                -77.14022827148438,
                328.7525939941406,
                7000.0
            ],
            [
                -81.57112884521484,
                333.4718017578125,
                7100.0
            ],
            [
                -86.07035827636719,
                338.19036865234375,
                7200.0
            ],
            [
                -90.63400268554688,
                342.90826416015625,
                7300.0
            ],
            [
                -95.25904083251953,
                347.62548828125,
                7400.0
            ],
            [
                -99.93787384033203,
                352.34197998046875,
                7500.0
            ],
            [
                -104.66949462890625,
                357.0577697753906,
                7600.0
            ],
            [
                -109.44818878173828,
                361.77288818359375,
                7700.0
            ],
            [
                -114.27188110351563,
                366.4873046875,
                7800.0
            ],
            [
                -119.13664245605469,
                371.2010498046875,
                7900.0
            ],
            [
                -124.03876495361328,
                375.9141845703125,
                8000.0
            ],
            [
                -128.97613525390625,
                380.6266784667969,
                8100.0
            ],
            [
                -133.9447479248047,
                385.338623046875,
                8200.0
            ],
            [
                -138.9425506591797,
                390.0500183105469,
                8300.0
            ],
            [
                -143.9673309326172,
                394.7608947753906,
                8400.0
            ],
            [
                -149.016845703125,
                399.4713439941406,
                8500.0
            ],
            [
                -154.08827209472656,
                404.18133544921875,
                8600.0
            ],
            [
                -159.18040466308594,
                408.8909912109375,
                8700.0
            ],
            [
                -164.29132080078125,
                413.60028076171875,
                8800.0
            ],
            [
                -169.41928100585938,
                418.3092346191406,
                8900.0
            ],
            [
                -174.5630340576172,
                423.0179138183594,
                9000.0
            ],
            [
                -179.7211456298828,
                427.7262878417969,
                9100.0
            ],
            [
                -184.8922882080078,
                432.4344482421875,
                9200.0
            ],
            [
                -190.0753936767578,
                437.1423645019531,
                9300.0
            ],
            [
                -195.2693634033203,
                441.85009765625,
                9400.0
            ],
            [
                -200.47320556640625,
                446.5576477050781,
                9500.0
            ],
            [
                -205.68609619140625,
                451.2650451660156,
                9600.0
            ],
            [
                -210.90719604492188,
                455.9723205566406,
                9700.0
            ],
            [
                -216.1358184814453,
                460.679443359375,
                9800.0
            ],
            [
                -221.3712158203125,
                465.386474609375,
                9900.0
            ],
            [
                -226.61285400390625,
                470.0933837890625,
                10000.0
            ],
            [
                -237.1126251220703,
                479.50701904296875,
                10200.0
            ],
            [
                -247.63133239746094,
                488.9203796386719,
                10400.0
            ],
            [
                -258.1654968261719,
                498.33355712890625,
                10600.0
            ],
            [
                -268.71295166015625,
                507.74658203125,
                10800.0
            ],
            [
                -279.2707824707031,
                517.1595458984375,
                11000.0
            ],
            [
                -289.83758544921875,
                526.5724487304688,
                11200.0
            ],
            [
                -300.41204833984375,
                535.9852905273438,
                11400.0
            ],
            [
                -310.9922180175781,
                545.3980712890625,
                11600.0
            ],
            [
                -321.5773620605469,
                554.8109130859375,
                11800.0
            ],
            [
                -332.1663818359375,
                564.2237548828125,
                12000.0
            ],
            [
                -342.7593078613281,
                573.6365966796875,
                12200.0
            ],
            [
                -353.354736328125,
                583.0494995117188,
                12400.0
            ],
            [
                -363.9517517089844,
                592.4623413085938,
                12600.0
            ],
            [
                -374.5503845214844,
                601.8753051757813,
                12800.0
            ],
            [
                -385.15081787109375,
                611.2882080078125,
                13000.0
            ],
            [
                -395.75250244140625,
                620.7011108398438,
                13200.0
            ],
            [
                -406.3547668457031,
                630.1140747070313,
                13400.0
            ]
        ],
        "zFirstMeasurement": 274.1328
    },
    {
        "E": 13843.665273327331,
        "chi2": 1.0646171569824219,
        "ip": 5.759726169924486,
        "ipchi2": 2858.152535422813,
        "mass": 493.67699999999996,
        "particleId": "K+",
        "pvx": 0.6033,
        "pvy": 0.1404,
        "pvz": 45.2614,
        "px": -267.03292478828723,
        "py": 426.62797914632165,
        "pz": 13825.701906380329,
        "q": 1.0,
        "trajectory": [
            [
                8.888554573059082,
                -2.5588769912719727,
                -100.0
            ],
            [
                8.791844367980957,
                -2.4045872688293457,
                -95.0
            ],
            [
                8.695137023925781,
                -2.2502975463867188,
                -90.0
            ],
            [
                8.598433494567871,
                -2.096007823944092,
                -85.0
            ],
            [
                8.501731872558594,
                -1.9417181015014648,
                -80.0
            ],
            [
                8.405034065246582,
                -1.7874284982681274,
                -75.0
            ],
            [
                8.308340072631836,
                -1.63313889503479,
                -70.0
            ],
            [
                8.211647987365723,
                -1.4788494110107422,
                -65.0
            ],
            [
                8.114959716796875,
                -1.3245599269866943,
                -60.0
            ],
            [
                8.018275260925293,
                -1.170270562171936,
                -55.0
            ],
            [
                7.921594142913818,
                -1.0159811973571777,
                -50.0
            ],
            [
                7.824916362762451,
                -0.8616918921470642,
                -45.0
            ],
            [
                7.728241920471191,
                -0.7074026465415955,
                -40.0
            ],
            [
                7.631570816040039,
                -0.5531134605407715,
                -35.0
            ],
            [
                7.534903049468994,
                -0.3988242745399475,
                -30.0
            ],
            [
                7.438239097595215,
                -0.2445351928472519,
                -25.0
            ],
            [
                7.341578483581543,
                -0.09024613350629807,
                -20.0
            ],
            [
                7.2449212074279785,
                0.06404287368059158,
                -15.0
            ],
            [
                7.148240566253662,
                0.21833179891109467,
                -10.0
            ],
            [
                7.0515947341918945,
                0.37262070178985596,
                -5.0
            ],
            [
                6.954952716827393,
                0.526909589767456,
                0.0
            ],
            [
                6.85831356048584,
                0.6811984181404114,
                5.0
            ],
            [
                6.761678218841553,
                0.8354871869087219,
                10.0
            ],
            [
                6.665046215057373,
                0.9897758960723877,
                15.0
            ],
            [
                6.568417549133301,
                1.1440645456314087,
                20.0
            ],
            [
                6.471792697906494,
                1.2983531951904297,
                25.0
            ],
            [
                6.375171661376953,
                1.4526417255401611,
                30.0
            ],
            [
                6.278554439544678,
                1.6069302558898926,
                35.0
            ],
            [
                6.18194055557251,
                1.761218786239624,
                40.0
            ],
            [
                6.085330963134766,
                1.915507197380066,
                45.0
            ],
            [
                5.988725662231445,
                2.069795608520508,
                50.0
            ],
            [
                5.892123699188232,
                2.22408390045166,
                55.0
            ],
            [
                5.795526027679443,
                2.3783721923828125,
                60.0
            ],
            [
                5.698932647705078,
                2.532660484313965,
                65.0
            ],
            [
                5.602343559265137,
                2.686948537826538,
                70.0
            ],
            [
                5.505758762359619,
                2.8412368297576904,
                75.0
            ],
            [
                5.409178256988525,
                2.9955248832702637,
                80.0
            ],
            [
                5.3126020431518555,
                3.149812936782837,
                85.0
            ],
            [
                5.216030597686768,
                3.30410099029541,
                90.0
            ],
            [
                5.1194634437561035,
                3.4583888053894043,
                95.0
            ],
            [
                5.0229010581970215,
                3.6126768589019775,
                100.0
            ],
            [
                4.6366987228393555,
                4.229827880859375,
                120.0
            ],
            [
                4.250576972961426,
                4.846978187561035,
                140.0
            ],
            [
                3.8645405769348145,
                5.464128017425537,
                160.0
            ],
            [
                3.47859525680542,
                6.081277370452881,
                180.0
            ],
            [
                3.092696189880371,
                6.69842529296875,
                200.0
            ],
            [
                2.706916332244873,
                7.315573215484619,
                220.0
            ],
            [
                2.3212318420410156,
                7.932720184326172,
                240.0
            ],
            [
                1.9356462955474854,
                8.549866676330566,
                260.0
            ],
            [
                1.5501344203948975,
                9.167010307312012,
                280.0
            ],
            [
                1.1647624969482422,
                9.78415584564209,
                300.0
            ],
            [
                0.7795016169548035,
                10.401300430297852,
                320.0
            ],
            [
                0.39435452222824097,
                11.018444061279297,
                340.0
            ],
            [
                0.009287414140999317,
                11.635587692260742,
                360.0
            ],
            [
                -0.37559711933135986,
                12.252730369567871,
                380.0
            ],
            [
                -0.7603638172149658,
                12.869873046875,
                400.0
            ],
            [
                -1.145005226135254,
                13.487014770507813,
                420.0
            ],
            [
                -1.5295135974884033,
                14.104156494140625,
                440.0
            ],
            [
                -1.913881540298462,
                14.721298217773438,
                460.0
            ],
            [
                -2.2981014251708984,
                15.338438987731934,
                480.0
            ],
            [
                -2.6821658611297607,
                15.955578804016113,
                500.0
            ],
            [
                -3.0660669803619385,
                16.57271957397461,
                520.0
            ],
            [
                -3.4497973918914795,
                17.18985939025879,
                540.0
            ],
            [
                -3.8334176540374756,
                17.806997299194336,
                560.0
            ],
            [
                -4.21682596206665,
                18.424137115478516,
                580.0
            ],
            [
                -4.60005521774292,
                19.041275024414063,
                600.0
            ],
            [
                -4.983098983764648,
                19.65841293334961,
                620.0
            ],
            [
                -5.365947246551514,
                20.275550842285156,
                640.0
            ],
            [
                -5.748597145080566,
                20.892688751220703,
                660.0
            ],
            [
                -6.131043434143066,
                21.50982666015625,
                680.0
            ],
            [
                -6.513279914855957,
                22.126962661743164,
                700.0
            ],
            [
                -6.895294189453125,
                22.74410057067871,
                720.0
            ],
            [
                -7.277085304260254,
                23.361238479614258,
                740.0
            ],
            [
                -7.658646106719971,
                23.978376388549805,
                760.0
            ],
            [
                -8.039971351623535,
                24.59551429748535,
                780.0
            ],
            [
                -8.421055793762207,
                25.2126522064209,
                800.0
            ],
            [
                -8.80189323425293,
                25.829790115356445,
                820.0
            ],
            [
                -9.182476997375488,
                26.446928024291992,
                840.0
            ],
            [
                -9.562801361083984,
                27.06406593322754,
                860.0
            ],
            [
                -9.942869186401367,
                27.681203842163086,
                880.0
            ],
            [
                -10.322671890258789,
                28.298341751098633,
                900.0
            ],
            [
                -10.7022123336792,
                28.91547966003418,
                920.0
            ],
            [
                -11.081474304199219,
                29.532617568969727,
                940.0
            ],
            [
                -11.46043872833252,
                30.149757385253906,
                960.0
            ],
            [
                -11.839091300964355,
                30.76690101623535,
                980.0
            ],
            [
                -12.21744155883789,
                31.384044647216797,
                1000.0
            ],
            [
                -14.1047945022583,
                34.46977996826172,
                1100.0
            ],
            [
                -15.984149932861328,
                37.555545806884766,
                1200.0
            ],
            [
                -17.855682373046875,
                40.64133071899414,
                1300.0
            ],
            [
                -19.719158172607422,
                43.72712707519531,
                1400.0
            ],
            [
                -21.577383041381836,
                46.8128547668457,
                1500.0
            ],
            [
                -23.42608070373535,
                49.89867401123047,
                1600.0
            ],
            [
                -25.26645851135254,
                52.9844970703125,
                1700.0
            ],
            [
                -27.098814010620117,
                56.07033157348633,
                1800.0
            ],
            [
                -28.920806884765625,
                59.15616226196289,
                1900.0
            ],
            [
                -30.73078727722168,
                62.24197006225586,
                2000.0
            ],
            [
                -32.5280876159668,
                65.32774353027344,
                2100.0
            ],
            [
                -34.30916976928711,
                68.4134750366211,
                2200.0
            ],
            [
                -36.06991195678711,
                71.4991455078125,
                2300.0
            ],
            [
                -37.80982208251953,
                74.58478546142578,
                2400.0
            ],
            [
                -39.521053314208984,
                77.67025756835938,
                2500.0
            ],
            [
                -41.19956588745117,
                80.75578308105469,
                2600.0
            ],
            [
                -42.83251190185547,
                83.84123229980469,
                2700.0
            ],
            [
                -44.42152786254883,
                86.92655944824219,
                2800.0
            ],
            [
                -45.95063781738281,
                90.01179504394531,
                2900.0
            ],
            [
                -47.412391662597656,
                93.09687042236328,
                3000.0
            ],
            [
                -48.800052642822266,
                96.18175506591797,
                3100.0
            ],
            [
                -50.08917999267578,
                99.26644897460938,
                3200.0
            ],
            [
                -51.28224563598633,
                102.35091400146484,
                3300.0
            ],
            [
                -52.36854553222656,
                105.43516540527344,
                3400.0
            ],
            [
                -53.318153381347656,
                108.51913452148438,
                3500.0
            ],
            [
                -54.13457107543945,
                111.60298156738281,
                3600.0
            ],
            [
                -54.79302978515625,
                114.68690490722656,
                3700.0
            ],
            [
                -55.284278869628906,
                117.77056884765625,
                3800.0
            ],
            [
                -55.60599899291992,
                120.85382843017578,
                3900.0
            ],
            [
                -55.74687576293945,
                123.93756866455078,
                4000.0
            ],
            [
                -55.65935516357422,
                127.02195739746094,
                4100.0
            ],
            [
                -55.37992858886719,
                130.10635375976563,
                4200.0
            ],
            [
                -54.887237548828125,
                133.1907958984375,
                4300.0
            ],
            [
                -54.19071960449219,
                136.27537536621094,
                4400.0
            ],
            [
                -53.25809097290039,
                139.3616485595703,
                4500.0
            ],
            [
                -52.09511947631836,
                142.44793701171875,
                4600.0
            ],
            [
                -50.71638488769531,
                145.53416442871094,
                4700.0
            ],
            [
                -49.1034049987793,
                148.62086486816406,
                4800.0
            ],
            [
                -47.27793502807617,
                151.70840454101563,
                4900.0
            ],
            [
                -43.05305862426758,
                155.5534210205078,
                5000.0
            ],
            [
                -40.75784683227539,
                158.67030334472656,
                5100.0
            ],
            [
                -38.241554260253906,
                161.78736877441406,
                5200.0
            ],
            [
                -35.50120162963867,
                164.90545654296875,
                5300.0
            ],
            [
                -32.5465202331543,
                168.02264404296875,
                5400.0
            ],
            [
                -29.37900733947754,
                171.13970947265625,
                5500.0
            ],
            [
                -26.007474899291992,
                174.25912475585938,
                5600.0
            ],
            [
                -22.42546844482422,
                177.37789916992188,
                5700.0
            ],
            [
                -18.641633987426758,
                180.49728393554688,
                5800.0
            ],
            [
                -14.668427467346191,
                183.61703491210938,
                5900.0
            ],
            [
                -10.499604225158691,
                186.73794555664063,
                6000.0
            ],
            [
                -6.145761489868164,
                189.8592987060547,
                6100.0
            ],
            [
                -1.6128126382827759,
                192.9804229736328,
                6200.0
            ],
            [
                3.0933239459991455,
                196.10162353515625,
                6300.0
            ],
            [
                7.965672016143799,
                199.22279357910156,
                6400.0
            ],
            [
                12.999995231628418,
                202.34359741210938,
                6500.0
            ],
            [
                18.18682098388672,
                205.4646759033203,
                6600.0
            ],
            [
                23.522499084472656,
                208.58563232421875,
                6700.0
            ],
            [
                28.995763778686523,
                211.70628356933594,
                6800.0
            ],
            [
                34.60498046875,
                214.8266143798828,
                6900.0
            ],
            [
                40.34034729003906,
                217.94659423828125,
                7000.0
            ],
            [
                46.19346618652344,
                221.06617736816406,
                7100.0
            ],
            [
                52.1572265625,
                224.18531799316406,
                7200.0
            ],
            [
                58.22572326660156,
                227.3040771484375,
                7300.0
            ],
            [
                64.39381408691406,
                230.4224090576172,
                7400.0
            ],
            [
                70.6495361328125,
                233.5404510498047,
                7500.0
            ],
            [
                76.99120330810547,
                236.65805053710938,
                7600.0
            ],
            [
                83.40994262695313,
                239.7753143310547,
                7700.0
            ],
            [
                89.90235900878906,
                242.8922882080078,
                7800.0
            ],
            [
                96.46217346191406,
                246.0089874267578,
                7900.0
            ],
            [
                103.08342742919922,
                249.1254425048828,
                8000.0
            ],
            [
                109.7627944946289,
                252.2416534423828,
                8100.0
            ],
            [
                116.49371337890625,
                255.3577117919922,
                8200.0
            ],
            [
                123.27289581298828,
                258.47357177734375,
                8300.0
            ],
            [
                130.09671020507813,
                261.5892639160156,
                8400.0
            ],
            [
                136.9615478515625,
                264.704833984375,
                8500.0
            ],
            [
                143.86273193359375,
                267.82025146484375,
                8600.0
            ],
            [
                150.79833984375,
                270.935546875,
                8700.0
            ],
            [
                157.76519775390625,
                274.0506896972656,
                8800.0
            ],
            [
                164.76043701171875,
                277.1658020019531,
                8900.0
            ],
            [
                171.78199768066406,
                280.28082275390625,
                9000.0
            ],
            [
                178.82752990722656,
                283.39581298828125,
                9100.0
            ],
            [
                185.8948516845703,
                286.5107727050781,
                9200.0
            ],
            [
                192.98216247558594,
                289.62567138671875,
                9300.0
            ],
            [
                200.08766174316406,
                292.7405700683594,
                9400.0
            ],
            [
                207.20970153808594,
                295.8554382324219,
                9500.0
            ],
            [
                214.34690856933594,
                298.9703063964844,
                9600.0
            ],
            [
                221.4978790283203,
                302.08514404296875,
                9700.0
            ],
            [
                228.66146850585938,
                305.1999816894531,
                9800.0
            ],
            [
                235.83644104003906,
                308.3148498535156,
                9900.0
            ],
            [
                243.02188110351563,
                311.4297180175781,
                10000.0
            ],
            [
                257.42047119140625,
                317.659423828125,
                10200.0
            ],
            [
                271.85089111328125,
                323.8891906738281,
                10400.0
            ],
            [
                286.30731201171875,
                330.1190185546875,
                10600.0
            ],
            [
                300.7860107421875,
                336.348876953125,
                10800.0
            ],
            [
                315.2821960449219,
                342.5787658691406,
                11000.0
            ],
            [
                329.7934875488281,
                348.8087158203125,
                11200.0
            ],
            [
                344.317626953125,
                355.0387268066406,
                11400.0
            ],
            [
                358.8514709472656,
                361.2687683105469,
                11600.0
            ],
            [
                373.39361572265625,
                367.49884033203125,
                11800.0
            ],
            [
                387.9422607421875,
                373.72894287109375,
                12000.0
            ],
            [
                402.4975280761719,
                379.9590759277344,
                12200.0
            ],
            [
                417.0570983886719,
                386.189208984375,
                12400.0
            ],
            [
                431.6192932128906,
                392.4194030761719,
                12600.0
            ],
            [
                446.1842041015625,
                398.6496276855469,
                12800.0
            ],
            [
                460.7521057128906,
                404.8798522949219,
                13000.0
            ],
            [
                475.3221740722656,
                411.1100769042969,
                13200.0
            ],
            [
                489.893310546875,
                417.34033203125,
                13400.0
            ]
        ],
        "zFirstMeasurement": 449.2343
    }
]
