[
    {
        "E": 83543.6590680651,
        "chi2": 0.0,
        "ip": 0.0416148850542749,
        "ipchi2": 2.371998396912481,
        "mass": 1861.156,
        "particleId": "D0",
        "pvx": 0.6193,
        "pvy": 0.0857,
        "pvz": 42.814,
        "px": 2794.32,
        "py": -2219.41,
        "pz": 83446.66,
        "q": 0.0,
        "trajectory": [
            [
                0.6193000078201294,
                0.08569999784231186,
                42.81399917602539
            ],
            [
                0.9577999711036682,
                -0.23229999840259552,
                54.00809860229492
            ]
        ],
        "zFirstMeasurement": -9999.0
    },
    {
        "E": 36047.64607200944,
        "chi2": 0.6328473091125488,
        "ip": 0.29943263714381146,
        "ipchi2": 132.39147975891413,
        "mass": 493.677,
        "particleId": "K-",
        "pvx": 0.6193,
        "pvy": 0.0857,
        "pvz": 42.814,
        "px": 2028.64,
        "py": -800.41,
        "pz": 35978.23,
        "q": -1.0,
        "trajectory": [
            [
                0.9572872519493103,
                -0.22601908445358276,
                54.00809860229492
            ],
            [
                1.2392076253890991,
                -0.3372543454170227,
                59.00809860229492
            ],
            [
                1.521126389503479,
                -0.44848957657814026,
                64.00810241699219
            ],
            [
                1.8030433654785156,
                -0.5597248077392578,
                69.00810241699219
            ],
            [
                2.084958791732788,
                -0.6709599494934082,
                74.00810241699219
            ],
            [
                2.3668723106384277,
                -0.7821950912475586,
                79.00810241699219
            ],
            [
                2.6487841606140137,
                -0.8934301733970642,
                84.00810241699219
            ],
            [
                2.930694103240967,
                -1.0046652555465698,
                89.00810241699219
            ],
            [
                3.212602138519287,
                -1.1159002780914307,
                94.00810241699219
            ],
            [
                3.4945085048675537,
                -1.227135181427002,
                99.00810241699219
            ],
            [
                3.7764129638671875,
                -1.3383702039718628,
                104.00810241699219
            ],
            [
                4.903998851776123,
                -1.7833197116851807,
                124.00810241699219
            ],
            [
                6.031569004058838,
                -2.2282586097717285,
                144.0081024169922
            ],
            [
                7.159109592437744,
                -2.6731972694396973,
                164.0081024169922
            ],
            [
                8.286617279052734,
                -3.1181349754333496,
                184.0081024169922
            ],
            [
                9.414092063903809,
                -3.563072443008423,
                204.0081024169922
            ],
            [
                10.541529655456543,
                -4.00800895690918,
                224.0081024169922
            ],
            [
                11.668929100036621,
                -4.452945232391357,
                244.0081024169922
            ],
            [
                12.79628849029541,
                -4.897881031036377,
                264.0080871582031
            ],
            [
                13.923604965209961,
                -5.34281587600708,
                284.0080871582031
            ],
            [
                15.050901412963867,
                -5.787750720977783,
                304.0080871582031
            ],
            [
                16.17814064025879,
                -6.23268461227417,
                324.0080871582031
            ],
            [
                17.305335998535156,
                -6.677618026733398,
                344.0080871582031
            ],
            [
                18.432485580444336,
                -7.122550964355469,
                364.0080871582031
            ],
            [
                19.559585571289063,
                -7.567483425140381,
                384.0080871582031
            ],
            [
                20.68663787841797,
                -8.012414932250977,
                404.0080871582031
            ],
            [
                21.813636779785156,
                -8.457345962524414,
                424.0080871582031
            ],
            [
                22.940584182739258,
                -8.902276992797852,
                444.0080871582031
            ],
            [
                24.067476272583008,
                -9.347207069396973,
                464.0080871582031
            ],
            [
                25.19431495666504,
                -9.792137145996094,
                484.0080871582031
            ],
            [
                26.32109260559082,
                -10.237065315246582,
                504.0080871582031
            ],
            [
                27.447811126708984,
                -10.681994438171387,
                524.0081176757813
            ],
            [
                28.5744686126709,
                -11.126922607421875,
                544.0081176757813
            ],
            [
                29.7010555267334,
                -11.571849822998047,
                564.0081176757813
            ],
            [
                30.827573776245117,
                -12.016777038574219,
                584.0081176757813
            ],
            [
                31.954023361206055,
                -12.461703300476074,
                604.0081176757813
            ],
            [
                33.08039855957031,
                -12.906630516052246,
                624.0081176757813
            ],
            [
                34.20669937133789,
                -13.351556777954102,
                644.0081176757813
            ],
            [
                35.33292770385742,
                -13.79648208618164,
                664.0081176757813
            ],
            [
                36.45907974243164,
                -14.24140739440918,
                684.0081176757813
            ],
            [
                37.58515548706055,
                -14.686332702636719,
                704.0081176757813
            ],
            [
                38.71113967895508,
                -15.131257057189941,
                724.0081176757813
            ],
            [
                39.83702850341797,
                -15.576181411743164,
                744.0081176757813
            ],
            [
                40.962833404541016,
                -16.02110481262207,
                764.0081176757813
            ],
            [
                42.08855056762695,
                -16.46603012084961,
                784.0081176757813
            ],
            [
                43.214176177978516,
                -16.910953521728516,
                804.0081176757813
            ],
            [
                44.3397102355957,
                -17.355876922607422,
                824.0081176757813
            ],
            [
                45.46514892578125,
                -17.800798416137695,
                844.0081176757813
            ],
            [
                46.59048843383789,
                -18.2457218170166,
                864.0081176757813
            ],
            [
                47.715721130371094,
                -18.690645217895508,
                884.0081176757813
            ],
            [
                48.84083938598633,
                -19.13557243347168,
                904.0081176757813
            ],
            [
                49.96582794189453,
                -19.580501556396484,
                924.0081176757813
            ],
            [
                51.09070587158203,
                -20.025428771972656,
                944.0081176757813
            ],
            [
                52.21547317504883,
                -20.47035789489746,
                964.0081176757813
            ],
            [
                53.34012222290039,
                -20.915287017822266,
                984.0081176757813
            ],
            [
                54.46466064453125,
                -21.360218048095703,
                1004.0081176757813
            ],
            [
                60.08589172363281,
                -23.584854125976563,
                1104.008056640625
            ],
            [
                65.7033920288086,
                -25.809511184692383,
                1204.008056640625
            ],
            [
                71.31831359863281,
                -28.0341854095459,
                1304.008056640625
            ],
            [
                76.93023681640625,
                -30.25886344909668,
                1404.008056640625
            ],
            [
                82.53955078125,
                -32.48352813720703,
                1504.008056640625
            ],
            [
                88.14576721191406,
                -34.70820617675781,
                1604.008056640625
            ],
            [
                93.74874877929688,
                -36.93290328979492,
                1704.008056640625
            ],
            [
                99.34790802001953,
                -39.15760803222656,
                1804.008056640625
            ],
            [
                104.94365692138672,
                -41.38231658935547,
                1904.008056640625
            ],
            [
                110.53473663330078,
                -43.606964111328125,
                2004.008056640625
            ],
            [
                116.1211166381836,
                -45.83158874511719,
                2104.008056640625
            ],
            [
                121.69976043701172,
                -48.05624771118164,
                2204.008056640625
            ],
            [
                127.27246856689453,
                -50.28084945678711,
                2304.008056640625
            ],
            [
                132.8359375,
                -52.50542068481445,
                2404.008056640625
            ],
            [
                138.38719177246094,
                -54.729949951171875,
                2504.008056640625
            ],
            [
                143.9252166748047,
                -56.95442199707031,
                2604.008056640625
            ],
            [
                149.44805908203125,
                -59.1788444519043,
                2704.008056640625
            ],
            [
                154.9529266357422,
                -61.40314483642578,
                2804.008056640625
            ],
            [
                160.4344024658203,
                -63.627288818359375,
                2904.008056640625
            ],
            [
                165.8892822265625,
                -65.85133361816406,
                3004.008056640625
            ],
            [
                171.31666564941406,
                -68.07524108886719,
                3104.008056640625
            ],
            [
                176.70599365234375,
                -70.29887390136719,
                3204.008056640625
            ],
            [
                182.05702209472656,
                -72.52230072021484,
                3304.008056640625
            ],
            [
                187.3638458251953,
                -74.74547576904297,
                3404.008056640625
            ],
            [
                192.62022399902344,
                -76.96836853027344,
                3504.008056640625
            ],
            [
                197.8259735107422,
                -79.19107055664063,
                3604.008056640625
            ],
            [
                202.97193908691406,
                -81.41361999511719,
                3704.008056640625
            ],
            [
                208.0532684326172,
                -83.6357650756836,
                3804.008056640625
            ],
            [
                213.0669708251953,
                -85.85759735107422,
                3904.008056640625
            ],
            [
                218.01058959960938,
                -88.07938385009766,
                4004.008056640625
            ],
            [
                222.87738037109375,
                -90.30120086669922,
                4104.00830078125
            ],
            [
                227.6598663330078,
                -92.52301025390625,
                4204.00830078125
            ],
            [
                232.36045837402344,
                -94.74442291259766,
                4304.00830078125
            ],
            [
                236.97964477539063,
                -96.96610260009766,
                4404.00830078125
            ],
            [
                241.51443481445313,
                -99.18778228759766,
                4504.00830078125
            ],
            [
                245.96189880371094,
                -101.40953063964844,
                4604.00830078125
            ],
            [
                250.3204803466797,
                -103.6312484741211,
                4704.00830078125
            ],
            [
                254.59527587890625,
                -105.85279846191406,
                4804.00830078125
            ],
            [
                257.8526306152344,
                -108.46356201171875,
                4904.00830078125
            ],
            [
                261.9264221191406,
                -110.69615936279297,
                5004.00830078125
            ],
            [
                265.91192626953125,
                -112.92909240722656,
                5104.00830078125
            ],
            [
                269.8134460449219,
                -115.16215515136719,
                5204.00830078125
            ],
            [
                273.6298828125,
                -117.39564514160156,
                5304.00830078125
            ],
            [
                277.36383056640625,
                -119.62891387939453,
                5404.00830078125
            ],
            [
                281.0156555175781,
                -121.86186981201172,
                5504.00830078125
            ],
            [
                284.5895690917969,
                -124.0956039428711,
                5604.00830078125
            ],
            [
                288.0833740234375,
                -126.32929229736328,
                5704.00830078125
            ],
            [
                291.5,
                -128.56324768066406,
                5804.00830078125
            ],
            [
                294.8441467285156,
                -130.79734802246094,
                5904.00830078125
            ],
            [
                298.113525390625,
                -133.03175354003906,
                6004.00830078125
            ],
            [
                301.3128662109375,
                -135.2664794921875,
                6104.00830078125
            ],
            [
                304.4439697265625,
                -137.5012969970703,
                6204.00830078125
            ],
            [
                307.5086975097656,
                -139.73614501953125,
                6304.00830078125
            ],
            [
                310.5101013183594,
                -141.9711151123047,
                6404.00830078125
            ],
            [
                313.44989013671875,
                -144.2061309814453,
                6504.00830078125
            ],
            [
                316.33148193359375,
                -146.4413604736328,
                6604.00830078125
            ],
            [
                319.1565856933594,
                -148.6767578125,
                6704.00830078125
            ],
            [
                321.9294128417969,
                -150.91224670410156,
                6804.00830078125
            ],
            [
                324.6506652832031,
                -153.1478271484375,
                6904.00830078125
            ],
            [
                327.32403564453125,
                -155.38351440429688,
                7004.00830078125
            ],
            [
                329.95263671875,
                -157.61929321289063,
                7104.00830078125
            ],
            [
                332.53912353515625,
                -159.8551483154297,
                7204.00830078125
            ],
            [
                335.0858154296875,
                -162.09109497070313,
                7304.00830078125
            ],
            [
                337.5948791503906,
                -164.32713317871094,
                7404.00830078125
            ],
            [
                340.070556640625,
                -166.5632781982422,
                7504.00830078125
            ],
            [
                342.5134582519531,
                -168.7995147705078,
                7604.00830078125
            ],
            [
                344.92706298828125,
                -171.03582763671875,
                7704.00830078125
            ],
            [
                347.3126220703125,
                -173.2722625732422,
                7804.00830078125
            ],
            [
                349.6725158691406,
                -175.50880432128906,
                7904.00830078125
            ],
            [
                352.00897216796875,
                -177.74542236328125,
                8004.00830078125
            ],
            [
                354.3233337402344,
                -179.98214721679688,
                8104.00830078125
            ],
            [
                356.6179504394531,
                -182.2189483642578,
                8204.0078125
            ],
            [
                358.8941955566406,
                -184.45582580566406,
                8304.0078125
            ],
            [
                361.1534118652344,
                -186.69277954101563,
                8404.0078125
            ],
            [
                363.3970031738281,
                -188.92979431152344,
                8504.0078125
            ],
            [
                365.6266784667969,
                -191.16685485839844,
                8604.0078125
            ],
            [
                367.8432312011719,
                -193.40396118164063,
                8704.0078125
            ],
            [
                370.0478515625,
                -195.64109802246094,
                8804.0078125
            ],
            [
                372.2416687011719,
                -197.87828063964844,
                8904.0078125
            ],
            [
                374.4254150390625,
                -200.115478515625,
                9004.0078125
            ],
            [
                376.6000061035156,
                -202.3527069091797,
                9104.0078125
            ],
            [
                378.76629638671875,
                -204.5899658203125,
                9204.0078125
            ],
            [
                380.92498779296875,
                -206.82723999023438,
                9304.0078125
            ],
            [
                383.07672119140625,
                -209.0645294189453,
                9404.0078125
            ],
            [
                385.22216796875,
                -211.30181884765625,
                9504.0078125
            ],
            [
                387.3617858886719,
                -213.53912353515625,
                9604.0078125
            ],
            [
                389.4961853027344,
                -215.7764434814453,
                9704.0078125
            ],
            [
                391.62579345703125,
                -218.01376342773438,
                9804.0078125
            ],
            [
                393.75103759765625,
                -220.25106811523438,
                9904.0078125
            ],
            [
                395.8722839355469,
                -222.48838806152344,
                10004.0078125
            ],
            [
                400.10418701171875,
                -226.9630126953125,
                10204.0078125
            ],
            [
                404.323974609375,
                -231.43763732910156,
                10404.0078125
            ],
            [
                408.5338134765625,
                -235.9122314453125,
                10604.0078125
            ],
            [
                412.73516845703125,
                -240.3867950439453,
                10804.0078125
            ],
            [
                416.9298095703125,
                -244.861328125,
                11004.0078125
            ],
            [
                421.1186828613281,
                -249.33584594726563,
                11204.0078125
            ],
            [
                425.3026428222656,
                -253.81031799316406,
                11404.0078125
            ],
            [
                429.4829406738281,
                -258.2847595214844,
                11604.0078125
            ],
            [
                433.6600036621094,
                -262.7591857910156,
                11804.0078125
            ],
            [
                437.8345642089844,
                -267.23358154296875,
                12004.0078125
            ],
            [
                442.0066223144531,
                -271.7079772949219,
                12204.0078125
            ],
            [
                446.1770324707031,
                -276.18231201171875,
                12404.0078125
            ],
            [
                450.346435546875,
                -280.6566467285156,
                12604.0078125
            ],
            [
                454.5148010253906,
                -285.1309814453125,
                12804.0078125
            ],
            [
                458.6819763183594,
                -289.60528564453125,
                13004.0078125
            ],
            [
                462.8483581542969,
                -294.0795593261719,
                13204.0078125
            ],
            [
                467.0143127441406,
                -298.5538635253906,
                13404.0078125
            ]
        ],
        "zFirstMeasurement": 184.2987
    },
    {
        "E": 47496.347850415805,
        "chi2": 1.0873210430145264,
        "ip": 0.16437516771377875,
        "ipchi2": 18.58329825518597,
        "mass": 139.57,
        "particleId": "pi+",
        "pvx": 0.6193,
        "pvy": 0.0857,
        "pvz": 42.814,
        "px": 765.29,
        "py": -1415.73,
        "pz": 47468.87,
        "q": 1.0,
        "trajectory": [
            [
                0.962052047252655,
                -0.27457770705223083,
                54.00809860229492
            ],
            [
                1.042667269706726,
                -0.42369958758354187,
                59.00809860229492
            ],
            [
                1.1232837438583374,
                -0.5728214979171753,
                64.00810241699219
            ],
            [
                1.2039015293121338,
                -0.7219434380531311,
                69.00810241699219
            ],
            [
                1.2845206260681152,
                -0.8710653781890869,
                74.00810241699219
            ],
            [
                1.3651410341262817,
                -1.0201873779296875,
                79.00810241699219
            ],
            [
                1.4457627534866333,
                -1.169309377670288,
                84.00810241699219
            ],
            [
                1.5263859033584595,
                -1.3184313774108887,
                89.00810241699219
            ],
            [
                1.6070103645324707,
                -1.4675533771514893,
                94.00810241699219
            ],
            [
                1.6876362562179565,
                -1.6166753768920898,
                99.00810241699219
            ],
            [
                1.768263578414917,
                -1.76579749584198,
                104.00810241699219
            ],
            [
                2.090787410736084,
                -2.362285852432251,
                124.00810241699219
            ],
            [
                2.4133241176605225,
                -2.9587745666503906,
                144.0081024169922
            ],
            [
                2.735891103744507,
                -3.5552635192871094,
                164.0081024169922
            ],
            [
                3.0584826469421387,
                -4.151752948760986,
                184.0081024169922
            ],
            [
                3.3810994625091553,
                -4.748242378234863,
                204.0081024169922
            ],
            [
                3.7037429809570313,
                -5.344732284545898,
                224.0081024169922
            ],
            [
                4.02637243270874,
                -5.941307544708252,
                244.0081024169922
            ],
            [
                4.3490729331970215,
                -6.537797927856445,
                264.0080871582031
            ],
            [
                4.6718034744262695,
                -7.134288787841797,
                284.0080871582031
            ],
            [
                4.994565486907959,
                -7.730779647827148,
                304.0080871582031
            ],
            [
                5.317359924316406,
                -8.327271461486816,
                324.0080871582031
            ],
            [
                5.6401777267456055,
                -8.923762321472168,
                344.0080871582031
            ],
            [
                5.963046073913574,
                -9.520254135131836,
                364.0080871582031
            ],
            [
                6.285948276519775,
                -10.116745948791504,
                384.0080871582031
            ],
            [
                6.608886241912842,
                -10.713238716125488,
                404.0080871582031
            ],
            [
                6.931861400604248,
                -11.309730529785156,
                424.0080871582031
            ],
            [
                7.254876136779785,
                -11.90622329711914,
                444.0080871582031
            ],
            [
                7.577932834625244,
                -12.502716064453125,
                464.0080871582031
            ],
            [
                7.9010329246521,
                -13.09920883178711,
                484.0080871582031
            ],
            [
                8.2241792678833,
                -13.69570255279541,
                504.0080871582031
            ],
            [
                8.547374725341797,
                -14.292195320129395,
                524.0081176757813
            ],
            [
                8.870600700378418,
                -14.888689041137695,
                544.0081176757813
            ],
            [
                9.193886756896973,
                -15.485182762145996,
                564.0081176757813
            ],
            [
                9.517223358154297,
                -16.081676483154297,
                584.0081176757813
            ],
            [
                9.840612411499023,
                -16.678171157836914,
                604.0081176757813
            ],
            [
                10.164056777954102,
                -17.27466583251953,
                624.0081176757813
            ],
            [
                10.487555503845215,
                -17.871158599853516,
                644.0081176757813
            ],
            [
                10.811114311218262,
                -18.467653274536133,
                664.0081176757813
            ],
            [
                11.134733200073242,
                -19.06414794921875,
                684.0081176757813
            ],
            [
                11.458414077758789,
                -19.660642623901367,
                704.0081176757813
            ],
            [
                11.782159805297852,
                -20.257137298583984,
                724.0081176757813
            ],
            [
                12.105972290039063,
                -20.85363006591797,
                744.0081176757813
            ],
            [
                12.429852485656738,
                -21.450124740600586,
                764.0081176757813
            ],
            [
                12.753802299499512,
                -22.046619415283203,
                784.0081176757813
            ],
            [
                13.077823638916016,
                -22.643112182617188,
                804.0081176757813
            ],
            [
                13.40191650390625,
                -23.239606857299805,
                824.0081176757813
            ],
            [
                13.72608470916748,
                -23.83609962463379,
                844.0081176757813
            ],
            [
                14.05033016204834,
                -24.432592391967773,
                864.0081176757813
            ],
            [
                14.374651908874512,
                -25.029085159301758,
                884.0081176757813
            ],
            [
                14.699047088623047,
                -25.625579833984375,
                904.0081176757813
            ],
            [
                15.023520469665527,
                -26.22207260131836,
                924.0081176757813
            ],
            [
                15.348075866699219,
                -26.818567276000977,
                944.0081176757813
            ],
            [
                15.672715187072754,
                -27.41506004333496,
                964.0081176757813
            ],
            [
                15.997438430786133,
                -28.011552810668945,
                984.0081176757813
            ],
            [
                16.32225799560547,
                -28.608043670654297,
                1004.0081176757813
            ],
            [
                17.947662353515625,
                -31.590492248535156,
                1104.008056640625
            ],
            [
                19.575416564941406,
                -34.57292556762695,
                1204.008056640625
            ],
            [
                21.20549964904785,
                -37.55534362792969,
                1304.008056640625
            ],
            [
                22.837932586669922,
                -40.53776550292969,
                1404.008056640625
            ],
            [
                24.471668243408203,
                -43.5202522277832,
                1504.008056640625
            ],
            [
                26.108322143554688,
                -46.5026741027832,
                1604.008056640625
            ],
            [
                27.7474308013916,
                -49.485084533691406,
                1704.008056640625
            ],
            [
                29.38896369934082,
                -52.467491149902344,
                1804.008056640625
            ],
            [
                31.0334529876709,
                -55.449886322021484,
                1904.008056640625
            ],
            [
                32.68163299560547,
                -58.432273864746094,
                2004.008056640625
            ],
            [
                34.33339309692383,
                -61.41465759277344,
                2104.008056640625
            ],
            [
                35.99010467529297,
                -64.39702606201172,
                2204.008056640625
            ],
            [
                37.65271759033203,
                -67.3794174194336,
                2304.008056640625
            ],
            [
                39.321495056152344,
                -70.36180877685547,
                2404.008056640625
            ],
            [
                40.99829864501953,
                -73.34430694580078,
                2504.008056640625
            ],
            [
                42.685096740722656,
                -76.32667541503906,
                2604.008056640625
            ],
            [
                44.3851318359375,
                -79.30903625488281,
                2704.008056640625
            ],
            [
                46.09837341308594,
                -82.2914047241211,
                2804.008056640625
            ],
            [
                47.82891845703125,
                -85.27377319335938,
                2904.008056640625
            ],
            [
                49.57927322387695,
                -88.25611114501953,
                3004.008056640625
            ],
            [
                51.35169982910156,
                -91.23849487304688,
                3104.008056640625
            ],
            [
                53.1522216796875,
                -94.22101593017578,
                3204.008056640625
            ],
            [
                54.98188018798828,
                -97.20362854003906,
                3304.008056640625
            ],
            [
                56.841773986816406,
                -100.1862564086914,
                3404.008056640625
            ],
            [
                58.7414665222168,
                -103.16915893554688,
                3504.008056640625
            ],
            [
                60.68037033081055,
                -106.1518783569336,
                3604.008056640625
            ],
            [
                62.66524124145508,
                -109.13473510742188,
                3704.008056640625
            ],
            [
                64.69873046875,
                -112.11762237548828,
                3804.008056640625
            ],
            [
                66.78205871582031,
                -115.10051727294922,
                3904.008056640625
            ],
            [
                68.91799926757813,
                -118.08338928222656,
                4004.008056640625
            ],
            [
                71.11944580078125,
                -121.06626892089844,
                4104.00830078125
            ],
            [
                73.3779296875,
                -124.04924774169922,
                4204.00830078125
            ],
            [
                75.6993637084961,
                -127.03217315673828,
                4304.00830078125
            ],
            [
                78.07762145996094,
                -130.01507568359375,
                4404.00830078125
            ],
            [
                80.52556610107422,
                -132.9981689453125,
                4504.00830078125
            ],
            [
                83.03984069824219,
                -135.9809112548828,
                4604.00830078125
            ],
            [
                85.6181640625,
                -138.96368408203125,
                4704.00830078125
            ],
            [
                88.26538848876953,
                -141.94613647460938,
                4804.00830078125
            ],
            [
                90.97279357910156,
                -144.92864990234375,
                4904.00830078125
            ],
            [
                93.97746276855469,
                -147.66978454589844,
                5004.00830078125
            ],
            [
                96.81553649902344,
                -150.63946533203125,
                5104.00830078125
            ],
            [
                99.71715545654297,
                -153.6090087890625,
                5204.00830078125
            ],
            [
                102.68327331542969,
                -156.57818603515625,
                5304.00830078125
            ],
            [
                105.71206665039063,
                -159.54751586914063,
                5404.00830078125
            ],
            [
                108.80327606201172,
                -162.51710510253906,
                5504.00830078125
            ],
            [
                111.95367431640625,
                -165.48611450195313,
                5604.00830078125
            ],
            [
                115.16493225097656,
                -168.45513916015625,
                5704.00830078125
            ],
            [
                118.43487548828125,
                -171.42391967773438,
                5804.00830078125
            ],
            [
                121.75997161865234,
                -174.39254760742188,
                5904.00830078125
            ],
            [
                125.14212799072266,
                -177.36102294921875,
                6004.00830078125
            ],
            [
                128.5773468017578,
                -180.32920837402344,
                6104.00830078125
            ],
            [
                132.06454467773438,
                -183.29725646972656,
                6204.00830078125
            ],
            [
                135.60220336914063,
                -186.26528930664063,
                6304.00830078125
            ],
            [
                139.18807983398438,
                -189.23316955566406,
                6404.00830078125
            ],
            [
                142.821044921875,
                -192.2009735107422,
                6504.00830078125
            ],
            [
                146.49827575683594,
                -195.16859436035156,
                6604.00830078125
            ],
            [
                150.21849060058594,
                -198.13601684570313,
                6704.00830078125
            ],
            [
                153.9785919189453,
                -201.10330200195313,
                6804.00830078125
            ],
            [
                157.77796936035156,
                -204.07046508789063,
                6904.00830078125
            ],
            [
                161.61383056640625,
                -207.03749084472656,
                7004.00830078125
            ],
            [
                165.4837646484375,
                -210.00437927246094,
                7104.00830078125
            ],
            [
                169.38580322265625,
                -212.9711151123047,
                7204.00830078125
            ],
            [
                173.31817626953125,
                -215.93768310546875,
                7304.00830078125
            ],
            [
                177.27920532226563,
                -218.90411376953125,
                7404.00830078125
            ],
            [
                181.2657470703125,
                -221.87037658691406,
                7504.00830078125
            ],
            [
                185.27716064453125,
                -224.8365020751953,
                7604.00830078125
            ],
            [
                189.31088256835938,
                -227.8024444580078,
                7704.00830078125
            ],
            [
                193.3659210205078,
                -230.7682342529297,
                7804.00830078125
            ],
            [
                197.44049072265625,
                -233.73385620117188,
                7904.00830078125
            ],
            [
                201.5328826904297,
                -236.69932556152344,
                8004.00830078125
            ],
            [
                205.64207458496094,
                -239.66464233398438,
                8104.00830078125
            ],
            [
                209.76625061035156,
                -242.6298065185547,
                8204.0078125
            ],
            [
                213.9043731689453,
                -245.5948486328125,
                8304.0078125
            ],
            [
                218.055419921875,
                -248.5597686767578,
                8404.0078125
            ],
            [
                222.2183380126953,
                -251.52456665039063,
                8504.0078125
            ],
            [
                226.3917999267578,
                -254.48927307128906,
                8604.0078125
            ],
            [
                230.57521057128906,
                -257.4538879394531,
                8704.0078125
            ],
            [
                234.76766967773438,
                -260.41839599609375,
                8804.0078125
            ],
            [
                238.96832275390625,
                -263.3828430175781,
                8904.0078125
            ],
            [
                243.17660522460938,
                -266.34722900390625,
                9004.0078125
            ],
            [
                247.3917999267578,
                -269.3115539550781,
                9104.0078125
            ],
            [
                251.61328125,
                -272.2757873535156,
                9204.0078125
            ],
            [
                255.84054565429688,
                -275.239990234375,
                9304.0078125
            ],
            [
                260.07305908203125,
                -278.2041320800781,
                9404.0078125
            ],
            [
                264.31036376953125,
                -281.1682434082031,
                9504.0078125
            ],
            [
                268.5520324707031,
                -284.13232421875,
                9604.0078125
            ],
            [
                272.79766845703125,
                -287.09637451171875,
                9704.0078125
            ],
            [
                277.0469665527344,
                -290.0603942871094,
                9804.0078125
            ],
            [
                281.2995300292969,
                -293.0243835449219,
                9904.0078125
            ],
            [
                285.5551452636719,
                -295.98834228515625,
                10004.0078125
            ],
            [
                294.0743713378906,
                -301.9162292480469,
                10204.0078125
            ],
            [
                302.6028137207031,
                -307.8440856933594,
                10404.0078125
            ],
            [
                311.13873291015625,
                -313.7718811035156,
                10604.0078125
            ],
            [
                319.6811218261719,
                -319.69964599609375,
                10804.0078125
            ],
            [
                328.2285461425781,
                -325.6274108886719,
                11004.0078125
            ],
            [
                336.7803649902344,
                -331.55517578125,
                11204.0078125
            ],
            [
                345.3359069824219,
                -337.4829406738281,
                11404.0078125
            ],
            [
                353.8941955566406,
                -343.41070556640625,
                11604.0078125
            ],
            [
                362.4549560546875,
                -349.3384704589844,
                11804.0078125
            ],
            [
                371.0175476074219,
                -355.2662658691406,
                12004.0078125
            ],
            [
                379.58209228515625,
                -361.19403076171875,
                12204.0078125
            ],
            [
                388.1478576660156,
                -367.121826171875,
                12404.0078125
            ],
            [
                396.7143859863281,
                -373.0496520996094,
                12604.0078125
            ],
            [
                405.2817077636719,
                -378.9774475097656,
                12804.0078125
            ],
            [
                413.84991455078125,
                -384.9052734375,
                13004.0078125
            ],
            [
                422.418701171875,
                -390.8330993652344,
                13204.0078125
            ],
            [
                430.9878234863281,
                -396.7609558105469,
                13404.0078125
            ]
        ],
        "zFirstMeasurement": 434.2704
    },
    {
        "E": 6158.791668764679,
        "chi2": 1.2644519805908203,
        "ip": 0.10352649638404293,
        "ipchi2": 8.20555800048649,
        "mass": 139.57018,
        "particleId": "pi+",
        "pvx": 0.6193,
        "pvy": 0.0857,
        "pvz": 42.814,
        "px": 464.7920668680865,
        "py": -739.1460212555688,
        "pz": 6094.986995715294,
        "q": 1.0,
        "trajectory": [
            [
                -10.328339576721191,
                17.490285873413086,
                -100.0
            ],
            [
                -9.947269439697266,
                16.88393783569336,
                -95.0
            ],
            [
                -9.566191673278809,
                16.277589797973633,
                -90.0
            ],
            [
                -9.185107231140137,
                15.67124080657959,
                -85.0
            ],
            [
                -8.804015159606934,
                15.064892768859863,
                -80.0
            ],
            [
                -8.422917366027832,
                14.45854377746582,
                -75.0
            ],
            [
                -8.0418119430542,
                13.852194786071777,
                -70.0
            ],
            [
                -7.660699367523193,
                13.245844841003418,
                -65.0
            ],
            [
                -7.2795796394348145,
                12.639495849609375,
                -60.0
            ],
            [
                -6.898512363433838,
                12.033146858215332,
                -55.0
            ],
            [
                -6.517370223999023,
                11.426796913146973,
                -50.0
            ],
            [
                -6.136220932006836,
                10.820446014404297,
                -45.0
            ],
            [
                -5.755064964294434,
                10.214095115661621,
                -40.0
            ],
            [
                -5.373900890350342,
                9.607744216918945,
                -35.0
            ],
            [
                -4.992730140686035,
                9.001392364501953,
                -30.0
            ],
            [
                -4.611552715301514,
                8.395040512084961,
                -25.0
            ],
            [
                -4.230367660522461,
                7.788689136505127,
                -20.0
            ],
            [
                -3.849175214767456,
                7.182336807250977,
                -15.0
            ],
            [
                -3.467975616455078,
                6.575984001159668,
                -10.0
            ],
            [
                -3.08676815032959,
                5.969631195068359,
                -5.0
            ],
            [
                -2.7055530548095703,
                5.363278388977051,
                0.0
            ],
            [
                -2.3243298530578613,
                4.756925106048584,
                5.0
            ],
            [
                -1.943098545074463,
                4.150571346282959,
                10.0
            ],
            [
                -1.561859130859375,
                3.544217348098755,
                15.0
            ],
            [
                -1.180611252784729,
                2.9378631114959717,
                20.0
            ],
            [
                -0.7993547916412354,
                2.3315086364746094,
                25.0
            ],
            [
                -0.41808968782424927,
                1.7251536846160889,
                30.0
            ],
            [
                -0.036815714091062546,
                1.1187986135482788,
                35.0
            ],
            [
                0.34446725249290466,
                0.5124431252479553,
                40.0
            ],
            [
                0.7257593274116516,
                -0.09391260892152786,
                45.0
            ],
            [
                1.1070607900619507,
                -0.7002686858177185,
                50.0
            ],
            [
                1.4883716106414795,
                -1.3066250085830688,
                55.0
            ],
            [
                1.869692087173462,
                -1.9129817485809326,
                60.0
            ],
            [
                2.2510221004486084,
                -2.519338846206665,
                65.0
            ],
            [
                2.6323623657226563,
                -3.1256961822509766,
                70.0
            ],
            [
                3.0137124061584473,
                -3.732053756713867,
                75.0
            ],
            [
                3.3950726985931396,
                -4.338411808013916,
                80.0
            ],
            [
                3.776475191116333,
                -4.944758415222168,
                85.0
            ],
            [
                4.15785551071167,
                -5.551116943359375,
                90.0
            ],
            [
                4.539246082305908,
                -6.15747594833374,
                95.0
            ],
            [
                4.920645713806152,
                -6.763835430145264,
                100.0
            ],
            [
                6.446348190307617,
                -9.189275741577148,
                120.0
            ],
            [
                7.97222375869751,
                -11.614721298217773,
                140.0
            ],
            [
                9.498283386230469,
                -14.040172576904297,
                160.0
            ],
            [
                11.02453899383545,
                -16.46562957763672,
                180.0
            ],
            [
                12.551002502441406,
                -18.891094207763672,
                200.0
            ],
            [
                14.077686309814453,
                -21.31656265258789,
                220.0
            ],
            [
                15.604474067687988,
                -23.742036819458008,
                240.0
            ],
            [
                17.131555557250977,
                -26.167516708374023,
                260.0
            ],
            [
                18.65886878967285,
                -28.59300422668457,
                280.0
            ],
            [
                20.186420440673828,
                -31.01849937438965,
                300.0
            ],
            [
                21.71422004699707,
                -33.444000244140625,
                320.0
            ],
            [
                23.24227523803711,
                -35.8695068359375,
                340.0
            ],
            [
                24.770593643188477,
                -38.295021057128906,
                360.0
            ],
            [
                26.299184799194336,
                -40.720542907714844,
                380.0
            ],
            [
                27.828067779541016,
                -43.14607238769531,
                400.0
            ],
            [
                29.357248306274414,
                -45.57160949707031,
                420.0
            ],
            [
                30.886743545532227,
                -47.997154235839844,
                440.0
            ],
            [
                32.41655349731445,
                -50.422706604003906,
                460.0
            ],
            [
                33.946685791015625,
                -52.8482666015625,
                480.0
            ],
            [
                35.477149963378906,
                -55.27383804321289,
                500.0
            ],
            [
                37.00798034667969,
                -57.69941329956055,
                520.0
            ],
            [
                38.539161682128906,
                -60.124996185302734,
                540.0
            ],
            [
                40.070709228515625,
                -62.55059051513672,
                560.0
            ],
            [
                41.602630615234375,
                -64.97618865966797,
                580.0
            ],
            [
                43.13498306274414,
                -67.40180206298828,
                600.0
            ],
            [
                44.66777420043945,
                -69.8274154663086,
                620.0
            ],
            [
                46.200984954833984,
                -72.25304412841797,
                640.0
            ],
            [
                47.734619140625,
                -74.67867279052734,
                660.0
            ],
            [
                49.26869201660156,
                -77.10431671142578,
                680.0
            ],
            [
                50.80321502685547,
                -79.52996826171875,
                700.0
            ],
            [
                52.33818054199219,
                -81.95562744140625,
                720.0
            ],
            [
                53.87364196777344,
                -84.38130187988281,
                740.0
            ],
            [
                55.40968704223633,
                -86.80697631835938,
                760.0
            ],
            [
                56.946353912353516,
                -89.2326431274414,
                780.0
            ],
            [
                58.483558654785156,
                -91.65831756591797,
                800.0
            ],
            [
                60.02128982543945,
                -94.08399963378906,
                820.0
            ],
            [
                61.559574127197266,
                -96.50968170166016,
                840.0
            ],
            [
                63.098426818847656,
                -98.93537139892578,
                860.0
            ],
            [
                64.63785552978516,
                -101.3610610961914,
                880.0
            ],
            [
                66.17787170410156,
                -103.78675842285156,
                900.0
            ],
            [
                67.71845245361328,
                -106.21244812011719,
                920.0
            ],
            [
                69.25987243652344,
                -108.63809204101563,
                940.0
            ],
            [
                70.80194091796875,
                -111.06372833251953,
                960.0
            ],
            [
                72.34468078613281,
                -113.4893569946289,
                980.0
            ],
            [
                73.88809967041016,
                -115.91497802734375,
                1000.0
            ],
            [
                81.61483001708984,
                -128.04307556152344,
                1100.0
            ],
            [
                89.3633804321289,
                -140.1710968017578,
                1200.0
            ],
            [
                97.12718200683594,
                -152.29864501953125,
                1300.0
            ],
            [
                104.9084701538086,
                -164.42593383789063,
                1400.0
            ],
            [
                112.70753479003906,
                -176.55300903320313,
                1500.0
            ],
            [
                120.52056121826172,
                -188.68019104003906,
                1600.0
            ],
            [
                128.35089111328125,
                -200.8075714111328,
                1700.0
            ],
            [
                136.2010498046875,
                -212.934814453125,
                1800.0
            ],
            [
                144.07180786132813,
                -225.06236267089844,
                1900.0
            ],
            [
                151.9640655517578,
                -237.19076538085938,
                2000.0
            ],
            [
                159.88526916503906,
                -249.32029724121094,
                2100.0
            ],
            [
                167.84181213378906,
                -261.45135498046875,
                2200.0
            ],
            [
                175.8219451904297,
                -273.5846252441406,
                2300.0
            ],
            [
                183.8507080078125,
                -285.72021484375,
                2400.0
            ],
            [
                191.93011474609375,
                -297.85992431640625,
                2500.0
            ],
            [
                200.08377075195313,
                -310.0037536621094,
                2600.0
            ],
            [
                208.30735778808594,
                -322.15228271484375,
                2700.0
            ],
            [
                216.62928771972656,
                -334.3072509765625,
                2800.0
            ],
            [
                225.06492614746094,
                -346.4708251953125,
                2900.0
            ],
            [
                233.63980102539063,
                -358.6431884765625,
                3000.0
            ],
            [
                242.3611297607422,
                -370.82586669921875,
                3100.0
            ],
            [
                251.2813720703125,
                -383.0240783691406,
                3200.0
            ],
            [
                260.3945617675781,
                -395.2363586425781,
                3300.0
            ],
            [
                269.7628479003906,
                -407.4645080566406,
                3400.0
            ],
            [
                279.4035949707031,
                -419.7096862792969,
                3500.0
            ],
            [
                289.3385314941406,
                -431.9712829589844,
                3600.0
            ],
            [
                299.6147766113281,
                -444.25238037109375,
                3700.0
            ],
            [
                310.2886962890625,
                -456.5579833984375,
                3800.0
            ],
            [
                321.3684387207031,
                -468.8855285644531,
                3900.0
            ],
            [
                332.9336242675781,
                -481.2320251464844,
                4000.0
            ],
            [
                344.9326477050781,
                -493.594970703125,
                4100.0
            ],
            [
                357.4781494140625,
                -505.9811706542969,
                4200.0
            ],
            [
                370.561767578125,
                -518.386474609375,
                4300.0
            ],
            [
                384.165771484375,
                -530.803955078125,
                4400.0
            ],
            [
                398.3277282714844,
                -543.238037109375,
                4500.0
            ],
            [
                413.0445861816406,
                -555.6803588867188,
                4600.0
            ],
            [
                428.35064697265625,
                -568.1394653320313,
                4700.0
            ],
            [
                442.3757629394531,
                -583.1764526367188,
                4800.0
            ],
            [
                458.6736755371094,
                -595.714111328125,
                4900.0
            ],
            [
                475.50982666015625,
                -608.2520751953125,
                5000.0
            ],
            [
                492.93341064453125,
                -620.8001098632813,
                5100.0
            ],
            [
                510.8954772949219,
                -633.3506469726563,
                5200.0
            ],
            [
                529.4082641601563,
                -645.9094848632813,
                5300.0
            ],
            [
                548.4580688476563,
                -658.4676513671875,
                5400.0
            ],
            [
                568.0475463867188,
                -671.0192260742188,
                5500.0
            ],
            [
                588.14208984375,
                -683.58056640625,
                5600.0
            ],
            [
                608.765869140625,
                -696.1314086914063,
                5700.0
            ],
            [
                629.9085083007813,
                -708.6822509765625,
                5800.0
            ],
            [
                651.521240234375,
                -721.2227783203125,
                5900.0
            ],
            [
                673.6527099609375,
                -733.7581787109375,
                6000.0
            ],
            [
                696.2528076171875,
                -746.2879028320313,
                6100.0
            ],
            [
                719.3202514648438,
                -758.8067016601563,
                6200.0
            ],
            [
                742.8486328125,
                -771.310791015625,
                6300.0
            ],
            [
                766.8179321289063,
                -783.802001953125,
                6400.0
            ],
            [
                791.2161254882813,
                -796.274658203125,
                6500.0
            ],
            [
                816.0281982421875,
                -808.731689453125,
                6600.0
            ],
            [
                841.2374877929688,
                -821.1657104492188,
                6700.0
            ],
            [
                866.8079833984375,
                -833.5765380859375,
                6800.0
            ],
            [
                892.7449951171875,
                -845.9608764648438,
                6900.0
            ],
            [
                919.0108642578125,
                -858.3191528320313,
                7000.0
            ],
            [
                945.581787109375,
                -870.6497192382813,
                7100.0
            ],
            [
                972.4353637695313,
                -882.9525756835938,
                7200.0
            ],
            [
                999.5487060546875,
                -895.2272338867188,
                7300.0
            ],
            [
                1026.911376953125,
                -907.4734497070313,
                7400.0
            ],
            [
                1054.480712890625,
                -919.6954345703125,
                7500.0
            ],
            [
                1082.25390625,
                -931.8899536132813,
                7600.0
            ],
            [
                1110.201904296875,
                -944.0609130859375,
                7700.0
            ],
            [
                1138.3138427734375,
                -956.2090454101563,
                7800.0
            ],
            [
                1166.5701904296875,
                -968.336669921875,
                7900.0
            ],
            [
                1194.9552001953125,
                -980.445556640625,
                8000.0
            ],
            [
                1223.4593505859375,
                -992.536865234375,
                8100.0
            ],
            [
                1252.0654296875,
                -1004.6137084960938,
                8200.0
            ],
            [
                1280.764892578125,
                -1016.67724609375,
                8300.0
            ],
            [
                1309.5487060546875,
                -1028.72900390625,
                8400.0
            ],
            [
                1338.4078369140625,
                -1040.77099609375,
                8500.0
            ],
            [
                1367.3319091796875,
                -1052.804443359375,
                8600.0
            ],
            [
                1396.31640625,
                -1064.830810546875,
                8700.0
            ],
            [
                1425.3544921875,
                -1076.8511962890625,
                8800.0
            ],
            [
                1454.4403076171875,
                -1088.8668212890625,
                8900.0
            ],
            [
                1483.56982421875,
                -1100.8785400390625,
                9000.0
            ],
            [
                1512.738037109375,
                -1112.8873291015625,
                9100.0
            ],
            [
                1541.94091796875,
                -1124.893798828125,
                9200.0
            ],
            [
                1571.175048828125,
                -1136.8985595703125,
                9300.0
            ],
            [
                1600.4371337890625,
                -1148.90234375,
                9400.0
            ],
            [
                1629.7242431640625,
                -1160.9053955078125,
                9500.0
            ],
            [
                1659.0338134765625,
                -1172.9080810546875,
                9600.0
            ],
            [
                1688.36376953125,
                -1184.9107666015625,
                9700.0
            ],
            [
                1717.7117919921875,
                -1196.9136962890625,
                9800.0
            ],
            [
                1747.076171875,
                -1208.9169921875,
                9900.0
            ],
            [
                1776.455322265625,
                -1220.9208984375,
                10000.0
            ],
            [
                1835.252197265625,
                -1244.9306640625,
                10200.0
            ],
            [
                1894.0921630859375,
                -1268.9437255859375,
                10400.0
            ],
            [
                1952.966552734375,
                -1292.9605712890625,
                10600.0
            ],
            [
                2011.869873046875,
                -1316.9808349609375,
                10800.0
            ],
            [
                2070.794921875,
                -1341.0050048828125,
                11000.0
            ],
            [
                2129.73876953125,
                -1365.0325927734375,
                11200.0
            ],
            [
                2188.697998046875,
                -1389.0633544921875,
                11400.0
            ],
            [
                2247.667724609375,
                -1413.0975341796875,
                11600.0
            ],
            [
                2306.646728515625,
                -1437.134521484375,
                11800.0
            ],
            [
                2365.63232421875,
                -1461.1741943359375,
                12000.0
            ],
            [
                2424.625244140625,
                -1485.216064453125,
                12200.0
            ],
            [
                2483.6220703125,
                -1509.2601318359375,
                12400.0
            ],
            [
                2542.6201171875,
                -1533.30615234375,
                12600.0
            ],
            [
                2601.620849609375,
                -1557.3538818359375,
                12800.0
            ],
            [
                2660.62451171875,
                -1581.402587890625,
                13000.0
            ],
            [
                2719.6298828125,
                -1605.4525146484375,
                13200.0
            ],
            [
                2778.6357421875,
                -1629.50341796875,
                13400.0
            ]
        ],
        "zFirstMeasurement": 124.0877
    },
    {
        "E": 3672.832839586527,
        "chi2": 1.4511775970458984,
        "ip": 2.690548902105952,
        "ipchi2": 536.8660242978891,
        "mass": 139.57018,
        "particleId": "pi+",
        "pvx": 0.6193,
        "pvy": 0.0857,
        "pvz": 42.814,
        "px": 29.241184909906043,
        "py": -316.8115329380161,
        "pz": 3656.3638547199494,
        "q": 1.0,
        "trajectory": [
            [
                -0.8491765260696411,
                15.139801979064941,
                -100.0
            ],
            [
                -0.8096538186073303,
                14.70657730102539,
                -95.0
            ],
            [
                -0.7701199054718018,
                14.273351669311523,
                -90.0
            ],
            [
                -0.7305747866630554,
                13.840126037597656,
                -85.0
            ],
            [
                -0.6910182237625122,
                13.406900405883789,
                -80.0
            ],
            [
                -0.6514500379562378,
                12.973673820495605,
                -75.0
            ],
            [
                -0.6118701696395874,
                12.540447235107422,
                -70.0
            ],
            [
                -0.5722783803939819,
                12.107220649719238,
                -65.0
            ],
            [
                -0.5326746106147766,
                11.673994064331055,
                -60.0
            ],
            [
                -0.49305859208106995,
                11.240766525268555,
                -55.0
            ],
            [
                -0.4534302353858948,
                10.807539939880371,
                -50.0
            ],
            [
                -0.41378873586654663,
                10.374312400817871,
                -45.0
            ],
            [
                -0.374134361743927,
                9.941083908081055,
                -40.0
            ],
            [
                -0.334467351436615,
                9.507856369018555,
                -35.0
            ],
            [
                -0.29478755593299866,
                9.074627876281738,
                -30.0
            ],
            [
                -0.25519859790802,
                8.641399383544922,
                -25.0
            ],
            [
                -0.21547740697860718,
                8.208170890808105,
                -20.0
            ],
            [
                -0.17574448883533478,
                7.774941921234131,
                -15.0
            ],
            [
                -0.13599959015846252,
                7.341712951660156,
                -10.0
            ],
            [
                -0.09624248743057251,
                6.908483505249023,
                -5.0
            ],
            [
                -0.05647291615605354,
                6.475254058837891,
                0.0
            ],
            [
                -0.01669061928987503,
                6.0420241355896,
                5.0
            ],
            [
                0.023104647174477577,
                5.60879373550415,
                10.0
            ],
            [
                0.06291313469409943,
                5.175563812255859,
                15.0
            ],
            [
                0.10273508727550507,
                4.742332935333252,
                20.0
            ],
            [
                0.14257076382637024,
                4.3091020584106445,
                25.0
            ],
            [
                0.18242040276527405,
                3.875871419906616,
                30.0
            ],
            [
                0.22228427231311798,
                3.4426400661468506,
                35.0
            ],
            [
                0.26216259598731995,
                3.009408712387085,
                40.0
            ],
            [
                0.3020556569099426,
                2.576176881790161,
                45.0
            ],
            [
                0.34196367859840393,
                2.1429450511932373,
                50.0
            ],
            [
                0.38188689947128296,
                1.7097129821777344,
                55.0
            ],
            [
                0.4218256175518036,
                1.2764805555343628,
                60.0
            ],
            [
                0.46178004145622253,
                0.8432480096817017,
                65.0
            ],
            [
                0.5017504096031189,
                0.41001519560813904,
                70.0
            ],
            [
                0.5417370200157166,
                -0.02321786805987358,
                75.0
            ],
            [
                0.5817400813102722,
                -0.4564511477947235,
                80.0
            ],
            [
                0.6217598915100098,
                -0.8896846771240234,
                85.0
            ],
            [
                0.6617966294288635,
                -1.32291841506958,
                90.0
            ],
            [
                0.7018505930900574,
                -1.7561523914337158,
                95.0
            ],
            [
                0.7419219613075256,
                -2.1893866062164307,
                100.0
            ],
            [
                0.9023869633674622,
                -3.922325611114502,
                120.0
            ],
            [
                1.0631556510925293,
                -5.65526819229126,
                140.0
            ],
            [
                1.2242074012756348,
                -7.3881940841674805,
                160.0
            ],
            [
                1.3855879306793213,
                -9.121143341064453,
                180.0
            ],
            [
                1.5472861528396606,
                -10.854097366333008,
                200.0
            ],
            [
                1.7093212604522705,
                -12.587053298950195,
                220.0
            ],
            [
                1.8717145919799805,
                -14.320013999938965,
                240.0
            ],
            [
                2.034487724304199,
                -16.052976608276367,
                260.0
            ],
            [
                2.197662353515625,
                -17.78594398498535,
                280.0
            ],
            [
                2.361259698867798,
                -19.51891326904297,
                300.0
            ],
            [
                2.52512526512146,
                -21.25188636779785,
                320.0
            ],
            [
                2.689513683319092,
                -22.984861373901367,
                340.0
            ],
            [
                2.8543457984924316,
                -24.71784019470215,
                360.0
            ],
            [
                3.019641160964966,
                -26.450820922851563,
                380.0
            ],
            [
                3.1854114532470703,
                -28.183805465698242,
                400.0
            ],
            [
                3.351677656173706,
                -29.916791915893555,
                420.0
            ],
            [
                3.51845121383667,
                -31.6497802734375,
                440.0
            ],
            [
                3.6857473850250244,
                -33.38277053833008,
                460.0
            ],
            [
                3.853581666946411,
                -35.11576461791992,
                480.0
            ],
            [
                4.021968841552734,
                -36.848758697509766,
                500.0
            ],
            [
                4.190962791442871,
                -38.581756591796875,
                520.0
            ],
            [
                4.360597133636475,
                -40.314754486083984,
                540.0
            ],
            [
                4.530865669250488,
                -42.04775619506836,
                560.0
            ],
            [
                4.701776027679443,
                -43.780757904052734,
                580.0
            ],
            [
                4.873345851898193,
                -45.513763427734375,
                600.0
            ],
            [
                5.04561185836792,
                -47.24676513671875,
                620.0
            ],
            [
                5.218575954437256,
                -48.979766845703125,
                640.0
            ],
            [
                5.392256736755371,
                -50.7127685546875,
                660.0
            ],
            [
                5.566670894622803,
                -52.44577407836914,
                680.0
            ],
            [
                5.741902828216553,
                -54.178775787353516,
                700.0
            ],
            [
                5.917974948883057,
                -55.91177749633789,
                720.0
            ],
            [
                6.0948567390441895,
                -57.64478302001953,
                740.0
            ],
            [
                6.272567272186279,
                -59.377784729003906,
                760.0
            ],
            [
                6.451125144958496,
                -61.11079025268555,
                780.0
            ],
            [
                6.630549430847168,
                -62.84379196166992,
                800.0
            ],
            [
                6.810838222503662,
                -64.57678985595703,
                820.0
            ],
            [
                6.992109298706055,
                -66.3097915649414,
                840.0
            ],
            [
                7.174508571624756,
                -68.04279327392578,
                860.0
            ],
            [
                7.358054161071777,
                -69.7757568359375,
                880.0
            ],
            [
                7.542618751525879,
                -71.50871276855469,
                900.0
            ],
            [
                7.728113651275635,
                -73.24166870117188,
                920.0
            ],
            [
                7.914658069610596,
                -74.97461700439453,
                940.0
            ],
            [
                8.102273941040039,
                -76.70755767822266,
                960.0
            ],
            [
                8.290982246398926,
                -78.44049072265625,
                980.0
            ],
            [
                8.480803489685059,
                -80.17340850830078,
                1000.0
            ],
            [
                9.44468879699707,
                -88.83821105957031,
                1100.0
            ],
            [
                10.437785148620605,
                -97.50302124023438,
                1200.0
            ],
            [
                11.47166919708252,
                -106.1670150756836,
                1300.0
            ],
            [
                12.526018142700195,
                -114.8313980102539,
                1400.0
            ],
            [
                13.606409072875977,
                -123.49580383300781,
                1500.0
            ],
            [
                14.71851634979248,
                -132.159912109375,
                1600.0
            ],
            [
                15.859674453735352,
                -140.8238983154297,
                1700.0
            ],
            [
                17.034400939941406,
                -149.48773193359375,
                1800.0
            ],
            [
                18.239513397216797,
                -158.1518096923828,
                1900.0
            ],
            [
                19.491552352905273,
                -166.81600952148438,
                2000.0
            ],
            [
                20.782175064086914,
                -175.48028564453125,
                2100.0
            ],
            [
                22.12738800048828,
                -184.14451599121094,
                2200.0
            ],
            [
                23.569337844848633,
                -192.80763244628906,
                2300.0
            ],
            [
                25.066322326660156,
                -201.47157287597656,
                2400.0
            ],
            [
                26.677921295166016,
                -210.13584899902344,
                2500.0
            ],
            [
                28.40093421936035,
                -218.8006134033203,
                2600.0
            ],
            [
                30.262714385986328,
                -227.46583557128906,
                2700.0
            ],
            [
                32.29191970825195,
                -236.13233947753906,
                2800.0
            ],
            [
                34.539669036865234,
                -244.80084228515625,
                2900.0
            ],
            [
                37.02537536621094,
                -253.470703125,
                3000.0
            ],
            [
                39.77762985229492,
                -262.1431579589844,
                3100.0
            ],
            [
                42.83256912231445,
                -270.8200988769531,
                3200.0
            ],
            [
                46.36140823364258,
                -279.5047912597656,
                3300.0
            ],
            [
                50.23371124267578,
                -288.1949157714844,
                3400.0
            ],
            [
                54.58441162109375,
                -296.8922424316406,
                3500.0
            ],
            [
                59.43718719482422,
                -305.5979309082031,
                3600.0
            ],
            [
                64.88507080078125,
                -314.3133850097656,
                3700.0
            ],
            [
                70.9627456665039,
                -323.04376220703125,
                3800.0
            ],
            [
                77.7467041015625,
                -331.7860412597656,
                3900.0
            ],
            [
                85.21537017822266,
                -340.5381774902344,
                4000.0
            ],
            [
                93.49200439453125,
                -349.30316162109375,
                4100.0
            ],
            [
                102.52792358398438,
                -358.0789794921875,
                4200.0
            ],
            [
                112.6046142578125,
                -366.8807373046875,
                4300.0
            ],
            [
                123.4085464477539,
                -375.6863708496094,
                4400.0
            ],
            [
                135.11097717285156,
                -384.50537109375,
                4500.0
            ],
            [
                147.7397918701172,
                -393.33819580078125,
                4600.0
            ],
            [
                161.26602172851563,
                -402.1839599609375,
                4700.0
            ],
            [
                175.72738647460938,
                -411.03863525390625,
                4800.0
            ],
            [
                205.67735290527344,
                -421.9987487792969,
                4900.0
            ],
            [
                222.00820922851563,
                -430.9162292480469,
                5000.0
            ],
            [
                239.28395080566406,
                -439.8471984863281,
                5100.0
            ],
            [
                257.4541015625,
                -448.7794494628906,
                5200.0
            ],
            [
                276.5180358886719,
                -457.721435546875,
                5300.0
            ],
            [
                296.4654846191406,
                -466.6619567871094,
                5400.0
            ],
            [
                317.331298828125,
                -475.5951843261719,
                5500.0
            ],
            [
                339.0107727050781,
                -484.5403137207031,
                5600.0
            ],
            [
                361.56890869140625,
                -493.47119140625,
                5700.0
            ],
            [
                384.9808349609375,
                -502.40008544921875,
                5800.0
            ],
            [
                409.1921081542969,
                -511.3149719238281,
                5900.0
            ],
            [
                434.2521057128906,
                -520.2221069335938,
                6000.0
            ],
            [
                460.0908508300781,
                -529.1187133789063,
                6100.0
            ],
            [
                486.6971740722656,
                -537.9995727539063,
                6200.0
            ],
            [
                514.0758056640625,
                -546.8607177734375,
                6300.0
            ],
            [
                542.1829833984375,
                -555.7014770507813,
                6400.0
            ],
            [
                571.0026245117188,
                -564.514404296875,
                6500.0
            ],
            [
                600.5008544921875,
                -573.304931640625,
                6600.0
            ],
            [
                630.661865234375,
                -582.0616455078125,
                6700.0
            ],
            [
                661.433349609375,
                -590.7848510742188,
                6800.0
            ],
            [
                692.8186645507813,
                -599.4698486328125,
                6900.0
            ],
            [
                724.759033203125,
                -608.1172485351563,
                7000.0
            ],
            [
                757.2279052734375,
                -616.7242431640625,
                7100.0
            ],
            [
                790.1881103515625,
                -625.289794921875,
                7200.0
            ],
            [
                823.6091918945313,
                -633.812255859375,
                7300.0
            ],
            [
                857.4696044921875,
                -642.292724609375,
                7400.0
            ],
            [
                891.7083740234375,
                -650.7338256835938,
                7500.0
            ],
            [
                926.3220825195313,
                -659.1322631835938,
                7600.0
            ],
            [
                961.2649536132813,
                -667.4920654296875,
                7700.0
            ],
            [
                996.5196533203125,
                -675.8135375976563,
                7800.0
            ],
            [
                1032.0550537109375,
                -684.0995483398438,
                7900.0
            ],
            [
                1067.8448486328125,
                -692.3522338867188,
                8000.0
            ],
            [
                1103.87255859375,
                -700.5731201171875,
                8100.0
            ],
            [
                1140.107421875,
                -708.7664184570313,
                8200.0
            ],
            [
                1176.5338134765625,
                -716.9341430664063,
                8300.0
            ],
            [
                1213.1361083984375,
                -725.0782470703125,
                8400.0
            ],
            [
                1249.8980712890625,
                -733.2011108398438,
                8500.0
            ],
            [
                1286.7977294921875,
                -741.30615234375,
                8600.0
            ],
            [
                1323.827392578125,
                -749.3945922851563,
                8700.0
            ],
            [
                1360.973388671875,
                -757.4685668945313,
                8800.0
            ],
            [
                1398.2237548828125,
                -765.5303344726563,
                8900.0
            ],
            [
                1435.569580078125,
                -773.581298828125,
                9000.0
            ],
            [
                1473.0009765625,
                -781.6231689453125,
                9100.0
            ],
            [
                1510.50927734375,
                -789.6574096679688,
                9200.0
            ],
            [
                1548.087158203125,
                -797.6852416992188,
                9300.0
            ],
            [
                1585.7274169921875,
                -805.707763671875,
                9400.0
            ],
            [
                1623.4237060546875,
                -813.72607421875,
                9500.0
            ],
            [
                1661.1705322265625,
                -821.7409057617188,
                9600.0
            ],
            [
                1698.9627685546875,
                -829.7530517578125,
                9700.0
            ],
            [
                1736.7960205078125,
                -837.7631225585938,
                9800.0
            ],
            [
                1774.6656494140625,
                -845.7716674804688,
                9900.0
            ],
            [
                1812.5684814453125,
                -853.7791137695313,
                10000.0
            ],
            [
                1888.46044921875,
                -869.7920532226563,
                10200.0
            ],
            [
                1964.44921875,
                -885.80419921875,
                10400.0
            ],
            [
                2040.5152587890625,
                -901.8175048828125,
                10600.0
            ],
            [
                2116.645263671875,
                -917.8323974609375,
                10800.0
            ],
            [
                2192.82421875,
                -933.8500366210938,
                11000.0
            ],
            [
                2269.0439453125,
                -949.8705444335938,
                11200.0
            ],
            [
                2345.297607421875,
                -965.8937377929688,
                11400.0
            ],
            [
                2421.576416015625,
                -981.9203491210938,
                11600.0
            ],
            [
                2497.87451171875,
                -997.9500122070313,
                11800.0
            ],
            [
                2574.187255859375,
                -1013.9825439453125,
                12000.0
            ],
            [
                2650.515380859375,
                -1030.0172119140625,
                12200.0
            ],
            [
                2726.852294921875,
                -1046.0543212890625,
                12400.0
            ],
            [
                2803.1953125,
                -1062.09423828125,
                12600.0
            ],
            [
                2879.54150390625,
                -1078.135986328125,
                12800.0
            ],
            [
                2955.89453125,
                -1094.1787109375,
                13000.0
            ],
            [
                3032.250732421875,
                -1110.2227783203125,
                13200.0
            ],
            [
                3108.608642578125,
                -1126.2681884765625,
                13400.0
            ]
        ],
        "zFirstMeasurement": 214.2993
    }
]
