[
    {
        "E": 55140.18811436627,
        "chi2": 0.0,
        "ip": 0.0312097702403124,
        "ipchi2": 2.2033968152052554,
        "mass": 1874.066,
        "particleId": "D0",
        "pvx": 0.6039,
        "pvy": 0.02,
        "pvz": 56.7702,
        "px": -1603.46,
        "py": -2010.15,
        "pz": 55048.31,
        "q": 0.0,
        "trajectory": [
            [
                0.6039000153541565,
                0.019999999552965164,
                56.770198822021484
            ],
            [
                0.49140000343322754,
                -0.1501999944448471,
                60.57699966430664
            ]
        ],
        "zFirstMeasurement": -9999.0
    },
    {
        "E": 12423.656775795016,
        "chi2": 1.2602251768112183,
        "ip": 0.18674310674751493,
        "ipchi2": 67.5794226088662,
        "mass": 493.677,
        "particleId": "K-",
        "pvx": 0.6039,
        "pvy": 0.02,
        "pvz": 56.7702,
        "px": -977.16,
        "py": -648.93,
        "pz": 12358.3,
        "q": -1.0,
        "trajectory": [
            [
                0.4840630292892456,
                -0.13156786561012268,
                60.57699966430664
            ],
            [
                0.08871644735336304,
                -0.3941173553466797,
                65.5770034790039
            ],
            [
                -0.30663496255874634,
                -0.6566668748855591,
                70.5770034790039
            ],
            [
                -0.7019913196563721,
                -0.9192163944244385,
                75.5770034790039
            ],
            [
                -1.0973526239395142,
                -1.1817659139633179,
                80.5770034790039
            ],
            [
                -1.4927189350128174,
                -1.4443154335021973,
                85.5770034790039
            ],
            [
                -1.8880903720855713,
                -1.7068650722503662,
                90.5770034790039
            ],
            [
                -2.2834670543670654,
                -1.9694145917892456,
                95.5770034790039
            ],
            [
                -2.6788489818573,
                -2.231964349746704,
                100.5770034790039
            ],
            [
                -4.260400295257568,
                -3.28218150138855,
                120.5770034790039
            ],
            [
                -5.842068195343018,
                -4.332380294799805,
                140.57699584960938
            ],
            [
                -7.423823833465576,
                -5.382579326629639,
                160.57699584960938
            ],
            [
                -9.0056734085083,
                -6.432779312133789,
                180.57699584960938
            ],
            [
                -10.587621688842773,
                -7.4829792976379395,
                200.57699584960938
            ],
            [
                -12.169675827026367,
                -8.533180236816406,
                220.57699584960938
            ],
            [
                -13.75184154510498,
                -9.583381652832031,
                240.57699584960938
            ],
            [
                -15.334126472473145,
                -10.633584022521973,
                260.5769958496094
            ],
            [
                -16.91647720336914,
                -11.683786392211914,
                280.5769958496094
            ],
            [
                -18.498979568481445,
                -12.733989715576172,
                300.5769958496094
            ],
            [
                -20.081605911254883,
                -13.784194946289063,
                320.5769958496094
            ],
            [
                -21.66436004638672,
                -14.834400177001953,
                340.5769958496094
            ],
            [
                -23.247249603271484,
                -15.884607315063477,
                360.5769958496094
            ],
            [
                -24.83027458190918,
                -16.934814453125,
                380.5769958496094
            ],
            [
                -26.413442611694336,
                -17.985023498535156,
                400.5769958496094
            ],
            [
                -27.996763229370117,
                -19.035234451293945,
                420.5769958496094
            ],
            [
                -29.58023452758789,
                -20.085447311401367,
                440.5769958496094
            ],
            [
                -31.163864135742188,
                -21.13566017150879,
                460.5769958496094
            ],
            [
                -32.74765396118164,
                -22.185876846313477,
                480.5769958496094
            ],
            [
                -34.33161163330078,
                -23.236093521118164,
                500.5769958496094
            ],
            [
                -35.91574478149414,
                -24.286312103271484,
                520.5770263671875
            ],
            [
                -37.50005340576172,
                -25.336532592773438,
                540.5770263671875
            ],
            [
                -39.08455276489258,
                -26.386754989624023,
                560.5770263671875
            ],
            [
                -40.66926193237305,
                -27.436979293823242,
                580.5770263671875
            ],
            [
                -42.2541618347168,
                -28.487205505371094,
                600.5770263671875
            ],
            [
                -43.83928680419922,
                -29.53743553161621,
                620.5770263671875
            ],
            [
                -45.42462158203125,
                -30.58766746520996,
                640.5770263671875
            ],
            [
                -47.01017379760742,
                -31.637901306152344,
                660.5770263671875
            ],
            [
                -48.595947265625,
                -32.68813705444336,
                680.5770263671875
            ],
            [
                -50.181949615478516,
                -33.73837661743164,
                700.5770263671875
            ],
            [
                -51.7681770324707,
                -34.78861618041992,
                720.5770263671875
            ],
            [
                -53.35469055175781,
                -35.83885955810547,
                740.5770263671875
            ],
            [
                -54.94145584106445,
                -36.889102935791016,
                760.5770263671875
            ],
            [
                -56.52847671508789,
                -37.93935012817383,
                780.5770263671875
            ],
            [
                -58.11575698852539,
                -38.98959732055664,
                800.5770263671875
            ],
            [
                -59.70330047607422,
                -40.03984832763672,
                820.5770263671875
            ],
            [
                -61.29111099243164,
                -41.09010314941406,
                840.5770263671875
            ],
            [
                -62.87919998168945,
                -42.140357971191406,
                860.5770263671875
            ],
            [
                -64.46757507324219,
                -43.190616607666016,
                880.5770263671875
            ],
            [
                -66.05628204345703,
                -44.24087905883789,
                900.5770263671875
            ],
            [
                -67.64527893066406,
                -45.29114532470703,
                920.5770263671875
            ],
            [
                -69.2345962524414,
                -46.34141540527344,
                940.5770263671875
            ],
            [
                -70.82432556152344,
                -47.391685485839844,
                960.5770263671875
            ],
            [
                -72.41438293457031,
                -48.44195556640625,
                980.5770263671875
            ],
            [
                -74.00477600097656,
                -49.49222946166992,
                1000.5770263671875
            ],
            [
                -81.9612045288086,
                -54.74359893798828,
                1100.5770263671875
            ],
            [
                -89.92829895019531,
                -59.994873046875,
                1200.5770263671875
            ],
            [
                -97.90284729003906,
                -65.24620056152344,
                1300.5770263671875
            ],
            [
                -105.88616943359375,
                -70.49750518798828,
                1400.5770263671875
            ],
            [
                -113.87748718261719,
                -75.74876403808594,
                1500.5770263671875
            ],
            [
                -121.87742614746094,
                -81.0000228881836,
                1600.5770263671875
            ],
            [
                -129.8861083984375,
                -86.25141143798828,
                1700.5770263671875
            ],
            [
                -137.90618896484375,
                -91.50289154052734,
                1800.5770263671875
            ],
            [
                -145.93634033203125,
                -96.75456237792969,
                1900.5770263671875
            ],
            [
                -153.98008728027344,
                -102.00645446777344,
                2000.5770263671875
            ],
            [
                -162.0381622314453,
                -107.25862884521484,
                2100.576904296875
            ],
            [
                -170.11618041992188,
                -112.51129150390625,
                2200.576904296875
            ],
            [
                -178.21112060546875,
                -117.76448822021484,
                2300.576904296875
            ],
            [
                -186.3329315185547,
                -123.01860046386719,
                2400.576904296875
            ],
            [
                -194.48770141601563,
                -128.27366638183594,
                2500.576904296875
            ],
            [
                -202.68136596679688,
                -133.5299835205078,
                2600.576904296875
            ],
            [
                -210.91775512695313,
                -138.7877655029297,
                2700.576904296875
            ],
            [
                -219.2052764892578,
                -144.04721069335938,
                2800.576904296875
            ],
            [
                -227.55946350097656,
                -149.30877685546875,
                2900.576904296875
            ],
            [
                -235.98976135253906,
                -154.57272338867188,
                3000.576904296875
            ],
            [
                -244.49697875976563,
                -159.83920288085938,
                3100.576904296875
            ],
            [
                -253.11216735839844,
                -165.10787963867188,
                3200.576904296875
            ],
            [
                -261.8370056152344,
                -170.37985229492188,
                3300.576904296875
            ],
            [
                -270.69171142578125,
                -175.65513610839844,
                3400.576904296875
            ],
            [
                -279.6910400390625,
                -180.93411254882813,
                3500.576904296875
            ],
            [
                -288.8352966308594,
                -186.2174835205078,
                3600.576904296875
            ],
            [
                -298.1538391113281,
                -191.50448608398438,
                3700.576904296875
            ],
            [
                -307.6666259765625,
                -196.79519653320313,
                3800.576904296875
            ],
            [
                -317.3716125488281,
                -202.0908203125,
                3900.576904296875
            ],
            [
                -327.29193115234375,
                -207.39134216308594,
                4000.576904296875
            ],
            [
                -337.4286193847656,
                -212.69631958007813,
                4100.5771484375
            ],
            [
                -347.81744384765625,
                -218.0037078857422,
                4200.5771484375
            ],
            [
                -358.4511413574219,
                -223.3152618408203,
                4300.5771484375
            ],
            [
                -369.3267517089844,
                -228.63209533691406,
                4400.5771484375
            ],
            [
                -380.4547119140625,
                -233.9517364501953,
                4500.5771484375
            ],
            [
                -391.8434753417969,
                -239.27407836914063,
                4600.5771484375
            ],
            [
                -403.50286865234375,
                -244.5982666015625,
                4700.5771484375
            ],
            [
                -415.4010009765625,
                -249.9257049560547,
                4800.5771484375
            ],
            [
                -423.5802001953125,
                -256.0626220703125,
                4900.5771484375
            ],
            [
                -435.9749755859375,
                -261.425048828125,
                5000.5771484375
            ],
            [
                -448.6342468261719,
                -266.79034423828125,
                5100.5771484375
            ],
            [
                -461.5458984375,
                -272.1569519042969,
                5200.5771484375
            ],
            [
                -474.7205505371094,
                -277.5256652832031,
                5300.5771484375
            ],
            [
                -488.13787841796875,
                -282.8940734863281,
                5400.5771484375
            ],
            [
                -501.80047607421875,
                -288.261962890625,
                5500.5771484375
            ],
            [
                -515.6965942382813,
                -293.633544921875,
                5600.5771484375
            ],
            [
                -529.8358154296875,
                -299.0042724609375,
                5700.5771484375
            ],
            [
                -544.2084350585938,
                -304.3761291503906,
                5800.5771484375
            ],
            [
                -558.8009643554688,
                -309.7476501464844,
                5900.5771484375
            ],
            [
                -573.62060546875,
                -315.1194152832031,
                6000.5771484375
            ],
            [
                -588.6531982421875,
                -320.49127197265625,
                6100.5771484375
            ],
            [
                -603.8984985351563,
                -325.86175537109375,
                6200.5771484375
            ],
            [
                -619.3414916992188,
                -331.2311706542969,
                6300.5771484375
            ],
            [
                -634.9777221679688,
                -336.5995788574219,
                6400.5771484375
            ],
            [
                -650.8018188476563,
                -341.9663391113281,
                6500.5771484375
            ],
            [
                -666.8046875,
                -347.3315734863281,
                6600.5771484375
            ],
            [
                -682.98095703125,
                -352.6949157714844,
                6700.5771484375
            ],
            [
                -699.3170776367188,
                -358.0563659667969,
                6800.5771484375
            ],
            [
                -715.8114624023438,
                -363.4150085449219,
                6900.5771484375
            ],
            [
                -732.453857421875,
                -368.7709045410156,
                7000.5771484375
            ],
            [
                -749.2313232421875,
                -374.1242980957031,
                7100.5771484375
            ],
            [
                -766.136962890625,
                -379.47528076171875,
                7200.5771484375
            ],
            [
                -783.16357421875,
                -384.8236999511719,
                7300.5771484375
            ],
            [
                -800.3050537109375,
                -390.1693420410156,
                7400.5771484375
            ],
            [
                -817.5472412109375,
                -395.5128173828125,
                7500.5771484375
            ],
            [
                -834.8882446289063,
                -400.8536376953125,
                7600.5771484375
            ],
            [
                -852.317138671875,
                -406.19232177734375,
                7700.5771484375
            ],
            [
                -869.8300170898438,
                -411.52886962890625,
                7800.5771484375
            ],
            [
                -887.4192504882813,
                -416.86346435546875,
                7900.5771484375
            ],
            [
                -905.0778198242188,
                -422.1963195800781,
                8000.5771484375
            ],
            [
                -922.8016357421875,
                -427.5275573730469,
                8100.5771484375
            ],
            [
                -940.5830688476563,
                -432.85748291015625,
                8200.5771484375
            ],
            [
                -958.4180908203125,
                -438.1861877441406,
                8300.5771484375
            ],
            [
                -976.302490234375,
                -443.5138244628906,
                8400.5771484375
            ],
            [
                -994.2320556640625,
                -448.84051513671875,
                8500.5771484375
            ],
            [
                -1012.2013549804688,
                -454.16650390625,
                8600.5771484375
            ],
            [
                -1030.2081298828125,
                -459.4918212890625,
                8700.5771484375
            ],
            [
                -1048.248779296875,
                -464.8166198730469,
                8800.5771484375
            ],
            [
                -1066.3199462890625,
                -470.14105224609375,
                8900.5771484375
            ],
            [
                -1084.4193115234375,
                -475.4651794433594,
                9000.5771484375
            ],
            [
                -1102.544189453125,
                -480.7890930175781,
                9100.5771484375
            ],
            [
                -1120.692138671875,
                -486.1128845214844,
                9200.5771484375
            ],
            [
                -1138.861083984375,
                -491.4366455078125,
                9300.5771484375
            ],
            [
                -1157.0491943359375,
                -496.7604064941406,
                9400.5771484375
            ],
            [
                -1175.25439453125,
                -502.0842590332031,
                9500.5771484375
            ],
            [
                -1193.4754638671875,
                -507.408203125,
                9600.5771484375
            ],
            [
                -1211.7105712890625,
                -512.7322998046875,
                9700.5771484375
            ],
            [
                -1229.958740234375,
                -518.0565795898438,
                9800.5771484375
            ],
            [
                -1248.218505859375,
                -523.3810424804688,
                9900.5771484375
            ],
            [
                -1266.48876953125,
                -528.7056884765625,
                10000.5771484375
            ],
            [
                -1303.057373046875,
                -539.3556518554688,
                10200.5771484375
            ],
            [
                -1339.65771484375,
                -550.006591796875,
                10400.5771484375
            ],
            [
                -1376.2838134765625,
                -560.658447265625,
                10600.5771484375
            ],
            [
                -1412.931640625,
                -571.3112182617188,
                10800.5771484375
            ],
            [
                -1449.5963134765625,
                -581.96484375,
                11000.5771484375
            ],
            [
                -1486.275634765625,
                -592.6192626953125,
                11200.5771484375
            ],
            [
                -1522.967041015625,
                -603.2743530273438,
                11400.5771484375
            ],
            [
                -1559.66748046875,
                -613.9302368164063,
                11600.5771484375
            ],
            [
                -1596.375732421875,
                -624.5867309570313,
                11800.5771484375
            ],
            [
                -1633.0897216796875,
                -635.2437133789063,
                12000.5771484375
            ],
            [
                -1669.809814453125,
                -645.9012451171875,
                12200.5771484375
            ],
            [
                -1706.53369140625,
                -656.5591430664063,
                12400.5771484375
            ],
            [
                -1743.2598876953125,
                -667.2174682617188,
                12600.5771484375
            ],
            [
                -1779.9881591796875,
                -677.8760986328125,
                12800.5771484375
            ],
            [
                -1816.7193603515625,
                -688.5349731445313,
                13000.5771484375
            ],
            [
                -1853.4522705078125,
                -699.1940307617188,
                13200.5771484375
            ],
            [
                -1890.1861572265625,
                -709.853271484375,
                13400.5771484375
            ]
        ],
        "zFirstMeasurement": 169.4538
    },
    {
        "E": 42716.602855575926,
        "chi2": 0.9538121819496155,
        "ip": 0.08879054178262864,
        "ipchi2": 9.817591014274745,
        "mass": 139.57,
        "particleId": "pi+",
        "pvx": 0.6039,
        "pvy": 0.02,
        "pvz": 56.7702,
        "px": -627.3,
        "py": -1358.46,
        "pz": 42690.16,
        "q": 1.0,
        "trajectory": [
            [
                0.5017298460006714,
                -0.17700566351413727,
                60.57699966430664
            ],
            [
                0.4282587468624115,
                -0.336112380027771,
                65.5770034790039
            ],
            [
                0.3547890782356262,
                -0.49521908164024353,
                70.5770034790039
            ],
            [
                0.28132081031799316,
                -0.6543258428573608,
                75.5770034790039
            ],
            [
                0.2078540027141571,
                -0.8134325742721558,
                80.5770034790039
            ],
            [
                0.13438865542411804,
                -0.9725393652915955,
                85.5770034790039
            ],
            [
                0.06092478707432747,
                -1.1316461563110352,
                90.5770034790039
            ],
            [
                -0.012537579983472824,
                -1.29075288772583,
                95.5770034790039
            ],
            [
                -0.08599842339754105,
                -1.4498597383499146,
                100.5770034790039
            ],
            [
                -0.3798261284828186,
                -2.086287021636963,
                120.5770034790039
            ],
            [
                -0.6736276745796204,
                -2.72271466255188,
                140.57699584960938
            ],
            [
                -0.967400312423706,
                -3.359142303466797,
                160.57699584960938
            ],
            [
                -1.2612204551696777,
                -3.995575189590454,
                180.57699584960938
            ],
            [
                -1.554951786994934,
                -4.632003307342529,
                200.57699584960938
            ],
            [
                -1.8486398458480835,
                -5.268431186676025,
                220.57699584960938
            ],
            [
                -2.142299175262451,
                -5.90485954284668,
                240.57699584960938
            ],
            [
                -2.4359281063079834,
                -6.541288375854492,
                260.5769958496094
            ],
            [
                -2.729524612426758,
                -7.1777167320251465,
                280.5769958496094
            ],
            [
                -3.0230870246887207,
                -7.814145565032959,
                300.5769958496094
            ],
            [
                -3.31661319732666,
                -8.45057487487793,
                320.5769958496094
            ],
            [
                -3.6101012229919434,
                -9.087003707885742,
                340.5769958496094
            ],
            [
                -3.9035489559173584,
                -9.723432540893555,
                360.5769958496094
            ],
            [
                -4.196954727172852,
                -10.359862327575684,
                380.5769958496094
            ],
            [
                -4.490334987640381,
                -10.996291160583496,
                400.5769958496094
            ],
            [
                -4.78366231918335,
                -11.632720947265625,
                420.5769958496094
            ],
            [
                -5.076945781707764,
                -12.269149780273438,
                440.5769958496094
            ],
            [
                -5.37018346786499,
                -12.905579566955566,
                460.5769958496094
            ],
            [
                -5.663373947143555,
                -13.542009353637695,
                480.5769958496094
            ],
            [
                -5.956514835357666,
                -14.178439140319824,
                500.5769958496094
            ],
            [
                -6.249604225158691,
                -14.814867973327637,
                520.5770263671875
            ],
            [
                -6.542641639709473,
                -15.451297760009766,
                540.5770263671875
            ],
            [
                -6.835625648498535,
                -16.087726593017578,
                560.5770263671875
            ],
            [
                -7.128554344177246,
                -16.724157333374023,
                580.5770263671875
            ],
            [
                -7.421426296234131,
                -17.360586166381836,
                600.5770263671875
            ],
            [
                -7.714239120483398,
                -17.99701499938965,
                620.5770263671875
            ],
            [
                -8.00699234008789,
                -18.63344383239746,
                640.5770263671875
            ],
            [
                -8.299675941467285,
                -19.269872665405273,
                660.5770263671875
            ],
            [
                -8.59228801727295,
                -19.906301498413086,
                680.5770263671875
            ],
            [
                -8.884832382202148,
                -20.5427303314209,
                700.5770263671875
            ],
            [
                -9.177308082580566,
                -21.179161071777344,
                720.5770263671875
            ],
            [
                -9.469712257385254,
                -21.815589904785156,
                740.5770263671875
            ],
            [
                -9.762043952941895,
                -22.45201873779297,
                760.5770263671875
            ],
            [
                -10.054300308227539,
                -23.08844757080078,
                780.5770263671875
            ],
            [
                -10.346480369567871,
                -23.72487449645996,
                800.5770263671875
            ],
            [
                -10.638577461242676,
                -24.361303329467773,
                820.5770263671875
            ],
            [
                -10.93058967590332,
                -24.99772834777832,
                840.5770263671875
            ],
            [
                -11.222519874572754,
                -25.6341552734375,
                860.5770263671875
            ],
            [
                -11.514364242553711,
                -26.27058219909668,
                880.5770263671875
            ],
            [
                -11.806121826171875,
                -26.907007217407227,
                900.5770263671875
            ],
            [
                -12.097797393798828,
                -27.543432235717773,
                920.5770263671875
            ],
            [
                -12.389384269714355,
                -28.179855346679688,
                940.5770263671875
            ],
            [
                -12.680878639221191,
                -28.816280364990234,
                960.5770263671875
            ],
            [
                -12.972284317016602,
                -29.45270347595215,
                980.5770263671875
            ],
            [
                -13.263591766357422,
                -30.089130401611328,
                1000.5770263671875
            ],
            [
                -14.718672752380371,
                -33.27125549316406,
                1100.5770263671875
            ],
            [
                -16.171249389648438,
                -36.4533805847168,
                1200.5770263671875
            ],
            [
                -17.62103843688965,
                -39.63547134399414,
                1300.5770263671875
            ],
            [
                -19.068517684936523,
                -42.81757354736328,
                1400.5770263671875
            ],
            [
                -20.513687133789063,
                -45.99966812133789,
                1500.5770263671875
            ],
            [
                -21.956302642822266,
                -49.18175506591797,
                1600.5770263671875
            ],
            [
                -23.39607048034668,
                -52.36383819580078,
                1700.5770263671875
            ],
            [
                -24.8333797454834,
                -55.54592514038086,
                1800.5770263671875
            ],
            [
                -26.266935348510742,
                -58.727996826171875,
                1900.5770263671875
            ],
            [
                -27.69730567932129,
                -61.91006088256836,
                2000.5770263671875
            ],
            [
                -29.123098373413086,
                -65.09210205078125,
                2100.576904296875
            ],
            [
                -30.54405975341797,
                -68.27411651611328,
                2200.576904296875
            ],
            [
                -31.957721710205078,
                -71.45598602294922,
                2300.576904296875
            ],
            [
                -33.36471176147461,
                -74.63790130615234,
                2400.576904296875
            ],
            [
                -34.762245178222656,
                -77.81976318359375,
                2500.576904296875
            ],
            [
                -36.14850616455078,
                -81.00155639648438,
                2600.576904296875
            ],
            [
                -37.52177429199219,
                -84.18325805664063,
                2700.576904296875
            ],
            [
                -38.87972640991211,
                -87.36487579345703,
                2800.576904296875
            ],
            [
                -40.21919250488281,
                -90.54639434814453,
                2900.576904296875
            ],
            [
                -41.53623962402344,
                -93.7277603149414,
                3000.576904296875
            ],
            [
                -42.82876968383789,
                -96.90901947021484,
                3100.576904296875
            ],
            [
                -44.09300231933594,
                -100.0902328491211,
                3200.576904296875
            ],
            [
                -45.32187271118164,
                -103.27130126953125,
                3300.576904296875
            ],
            [
                -46.514007568359375,
                -106.45233917236328,
                3400.576904296875
            ],
            [
                -47.665863037109375,
                -109.6332015991211,
                3500.576904296875
            ],
            [
                -48.77376174926758,
                -112.8139419555664,
                3600.576904296875
            ],
            [
                -49.83259201049805,
                -115.99452209472656,
                3700.576904296875
            ],
            [
                -50.83669662475586,
                -119.17504119873047,
                3800.576904296875
            ],
            [
                -51.784664154052734,
                -122.35539245605469,
                3900.576904296875
            ],
            [
                -52.672664642333984,
                -125.5353775024414,
                4000.576904296875
            ],
            [
                -53.49575424194336,
                -128.71524047851563,
                4100.5771484375
            ],
            [
                -54.24734878540039,
                -131.8949432373047,
                4200.5771484375
            ],
            [
                -54.932167053222656,
                -135.07460021972656,
                4300.5771484375
            ],
            [
                -55.548927307128906,
                -138.25399780273438,
                4400.5771484375
            ],
            [
                -56.091552734375,
                -141.43301391601563,
                4500.5771484375
            ],
            [
                -56.56074905395508,
                -144.61212158203125,
                4600.5771484375
            ],
            [
                -56.95553207397461,
                -147.79095458984375,
                4700.5771484375
            ],
            [
                -57.28121566772461,
                -150.96971130371094,
                4800.5771484375
            ],
            [
                -57.319114685058594,
                -153.2967529296875,
                4900.5771484375
            ],
            [
                -57.48484420776367,
                -156.45352172851563,
                5000.5771484375
            ],
            [
                -57.57612991333008,
                -159.61007690429688,
                5100.5771484375
            ],
            [
                -57.59644317626953,
                -162.7664794921875,
                5200.5771484375
            ],
            [
                -57.54475784301758,
                -165.92239379882813,
                5300.5771484375
            ],
            [
                -57.42350769042969,
                -169.07846069335938,
                5400.5771484375
            ],
            [
                -57.232852935791016,
                -172.23483276367188,
                5500.5771484375
            ],
            [
                -56.97650909423828,
                -175.39053344726563,
                5600.5771484375
            ],
            [
                -56.65224075317383,
                -178.54623413085938,
                5700.5771484375
            ],
            [
                -56.26275634765625,
                -181.70164489746094,
                5800.5771484375
            ],
            [
                -55.81201934814453,
                -184.85691833496094,
                5900.5771484375
            ],
            [
                -55.29804611206055,
                -188.0120391845703,
                6000.5771484375
            ],
            [
                -54.724796295166016,
                -191.1668701171875,
                6100.5771484375
            ],
            [
                -54.093666076660156,
                -194.3215789794922,
                6200.5771484375
            ],
            [
                -53.40639877319336,
                -197.4762725830078,
                6300.5771484375
            ],
            [
                -52.66544723510742,
                -200.630859375,
                6400.5771484375
            ],
            [
                -51.87226104736328,
                -203.7853546142578,
                6500.5771484375
            ],
            [
                -51.02975082397461,
                -206.9397430419922,
                6600.5771484375
            ],
            [
                -50.13927459716797,
                -210.0939483642578,
                6700.5771484375
            ],
            [
                -49.20448303222656,
                -213.24803161621094,
                6800.5771484375
            ],
            [
                -48.22590637207031,
                -216.40206909179688,
                6900.5771484375
            ],
            [
                -47.20672607421875,
                -219.55601501464844,
                7000.5771484375
            ],
            [
                -46.149539947509766,
                -222.70985412597656,
                7100.5771484375
            ],
            [
                -45.05666732788086,
                -225.8635711669922,
                7200.5771484375
            ],
            [
                -43.9300422668457,
                -229.0171661376953,
                7300.5771484375
            ],
            [
                -42.7713508605957,
                -232.17066955566406,
                7400.5771484375
            ],
            [
                -41.58442687988281,
                -235.3240203857422,
                7500.5771484375
            ],
            [
                -40.3697509765625,
                -238.47726440429688,
                7600.5771484375
            ],
            [
                -39.13022232055664,
                -241.63035583496094,
                7700.5771484375
            ],
            [
                -37.86692810058594,
                -244.78330993652344,
                7800.5771484375
            ],
            [
                -36.58190155029297,
                -247.9361114501953,
                7900.5771484375
            ],
            [
                -35.277042388916016,
                -251.08877563476563,
                8000.5771484375
            ],
            [
                -33.953433990478516,
                -254.2412872314453,
                8100.5771484375
            ],
            [
                -32.61319351196289,
                -257.3936767578125,
                8200.5771484375
            ],
            [
                -31.25739288330078,
                -260.5458984375,
                8300.5771484375
            ],
            [
                -29.887197494506836,
                -263.6980285644531,
                8400.5771484375
            ],
            [
                -28.503799438476563,
                -266.8500061035156,
                8500.5771484375
            ],
            [
                -27.10865020751953,
                -270.0019226074219,
                8600.5771484375
            ],
            [
                -25.702407836914063,
                -273.1536865234375,
                8700.5771484375
            ],
            [
                -24.286096572875977,
                -276.3053894042969,
                8800.5771484375
            ],
            [
                -22.86064338684082,
                -279.4570007324219,
                8900.5771484375
            ],
            [
                -21.426712036132813,
                -282.6085205078125,
                9000.5771484375
            ],
            [
                -19.985061645507813,
                -285.7599792480469,
                9100.5771484375
            ],
            [
                -18.536399841308594,
                -288.9113464355469,
                9200.5771484375
            ],
            [
                -17.081302642822266,
                -292.0626525878906,
                9300.5771484375
            ],
            [
                -15.620345115661621,
                -295.2138977050781,
                9400.5771484375
            ],
            [
                -14.154059410095215,
                -298.36505126953125,
                9500.5771484375
            ],
            [
                -12.682888984680176,
                -301.5162048339844,
                9600.5771484375
            ],
            [
                -11.207280158996582,
                -304.6672668457031,
                9700.5771484375
            ],
            [
                -9.727611541748047,
                -307.81829833984375,
                9800.5771484375
            ],
            [
                -8.244271278381348,
                -310.96929931640625,
                9900.5771484375
            ],
            [
                -6.7575554847717285,
                -314.1202392578125,
                10000.5771484375
            ],
            [
                -3.7751877307891846,
                -320.42205810546875,
                10200.5771484375
            ],
            [
                -0.782560408115387,
                -326.7237548828125,
                10400.5771484375
            ],
            [
                2.218461275100708,
                -333.025390625,
                10600.5771484375
            ],
            [
                5.226678848266602,
                -339.326904296875,
                10800.5771484375
            ],
            [
                8.240548133850098,
                -345.6283874511719,
                11000.5771484375
            ],
            [
                11.25930118560791,
                -351.9298400878906,
                11200.5771484375
            ],
            [
                14.28221321105957,
                -358.2312316894531,
                11400.5771484375
            ],
            [
                17.308246612548828,
                -364.5325927734375,
                11600.5771484375
            ],
            [
                20.336997985839844,
                -370.8339538574219,
                11800.5771484375
            ],
            [
                23.367849349975586,
                -377.1352844238281,
                12000.5771484375
            ],
            [
                26.40084457397461,
                -383.4366149902344,
                12200.5771484375
            ],
            [
                29.435237884521484,
                -389.7379150390625,
                12400.5771484375
            ],
            [
                32.470481872558594,
                -396.0392150878906,
                12600.5771484375
            ],
            [
                35.50661849975586,
                -402.34051513671875,
                12800.5771484375
            ],
            [
                38.54373550415039,
                -408.6418151855469,
                13000.5771484375
            ],
            [
                41.5815544128418,
                -414.943115234375,
                13200.5771484375
            ],
            [
                44.619693756103516,
                -421.2444152832031,
                13400.5771484375
            ]
        ],
        "zFirstMeasurement": 289.1933
    },
    {
        "E": 19012.762290042057,
        "chi2": 0.6222427487373352,
        "ip": 0.22565018701717213,
        "ipchi2": 4.8610878649903855,
        "mass": 139.57018,
        "particleId": "pi-",
        "pvx": 0.6185,
        "pvy": 0.0563,
        "pvz": 61.8725,
        "px": 448.9383270688844,
        "py": -462.1569818266417,
        "pz": 19001.329305212766,
        "q": -1.0,
        "trajectory": [
            [
                -2.9912734031677246,
                4.059410572052002,
                -100.0
            ],
            [
                -2.873067855834961,
                3.9377970695495605,
                -95.0
            ],
            [
                -2.7548646926879883,
                3.8161840438842773,
                -90.0
            ],
            [
                -2.6366636753082275,
                3.694571018218994,
                -85.0
            ],
            [
                -2.5184648036956787,
                3.572957992553711,
                -80.0
            ],
            [
                -2.400268077850342,
                3.4513449668884277,
                -75.0
            ],
            [
                -2.282073736190796,
                3.3297321796417236,
                -70.0
            ],
            [
                -2.163881778717041,
                3.2081191539764404,
                -65.0
            ],
            [
                -2.045691967010498,
                3.0865063667297363,
                -60.0
            ],
            [
                -1.9274845123291016,
                2.9648935794830322,
                -55.0
            ],
            [
                -1.8093023300170898,
                2.843280792236328,
                -50.0
            ],
            [
                -1.6911221742630005,
                2.721668243408203,
                -45.0
            ],
            [
                -1.5729445219039917,
                2.600055694580078,
                -40.0
            ],
            [
                -1.454769253730774,
                2.478443145751953,
                -35.0
            ],
            [
                -1.336596131324768,
                2.356830596923828,
                -30.0
            ],
            [
                -1.2184252738952637,
                2.235218048095703,
                -25.0
            ],
            [
                -1.1002568006515503,
                2.1136057376861572,
                -20.0
            ],
            [
                -0.9820907711982727,
                1.9919933080673218,
                -15.0
            ],
            [
                -0.8639270663261414,
                1.8703809976577759,
                -10.0
            ],
            [
                -0.7457658648490906,
                1.7487688064575195,
                -5.0
            ],
            [
                -0.6276071667671204,
                1.6271566152572632,
                0.0
            ],
            [
                -0.5094510912895203,
                1.5055444240570068,
                5.0
            ],
            [
                -0.3912976086139679,
                1.38393235206604,
                10.0
            ],
            [
                -0.27314677834510803,
                1.2623202800750732,
                15.0
            ],
            [
                -0.15499866008758545,
                1.1407082080841064,
                20.0
            ],
            [
                -0.03685332089662552,
                1.0190962553024292,
                25.0
            ],
            [
                0.08128921687602997,
                0.8974843621253967,
                30.0
            ],
            [
                0.19942888617515564,
                0.775872528553009,
                35.0
            ],
            [
                0.3175656497478485,
                0.6542606949806213,
                40.0
            ],
            [
                0.4356994926929474,
                0.5326489806175232,
                45.0
            ],
            [
                0.5538302659988403,
                0.41103726625442505,
                50.0
            ],
            [
                0.6719580292701721,
                0.2894256114959717,
                55.0
            ],
            [
                0.7900826930999756,
                0.1678139865398407,
                60.0
            ],
            [
                0.9082042574882507,
                0.046202436089515686,
                65.0
            ],
            [
                1.026322603225708,
                -0.07540906965732574,
                70.0
            ],
            [
                1.1444376707077026,
                -0.1970205307006836,
                75.0
            ],
            [
                1.2625494003295898,
                -0.3186319172382355,
                80.0
            ],
            [
                1.3806579113006592,
                -0.44024327397346497,
                85.0
            ],
            [
                1.4987629652023315,
                -0.5618546009063721,
                90.0
            ],
            [
                1.616864562034607,
                -0.683465838432312,
                95.0
            ],
            [
                1.7349627017974854,
                -0.8050770163536072,
                100.0
            ],
            [
                2.207319498062134,
                -1.2915213108062744,
                120.0
            ],
            [
                2.679616928100586,
                -1.7779648303985596,
                140.0
            ],
            [
                3.151883363723755,
                -2.2644076347351074,
                160.0
            ],
            [
                3.624069929122925,
                -2.750849485397339,
                180.0
            ],
            [
                4.096193790435791,
                -3.237290620803833,
                200.0
            ],
            [
                4.568251132965088,
                -3.72373104095459,
                220.0
            ],
            [
                5.040316581726074,
                -4.2101969718933105,
                240.0
            ],
            [
                5.512232780456543,
                -4.696635723114014,
                260.0
            ],
            [
                5.98407506942749,
                -5.1830735206604,
                280.0
            ],
            [
                6.455839157104492,
                -5.669510841369629,
                300.0
            ],
            [
                6.927522659301758,
                -6.155947685241699,
                320.0
            ],
            [
                7.39915132522583,
                -6.642383098602295,
                340.0
            ],
            [
                7.870650291442871,
                -7.128818511962891,
                360.0
            ],
            [
                8.342063903808594,
                -7.61525297164917,
                380.0
            ],
            [
                8.813390731811523,
                -8.10168743133545,
                400.0
            ],
            [
                9.284625053405762,
                -8.588120460510254,
                420.0
            ],
            [
                9.75576114654541,
                -9.074553489685059,
                440.0
            ],
            [
                10.22679328918457,
                -9.560985565185547,
                460.0
            ],
            [
                10.69771671295166,
                -10.047416687011719,
                480.0
            ],
            [
                11.168526649475098,
                -10.53384780883789,
                500.0
            ],
            [
                11.639216423034668,
                -11.020277976989746,
                520.0
            ],
            [
                12.109825134277344,
                -11.506708145141602,
                540.0
            ],
            [
                12.580286979675293,
                -11.99313735961914,
                560.0
            ],
            [
                13.050622940063477,
                -12.47956657409668,
                580.0
            ],
            [
                13.520828247070313,
                -12.965994834899902,
                600.0
            ],
            [
                13.990898132324219,
                -13.452423095703125,
                620.0
            ],
            [
                14.460829734802246,
                -13.938850402832031,
                640.0
            ],
            [
                14.930615425109863,
                -14.425277709960938,
                660.0
            ],
            [
                15.400248527526855,
                -14.911705017089844,
                680.0
            ],
            [
                15.86972713470459,
                -15.398131370544434,
                700.0
            ],
            [
                16.339046478271484,
                -15.88455867767334,
                720.0
            ],
            [
                16.808198928833008,
                -16.370986938476563,
                740.0
            ],
            [
                17.27718162536621,
                -16.85741424560547,
                760.0
            ],
            [
                17.74599266052246,
                -17.343841552734375,
                780.0
            ],
            [
                18.214624404907227,
                -17.830270767211914,
                800.0
            ],
            [
                18.683074951171875,
                -18.31669807434082,
                820.0
            ],
            [
                19.151338577270508,
                -18.80312728881836,
                840.0
            ],
            [
                19.619409561157227,
                -19.28955841064453,
                860.0
            ],
            [
                20.08728790283203,
                -19.77598762512207,
                880.0
            ],
            [
                20.55498504638672,
                -20.262414932250977,
                900.0
            ],
            [
                21.022489547729492,
                -20.748844146728516,
                920.0
            ],
            [
                21.489788055419922,
                -21.235271453857422,
                940.0
            ],
            [
                21.956880569458008,
                -21.72170066833496,
                960.0
            ],
            [
                22.42375946044922,
                -22.2081298828125,
                980.0
            ],
            [
                22.890399932861328,
                -22.694562911987305,
                1000.0
            ],
            [
                25.220327377319336,
                -25.126750946044922,
                1100.0
            ],
            [
                27.544382095336914,
                -27.55897331237793,
                1200.0
            ],
            [
                29.86258888244629,
                -29.99123764038086,
                1300.0
            ],
            [
                32.174896240234375,
                -32.42349624633789,
                1400.0
            ],
            [
                34.48405075073242,
                -34.8555908203125,
                1500.0
            ],
            [
                36.78586196899414,
                -37.287837982177734,
                1600.0
            ],
            [
                39.081520080566406,
                -39.720115661621094,
                1700.0
            ],
            [
                41.371089935302734,
                -42.152408599853516,
                1800.0
            ],
            [
                43.6533317565918,
                -44.584716796875,
                1900.0
            ],
            [
                45.92626190185547,
                -47.01704406738281,
                2000.0
            ],
            [
                48.19038391113281,
                -49.44938278198242,
                2100.0
            ],
            [
                50.44204330444336,
                -51.881744384765625,
                2200.0
            ],
            [
                52.67924880981445,
                -54.31404113769531,
                2300.0
            ],
            [
                54.90098571777344,
                -56.746341705322266,
                2400.0
            ],
            [
                57.102935791015625,
                -59.17836380004883,
                2500.0
            ],
            [
                59.27952194213867,
                -61.610679626464844,
                2600.0
            ],
            [
                61.4235954284668,
                -64.04302215576172,
                2700.0
            ],
            [
                63.53463363647461,
                -66.47534942626953,
                2800.0
            ],
            [
                65.60263061523438,
                -68.90766143798828,
                2900.0
            ],
            [
                67.62149047851563,
                -71.34001922607422,
                3000.0
            ],
            [
                69.58475494384766,
                -73.7723159790039,
                3100.0
            ],
            [
                71.47879791259766,
                -76.20426940917969,
                3200.0
            ],
            [
                73.29985809326172,
                -78.63604736328125,
                3300.0
            ],
            [
                75.04589080810547,
                -81.06782531738281,
                3400.0
            ],
            [
                76.69192504882813,
                -83.49895477294922,
                3500.0
            ],
            [
                78.24126434326172,
                -85.93061828613281,
                3600.0
            ],
            [
                79.67533874511719,
                -88.36206817626953,
                3700.0
            ],
            [
                80.98866271972656,
                -90.79353332519531,
                3800.0
            ],
            [
                82.17756652832031,
                -93.22503662109375,
                3900.0
            ],
            [
                83.23516082763672,
                -95.65679168701172,
                4000.0
            ],
            [
                84.13139343261719,
                -98.08871459960938,
                4100.0
            ],
            [
                84.8838882446289,
                -100.52053833007813,
                4200.0
            ],
            [
                85.47932434082031,
                -102.95268249511719,
                4300.0
            ],
            [
                85.93482208251953,
                -105.38504028320313,
                4400.0
            ],
            [
                86.2164306640625,
                -107.81719970703125,
                4500.0
            ],
            [
                86.3322982788086,
                -110.25032806396484,
                4600.0
            ],
            [
                86.28700256347656,
                -112.68356323242188,
                4700.0
            ],
            [
                86.07321166992188,
                -115.11761474609375,
                4800.0
            ],
            [
                85.70758056640625,
                -117.55172729492188,
                4900.0
            ],
            [
                85.545654296875,
                -120.25421142578125,
                5000.0
            ],
            [
                84.82424926757813,
                -122.69522857666016,
                5100.0
            ],
            [
                83.94315338134766,
                -125.13652038574219,
                5200.0
            ],
            [
                82.900146484375,
                -127.57887268066406,
                5300.0
            ],
            [
                81.70126342773438,
                -130.02078247070313,
                5400.0
            ],
            [
                80.34698486328125,
                -132.4620819091797,
                5500.0
            ],
            [
                78.8448486328125,
                -134.9049835205078,
                5600.0
            ],
            [
                77.19043731689453,
                -137.34768676757813,
                5700.0
            ],
            [
                75.38970184326172,
                -139.79100036621094,
                5800.0
            ],
            [
                73.45156860351563,
                -142.2345428466797,
                5900.0
            ],
            [
                71.37162780761719,
                -144.6785125732422,
                6000.0
            ],
            [
                69.15816497802734,
                -147.1229705810547,
                6100.0
            ],
            [
                66.8149185180664,
                -149.5675506591797,
                6200.0
            ],
            [
                64.345947265625,
                -152.01206970214844,
                6300.0
            ],
            [
                61.756317138671875,
                -154.45663452148438,
                6400.0
            ],
            [
                59.04937744140625,
                -156.9011688232422,
                6500.0
            ],
            [
                56.23178482055664,
                -159.34580993652344,
                6600.0
            ],
            [
                53.30662536621094,
                -161.79055786132813,
                6700.0
            ],
            [
                50.28196334838867,
                -164.23532104492188,
                6800.0
            ],
            [
                47.15897750854492,
                -166.67990112304688,
                6900.0
            ],
            [
                43.94465637207031,
                -169.12437438964844,
                7000.0
            ],
            [
                40.64503860473633,
                -171.56874084472656,
                7100.0
            ],
            [
                37.26514434814453,
                -174.01300048828125,
                7200.0
            ],
            [
                33.8093147277832,
                -176.45718383789063,
                7300.0
            ],
            [
                30.281322479248047,
                -178.9011993408203,
                7400.0
            ],
            [
                26.6895809173584,
                -181.34519958496094,
                7500.0
            ],
            [
                23.035511016845703,
                -183.78903198242188,
                7600.0
            ],
            [
                19.325410842895508,
                -186.23281860351563,
                7700.0
            ],
            [
                15.561697006225586,
                -188.6765594482422,
                7800.0
            ],
            [
                11.748871803283691,
                -191.12025451660156,
                7900.0
            ],
            [
                7.8912224769592285,
                -193.5639190673828,
                8000.0
            ],
            [
                3.9911653995513916,
                -196.00755310058594,
                8100.0
            ],
            [
                0.053459011018276215,
                -198.45118713378906,
                8200.0
            ],
            [
                -3.919506311416626,
                -200.89480590820313,
                8300.0
            ],
            [
                -7.925098419189453,
                -203.33840942382813,
                8400.0
            ],
            [
                -11.960676193237305,
                -205.78199768066406,
                8500.0
            ],
            [
                -16.022857666015625,
                -208.22557067871094,
                8600.0
            ],
            [
                -20.110212326049805,
                -210.6691131591797,
                8700.0
            ],
            [
                -24.220436096191406,
                -213.1126251220703,
                8800.0
            ],
            [
                -28.351417541503906,
                -215.55615234375,
                8900.0
            ],
            [
                -32.50166320800781,
                -217.99964904785156,
                9000.0
            ],
            [
                -36.66944122314453,
                -220.44314575195313,
                9100.0
            ],
            [
                -40.85315704345703,
                -222.88665771484375,
                9200.0
            ],
            [
                -45.05149459838867,
                -225.3301544189453,
                9300.0
            ],
            [
                -49.263160705566406,
                -227.77365112304688,
                9400.0
            ],
            [
                -53.486934661865234,
                -230.21714782714844,
                9500.0
            ],
            [
                -57.72181701660156,
                -232.66065979003906,
                9600.0
            ],
            [
                -61.96678924560547,
                -235.10415649414063,
                9700.0
            ],
            [
                -66.22099304199219,
                -237.54766845703125,
                9800.0
            ],
            [
                -70.48355865478516,
                -239.99118041992188,
                9900.0
            ],
            [
                -74.75379180908203,
                -242.43470764160156,
                10000.0
            ],
            [
                -83.31461334228516,
                -247.32176208496094,
                10200.0
            ],
            [
                -91.89878845214844,
                -252.20883178710938,
                10400.0
            ],
            [
                -100.50206756591797,
                -257.0959167480469,
                10600.0
            ],
            [
                -109.12174224853516,
                -261.9830322265625,
                10800.0
            ],
            [
                -117.7542953491211,
                -266.8701477050781,
                11000.0
            ],
            [
                -126.3979721069336,
                -271.75726318359375,
                11200.0
            ],
            [
                -135.05111694335938,
                -276.6444091796875,
                11400.0
            ],
            [
                -143.7113800048828,
                -281.53155517578125,
                11600.0
            ],
            [
                -152.37783813476563,
                -286.418701171875,
                11800.0
            ],
            [
                -161.049072265625,
                -291.3058776855469,
                12000.0
            ],
            [
                -169.72518920898438,
                -296.19305419921875,
                12200.0
            ],
            [
                -178.40451049804688,
                -301.0802001953125,
                12400.0
            ],
            [
                -187.08575439453125,
                -305.9673767089844,
                12600.0
            ],
            [
                -195.76902770996094,
                -310.85455322265625,
                12800.0
            ],
            [
                -204.45452880859375,
                -315.7417297363281,
                13000.0
            ],
            [
                -213.1416473388672,
                -320.62890625,
                13200.0
            ],
            [
                -221.8295135498047,
                -325.51611328125,
                13400.0
            ]
        ],
        "zFirstMeasurement": 434.2704
    },
    {
        "E": 3565.912442495641,
        "chi2": 0.708926796913147,
        "ip": 0.18872987244067838,
        "ipchi2": 9.180698888777059,
        "mass": 139.57018,
        "particleId": "pi+",
        "pvx": 0.6039,
        "pvy": 0.02,
        "pvz": 56.7702,
        "px": 30.43036577504693,
        "py": 498.0555757039441,
        "pz": 3528.068359421201,
        "q": 1.0,
        "trajectory": [
            [
                -0.6918834447860718,
                -21.92718505859375,
                -100.0
            ],
            [
                -0.6491954922676086,
                -21.221330642700195,
                -95.0
            ],
            [
                -0.6064953804016113,
                -20.51547622680664,
                -90.0
            ],
            [
                -0.5637830495834351,
                -19.80962371826172,
                -85.0
            ],
            [
                -0.5210583209991455,
                -19.103769302368164,
                -80.0
            ],
            [
                -0.47832098603248596,
                -18.397916793823242,
                -75.0
            ],
            [
                -0.43557092547416687,
                -17.69206428527832,
                -70.0
            ],
            [
                -0.3928079903125763,
                -16.9862117767334,
                -65.0
            ],
            [
                -0.3500320017337799,
                -16.280359268188477,
                -60.0
            ],
            [
                -0.30724284052848816,
                -15.574506759643555,
                -55.0
            ],
            [
                -0.26444029808044434,
                -14.868654251098633,
                -50.0
            ],
            [
                -0.2217382937669754,
                -14.162802696228027,
                -45.0
            ],
            [
                -0.17889158427715302,
                -13.456951141357422,
                -40.0
            ],
            [
                -0.136032834649086,
                -12.751099586486816,
                -35.0
            ],
            [
                -0.09316177666187286,
                -12.045248031616211,
                -30.0
            ],
            [
                -0.05027816817164421,
                -11.339397430419922,
                -25.0
            ],
            [
                -0.007381746079772711,
                -10.633546829223633,
                -20.0
            ],
            [
                0.03552773967385292,
                -9.927696228027344,
                -15.0
            ],
            [
                0.07845053821802139,
                -9.221845626831055,
                -10.0
            ],
            [
                0.12138691544532776,
                -8.515995979309082,
                -5.0
            ],
            [
                0.16433711349964142,
                -7.810146331787109,
                0.0
            ],
            [
                0.20730139315128326,
                -7.104296684265137,
                5.0
            ],
            [
                0.2502799928188324,
                -6.398447036743164,
                10.0
            ],
            [
                0.2932731807231903,
                -5.69259786605835,
                15.0
            ],
            [
                0.3362812101840973,
                -4.986749172210693,
                20.0
            ],
            [
                0.37930434942245483,
                -4.280900001525879,
                25.0
            ],
            [
                0.42234280705451965,
                -3.5750515460968018,
                30.0
            ],
            [
                0.4653968811035156,
                -2.8692033290863037,
                35.0
            ],
            [
                0.5084667801856995,
                -2.1633551120758057,
                40.0
            ],
            [
                0.5515528321266174,
                -1.4575072526931763,
                45.0
            ],
            [
                0.5946552157402039,
                -0.7516595721244812,
                50.0
            ],
            [
                0.6377741694450378,
                -0.04581206664443016,
                55.0
            ],
            [
                0.680910050868988,
                0.6600351929664612,
                60.0
            ],
            [
                0.724062979221344,
                1.3658822774887085,
                65.0
            ],
            [
                0.7672333121299744,
                2.0717291831970215,
                70.0
            ],
            [
                0.8104212284088135,
                2.777575731277466,
                75.0
            ],
            [
                0.8536270260810852,
                3.48342227935791,
                80.0
            ],
            [
                0.8968509435653687,
                4.189268589019775,
                85.0
            ],
            [
                0.9400932192802429,
                4.895114421844482,
                90.0
            ],
            [
                0.9833540320396423,
                5.6009602546691895,
                95.0
            ],
            [
                1.0266337394714355,
                6.3068060874938965,
                100.0
            ],
            [
                1.2000433206558228,
                9.130112648010254,
                120.0
            ],
            [
                1.3736412525177002,
                11.953489303588867,
                140.0
            ],
            [
                1.5475550889968872,
                14.776863098144531,
                160.0
            ],
            [
                1.7218048572540283,
                17.60023307800293,
                180.0
            ],
            [
                1.896410346031189,
                20.423601150512695,
                200.0
            ],
            [
                2.0713918209075928,
                23.246967315673828,
                220.0
            ],
            [
                2.2467687129974365,
                26.070329666137695,
                240.0
            ],
            [
                2.4224021434783936,
                28.893688201904297,
                260.0
            ],
            [
                2.598524808883667,
                31.7170467376709,
                280.0
            ],
            [
                2.775064468383789,
                34.540401458740234,
                300.0
            ],
            [
                2.952040433883667,
                37.36375427246094,
                320.0
            ],
            [
                3.1294667720794678,
                40.187103271484375,
                340.0
            ],
            [
                3.307356119155884,
                43.01045227050781,
                360.0
            ],
            [
                3.485722541809082,
                45.833797454833984,
                380.0
            ],
            [
                3.6645824909210205,
                48.657142639160156,
                400.0
            ],
            [
                3.8439736366271973,
                51.48048400878906,
                420.0
            ],
            [
                4.023892879486084,
                54.30382537841797,
                440.0
            ],
            [
                4.2043561935424805,
                57.127166748046875,
                460.0
            ],
            [
                4.385377883911133,
                59.950504302978516,
                480.0
            ],
            [
                4.5669732093811035,
                62.77383804321289,
                500.0
            ],
            [
                4.749170780181885,
                65.59717559814453,
                520.0
            ],
            [
                4.931974411010742,
                68.4205093383789,
                540.0
            ],
            [
                5.115399360656738,
                71.24384307861328,
                560.0
            ],
            [
                5.299559593200684,
                74.06717681884766,
                580.0
            ],
            [
                5.484416961669922,
                76.89051055908203,
                600.0
            ],
            [
                5.670001983642578,
                79.71383666992188,
                620.0
            ],
            [
                5.8563032150268555,
                82.53716278076172,
                640.0
            ],
            [
                6.043395519256592,
                85.36048889160156,
                660.0
            ],
            [
                6.2312493324279785,
                88.1838150024414,
                680.0
            ],
            [
                6.4198808670043945,
                91.00714111328125,
                700.0
            ],
            [
                6.609299659729004,
                93.8304672241211,
                720.0
            ],
            [
                6.799596786499023,
                96.65379333496094,
                740.0
            ],
            [
                6.990811347961426,
                99.47711944580078,
                760.0
            ],
            [
                7.182887554168701,
                102.30045318603516,
                780.0
            ],
            [
                7.375845432281494,
                105.123779296875,
                800.0
            ],
            [
                7.5696821212768555,
                107.94711303710938,
                820.0
            ],
            [
                7.764437675476074,
                110.77045440673828,
                840.0
            ],
            [
                7.96013069152832,
                113.59378814697266,
                860.0
            ],
            [
                8.156780242919922,
                116.41712951660156,
                880.0
            ],
            [
                8.354449272155762,
                119.24047088623047,
                900.0
            ],
            [
                8.553276062011719,
                122.06379699707031,
                920.0
            ],
            [
                8.753138542175293,
                124.88712310791016,
                940.0
            ],
            [
                8.954057693481445,
                127.71044921875,
                960.0
            ],
            [
                9.156216621398926,
                130.5337677001953,
                980.0
            ],
            [
                9.359870910644531,
                133.35708618164063,
                1000.0
            ],
            [
                10.393636703491211,
                147.47360229492188,
                1100.0
            ],
            [
                11.466071128845215,
                161.5901641845703,
                1200.0
            ],
            [
                12.562915802001953,
                175.7067108154297,
                1300.0
            ],
            [
                13.688833236694336,
                189.8230743408203,
                1400.0
            ],
            [
                14.842201232910156,
                203.939453125,
                1500.0
            ],
            [
                16.022361755371094,
                218.05587768554688,
                1600.0
            ],
            [
                17.229082107543945,
                232.1725616455078,
                1700.0
            ],
            [
                18.468769073486328,
                246.28929138183594,
                1800.0
            ],
            [
                19.740333557128906,
                260.40594482421875,
                1900.0
            ],
            [
                21.04881477355957,
                274.5224914550781,
                2000.0
            ],
            [
                22.40058708190918,
                288.6392517089844,
                2100.0
            ],
            [
                23.806556701660156,
                302.7569274902344,
                2200.0
            ],
            [
                25.250717163085938,
                316.8751220703125,
                2300.0
            ],
            [
                26.766185760498047,
                330.9944152832031,
                2400.0
            ],
            [
                28.367961883544922,
                345.115478515625,
                2500.0
            ],
            [
                30.078306198120117,
                359.2383117675781,
                2600.0
            ],
            [
                31.90704345703125,
                373.3629455566406,
                2700.0
            ],
            [
                33.88462448120117,
                387.4906005859375,
                2800.0
            ],
            [
                36.051937103271484,
                401.6224060058594,
                2900.0
            ],
            [
                38.442378997802734,
                415.7584228515625,
                3000.0
            ],
            [
                41.06796646118164,
                429.8992614746094,
                3100.0
            ],
            [
                44.03141403198242,
                444.0500793457031,
                3200.0
            ],
            [
                47.3215217590332,
                458.2083435058594,
                3300.0
            ],
            [
                51.02356719970703,
                472.3795471191406,
                3400.0
            ],
            [
                55.18531036376953,
                486.56463623046875,
                3500.0
            ],
            [
                59.855560302734375,
                500.7613525390625,
                3600.0
            ],
            [
                65.11394500732422,
                514.9766845703125,
                3700.0
            ],
            [
                71.09915924072266,
                529.2161865234375,
                3800.0
            ],
            [
                77.7627944946289,
                543.4796142578125,
                3900.0
            ],
            [
                85.25606536865234,
                557.7693481445313,
                4000.0
            ],
            [
                93.5510482788086,
                572.0806274414063,
                4100.0
            ],
            [
                102.8401870727539,
                586.4266967773438,
                4200.0
            ],
            [
                113.04303741455078,
                600.8076171875,
                4300.0
            ],
            [
                124.16363525390625,
                615.2093505859375,
                4400.0
            ],
            [
                136.33499145507813,
                629.6356201171875,
                4500.0
            ],
            [
                149.4819793701172,
                644.0919799804688,
                4600.0
            ],
            [
                163.73382568359375,
                658.5696411132813,
                4700.0
            ],
            [
                178.8379669189453,
                673.0635986328125,
                4800.0
            ],
            [
                197.45428466796875,
                687.4813232421875,
                4900.0
            ],
            [
                214.78778076171875,
                702.0567626953125,
                5000.0
            ],
            [
                233.15533447265625,
                716.6751098632813,
                5100.0
            ],
            [
                252.4600372314453,
                731.2960815429688,
                5200.0
            ],
            [
                272.7646789550781,
                745.9344482421875,
                5300.0
            ],
            [
                294.00848388671875,
                760.5675048828125,
                5400.0
            ],
            [
                316.2258605957031,
                775.1972045898438,
                5500.0
            ],
            [
                339.3507995605469,
                789.8536987304688,
                5600.0
            ],
            [
                363.4227600097656,
                804.4901123046875,
                5700.0
            ],
            [
                388.4400634765625,
                819.1346435546875,
                5800.0
            ],
            [
                414.3155517578125,
                833.7554321289063,
                5900.0
            ],
            [
                441.1368408203125,
                848.3777465820313,
                6000.0
            ],
            [
                468.8167419433594,
                862.98779296875,
                6100.0
            ],
            [
                497.3608093261719,
                877.5645751953125,
                6200.0
            ],
            [
                526.7691040039063,
                892.111083984375,
                6300.0
            ],
            [
                557.0095825195313,
                906.6279296875,
                6400.0
            ],
            [
                588.054931640625,
                921.1033935546875,
                6500.0
            ],
            [
                619.8822021484375,
                935.5262451171875,
                6600.0
            ],
            [
                652.4691772460938,
                949.8876953125,
                6700.0
            ],
            [
                685.7388916015625,
                964.1834716796875,
                6800.0
            ],
            [
                719.7046508789063,
                978.4036254882813,
                6900.0
            ],
            [
                754.2933959960938,
                992.5442504882813,
                7000.0
            ],
            [
                789.4570922851563,
                1006.600830078125,
                7100.0
            ],
            [
                825.1491088867188,
                1020.5735473632813,
                7200.0
            ],
            [
                861.3165893554688,
                1034.4599609375,
                7300.0
            ],
            [
                897.9375610351563,
                1048.2576904296875,
                7400.0
            ],
            [
                934.9298095703125,
                1061.979248046875,
                7500.0
            ],
            [
                972.2888793945313,
                1075.6168212890625,
                7600.0
            ],
            [
                1009.9552612304688,
                1089.1805419921875,
                7700.0
            ],
            [
                1047.9078369140625,
                1102.671875,
                7800.0
            ],
            [
                1086.1097412109375,
                1116.0982666015625,
                7900.0
            ],
            [
                1124.53076171875,
                1129.466552734375,
                8000.0
            ],
            [
                1163.1527099609375,
                1142.779052734375,
                8100.0
            ],
            [
                1201.9459228515625,
                1156.04443359375,
                8200.0
            ],
            [
                1240.8941650390625,
                1169.266845703125,
                8300.0
            ],
            [
                1279.9813232421875,
                1182.4510498046875,
                8400.0
            ],
            [
                1319.193115234375,
                1195.601806640625,
                8500.0
            ],
            [
                1358.5107421875,
                1208.724365234375,
                8600.0
            ],
            [
                1397.9267578125,
                1221.8221435546875,
                8700.0
            ],
            [
                1437.4295654296875,
                1234.8985595703125,
                8800.0
            ],
            [
                1477.0103759765625,
                1247.957763671875,
                8900.0
            ],
            [
                1516.6617431640625,
                1261.0020751953125,
                9000.0
            ],
            [
                1556.375732421875,
                1274.0343017578125,
                9100.0
            ],
            [
                1596.1456298828125,
                1287.056640625,
                9200.0
            ],
            [
                1635.9658203125,
                1300.0711669921875,
                9300.0
            ],
            [
                1675.830810546875,
                1313.0794677734375,
                9400.0
            ],
            [
                1715.73583984375,
                1326.0828857421875,
                9500.0
            ],
            [
                1755.6768798828125,
                1339.082763671875,
                9600.0
            ],
            [
                1795.650146484375,
                1352.080078125,
                9700.0
            ],
            [
                1835.65234375,
                1365.0755615234375,
                9800.0
            ],
            [
                1875.680419921875,
                1378.06982421875,
                9900.0
            ],
            [
                1915.73193359375,
                1391.0635986328125,
                10000.0
            ],
            [
                1995.8956298828125,
                1417.0509033203125,
                10200.0
            ],
            [
                2076.127685546875,
                1443.0399169921875,
                10400.0
            ],
            [
                2156.413330078125,
                1469.0328369140625,
                10600.0
            ],
            [
                2236.744140625,
                1495.0294189453125,
                10800.0
            ],
            [
                2317.109130859375,
                1521.0313720703125,
                11000.0
            ],
            [
                2397.50244140625,
                1547.0380859375,
                11200.0
            ],
            [
                2477.91845703125,
                1573.0491943359375,
                11400.0
            ],
            [
                2558.35107421875,
                1599.065673828125,
                11600.0
            ],
            [
                2638.79638671875,
                1625.0870361328125,
                11800.0
            ],
            [
                2719.25146484375,
                1651.1123046875,
                12000.0
            ],
            [
                2799.716064453125,
                1677.1409912109375,
                12200.0
            ],
            [
                2880.185546875,
                1703.1734619140625,
                12400.0
            ],
            [
                2960.656982421875,
                1729.210693359375,
                12600.0
            ],
            [
                3041.130859375,
                1755.2501220703125,
                12800.0
            ],
            [
                3121.60791015625,
                1781.29150390625,
                13000.0
            ],
            [
                3202.0869140625,
                1807.3348388671875,
                13200.0
            ],
            [
                3282.566162109375,
                1833.380126953125,
                13400.0
            ]
        ],
        "zFirstMeasurement": 154.0981
    }
]
