[
    {
        "E": 15776.732632712985,
        "chi2": 0.0,
        "ip": 0.017041608933828948,
        "ipchi2": 0.8830435350308492,
        "mass": 1865.424,
        "particleId": "D0",
        "pvx": 0.5874,
        "pvy": 0.0687,
        "pvz": 21.7293,
        "px": 326.45,
        "py": -2737.76,
        "pz": 15421.53,
        "q": 0.0,
        "trajectory": [
            [
                0.5874000191688538,
                0.06870000064373016,
                21.729299545288086
            ],
            [
                0.6165000200271606,
                -0.0877000018954277,
                22.5403995513916
            ]
        ],
        "zFirstMeasurement": -9999.0
    },
    {
        "E": 8351.680889890216,
        "chi2": 1.121437430381775,
        "ip": 0.08686737053003546,
        "ipchi2": 10.96818651298765,
        "mass": 493.677,
        "particleId": "K-",
        "pvx": 0.5874,
        "pvy": 0.0687,
        "pvz": 21.7293,
        "px": -635.77,
        "py": -1742.83,
        "pz": 8128.05,
        "q": -1.0,
        "trajectory": [
            [
                0.6056464910507202,
                -0.07295290380716324,
                22.5403995513916
            ],
            [
                0.21454595029354095,
                -1.145059585571289,
                27.5403995513916
            ],
            [
                -0.17656120657920837,
                -2.2171661853790283,
                32.540401458740234
            ],
            [
                -0.5676751136779785,
                -3.2892730236053467,
                37.540401458740234
            ],
            [
                -0.9587958455085754,
                -4.361380100250244,
                42.540401458740234
            ],
            [
                -1.3499234914779663,
                -5.4334869384765625,
                47.540401458740234
            ],
            [
                -1.7410242557525635,
                -6.505622863769531,
                52.540401458740234
            ],
            [
                -2.1321656703948975,
                -7.577730178833008,
                57.540401458740234
            ],
            [
                -2.5233142375946045,
                -8.649837493896484,
                62.540401458740234
            ],
            [
                -2.9144694805145264,
                -9.721944808959961,
                67.54039764404297
            ],
            [
                -3.3056321144104004,
                -10.794052124023438,
                72.54039764404297
            ],
            [
                -3.6968016624450684,
                -11.86616039276123,
                77.54039764404297
            ],
            [
                -4.087978363037109,
                -12.938267707824707,
                82.54039764404297
            ],
            [
                -4.479162693023682,
                -14.0103759765625,
                87.54039764404297
            ],
            [
                -4.870354652404785,
                -15.082484245300293,
                92.54039764404297
            ],
            [
                -5.26155424118042,
                -16.154592514038086,
                97.54039764404297
            ],
            [
                -5.652761459350586,
                -17.226701736450195,
                102.54039764404297
            ],
            [
                -7.2176690101623535,
                -21.51513671875,
                122.54039764404297
            ],
            [
                -8.78271198272705,
                -25.803573608398438,
                142.5404052734375
            ],
            [
                -10.34789752960205,
                -30.09201431274414,
                162.5404052734375
            ],
            [
                -11.91317367553711,
                -34.38045883178711,
                182.5404052734375
            ],
            [
                -13.478626251220703,
                -38.66890335083008,
                202.5404052734375
            ],
            [
                -15.044231414794922,
                -42.95735549926758,
                222.5404052734375
            ],
            [
                -16.60999298095703,
                -47.24580764770508,
                242.5404052734375
            ],
            [
                -18.17591667175293,
                -51.53426742553711,
                262.5404052734375
            ],
            [
                -19.74201011657715,
                -55.822731018066406,
                282.5404052734375
            ],
            [
                -21.30828285217285,
                -60.11119842529297,
                302.5404052734375
            ],
            [
                -22.874736785888672,
                -64.39967346191406,
                322.5404052734375
            ],
            [
                -24.441377639770508,
                -68.68814849853516,
                342.5404052734375
            ],
            [
                -26.00821304321289,
                -72.97663116455078,
                362.5404052734375
            ],
            [
                -27.575246810913086,
                -77.26512145996094,
                382.5404052734375
            ],
            [
                -29.142486572265625,
                -81.55361938476563,
                402.5404052734375
            ],
            [
                -30.709943771362305,
                -85.84212493896484,
                422.5404052734375
            ],
            [
                -32.277618408203125,
                -90.1306381225586,
                442.5404052734375
            ],
            [
                -33.84553146362305,
                -94.41915893554688,
                462.5404052734375
            ],
            [
                -35.41367721557617,
                -98.70768737792969,
                482.5404052734375
            ],
            [
                -36.98208236694336,
                -102.99622344970703,
                502.5404052734375
            ],
            [
                -38.550743103027344,
                -107.2847671508789,
                522.5404052734375
            ],
            [
                -40.11966323852539,
                -111.57332611083984,
                542.5404052734375
            ],
            [
                -41.6888427734375,
                -115.86189270019531,
                562.5404052734375
            ],
            [
                -43.25829315185547,
                -120.15046691894531,
                582.5404052734375
            ],
            [
                -44.82802200317383,
                -124.43905639648438,
                602.5404052734375
            ],
            [
                -46.39808654785156,
                -128.72764587402344,
                622.5404052734375
            ],
            [
                -47.9684944152832,
                -133.01625061035156,
                642.5404052734375
            ],
            [
                -49.53921127319336,
                -137.30487060546875,
                662.5404052734375
            ],
            [
                -51.11024475097656,
                -141.59349060058594,
                682.5404052734375
            ],
            [
                -52.68160629272461,
                -145.8821258544922,
                702.5404052734375
            ],
            [
                -54.25331115722656,
                -150.17076110839844,
                722.5404052734375
            ],
            [
                -55.82535934448242,
                -154.45941162109375,
                742.5404052734375
            ],
            [
                -57.39775466918945,
                -158.74806213378906,
                762.5404052734375
            ],
            [
                -58.970497131347656,
                -163.03672790527344,
                782.5404052734375
            ],
            [
                -60.54370880126953,
                -167.32540893554688,
                802.5404052734375
            ],
            [
                -62.1173095703125,
                -171.61410522460938,
                822.5404052734375
            ],
            [
                -63.69133758544922,
                -175.90280151367188,
                842.5404052734375
            ],
            [
                -65.2657699584961,
                -180.19151306152344,
                862.5404052734375
            ],
            [
                -66.84060668945313,
                -184.48023986816406,
                882.5404052734375
            ],
            [
                -68.41585540771484,
                -188.76898193359375,
                902.5404052734375
            ],
            [
                -69.99144744873047,
                -193.05772399902344,
                922.5404052734375
            ],
            [
                -71.56746673583984,
                -197.34649658203125,
                942.5404052734375
            ],
            [
                -73.14411163330078,
                -201.63523864746094,
                962.5404052734375
            ],
            [
                -74.72128295898438,
                -205.92398071289063,
                982.5404052734375
            ],
            [
                -76.29890441894531,
                -210.2127227783203,
                1002.5404052734375
            ],
            [
                -84.19696044921875,
                -231.6562042236328,
                1102.5404052734375
            ],
            [
                -92.10713195800781,
                -253.0994415283203,
                1202.5404052734375
            ],
            [
                -100.0302505493164,
                -274.5424499511719,
                1302.5404052734375
            ],
            [
                -107.96642303466797,
                -295.98504638671875,
                1402.5404052734375
            ],
            [
                -115.91521453857422,
                -317.4273681640625,
                1502.5404052734375
            ],
            [
                -123.87252807617188,
                -338.8695983886719,
                1602.5404052734375
            ],
            [
                -131.84173583984375,
                -360.31207275390625,
                1702.5404052734375
            ],
            [
                -139.82020568847656,
                -381.7551574707031,
                1802.5404052734375
            ],
            [
                -147.8094482421875,
                -403.19915771484375,
                1902.5404052734375
            ],
            [
                -155.8086395263672,
                -424.64434814453125,
                2002.5404052734375
            ],
            [
                -163.82554626464844,
                -446.0913391113281,
                2102.540283203125
            ],
            [
                -171.85289001464844,
                -467.5400695800781,
                2202.540283203125
            ],
            [
                -179.8859405517578,
                -488.99200439453125,
                2302.540283203125
            ],
            [
                -187.93846130371094,
                -510.4483642578125,
                2402.540283203125
            ],
            [
                -196.0110321044922,
                -531.9107055664063,
                2502.540283203125
            ],
            [
                -204.11264038085938,
                -553.3794555664063,
                2602.540283203125
            ],
            [
                -212.2434539794922,
                -574.857421875,
                2702.540283203125
            ],
            [
                -220.41934204101563,
                -596.346435546875,
                2802.540283203125
            ],
            [
                -228.65243530273438,
                -617.8460693359375,
                2902.540283203125
            ],
            [
                -236.94732666015625,
                -639.3583374023438,
                3002.540283203125
            ],
            [
                -245.3279571533203,
                -660.883544921875,
                3102.540283203125
            ],
            [
                -253.7988739013672,
                -682.4251098632813,
                3202.540283203125
            ],
            [
                -262.3774108886719,
                -703.9854736328125,
                3302.540283203125
            ],
            [
                -271.098388671875,
                -725.5670166015625,
                3402.540283203125
            ],
            [
                -279.9866943359375,
                -747.1762084960938,
                3502.540283203125
            ],
            [
                -289.0569763183594,
                -768.811767578125,
                3602.540283203125
            ],
            [
                -298.3935852050781,
                -790.47607421875,
                3702.540283203125
            ],
            [
                -308.0237121582031,
                -812.1677856445313,
                3802.540283203125
            ],
            [
                -317.9858093261719,
                -833.8914794921875,
                3902.540283203125
            ],
            [
                -328.3517150878906,
                -855.645751953125,
                4002.540283203125
            ],
            [
                -339.07611083984375,
                -877.4369506835938,
                4102.54052734375
            ],
            [
                -350.33355712890625,
                -899.247802734375,
                4202.54052734375
            ],
            [
                -362.02984619140625,
                -921.0963134765625,
                4302.54052734375
            ],
            [
                -374.2489929199219,
                -942.962158203125,
                4402.54052734375
            ],
            [
                -386.9127502441406,
                -964.84375,
                4502.54052734375
            ],
            [
                -400.1054992675781,
                -986.7476806640625,
                4602.54052734375
            ],
            [
                -413.7646179199219,
                -1008.6659545898438,
                4702.54052734375
            ],
            [
                -424.4289855957031,
                -1026.690185546875,
                4802.54052734375
            ],
            [
                -439.1388244628906,
                -1048.5557861328125,
                4902.54052734375
            ],
            [
                -454.2658996582031,
                -1070.4158935546875,
                5002.54052734375
            ],
            [
                -469.8957214355469,
                -1092.2938232421875,
                5102.54052734375
            ],
            [
                -485.9571228027344,
                -1114.1673583984375,
                5202.54052734375
            ],
            [
                -502.4208068847656,
                -1136.043701171875,
                5302.54052734375
            ],
            [
                -519.2590942382813,
                -1157.9356689453125,
                5402.54052734375
            ],
            [
                -536.5792846679688,
                -1179.8309326171875,
                5502.54052734375
            ],
            [
                -554.3280639648438,
                -1201.730712890625,
                5602.54052734375
            ],
            [
                -572.4580078125,
                -1223.615234375,
                5702.54052734375
            ],
            [
                -591.026611328125,
                -1245.515380859375,
                5802.54052734375
            ],
            [
                -609.9686889648438,
                -1267.40625,
                5902.54052734375
            ],
            [
                -629.3626098632813,
                -1289.2982177734375,
                6002.54052734375
            ],
            [
                -649.1788330078125,
                -1311.187744140625,
                6102.54052734375
            ],
            [
                -669.3192749023438,
                -1333.06640625,
                6202.54052734375
            ],
            [
                -689.9141235351563,
                -1354.9412841796875,
                6302.54052734375
            ],
            [
                -710.9139404296875,
                -1376.804443359375,
                6402.54052734375
            ],
            [
                -732.3413696289063,
                -1398.647705078125,
                6502.54052734375
            ],
            [
                -754.150146484375,
                -1420.468017578125,
                6602.54052734375
            ],
            [
                -776.3428955078125,
                -1442.2562255859375,
                6702.54052734375
            ],
            [
                -798.86767578125,
                -1464.010498046875,
                6802.54052734375
            ],
            [
                -821.731689453125,
                -1485.7158203125,
                6902.54052734375
            ],
            [
                -844.8707275390625,
                -1507.3787841796875,
                7002.54052734375
            ],
            [
                -868.2435913085938,
                -1528.9967041015625,
                7102.54052734375
            ],
            [
                -891.8184204101563,
                -1550.56787109375,
                7202.54052734375
            ],
            [
                -915.5639038085938,
                -1572.09619140625,
                7302.54052734375
            ],
            [
                -939.4634399414063,
                -1593.5784912109375,
                7402.54052734375
            ],
            [
                -963.4763793945313,
                -1615.0263671875,
                7502.54052734375
            ],
            [
                -987.585693359375,
                -1636.433837890625,
                7602.54052734375
            ],
            [
                -1011.7688598632813,
                -1657.81005859375,
                7702.54052734375
            ],
            [
                -1036.013427734375,
                -1679.156494140625,
                7802.54052734375
            ],
            [
                -1060.306396484375,
                -1700.47802734375,
                7902.54052734375
            ],
            [
                -1084.63720703125,
                -1721.7781982421875,
                8002.54052734375
            ],
            [
                -1108.9989013671875,
                -1743.05908203125,
                8102.54052734375
            ],
            [
                -1133.3856201171875,
                -1764.3253173828125,
                8202.5400390625
            ],
            [
                -1157.792236328125,
                -1785.5784912109375,
                8302.5400390625
            ],
            [
                -1182.2158203125,
                -1806.8209228515625,
                8402.5400390625
            ],
            [
                -1206.6539306640625,
                -1828.054443359375,
                8502.5400390625
            ],
            [
                -1231.1029052734375,
                -1849.2813720703125,
                8602.5400390625
            ],
            [
                -1255.562255859375,
                -1870.5025634765625,
                8702.5400390625
            ],
            [
                -1280.0302734375,
                -1891.71923828125,
                8802.5400390625
            ],
            [
                -1304.5064697265625,
                -1912.9327392578125,
                8902.5400390625
            ],
            [
                -1328.989501953125,
                -1934.1436767578125,
                9002.5400390625
            ],
            [
                -1353.478759765625,
                -1955.3529052734375,
                9102.5400390625
            ],
            [
                -1377.973388671875,
                -1976.56103515625,
                9202.5400390625
            ],
            [
                -1402.472900390625,
                -1997.7685546875,
                9302.5400390625
            ],
            [
                -1426.9765625,
                -2018.975830078125,
                9402.5400390625
            ],
            [
                -1451.484130859375,
                -2040.18310546875,
                9502.5400390625
            ],
            [
                -1475.9949951171875,
                -2061.390869140625,
                9602.5400390625
            ],
            [
                -1500.5089111328125,
                -2082.598876953125,
                9702.5400390625
            ],
            [
                -1525.025390625,
                -2103.807861328125,
                9802.5400390625
            ],
            [
                -1549.5443115234375,
                -2125.017333984375,
                9902.5400390625
            ],
            [
                -1574.0654296875,
                -2146.227783203125,
                10002.5400390625
            ],
            [
                -1623.1129150390625,
                -2188.651611328125,
                10202.5400390625
            ],
            [
                -1672.166259765625,
                -2231.0791015625,
                10402.5400390625
            ],
            [
                -1721.2242431640625,
                -2273.510498046875,
                10602.5400390625
            ],
            [
                -1770.28564453125,
                -2315.945556640625,
                10802.5400390625
            ],
            [
                -1819.3497314453125,
                -2358.38427734375,
                11002.5400390625
            ],
            [
                -1868.4156494140625,
                -2400.826416015625,
                11202.5400390625
            ],
            [
                -1917.482666015625,
                -2443.271728515625,
                11402.5400390625
            ],
            [
                -1966.5509033203125,
                -2485.72021484375,
                11602.5400390625
            ],
            [
                -2015.619384765625,
                -2528.17138671875,
                11802.5400390625
            ],
            [
                -2064.68798828125,
                -2570.625244140625,
                12002.5400390625
            ],
            [
                -2113.756103515625,
                -2613.080810546875,
                12202.5400390625
            ],
            [
                -2162.82421875,
                -2655.538818359375,
                12402.5400390625
            ],
            [
                -2211.892822265625,
                -2697.9990234375,
                12602.5400390625
            ],
            [
                -2260.96044921875,
                -2740.460205078125,
                12802.5400390625
            ],
            [
                -2310.02734375,
                -2782.92236328125,
                13002.5400390625
            ],
            [
                -2359.09375,
                -2825.385986328125,
                13202.5400390625
            ],
            [
                -2408.16015625,
                -2867.850341796875,
                13402.5400390625
            ]
        ],
        "zFirstMeasurement": 79.5152
    },
    {
        "E": 7425.08287048685,
        "chi2": 2.0251917839050293,
        "ip": 0.0978179683459251,
        "ipchi2": 12.279039537627993,
        "mass": 139.57,
        "particleId": "pi+",
        "pvx": 0.5874,
        "pvy": 0.0687,
        "pvz": 21.7293,
        "px": 963.14,
        "py": -995.59,
        "pz": 7293.39,
        "q": 1.0,
        "trajectory": [
            [
                0.6166325807571411,
                -0.10124663263559341,
                22.5403995513916
            ],
            [
                1.2769266366958618,
                -0.7837766408920288,
                27.5403995513916
            ],
            [
                1.9372283220291138,
                -1.4663070440292358,
                32.540401458740234
            ],
            [
                2.5975375175476074,
                -2.1488378047943115,
                37.540401458740234
            ],
            [
                3.257854700088501,
                -2.831368923187256,
                42.540401458740234
            ],
            [
                3.918179988861084,
                -3.5139005184173584,
                47.540401458740234
            ],
            [
                4.578513145446777,
                -4.196432590484619,
                52.540401458740234
            ],
            [
                5.238883018493652,
                -4.878942012786865,
                57.540401458740234
            ],
            [
                5.899232387542725,
                -5.561474800109863,
                62.540401458740234
            ],
            [
                6.559589385986328,
                -6.2440080642700195,
                67.54039764404297
            ],
            [
                7.219954490661621,
                -6.926541805267334,
                72.54039764404297
            ],
            [
                7.8803277015686035,
                -7.609075546264648,
                77.54039764404297
            ],
            [
                8.540709495544434,
                -8.291609764099121,
                82.54039764404297
            ],
            [
                9.201099395751953,
                -8.97414493560791,
                87.54039764404297
            ],
            [
                9.861496925354004,
                -9.6566801071167,
                92.54039764404297
            ],
            [
                10.521903991699219,
                -10.339216232299805,
                97.54039764404297
            ],
            [
                11.182319641113281,
                -11.02175235748291,
                102.54039764404297
            ],
            [
                13.824071884155273,
                -13.751901626586914,
                122.54039764404297
            ],
            [
                16.46597671508789,
                -16.482057571411133,
                142.5404052734375
            ],
            [
                19.108041763305664,
                -19.212221145629883,
                162.5404052734375
            ],
            [
                21.75027847290039,
                -21.942394256591797,
                182.5404052734375
            ],
            [
                24.392610549926758,
                -24.672571182250977,
                202.5404052734375
            ],
            [
                27.0351619720459,
                -27.402759552001953,
                222.5404052734375
            ],
            [
                29.677894592285156,
                -30.13295555114746,
                242.5404052734375
            ],
            [
                32.32081604003906,
                -32.8631591796875,
                262.5404052734375
            ],
            [
                34.963932037353516,
                -35.59337615966797,
                282.5404052734375
            ],
            [
                37.60725021362305,
                -38.3235969543457,
                302.5404052734375
            ],
            [
                40.25077819824219,
                -41.053829193115234,
                322.5404052734375
            ],
            [
                42.89452362060547,
                -43.78407287597656,
                342.5404052734375
            ],
            [
                45.538490295410156,
                -46.51432800292969,
                362.5404052734375
            ],
            [
                48.18268966674805,
                -49.244590759277344,
                382.5404052734375
            ],
            [
                50.827125549316406,
                -51.9748649597168,
                402.5404052734375
            ],
            [
                53.47180938720703,
                -54.70515441894531,
                422.5404052734375
            ],
            [
                56.11674880981445,
                -57.43545150756836,
                442.5404052734375
            ],
            [
                58.76197052001953,
                -60.16576385498047,
                462.5404052734375
            ],
            [
                61.407474517822266,
                -62.89609146118164,
                482.5404052734375
            ],
            [
                64.05326080322266,
                -65.62642669677734,
                502.5404052734375
            ],
            [
                66.69935607910156,
                -68.35677337646484,
                522.5404052734375
            ],
            [
                69.34575653076172,
                -71.0871353149414,
                542.5404052734375
            ],
            [
                71.99246978759766,
                -73.81751251220703,
                562.5404052734375
            ],
            [
                74.63949584960938,
                -76.54790496826172,
                582.5404052734375
            ],
            [
                77.28684997558594,
                -79.27830505371094,
                602.5404052734375
            ],
            [
                79.93461608886719,
                -82.00871276855469,
                622.5404052734375
            ],
            [
                82.5827407836914,
                -84.73914337158203,
                642.5404052734375
            ],
            [
                85.2312240600586,
                -87.4695816040039,
                662.5404052734375
            ],
            [
                87.88008117675781,
                -90.20003509521484,
                682.5404052734375
            ],
            [
                90.52931213378906,
                -92.93050384521484,
                702.5404052734375
            ],
            [
                93.17887115478516,
                -95.6609878540039,
                722.5404052734375
            ],
            [
                95.82881927490234,
                -98.39149475097656,
                742.5404052734375
            ],
            [
                98.47915649414063,
                -101.12201690673828,
                762.5404052734375
            ],
            [
                101.13007354736328,
                -103.85253143310547,
                782.5404052734375
            ],
            [
                103.7816162109375,
                -106.58304595947266,
                802.5404052734375
            ],
            [
                106.4336166381836,
                -109.3135757446289,
                822.5404052734375
            ],
            [
                109.08609008789063,
                -112.04410552978516,
                842.5404052734375
            ],
            [
                111.73905181884766,
                -114.77465057373047,
                862.5404052734375
            ],
            [
                114.39251708984375,
                -117.50519561767578,
                882.5404052734375
            ],
            [
                117.04647827148438,
                -120.23574829101563,
                902.5404052734375
            ],
            [
                119.70089721679688,
                -122.96631622314453,
                922.5404052734375
            ],
            [
                122.35591888427734,
                -125.69686889648438,
                942.5404052734375
            ],
            [
                125.01173400878906,
                -128.42735290527344,
                962.5404052734375
            ],
            [
                127.66813659667969,
                -131.1578369140625,
                982.5404052734375
            ],
            [
                130.32510375976563,
                -133.8883056640625,
                1002.5404052734375
            ],
            [
                143.6201934814453,
                -147.5405731201172,
                1102.5404052734375
            ],
            [
                156.92906188964844,
                -161.19273376464844,
                1202.5404052734375
            ],
            [
                170.2536163330078,
                -174.84446716308594,
                1302.5404052734375
            ],
            [
                183.59275817871094,
                -188.4957733154297,
                1402.5404052734375
            ],
            [
                196.94776916503906,
                -202.14662170410156,
                1502.5404052734375
            ],
            [
                210.31300354003906,
                -215.79769897460938,
                1602.5404052734375
            ],
            [
                223.6934814453125,
                -229.44903564453125,
                1702.5404052734375
            ],
            [
                237.08897399902344,
                -243.10084533691406,
                1802.5404052734375
            ],
            [
                250.50294494628906,
                -256.75299072265625,
                1902.5404052734375
            ],
            [
                263.9339599609375,
                -270.4064025878906,
                2002.5404052734375
            ],
            [
                277.39208984375,
                -284.06158447265625,
                2102.540283203125
            ],
            [
                290.871826171875,
                -297.7185974121094,
                2202.540283203125
            ],
            [
                304.37176513671875,
                -311.3800354003906,
                2302.540283203125
            ],
            [
                317.9096984863281,
                -325.0453186035156,
                2402.540283203125
            ],
            [
                331.48858642578125,
                -338.7175598144531,
                2502.540283203125
            ],
            [
                345.1241760253906,
                -352.39788818359375,
                2602.540283203125
            ],
            [
                358.81951904296875,
                -366.08599853515625,
                2702.540283203125
            ],
            [
                372.5939636230469,
                -379.7847900390625,
                2802.540283203125
            ],
            [
                386.45953369140625,
                -393.49688720703125,
                2902.540283203125
            ],
            [
                400.43115234375,
                -407.223876953125,
                3002.540283203125
            ],
            [
                414.5420227050781,
                -420.96734619140625,
                3102.540283203125
            ],
            [
                428.79180908203125,
                -434.7327575683594,
                3202.540283203125
            ],
            [
                443.20501708984375,
                -448.52166748046875,
                3302.540283203125
            ],
            [
                457.8275451660156,
                -462.3360595703125,
                3402.540283203125
            ],
            [
                472.67901611328125,
                -476.1766357421875,
                3502.540283203125
            ],
            [
                487.77374267578125,
                -490.04296875,
                3602.540283203125
            ],
            [
                503.16748046875,
                -503.9402770996094,
                3702.540283203125
            ],
            [
                518.8872680664063,
                -517.8701171875,
                3802.540283203125
            ],
            [
                534.9650268554688,
                -531.8339233398438,
                3902.540283203125
            ],
            [
                551.4417724609375,
                -545.8246459960938,
                4002.540283203125
            ],
            [
                568.3070678710938,
                -559.835693359375,
                4102.54052734375
            ],
            [
                585.646240234375,
                -573.88427734375,
                4202.54052734375
            ],
            [
                603.4459228515625,
                -587.954833984375,
                4302.54052734375
            ],
            [
                621.706787109375,
                -602.0454711914063,
                4402.54052734375
            ],
            [
                640.4464721679688,
                -616.1587524414063,
                4502.54052734375
            ],
            [
                659.6873168945313,
                -630.28173828125,
                4602.54052734375
            ],
            [
                679.410400390625,
                -644.4219360351563,
                4702.54052734375
            ],
            [
                706.1099243164063,
                -665.8670043945313,
                4802.54052734375
            ],
            [
                727.0748291015625,
                -680.2754516601563,
                4902.54052734375
            ],
            [
                748.5084228515625,
                -694.6876220703125,
                5002.54052734375
            ],
            [
                770.4483032226563,
                -709.1105346679688,
                5102.54052734375
            ],
            [
                792.844482421875,
                -723.5383911132813,
                5202.54052734375
            ],
            [
                815.7179565429688,
                -737.9755859375,
                5302.54052734375
            ],
            [
                839.0596923828125,
                -752.4110717773438,
                5402.54052734375
            ],
            [
                862.8553466796875,
                -766.8409423828125,
                5502.54052734375
            ],
            [
                887.0971069335938,
                -781.2813720703125,
                5602.54052734375
            ],
            [
                911.7924194335938,
                -795.7094116210938,
                5702.54052734375
            ],
            [
                936.9472045898438,
                -810.13623046875,
                5802.54052734375
            ],
            [
                962.5086059570313,
                -824.5537719726563,
                5902.54052734375
            ],
            [
                988.5203857421875,
                -838.9655151367188,
                6002.54052734375
            ],
            [
                1014.9347534179688,
                -853.3731079101563,
                6102.54052734375
            ],
            [
                1041.7591552734375,
                -867.767822265625,
                6202.54052734375
            ],
            [
                1068.9849853515625,
                -882.1473388671875,
                6302.54052734375
            ],
            [
                1096.5986328125,
                -896.5127563476563,
                6402.54052734375
            ],
            [
                1124.586181640625,
                -910.8571166992188,
                6502.54052734375
            ],
            [
                1152.9410400390625,
                -925.1856689453125,
                6602.54052734375
            ],
            [
                1181.6439208984375,
                -939.4881591796875,
                6702.54052734375
            ],
            [
                1210.6650390625,
                -953.7659301757813,
                6802.54052734375
            ],
            [
                1240.00439453125,
                -968.0145874023438,
                6902.54052734375
            ],
            [
                1269.6275634765625,
                -982.23583984375,
                7002.54052734375
            ],
            [
                1299.5130615234375,
                -996.4274291992188,
                7102.54052734375
            ],
            [
                1329.641357421875,
                -1010.5886840820313,
                7202.54052734375
            ],
            [
                1359.9873046875,
                -1024.7213134765625,
                7302.54052734375
            ],
            [
                1390.5404052734375,
                -1038.824462890625,
                7402.54052734375
            ],
            [
                1421.2620849609375,
                -1052.9036865234375,
                7502.54052734375
            ],
            [
                1452.1519775390625,
                -1066.9556884765625,
                7602.54052734375
            ],
            [
                1483.1812744140625,
                -1080.985595703125,
                7702.54052734375
            ],
            [
                1514.33984375,
                -1094.9947509765625,
                7802.54052734375
            ],
            [
                1545.61083984375,
                -1108.986328125,
                7902.54052734375
            ],
            [
                1576.98046875,
                -1122.9622802734375,
                8002.54052734375
            ],
            [
                1608.43994140625,
                -1136.924072265625,
                8102.54052734375
            ],
            [
                1639.9752197265625,
                -1150.875244140625,
                8202.5400390625
            ],
            [
                1671.5789794921875,
                -1164.8170166015625,
                8302.5400390625
            ],
            [
                1703.2435302734375,
                -1178.7513427734375,
                8402.5400390625
            ],
            [
                1734.9619140625,
                -1192.679931640625,
                8502.5400390625
            ],
            [
                1766.726318359375,
                -1206.6041259765625,
                8602.5400390625
            ],
            [
                1798.532958984375,
                -1220.525146484375,
                8702.5400390625
            ],
            [
                1830.3763427734375,
                -1234.4439697265625,
                8802.5400390625
            ],
            [
                1862.2525634765625,
                -1248.36181640625,
                8902.5400390625
            ],
            [
                1894.158203125,
                -1262.279296875,
                9002.5400390625
            ],
            [
                1926.090087890625,
                -1276.197021484375,
                9102.5400390625
            ],
            [
                1958.0452880859375,
                -1290.1153564453125,
                9202.5400390625
            ],
            [
                1990.0211181640625,
                -1304.03466796875,
                9302.5400390625
            ],
            [
                2022.015625,
                -1317.955322265625,
                9402.5400390625
            ],
            [
                2054.026611328125,
                -1331.87744140625,
                9502.5400390625
            ],
            [
                2086.05224609375,
                -1345.801025390625,
                9602.5400390625
            ],
            [
                2118.09130859375,
                -1359.7264404296875,
                9702.5400390625
            ],
            [
                2150.142333984375,
                -1373.6534423828125,
                9802.5400390625
            ],
            [
                2182.203857421875,
                -1387.58203125,
                9902.5400390625
            ],
            [
                2214.275146484375,
                -1401.512451171875,
                10002.5400390625
            ],
            [
                2278.4423828125,
                -1429.3779296875,
                10202.5400390625
            ],
            [
                2342.637939453125,
                -1457.2496337890625,
                10402.5400390625
            ],
            [
                2406.855224609375,
                -1485.127197265625,
                10602.5400390625
            ],
            [
                2471.09130859375,
                -1513.0098876953125,
                10802.5400390625
            ],
            [
                2535.341064453125,
                -1540.8974609375,
                11002.5400390625
            ],
            [
                2599.6025390625,
                -1568.7894287109375,
                11202.5400390625
            ],
            [
                2663.873291015625,
                -1596.6851806640625,
                11402.5400390625
            ],
            [
                2728.150634765625,
                -1624.5848388671875,
                11602.5400390625
            ],
            [
                2792.433349609375,
                -1652.4876708984375,
                11802.5400390625
            ],
            [
                2856.719970703125,
                -1680.3934326171875,
                12002.5400390625
            ],
            [
                2921.010009765625,
                -1708.3018798828125,
                12202.5400390625
            ],
            [
                2985.30224609375,
                -1736.2125244140625,
                12402.5400390625
            ],
            [
                3049.594970703125,
                -1764.1256103515625,
                12602.5400390625
            ],
            [
                3113.888671875,
                -1792.0401611328125,
                12802.5400390625
            ],
            [
                3178.183837890625,
                -1819.956298828125,
                13002.5400390625
            ],
            [
                3242.4794921875,
                -1847.87353515625,
                13202.5400390625
            ],
            [
                3306.775390625,
                -1875.79150390625,
                13402.5400390625
            ]
        ],
        "zFirstMeasurement": 94.1031
    },
    {
        "E": 7875.186882712386,
        "chi2": 1.4145587682724,
        "ip": 4.442127534220425,
        "ipchi2": 2242.571267374492,
        "mass": 139.57018,
        "particleId": "pi-",
        "pvx": 0.5874,
        "pvy": 0.0687,
        "pvz": 21.7293,
        "px": 23.202419972945908,
        "py": -441.12317772145735,
        "pz": 7861.549503264882,
        "q": -1.0,
        "trajectory": [
            [
                -2.4902827739715576,
                10.421707153320313,
                -100.0
            ],
            [
                -2.475282907485962,
                10.141145706176758,
                -95.0
            ],
            [
                -2.4602882862091064,
                9.86058521270752,
                -90.0
            ],
            [
                -2.445298910140991,
                9.580023765563965,
                -85.0
            ],
            [
                -2.430314779281616,
                9.299463272094727,
                -80.0
            ],
            [
                -2.4153363704681396,
                9.018902778625488,
                -75.0
            ],
            [
                -2.4003632068634033,
                8.73834228515625,
                -70.0
            ],
            [
                -2.3853957653045654,
                8.457781791687012,
                -65.0
            ],
            [
                -2.370433807373047,
                8.177221298217773,
                -60.0
            ],
            [
                -2.355478286743164,
                7.896661281585693,
                -55.0
            ],
            [
                -2.3405284881591797,
                7.616100788116455,
                -50.0
            ],
            [
                -2.3255844116210938,
                7.335540771484375,
                -45.0
            ],
            [
                -2.3106462955474854,
                7.054981231689453,
                -40.0
            ],
            [
                -2.2957139015197754,
                6.774421215057373,
                -35.0
            ],
            [
                -2.280787706375122,
                6.493861198425293,
                -30.0
            ],
            [
                -2.2658674716949463,
                6.213301658630371,
                -25.0
            ],
            [
                -2.250953435897827,
                5.932742118835449,
                -20.0
            ],
            [
                -2.2360455989837646,
                5.652182579040527,
                -15.0
            ],
            [
                -2.2210934162139893,
                5.371623516082764,
                -10.0
            ],
            [
                -2.2062056064605713,
                5.091063976287842,
                -5.0
            ],
            [
                -2.1913232803344727,
                4.810504913330078,
                0.0
            ],
            [
                -2.1764469146728516,
                4.5299458503723145,
                5.0
            ],
            [
                -2.161576509475708,
                4.249386787414551,
                10.0
            ],
            [
                -2.146712303161621,
                3.968827962875366,
                15.0
            ],
            [
                -2.1318540573120117,
                3.6882693767547607,
                20.0
            ],
            [
                -2.117002248764038,
                3.407710552215576,
                25.0
            ],
            [
                -2.102156639099121,
                3.1271519660949707,
                30.0
            ],
            [
                -2.087317705154419,
                2.8465936183929443,
                35.0
            ],
            [
                -2.0724852085113525,
                2.566035032272339,
                40.0
            ],
            [
                -2.05765962600708,
                2.2854769229888916,
                45.0
            ],
            [
                -2.0428409576416016,
                2.0049185752868652,
                50.0
            ],
            [
                -2.028029203414917,
                1.724360466003418,
                55.0
            ],
            [
                -2.0132243633270264,
                1.4438024759292603,
                60.0
            ],
            [
                -1.998426914215088,
                1.163244605064392,
                65.0
            ],
            [
                -1.983636736869812,
                0.8826867938041687,
                70.0
            ],
            [
                -1.9688540697097778,
                0.6021290421485901,
                75.0
            ],
            [
                -1.9540789127349854,
                0.321571409702301,
                80.0
            ],
            [
                -1.9393115043640137,
                0.04101388901472092,
                85.0
            ],
            [
                -1.9245517253875732,
                -0.23954354226589203,
                90.0
            ],
            [
                -1.9098000526428223,
                -0.5201008915901184,
                95.0
            ],
            [
                -1.8950562477111816,
                -0.800658106803894,
                100.0
            ],
            [
                -1.836164116859436,
                -1.9228861331939697,
                120.0
            ],
            [
                -1.777411699295044,
                -3.0451126098632813,
                140.0
            ],
            [
                -1.7188082933425903,
                -4.167337894439697,
                160.0
            ],
            [
                -1.6602987051010132,
                -5.289581775665283,
                180.0
            ],
            [
                -1.6020019054412842,
                -6.41180419921875,
                200.0
            ],
            [
                -1.543854832649231,
                -7.534025192260742,
                220.0
            ],
            [
                -1.4858676195144653,
                -8.656244277954102,
                240.0
            ],
            [
                -1.4280502796173096,
                -9.778462409973145,
                260.0
            ],
            [
                -1.370412826538086,
                -10.900679588317871,
                280.0
            ],
            [
                -1.3129655122756958,
                -12.022895812988281,
                300.0
            ],
            [
                -1.2557183504104614,
                -13.145110130310059,
                320.0
            ],
            [
                -1.198681354522705,
                -14.26732349395752,
                340.0
            ],
            [
                -1.1417953968048096,
                -15.389535903930664,
                360.0
            ],
            [
                -1.0851603746414185,
                -16.511747360229492,
                380.0
            ],
            [
                -1.0287476778030396,
                -17.633956909179688,
                400.0
            ],
            [
                -0.9725682139396667,
                -18.756168365478516,
                420.0
            ],
            [
                -0.916627049446106,
                -19.878376007080078,
                440.0
            ],
            [
                -0.8609317541122437,
                -21.000585556030273,
                460.0
            ],
            [
                -0.805489718914032,
                -22.122793197631836,
                480.0
            ],
            [
                -0.7503129243850708,
                -23.244998931884766,
                500.0
            ],
            [
                -0.6954225301742554,
                -24.367206573486328,
                520.0
            ],
            [
                -0.6408148407936096,
                -25.489412307739258,
                540.0
            ],
            [
                -0.5864980220794678,
                -26.611618041992188,
                560.0
            ],
            [
                -0.5324804186820984,
                -27.733821868896484,
                580.0
            ],
            [
                -0.47877007722854614,
                -28.856027603149414,
                600.0
            ],
            [
                -0.42538145184516907,
                -29.978233337402344,
                620.0
            ],
            [
                -0.3723180294036865,
                -31.100439071655273,
                640.0
            ],
            [
                -0.31958815455436707,
                -32.2226448059082,
                660.0
            ],
            [
                -0.2672434449195862,
                -33.344852447509766,
                680.0
            ],
            [
                -0.21525882184505463,
                -34.46705627441406,
                700.0
            ],
            [
                -0.16363586485385895,
                -35.589263916015625,
                720.0
            ],
            [
                -0.11242701858282089,
                -36.71146774291992,
                740.0
            ],
            [
                -0.06164153665304184,
                -37.83367156982422,
                760.0
            ],
            [
                -0.011261758394539356,
                -38.95587921142578,
                780.0
            ],
            [
                0.03870261460542679,
                -40.07808303833008,
                800.0
            ],
            [
                0.08825031667947769,
                -41.200286865234375,
                820.0
            ],
            [
                0.13732562959194183,
                -42.32250213623047,
                840.0
            ],
            [
                0.1859285682439804,
                -43.44471740722656,
                860.0
            ],
            [
                0.2340698391199112,
                -44.56694030761719,
                880.0
            ],
            [
                0.28173941373825073,
                -45.68916320800781,
                900.0
            ],
            [
                0.32897108793258667,
                -46.8113899230957,
                920.0
            ],
            [
                0.3757164478302002,
                -47.933616638183594,
                940.0
            ],
            [
                0.42196574807167053,
                -49.05584716796875,
                960.0
            ],
            [
                0.46770918369293213,
                -50.17808151245117,
                980.0
            ],
            [
                0.5129559636116028,
                -51.300315856933594,
                1000.0
            ],
            [
                0.7318003177642822,
                -56.91142272949219,
                1100.0
            ],
            [
                0.9365381002426147,
                -62.52254867553711,
                1200.0
            ],
            [
                1.1255627870559692,
                -68.1339340209961,
                1300.0
            ],
            [
                1.3023921251296997,
                -73.74516296386719,
                1400.0
            ],
            [
                1.4669365882873535,
                -79.35649108886719,
                1500.0
            ],
            [
                1.6175092458724976,
                -84.96786499023438,
                1600.0
            ],
            [
                1.7528281211853027,
                -90.57929992675781,
                1700.0
            ],
            [
                1.875197410583496,
                -96.19070434570313,
                1800.0
            ],
            [
                1.978857398033142,
                -101.80211639404297,
                1900.0
            ],
            [
                2.0623061656951904,
                -107.4135971069336,
                2000.0
            ],
            [
                2.1235244274139404,
                -113.025146484375,
                2100.0
            ],
            [
                2.158573865890503,
                -118.63677215576172,
                2200.0
            ],
            [
                2.1534457206726074,
                -124.24911499023438,
                2300.0
            ],
            [
                2.1154425144195557,
                -129.86126708984375,
                2400.0
            ],
            [
                2.0228617191314697,
                -135.47360229492188,
                2500.0
            ],
            [
                1.8767598867416382,
                -141.0861053466797,
                2600.0
            ],
            [
                1.6594735383987427,
                -146.69906616210938,
                2700.0
            ],
            [
                1.3570489883422852,
                -152.3123779296875,
                2800.0
            ],
            [
                0.9612945318222046,
                -157.9259796142578,
                2900.0
            ],
            [
                0.44176653027534485,
                -163.54046630859375,
                3000.0
            ],
            [
                -0.206136554479599,
                -169.15548706054688,
                3100.0
            ],
            [
                -1.0020784139633179,
                -174.77066040039063,
                3200.0
            ],
            [
                -1.9992042779922485,
                -180.3863067626953,
                3300.0
            ],
            [
                -3.1814143657684326,
                -186.00241088867188,
                3400.0
            ],
            [
                -4.588545799255371,
                -191.61993408203125,
                3500.0
            ],
            [
                -6.233544826507568,
                -197.23875427246094,
                3600.0
            ],
            [
                -8.1467924118042,
                -202.8590087890625,
                3700.0
            ],
            [
                -10.343894004821777,
                -208.4800262451172,
                3800.0
            ],
            [
                -12.8696928024292,
                -214.1036834716797,
                3900.0
            ],
            [
                -15.704928398132324,
                -219.73057556152344,
                4000.0
            ],
            [
                -18.910234451293945,
                -225.35995483398438,
                4100.0
            ],
            [
                -22.486032485961914,
                -230.9918670654297,
                4200.0
            ],
            [
                -26.462059020996094,
                -236.62454223632813,
                4300.0
            ],
            [
                -30.79939079284668,
                -242.26136779785156,
                4400.0
            ],
            [
                -35.543601989746094,
                -247.90196228027344,
                4500.0
            ],
            [
                -40.69748306274414,
                -253.5428924560547,
                4600.0
            ],
            [
                -46.24131393432617,
                -259.1864318847656,
                4700.0
            ],
            [
                -52.20899200439453,
                -264.8329772949219,
                4800.0
            ],
            [
                -43.53266525268555,
                -272.57879638671875,
                4900.0
            ],
            [
                -50.11287307739258,
                -278.25653076171875,
                5000.0
            ],
            [
                -57.095359802246094,
                -283.9378662109375,
                5100.0
            ],
            [
                -64.46900177001953,
                -289.6205749511719,
                5200.0
            ],
            [
                -72.23980712890625,
                -295.3066101074219,
                5300.0
            ],
            [
                -80.39631652832031,
                -300.9916076660156,
                5400.0
            ],
            [
                -88.94454956054688,
                -306.6746520996094,
                5500.0
            ],
            [
                -97.85099792480469,
                -312.3631286621094,
                5600.0
            ],
            [
                -107.13529205322266,
                -318.0501708984375,
                5700.0
            ],
            [
                -116.7832260131836,
                -323.73876953125,
                5800.0
            ],
            [
                -126.77899932861328,
                -329.42633056640625,
                5900.0
            ],
            [
                -137.12234497070313,
                -335.11431884765625,
                6000.0
            ],
            [
                -147.79583740234375,
                -340.8025207519531,
                6100.0
            ],
            [
                -158.79347229003906,
                -346.4890441894531,
                6200.0
            ],
            [
                -170.1090087890625,
                -352.173583984375,
                6300.0
            ],
            [
                -181.72592163085938,
                -357.8563232421875,
                6400.0
            ],
            [
                -193.63824462890625,
                -363.5365295410156,
                6500.0
            ],
            [
                -205.826904296875,
                -369.21435546875,
                6600.0
            ],
            [
                -218.28648376464844,
                -374.88916015625,
                6700.0
            ],
            [
                -230.9976043701172,
                -380.56085205078125,
                6800.0
            ],
            [
                -243.9540252685547,
                -386.2281799316406,
                6900.0
            ],
            [
                -257.1390075683594,
                -391.8912353515625,
                7000.0
            ],
            [
                -270.5389099121094,
                -397.550048828125,
                7100.0
            ],
            [
                -284.1394958496094,
                -403.2046813964844,
                7200.0
            ],
            [
                -297.9297790527344,
                -408.8548889160156,
                7300.0
            ],
            [
                -311.900390625,
                -414.5003662109375,
                7400.0
            ],
            [
                -326.0296936035156,
                -420.14178466796875,
                7500.0
            ],
            [
                -340.31329345703125,
                -425.7784729003906,
                7600.0
            ],
            [
                -354.7355651855469,
                -431.41107177734375,
                7700.0
            ],
            [
                -369.2897033691406,
                -437.0395812988281,
                7800.0
            ],
            [
                -383.9642333984375,
                -442.6641540527344,
                7900.0
            ],
            [
                -398.7481689453125,
                -448.2851257324219,
                8000.0
            ],
            [
                -413.63531494140625,
                -453.9026794433594,
                8100.0
            ],
            [
                -428.6136474609375,
                -459.5171203613281,
                8200.0
            ],
            [
                -443.6770324707031,
                -465.1286926269531,
                8300.0
            ],
            [
                -458.8188781738281,
                -470.7375183105469,
                8400.0
            ],
            [
                -474.0328063964844,
                -476.3438415527344,
                8500.0
            ],
            [
                -489.31005859375,
                -481.947998046875,
                8600.0
            ],
            [
                -504.647216796875,
                -487.5500793457031,
                8700.0
            ],
            [
                -520.0386962890625,
                -493.1502990722656,
                8800.0
            ],
            [
                -535.4793701171875,
                -498.7489013671875,
                8900.0
            ],
            [
                -550.9653930664063,
                -504.34600830078125,
                9000.0
            ],
            [
                -566.4927368164063,
                -509.94183349609375,
                9100.0
            ],
            [
                -582.0574340820313,
                -515.5365600585938,
                9200.0
            ],
            [
                -597.6563110351563,
                -521.1302490234375,
                9300.0
            ],
            [
                -613.2862548828125,
                -526.72314453125,
                9400.0
            ],
            [
                -628.9442749023438,
                -532.3153076171875,
                9500.0
            ],
            [
                -644.6280517578125,
                -537.9068603515625,
                9600.0
            ],
            [
                -660.335205078125,
                -543.4978637695313,
                9700.0
            ],
            [
                -676.0635375976563,
                -549.0885009765625,
                9800.0
            ],
            [
                -691.8110961914063,
                -554.6787719726563,
                9900.0
            ],
            [
                -707.5762329101563,
                -560.2687377929688,
                10000.0
            ],
            [
                -739.1528930664063,
                -571.4480590820313,
                10200.0
            ],
            [
                -770.7826538085938,
                -582.6268310546875,
                10400.0
            ],
            [
                -802.45556640625,
                -593.8053588867188,
                10600.0
            ],
            [
                -834.1653442382813,
                -604.9837646484375,
                10800.0
            ],
            [
                -865.9038696289063,
                -616.162353515625,
                11000.0
            ],
            [
                -897.6671142578125,
                -627.3411254882813,
                11200.0
            ],
            [
                -929.4512329101563,
                -638.5201416015625,
                11400.0
            ],
            [
                -961.2509765625,
                -649.699462890625,
                11600.0
            ],
            [
                -993.0641479492188,
                -660.879150390625,
                11800.0
            ],
            [
                -1024.8876953125,
                -672.0591430664063,
                12000.0
            ],
            [
                -1056.7216796875,
                -683.2393798828125,
                12200.0
            ],
            [
                -1088.5625,
                -694.419921875,
                12400.0
            ],
            [
                -1120.407470703125,
                -705.6008911132813,
                12600.0
            ],
            [
                -1152.2564697265625,
                -716.7820434570313,
                12800.0
            ],
            [
                -1184.1102294921875,
                -727.9633178710938,
                13000.0
            ],
            [
                -1215.9674072265625,
                -739.144775390625,
                13200.0
            ],
            [
                -1247.826171875,
                -750.3263549804688,
                13400.0
            ]
        ],
        "zFirstMeasurement": 259.1167
    },
    {
        "E": 17036.46171971296,
        "chi2": 0.9570112824440002,
        "ip": 0.12557986637653296,
        "ipchi2": 5.316240006266375,
        "mass": 139.57018,
        "particleId": "pi-",
        "pvx": 0.5874,
        "pvy": 0.0687,
        "pvz": 21.7293,
        "px": 212.9674773330913,
        "py": 525.2043266692176,
        "pz": 17026.460388493735,
        "q": -1.0,
        "trajectory": [
            [
                -1.0303478240966797,
                -3.7691361904144287,
                -100.0
            ],
            [
                -0.9677436351776123,
                -3.61490535736084,
                -95.0
            ],
            [
                -0.9051419496536255,
                -3.46067476272583,
                -90.0
            ],
            [
                -0.8425427675247192,
                -3.306443929672241,
                -85.0
            ],
            [
                -0.7799274325370789,
                -3.1522130966186523,
                -80.0
            ],
            [
                -0.717336118221283,
                -2.9979822635650635,
                -75.0
            ],
            [
                -0.6547471284866333,
                -2.8437511920928955,
                -70.0
            ],
            [
                -0.5921604633331299,
                -2.6895203590393066,
                -65.0
            ],
            [
                -0.5295762419700623,
                -2.5352892875671387,
                -60.0
            ],
            [
                -0.4669944643974304,
                -2.3810582160949707,
                -55.0
            ],
            [
                -0.40441522002220154,
                -2.2268271446228027,
                -50.0
            ],
            [
                -0.3418384790420532,
                -2.0725958347320557,
                -45.0
            ],
            [
                -0.279264360666275,
                -1.9183646440505981,
                -40.0
            ],
            [
                -0.21669287979602814,
                -1.7641334533691406,
                -35.0
            ],
            [
                -0.15412406623363495,
                -1.6099021434783936,
                -30.0
            ],
            [
                -0.09155799448490143,
                -1.455670714378357,
                -25.0
            ],
            [
                -0.028994688764214516,
                -1.3014392852783203,
                -20.0
            ],
            [
                0.03356578201055527,
                -1.1472078561782837,
                -15.0
            ],
            [
                0.09612336754798889,
                -0.9929763078689575,
                -10.0
            ],
            [
                0.1586780697107315,
                -0.8387446999549866,
                -5.0
            ],
            [
                0.22122983634471893,
                -0.6845130920410156,
                0.0
            ],
            [
                0.2837786078453064,
                -0.5302814245223999,
                5.0
            ],
            [
                0.3463243544101715,
                -0.3760497272014618,
                10.0
            ],
            [
                0.4088669717311859,
                -0.2218179702758789,
                15.0
            ],
            [
                0.4714064598083496,
                -0.06758615374565125,
                20.0
            ],
            [
                0.5339427590370178,
                0.0866457000374794,
                25.0
            ],
            [
                0.5964757800102234,
                0.24087761342525482,
                30.0
            ],
            [
                0.6590054631233215,
                0.3951095640659332,
                35.0
            ],
            [
                0.7215318083763123,
                0.5493415594100952,
                40.0
            ],
            [
                0.7840547561645508,
                0.7035735845565796,
                45.0
            ],
            [
                0.8465741872787476,
                0.8578057289123535,
                50.0
            ],
            [
                0.9090901017189026,
                1.0120378732681274,
                55.0
            ],
            [
                0.9716024994850159,
                1.1662700176239014,
                60.0
            ],
            [
                1.0341112613677979,
                1.3205022811889648,
                65.0
            ],
            [
                1.096616268157959,
                1.4747345447540283,
                70.0
            ],
            [
                1.159117579460144,
                1.6289669275283813,
                75.0
            ],
            [
                1.2216150760650635,
                1.7831993103027344,
                80.0
            ],
            [
                1.2841087579727173,
                1.9374316930770874,
                85.0
            ],
            [
                1.346598505973816,
                2.0916640758514404,
                90.0
            ],
            [
                1.409084439277649,
                2.245896816253662,
                95.0
            ],
            [
                1.4715662002563477,
                2.4001293182373047,
                100.0
            ],
            [
                1.7214784622192383,
                3.0170600414276123,
                120.0
            ],
            [
                1.9713141918182373,
                3.6339914798736572,
                140.0
            ],
            [
                2.221055746078491,
                4.2509765625,
                160.0
            ],
            [
                2.4707839488983154,
                4.867909908294678,
                180.0
            ],
            [
                2.7203996181488037,
                5.4848432540893555,
                200.0
            ],
            [
                2.96994686126709,
                6.10177755355835,
                220.0
            ],
            [
                3.2194206714630127,
                6.71871280670166,
                240.0
            ],
            [
                3.4688165187835693,
                7.335648059844971,
                260.0
            ],
            [
                3.7181296348571777,
                7.952584266662598,
                280.0
            ],
            [
                3.967355728149414,
                8.569520950317383,
                300.0
            ],
            [
                4.216489791870117,
                9.186458587646484,
                320.0
            ],
            [
                4.465526580810547,
                9.803397178649902,
                340.0
            ],
            [
                4.714461326599121,
                10.420334815979004,
                360.0
            ],
            [
                4.963329315185547,
                11.037274360656738,
                380.0
            ],
            [
                5.212071895599365,
                11.654213905334473,
                400.0
            ],
            [
                5.460707187652588,
                12.271154403686523,
                420.0
            ],
            [
                5.709231853485107,
                12.888093948364258,
                440.0
            ],
            [
                5.957642078399658,
                13.505035400390625,
                460.0
            ],
            [
                6.205935001373291,
                14.121975898742676,
                480.0
            ],
            [
                6.4541015625,
                14.73891830444336,
                500.0
            ],
            [
                6.702138900756836,
                15.355859756469727,
                520.0
            ],
            [
                6.950045108795166,
                15.97280216217041,
                540.0
            ],
            [
                7.197816371917725,
                16.589744567871094,
                560.0
            ],
            [
                7.445448875427246,
                17.206687927246094,
                580.0
            ],
            [
                7.692939281463623,
                17.823631286621094,
                600.0
            ],
            [
                7.940279960632324,
                18.44057273864746,
                620.0
            ],
            [
                8.187470436096191,
                19.05751609802246,
                640.0
            ],
            [
                8.434496879577637,
                19.67445945739746,
                660.0
            ],
            [
                8.681353569030762,
                20.29140281677246,
                680.0
            ],
            [
                8.928034782409668,
                20.90834617614746,
                700.0
            ],
            [
                9.174530029296875,
                21.525291442871094,
                720.0
            ],
            [
                9.420845985412598,
                22.142234802246094,
                740.0
            ],
            [
                9.66697883605957,
                22.759180068969727,
                760.0
            ],
            [
                9.912922859191895,
                23.376123428344727,
                780.0
            ],
            [
                10.158675193786621,
                23.99306869506836,
                800.0
            ],
            [
                10.404230117797852,
                24.61001205444336,
                820.0
            ],
            [
                10.649558067321777,
                25.226953506469727,
                840.0
            ],
            [
                10.894676208496094,
                25.84389305114746,
                860.0
            ],
            [
                11.139580726623535,
                26.460834503173828,
                880.0
            ],
            [
                11.384265899658203,
                27.077774047851563,
                900.0
            ],
            [
                11.628746032714844,
                27.694711685180664,
                920.0
            ],
            [
                11.873000144958496,
                28.3116512298584,
                940.0
            ],
            [
                12.117024421691895,
                28.9285888671875,
                960.0
            ],
            [
                12.36081314086914,
                29.5455265045166,
                980.0
            ],
            [
                12.604397773742676,
                30.162466049194336,
                1000.0
            ],
            [
                13.818675994873047,
                33.247169494628906,
                1100.0
            ],
            [
                15.026569366455078,
                36.33187484741211,
                1200.0
            ],
            [
                16.22734832763672,
                39.41651153564453,
                1300.0
            ],
            [
                17.42244529724121,
                42.501190185546875,
                1400.0
            ],
            [
                18.611814498901367,
                45.585838317871094,
                1500.0
            ],
            [
                19.794715881347656,
                48.67048263549805,
                1600.0
            ],
            [
                20.970399856567383,
                51.7551155090332,
                1700.0
            ],
            [
                22.14044189453125,
                54.839778900146484,
                1800.0
            ],
            [
                23.301002502441406,
                57.924434661865234,
                1900.0
            ],
            [
                24.453014373779297,
                61.00906753540039,
                2000.0
            ],
            [
                25.594097137451172,
                64.09368896484375,
                2100.0
            ],
            [
                26.72298240661621,
                67.17828369140625,
                2200.0
            ],
            [
                27.83344078063965,
                70.26262664794922,
                2300.0
            ],
            [
                28.927465438842773,
                73.34705352783203,
                2400.0
            ],
            [
                29.997465133666992,
                76.43142700195313,
                2500.0
            ],
            [
                31.040260314941406,
                79.51568603515625,
                2600.0
            ],
            [
                32.049903869628906,
                82.59986114501953,
                2700.0
            ],
            [
                33.020530700683594,
                85.68389129638672,
                2800.0
            ],
            [
                33.94581604003906,
                88.7676773071289,
                2900.0
            ],
            [
                34.81415939331055,
                91.851318359375,
                3000.0
            ],
            [
                35.62192153930664,
                94.934814453125,
                3100.0
            ],
            [
                36.359405517578125,
                98.01820373535156,
                3200.0
            ],
            [
                37.005584716796875,
                101.10111999511719,
                3300.0
            ],
            [
                37.561702728271484,
                104.18406677246094,
                3400.0
            ],
            [
                38.01496505737305,
                107.2669677734375,
                3500.0
            ],
            [
                38.357452392578125,
                110.34989929199219,
                3600.0
            ],
            [
                38.578182220458984,
                113.43231964111328,
                3700.0
            ],
            [
                38.6636962890625,
                116.51465606689453,
                3800.0
            ],
            [
                38.60185241699219,
                119.5971450805664,
                3900.0
            ],
            [
                38.39518737792969,
                122.67932891845703,
                4000.0
            ],
            [
                38.022762298583984,
                125.76123046875,
                4100.0
            ],
            [
                37.474849700927734,
                128.8427276611328,
                4200.0
            ],
            [
                36.75237274169922,
                131.92404174804688,
                4300.0
            ],
            [
                35.86207962036133,
                135.0054473876953,
                4400.0
            ],
            [
                34.78721237182617,
                138.08612060546875,
                4500.0
            ],
            [
                33.52791976928711,
                141.16639709472656,
                4600.0
            ],
            [
                32.08310317993164,
                144.24623107910156,
                4700.0
            ],
            [
                30.457103729248047,
                147.32652282714844,
                4800.0
            ],
            [
                27.92446517944336,
                150.55628967285156,
                4900.0
            ],
            [
                25.928516387939453,
                153.63629150390625,
                5000.0
            ],
            [
                23.746007919311523,
                156.71507263183594,
                5100.0
            ],
            [
                21.384204864501953,
                159.7937774658203,
                5200.0
            ],
            [
                18.840810775756836,
                162.87176513671875,
                5300.0
            ],
            [
                16.123363494873047,
                165.95028686523438,
                5400.0
            ],
            [
                13.233315467834473,
                169.0286865234375,
                5500.0
            ],
            [
                10.177640914916992,
                172.10560607910156,
                5600.0
            ],
            [
                6.951211929321289,
                175.18260192871094,
                5700.0
            ],
            [
                3.561096668243408,
                178.25904846191406,
                5800.0
            ],
            [
                0.017501192167401314,
                181.3347625732422,
                5900.0
            ],
            [
                -3.684830904006958,
                184.4094696044922,
                6000.0
            ],
            [
                -7.537067413330078,
                187.4835205078125,
                6100.0
            ],
            [
                -11.534574508666992,
                190.55723571777344,
                6200.0
            ],
            [
                -15.672552108764648,
                193.63040161132813,
                6300.0
            ],
            [
                -19.945297241210938,
                196.7030487060547,
                6400.0
            ],
            [
                -24.34938621520996,
                199.77537536621094,
                6500.0
            ],
            [
                -28.87709617614746,
                202.84681701660156,
                6600.0
            ],
            [
                -33.5255012512207,
                205.9175567626953,
                6700.0
            ],
            [
                -38.28541564941406,
                208.98770141601563,
                6800.0
            ],
            [
                -43.15552520751953,
                212.05718994140625,
                6900.0
            ],
            [
                -48.12784957885742,
                215.1259765625,
                7000.0
            ],
            [
                -53.195655822753906,
                218.19410705566406,
                7100.0
            ],
            [
                -58.3531608581543,
                221.26156616210938,
                7200.0
            ],
            [
                -63.595558166503906,
                224.32827758789063,
                7300.0
            ],
            [
                -68.918701171875,
                227.394287109375,
                7400.0
            ],
            [
                -74.3128662109375,
                230.4595184326172,
                7500.0
            ],
            [
                -79.77671813964844,
                233.5240020751953,
                7600.0
            ],
            [
                -85.30304718017578,
                236.5877227783203,
                7700.0
            ],
            [
                -90.88910675048828,
                239.6506805419922,
                7800.0
            ],
            [
                -96.52980041503906,
                242.712890625,
                7900.0
            ],
            [
                -102.22030639648438,
                245.77438354492188,
                8000.0
            ],
            [
                -107.95794677734375,
                248.83518981933594,
                8100.0
            ],
            [
                -113.73738098144531,
                251.89532470703125,
                8200.0
            ],
            [
                -119.55594635009766,
                254.95486450195313,
                8300.0
            ],
            [
                -125.41071319580078,
                258.0137939453125,
                8400.0
            ],
            [
                -131.29872131347656,
                261.07220458984375,
                8500.0
            ],
            [
                -137.2162322998047,
                264.1301574707031,
                8600.0
            ],
            [
                -143.16165161132813,
                267.1876220703125,
                8700.0
            ],
            [
                -149.13241577148438,
                270.2447204589844,
                8800.0
            ],
            [
                -155.12619018554688,
                273.3013916015625,
                8900.0
            ],
            [
                -161.14132690429688,
                276.35772705078125,
                9000.0
            ],
            [
                -167.1759033203125,
                279.41375732421875,
                9100.0
            ],
            [
                -173.22813415527344,
                282.4694519042969,
                9200.0
            ],
            [
                -179.2965850830078,
                285.52490234375,
                9300.0
            ],
            [
                -185.37979125976563,
                288.580078125,
                9400.0
            ],
            [
                -191.47640991210938,
                291.63507080078125,
                9500.0
            ],
            [
                -197.58534240722656,
                294.6898498535156,
                9600.0
            ],
            [
                -203.7054443359375,
                297.74444580078125,
                9700.0
            ],
            [
                -209.8357696533203,
                300.79888916015625,
                9800.0
            ],
            [
                -215.975341796875,
                303.8531799316406,
                9900.0
            ],
            [
                -222.1234130859375,
                306.9073486328125,
                10000.0
            ],
            [
                -234.44204711914063,
                313.015380859375,
                10200.0
            ],
            [
                -246.7864990234375,
                319.123046875,
                10400.0
            ],
            [
                -259.15203857421875,
                325.23046875,
                10600.0
            ],
            [
                -271.53570556640625,
                331.3376770019531,
                10800.0
            ],
            [
                -283.93353271484375,
                337.4447326660156,
                11000.0
            ],
            [
                -296.3436584472656,
                343.55169677734375,
                11200.0
            ],
            [
                -308.76422119140625,
                349.6585388183594,
                11400.0
            ],
            [
                -321.19256591796875,
                355.765380859375,
                11600.0
            ],
            [
                -333.62774658203125,
                361.8721923828125,
                11800.0
            ],
            [
                -346.0682067871094,
                367.9789733886719,
                12000.0
            ],
            [
                -358.5140380859375,
                374.08575439453125,
                12200.0
            ],
            [
                -370.96337890625,
                380.1925354003906,
                12400.0
            ],
            [
                -383.4147644042969,
                386.2993469238281,
                12600.0
            ],
            [
                -395.868408203125,
                392.4061584472656,
                12800.0
            ],
            [
                -408.32452392578125,
                398.5129699707031,
                13000.0
            ],
            [
                -420.7823791503906,
                404.6197814941406,
                13200.0
            ],
            [
                -433.2411193847656,
                410.72662353515625,
                13400.0
            ]
        ],
        "zFirstMeasurement": 274.1328
    }
]
