[
    {
        "E": 16350.447124919285,
        "chi2": 0.0,
        "ip": 0.018100469294354795,
        "ipchi2": 1.7873138228454513,
        "mass": 1911.922,
        "particleId": "D0",
        "pvx": 0.6151,
        "pvy": 0.075,
        "pvz": -52.9179,
        "px": 2585.01,
        "py": 2013.67,
        "pz": 15904.23,
        "q": 0.0,
        "trajectory": [
            [
                0.6151000261306763,
                0.07500000298023224,
                -52.91790008544922
            ],
            [
                0.696399986743927,
                0.1509999930858612,
                -52.4547004699707
            ]
        ],
        "zFirstMeasurement": -9999.0
    },
    {
        "E": 7365.369226668642,
        "chi2": 1.6158287525177002,
        "ip": 0.059077874994130294,
        "ipchi2": 11.363767125532176,
        "mass": 493.677,
        "particleId": "K-",
        "pvx": 0.6151,
        "pvy": 0.075,
        "pvz": -52.9179,
        "px": 2022.73,
        "py": 850.58,
        "pz": 7013.56,
        "q": -1.0,
        "trajectory": [
            [
                0.6956226825714111,
                0.1595049798488617,
                -52.4547004699707
            ],
            [
                2.1376287937164307,
                0.7658849358558655,
                -47.4547004699707
            ],
            [
                3.579627752304077,
                1.372265100479126,
                -42.4547004699707
            ],
            [
                5.021631240844727,
                1.978594422340393,
                -37.4547004699707
            ],
            [
                6.4636149406433105,
                2.584975004196167,
                -32.4547004699707
            ],
            [
                7.9055914878845215,
                3.1913557052612305,
                -27.454700469970703
            ],
            [
                9.347559928894043,
                3.797736883163452,
                -22.454700469970703
            ],
            [
                10.789521217346191,
                4.404118061065674,
                -17.454700469970703
            ],
            [
                12.231473922729492,
                5.010499477386475,
                -12.454700469970703
            ],
            [
                13.673418998718262,
                5.616880893707275,
                -7.454699993133545
            ],
            [
                15.115355491638184,
                6.223262786865234,
                -2.454699993133545
            ],
            [
                16.55728530883789,
                6.829644680023193,
                2.545300006866455
            ],
            [
                17.999204635620117,
                7.436026573181152,
                7.545300006866455
            ],
            [
                19.441116333007813,
                8.04240894317627,
                12.545299530029297
            ],
            [
                20.883020401000977,
                8.648791313171387,
                17.545299530029297
            ],
            [
                22.324914932250977,
                9.255173683166504,
                22.545299530029297
            ],
            [
                23.766799926757813,
                9.861556053161621,
                27.545299530029297
            ],
            [
                25.208677291870117,
                10.467939376831055,
                32.5452995300293
            ],
            [
                26.650543212890625,
                11.074321746826172,
                37.5452995300293
            ],
            [
                28.0924015045166,
                11.680705070495605,
                42.5452995300293
            ],
            [
                29.534250259399414,
                12.287088394165039,
                47.5452995300293
            ],
            [
                30.976089477539063,
                12.893470764160156,
                52.5452995300293
            ],
            [
                32.41791915893555,
                13.49985408782959,
                57.5452995300293
            ],
            [
                33.859737396240234,
                14.106237411499023,
                62.5452995300293
            ],
            [
                35.301544189453125,
                14.712620735168457,
                67.54530334472656
            ],
            [
                36.743343353271484,
                15.31900405883789,
                72.54530334472656
            ],
            [
                38.18519592285156,
                15.92539119720459,
                77.54530334472656
            ],
            [
                39.626983642578125,
                16.531776428222656,
                82.54530334472656
            ],
            [
                41.068763732910156,
                17.138160705566406,
                87.54530334472656
            ],
            [
                42.51053237915039,
                17.744543075561523,
                92.54530334472656
            ],
            [
                43.95228958129883,
                18.350929260253906,
                97.54530334472656
            ],
            [
                45.394039154052734,
                18.957313537597656,
                102.54530334472656
            ],
            [
                51.16093444824219,
                21.382850646972656,
                122.54530334472656
            ],
            [
                56.92765808105469,
                23.80838966369629,
                142.54530334472656
            ],
            [
                62.6942138671875,
                26.23392677307129,
                162.54530334472656
            ],
            [
                68.4605941772461,
                28.659465789794922,
                182.54530334472656
            ],
            [
                74.22676849365234,
                31.085002899169922,
                202.54530334472656
            ],
            [
                79.99275207519531,
                33.510536193847656,
                222.54530334472656
            ],
            [
                85.75852966308594,
                35.93606948852539,
                242.54530334472656
            ],
            [
                91.52410125732422,
                38.36159896850586,
                262.5452880859375
            ],
            [
                97.28945922851563,
                40.78712844848633,
                282.5452880859375
            ],
            [
                103.0545883178711,
                43.212650299072266,
                302.5452880859375
            ],
            [
                108.8194808959961,
                45.63816833496094,
                322.5452880859375
            ],
            [
                114.58414459228516,
                48.063682556152344,
                342.5452880859375
            ],
            [
                120.34854888916016,
                50.489192962646484,
                362.5452880859375
            ],
            [
                126.11268615722656,
                52.914695739746094,
                382.5452880859375
            ],
            [
                131.8765411376953,
                55.340187072753906,
                402.5452880859375
            ],
            [
                137.64010620117188,
                57.76567840576172,
                422.5452880859375
            ],
            [
                143.4033660888672,
                60.191158294677734,
                442.5452880859375
            ],
            [
                149.16635131835938,
                62.61663055419922,
                462.5452880859375
            ],
            [
                154.9290313720703,
                65.0420913696289,
                482.5452880859375
            ],
            [
                160.69139099121094,
                67.46754455566406,
                502.5452880859375
            ],
            [
                166.45333862304688,
                69.89297485351563,
                522.5452880859375
            ],
            [
                172.2148895263672,
                72.3183822631836,
                542.5452880859375
            ],
            [
                177.97608947753906,
                74.74376678466797,
                562.5452880859375
            ],
            [
                183.73690795898438,
                77.16913604736328,
                582.5452880859375
            ],
            [
                189.49732971191406,
                79.594482421875,
                602.5452880859375
            ],
            [
                195.25729370117188,
                82.01981353759766,
                622.5452880859375
            ],
            [
                201.01683044433594,
                84.44512176513672,
                642.5452880859375
            ],
            [
                206.7759246826172,
                86.87039947509766,
                662.5452880859375
            ],
            [
                212.53456115722656,
                89.29564666748047,
                682.5452880859375
            ],
            [
                218.29278564453125,
                91.72089385986328,
                702.5452880859375
            ],
            [
                224.05084228515625,
                94.14620971679688,
                722.5452880859375
            ],
            [
                229.80841064453125,
                96.57151794433594,
                742.5452880859375
            ],
            [
                235.56553649902344,
                98.996826171875,
                762.5452880859375
            ],
            [
                241.32225036621094,
                101.42213439941406,
                782.5452880859375
            ],
            [
                247.0785369873047,
                103.8474349975586,
                802.5452880859375
            ],
            [
                252.8343505859375,
                106.27273559570313,
                822.5452880859375
            ],
            [
                258.5897216796875,
                108.69803619384766,
                842.5452880859375
            ],
            [
                264.3439636230469,
                111.12318420410156,
                862.5452880859375
            ],
            [
                270.0972595214844,
                113.5482177734375,
                882.5452880859375
            ],
            [
                275.84991455078125,
                115.97319793701172,
                902.5452880859375
            ],
            [
                281.6019592285156,
                118.39810943603516,
                922.5452880859375
            ],
            [
                287.3533630371094,
                120.82296752929688,
                942.5452880859375
            ],
            [
                293.1040954589844,
                123.24776458740234,
                962.5452880859375
            ],
            [
                298.84912109375,
                125.67144012451172,
                982.5452880859375
            ],
            [
                304.5981140136719,
                128.09634399414063,
                1002.5452880859375
            ],
            [
                333.33111572265625,
                140.22015380859375,
                1102.5452880859375
            ],
            [
                362.0514831542969,
                152.34495544433594,
                1202.5452880859375
            ],
            [
                390.75103759765625,
                164.46926879882813,
                1302.5452880859375
            ],
            [
                419.431640625,
                176.5935821533203,
                1402.5452880859375
            ],
            [
                448.09173583984375,
                188.71751403808594,
                1502.5452880859375
            ],
            [
                476.7367858886719,
                200.84158325195313,
                1602.5452880859375
            ],
            [
                505.3766784667969,
                212.9697723388672,
                1702.5452880859375
            ],
            [
                534.0007934570313,
                225.0948944091797,
                1802.5452880859375
            ],
            [
                562.6041259765625,
                237.21864318847656,
                1902.5452880859375
            ],
            [
                591.1737060546875,
                249.34033203125,
                2002.5452880859375
            ],
            [
                619.7247314453125,
                261.4605407714844,
                2102.54541015625
            ],
            [
                648.2417602539063,
                273.57318115234375,
                2202.54541015625
            ],
            [
                676.72265625,
                285.67974853515625,
                2302.54541015625
            ],
            [
                705.1766357421875,
                297.7751770019531,
                2402.54541015625
            ],
            [
                733.5904541015625,
                309.8611755371094,
                2502.54541015625
            ],
            [
                761.9563598632813,
                321.933837890625,
                2602.54541015625
            ],
            [
                790.2490844726563,
                333.97882080078125,
                2702.54541015625
            ],
            [
                818.4591674804688,
                346.00054931640625,
                2802.54541015625
            ],
            [
                846.5692749023438,
                357.98663330078125,
                2902.54541015625
            ],
            [
                874.5206909179688,
                369.95306396484375,
                3002.54541015625
            ],
            [
                902.3456420898438,
                381.8724670410156,
                3102.54541015625
            ],
            [
                930.0296630859375,
                393.7535095214844,
                3202.54541015625
            ],
            [
                957.5284423828125,
                405.59259033203125,
                3302.54541015625
            ],
            [
                984.8280029296875,
                417.3795166015625,
                3402.54541015625
            ],
            [
                1011.8909301757813,
                429.11773681640625,
                3502.54541015625
            ],
            [
                1038.6556396484375,
                440.783935546875,
                3602.54541015625
            ],
            [
                1065.12841796875,
                452.39813232421875,
                3702.54541015625
            ],
            [
                1091.244140625,
                463.9465026855469,
                3802.54541015625
            ],
            [
                1116.9659423828125,
                475.439453125,
                3902.54541015625
            ],
            [
                1142.2034912109375,
                486.9012756347656,
                4002.54541015625
            ],
            [
                1167.0848388671875,
                498.3214111328125,
                4102.54541015625
            ],
            [
                1191.5013427734375,
                509.69635009765625,
                4202.54541015625
            ],
            [
                1215.4486083984375,
                521.03857421875,
                4302.54541015625
            ],
            [
                1238.927734375,
                532.3473510742188,
                4402.54541015625
            ],
            [
                1261.8701171875,
                543.6124877929688,
                4502.54541015625
            ],
            [
                1284.3563232421875,
                554.8638916015625,
                4602.54541015625
            ],
            [
                1306.341064453125,
                566.0841064453125,
                4702.54541015625
            ],
            [
                1326.93798828125,
                578.8157348632813,
                4802.54541015625
            ],
            [
                1348.02392578125,
                589.9935302734375,
                4902.54541015625
            ],
            [
                1368.6383056640625,
                601.1613159179688,
                5002.54541015625
            ],
            [
                1388.7459716796875,
                612.3168334960938,
                5102.54541015625
            ],
            [
                1408.3970947265625,
                623.4541625976563,
                5202.54541015625
            ],
            [
                1427.5797119140625,
                634.5776977539063,
                5302.54541015625
            ],
            [
                1446.3048095703125,
                645.6959838867188,
                5402.54541015625
            ],
            [
                1464.576171875,
                656.807373046875,
                5502.54541015625
            ],
            [
                1482.4146728515625,
                667.9080810546875,
                5602.54541015625
            ],
            [
                1499.8197021484375,
                679.0039672851563,
                5702.54541015625
            ],
            [
                1516.797119140625,
                690.096435546875,
                5802.54541015625
            ],
            [
                1533.3856201171875,
                701.1841430664063,
                5902.54541015625
            ],
            [
                1549.551513671875,
                712.2683715820313,
                6002.54541015625
            ],
            [
                1565.339599609375,
                723.3464965820313,
                6102.54541015625
            ],
            [
                1580.75146484375,
                734.4219970703125,
                6202.54541015625
            ],
            [
                1595.7945556640625,
                745.4964599609375,
                6302.54541015625
            ],
            [
                1610.487060546875,
                756.5696411132813,
                6402.54541015625
            ],
            [
                1624.8431396484375,
                767.6442260742188,
                6502.54541015625
            ],
            [
                1638.8704833984375,
                778.7157592773438,
                6602.54541015625
            ],
            [
                1652.59619140625,
                789.7876586914063,
                6702.54541015625
            ],
            [
                1666.0428466796875,
                800.8590087890625,
                6802.54541015625
            ],
            [
                1679.2100830078125,
                811.9310302734375,
                6902.54541015625
            ],
            [
                1692.12744140625,
                823.0010986328125,
                7002.54541015625
            ],
            [
                1704.8150634765625,
                834.0689697265625,
                7102.54541015625
            ],
            [
                1717.29052734375,
                845.1348266601563,
                7202.54541015625
            ],
            [
                1729.5745849609375,
                856.1968994140625,
                7302.54541015625
            ],
            [
                1741.6746826171875,
                867.2550659179688,
                7402.54541015625
            ],
            [
                1753.62353515625,
                878.3074951171875,
                7502.54541015625
            ],
            [
                1765.4224853515625,
                889.3540649414063,
                7602.54541015625
            ],
            [
                1777.096923828125,
                900.3939208984375,
                7702.54541015625
            ],
            [
                1788.6539306640625,
                911.4264526367188,
                7802.54541015625
            ],
            [
                1800.107666015625,
                922.450927734375,
                7902.54541015625
            ],
            [
                1811.4700927734375,
                933.4672241210938,
                8002.54541015625
            ],
            [
                1822.7486572265625,
                944.47509765625,
                8102.54541015625
            ],
            [
                1833.9556884765625,
                955.4742431640625,
                8202.544921875
            ],
            [
                1845.0975341796875,
                966.4647827148438,
                8302.544921875
            ],
            [
                1856.1805419921875,
                977.4465942382813,
                8402.544921875
            ],
            [
                1867.2108154296875,
                988.4198608398438,
                8502.544921875
            ],
            [
                1878.19580078125,
                999.3849487304688,
                8602.544921875
            ],
            [
                1889.1385498046875,
                1010.3419799804688,
                8702.544921875
            ],
            [
                1900.0438232421875,
                1021.2913818359375,
                8802.544921875
            ],
            [
                1910.91552734375,
                1032.2332763671875,
                8902.544921875
            ],
            [
                1921.756591796875,
                1043.16796875,
                9002.544921875
            ],
            [
                1932.5701904296875,
                1054.095947265625,
                9102.544921875
            ],
            [
                1943.359375,
                1065.0174560546875,
                9202.544921875
            ],
            [
                1954.1263427734375,
                1075.9329833984375,
                9302.544921875
            ],
            [
                1964.8734130859375,
                1086.843017578125,
                9402.544921875
            ],
            [
                1975.6026611328125,
                1097.7476806640625,
                9502.544921875
            ],
            [
                1986.315673828125,
                1108.6475830078125,
                9602.544921875
            ],
            [
                1997.0140380859375,
                1119.5428466796875,
                9702.544921875
            ],
            [
                2007.69921875,
                1130.4339599609375,
                9802.544921875
            ],
            [
                2018.3724365234375,
                1141.3212890625,
                9902.544921875
            ],
            [
                2029.0350341796875,
                1152.204833984375,
                10002.544921875
            ],
            [
                2050.331787109375,
                1173.96240234375,
                10202.544921875
            ],
            [
                2071.59619140625,
                1195.7083740234375,
                10402.544921875
            ],
            [
                2092.8349609375,
                1217.444580078125,
                10602.544921875
            ],
            [
                2114.052001953125,
                1239.1722412109375,
                10802.544921875
            ],
            [
                2135.251953125,
                1260.8927001953125,
                11002.544921875
            ],
            [
                2156.437744140625,
                1282.6068115234375,
                11202.544921875
            ],
            [
                2177.611328125,
                1304.3154296875,
                11402.544921875
            ],
            [
                2198.7763671875,
                1326.0194091796875,
                11602.544921875
            ],
            [
                2219.933837890625,
                1347.7193603515625,
                11802.544921875
            ],
            [
                2241.0859375,
                1369.416015625,
                12002.544921875
            ],
            [
                2262.232421875,
                1391.109375,
                12202.544921875
            ],
            [
                2283.375244140625,
                1412.80029296875,
                12402.544921875
            ],
            [
                2304.516357421875,
                1434.4893798828125,
                12602.544921875
            ],
            [
                2325.655517578125,
                1456.1767578125,
                12802.544921875
            ],
            [
                2346.792236328125,
                1477.862548828125,
                13002.544921875
            ],
            [
                2367.92724609375,
                1499.5469970703125,
                13202.544921875
            ],
            [
                2389.061767578125,
                1521.230712890625,
                13402.544921875
            ]
        ],
        "zFirstMeasurement": -25.7244
    },
    {
        "E": 8985.227363339074,
        "chi2": 1.1079105138778687,
        "ip": 0.05674927623964931,
        "ipchi2": 9.301268988122919,
        "mass": 139.57,
        "particleId": "pi+",
        "pvx": 0.6151,
        "pvy": 0.075,
        "pvz": -52.9179,
        "px": 562.09,
        "py": 1163.99,
        "pz": 8890.67,
        "q": 1.0,
        "trajectory": [
            [
                0.701240062713623,
                0.13518419861793518,
                -52.4547004699707
            ],
            [
                1.0173590183258057,
                0.789796769618988,
                -47.4547004699707
            ],
            [
                1.3334832191467285,
                1.4444092512130737,
                -42.4547004699707
            ],
            [
                1.6496131420135498,
                2.0990216732025146,
                -37.4547004699707
            ],
            [
                1.9657485485076904,
                2.753633975982666,
                -32.4547004699707
            ],
            [
                2.2818896770477295,
                3.4082460403442383,
                -27.454700469970703
            ],
            [
                2.5979535579681396,
                4.0628743171691895,
                -22.454700469970703
            ],
            [
                2.9141061305999756,
                4.717486381530762,
                -17.454700469970703
            ],
            [
                3.230264186859131,
                5.372098445892334,
                -12.454700469970703
            ],
            [
                3.5464279651641846,
                6.026710033416748,
                -7.454699993133545
            ],
            [
                3.8625974655151367,
                6.681321620941162,
                -2.454699993133545
            ],
            [
                4.178772926330566,
                7.335933208465576,
                2.545300006866455
            ],
            [
                4.4949541091918945,
                7.99054479598999,
                7.545300006866455
            ],
            [
                4.811141490936279,
                8.645155906677246,
                12.545299530029297
            ],
            [
                5.127335071563721,
                9.29976749420166,
                17.545299530029297
            ],
            [
                5.443535327911377,
                9.954379081726074,
                22.545299530029297
            ],
            [
                5.759741306304932,
                10.608989715576172,
                27.545299530029297
            ],
            [
                6.075953960418701,
                11.26360034942627,
                32.5452995300293
            ],
            [
                6.3921732902526855,
                11.918211936950684,
                37.5452995300293
            ],
            [
                6.708398818969727,
                12.572822570800781,
                42.5452995300293
            ],
            [
                7.024631500244141,
                13.227433204650879,
                47.5452995300293
            ],
            [
                7.3408708572387695,
                13.882043838500977,
                52.5452995300293
            ],
            [
                7.6571173667907715,
                14.536654472351074,
                57.5452995300293
            ],
            [
                7.973370552062988,
                15.191265106201172,
                62.5452995300293
            ],
            [
                8.289631843566895,
                15.84587574005127,
                67.54530334472656
            ],
            [
                8.6058988571167,
                16.500486373901367,
                72.54530334472656
            ],
            [
                8.922174453735352,
                17.15509605407715,
                77.54530334472656
            ],
            [
                9.238456726074219,
                17.809707641601563,
                82.54530334472656
            ],
            [
                9.554747581481934,
                18.464317321777344,
                87.54530334472656
            ],
            [
                9.871045112609863,
                19.118927001953125,
                92.54530334472656
            ],
            [
                10.187350273132324,
                19.773536682128906,
                97.54530334472656
            ],
            [
                10.503664016723633,
                20.42814826965332,
                102.54530334472656
            ],
            [
                11.768925666809082,
                23.046585083007813,
                122.54530334472656
            ],
            [
                13.034351348876953,
                25.665023803710938,
                142.54530334472656
            ],
            [
                14.299901962280273,
                28.28346061706543,
                162.54530334472656
            ],
            [
                15.56558895111084,
                30.901897430419922,
                182.54530334472656
            ],
            [
                16.83141326904297,
                33.52033233642578,
                202.54530334472656
            ],
            [
                18.097381591796875,
                36.13876724243164,
                222.54530334472656
            ],
            [
                19.363496780395508,
                38.7572021484375,
                242.54530334472656
            ],
            [
                20.629764556884766,
                41.37563705444336,
                262.5452880859375
            ],
            [
                21.896188735961914,
                43.99407196044922,
                282.5452880859375
            ],
            [
                23.16277503967285,
                46.61250686645508,
                302.5452880859375
            ],
            [
                24.429529190063477,
                49.23093795776367,
                322.5452880859375
            ],
            [
                25.69648551940918,
                51.84937286376953,
                342.5452880859375
            ],
            [
                26.96363067626953,
                54.46780776977539,
                362.5452880859375
            ],
            [
                28.230966567993164,
                57.086246490478516,
                382.5452880859375
            ],
            [
                29.498498916625977,
                59.704681396484375,
                402.5452880859375
            ],
            [
                30.76624298095703,
                62.3231201171875,
                422.5452880859375
            ],
            [
                32.03419494628906,
                64.94155883789063,
                442.5452880859375
            ],
            [
                33.30236053466797,
                67.55999755859375,
                462.5452880859375
            ],
            [
                34.57074737548828,
                70.17843627929688,
                482.5452880859375
            ],
            [
                35.83937072753906,
                72.796875,
                502.5452880859375
            ],
            [
                37.10825729370117,
                75.41532135009766,
                522.5452880859375
            ],
            [
                38.377384185791016,
                78.03376770019531,
                542.5452880859375
            ],
            [
                39.646766662597656,
                80.6522216796875,
                562.5452880859375
            ],
            [
                40.91640090942383,
                83.27067565917969,
                582.5452880859375
            ],
            [
                42.18629837036133,
                85.88912963867188,
                602.5452880859375
            ],
            [
                43.45648956298828,
                88.50757598876953,
                622.5452880859375
            ],
            [
                44.72695541381836,
                91.12603759765625,
                642.5452880859375
            ],
            [
                45.997718811035156,
                93.74449157714844,
                662.5452880859375
            ],
            [
                47.26890182495117,
                96.36295318603516,
                682.5452880859375
            ],
            [
                48.540401458740234,
                98.98140716552734,
                702.5452880859375
            ],
            [
                49.81220245361328,
                101.59986877441406,
                722.5452880859375
            ],
            [
                51.08432388305664,
                104.21832275390625,
                742.5452880859375
            ],
            [
                52.35677719116211,
                106.83678436279297,
                762.5452880859375
            ],
            [
                53.62956619262695,
                109.45523834228516,
                782.5452880859375
            ],
            [
                54.9026985168457,
                112.07369995117188,
                802.5452880859375
            ],
            [
                56.17616653442383,
                114.6921615600586,
                822.5452880859375
            ],
            [
                57.450103759765625,
                117.31063079833984,
                842.5452880859375
            ],
            [
                58.72449493408203,
                119.92910766601563,
                862.5452880859375
            ],
            [
                59.99927520751953,
                122.5475845336914,
                882.5452880859375
            ],
            [
                61.274444580078125,
                125.16606903076172,
                902.5452880859375
            ],
            [
                62.54995346069336,
                127.78455352783203,
                922.5452880859375
            ],
            [
                63.825870513916016,
                130.40304565429688,
                942.5452880859375
            ],
            [
                65.10220336914063,
                133.0215301513672,
                962.5452880859375
            ],
            [
                66.37895202636719,
                135.64002990722656,
                982.5452880859375
            ],
            [
                67.65623474121094,
                138.25851440429688,
                1002.5452880859375
            ],
            [
                74.0524673461914,
                151.35073852539063,
                1102.5452880859375
            ],
            [
                80.45860290527344,
                164.4427947998047,
                1202.5452880859375
            ],
            [
                86.87683868408203,
                177.53469848632813,
                1302.5452880859375
            ],
            [
                93.30807495117188,
                190.6263885498047,
                1402.5452880859375
            ],
            [
                99.75100708007813,
                203.71795654296875,
                1502.5452880859375
            ],
            [
                106.20368194580078,
                216.8094024658203,
                1602.5452880859375
            ],
            [
                112.66792297363281,
                229.90069580078125,
                1702.5452880859375
            ],
            [
                119.14260864257813,
                242.99258422851563,
                1802.5452880859375
            ],
            [
                125.62890625,
                256.0848693847656,
                1902.5452880859375
            ],
            [
                132.13092041015625,
                269.177490234375,
                2002.5452880859375
            ],
            [
                138.6549072265625,
                282.2709045410156,
                2102.54541015625
            ],
            [
                145.1954345703125,
                295.3653259277344,
                2202.54541015625
            ],
            [
                151.76109313964844,
                308.4610595703125,
                2302.54541015625
            ],
            [
                158.34622192382813,
                321.55859375,
                2402.54541015625
            ],
            [
                164.970703125,
                334.6582336425781,
                2502.54541015625
            ],
            [
                171.6358184814453,
                347.7617492675781,
                2602.54541015625
            ],
            [
                178.35350036621094,
                360.8690490722656,
                2702.54541015625
            ],
            [
                185.1292266845703,
                373.9809265136719,
                2802.54541015625
            ],
            [
                191.97772216796875,
                387.0982666015625,
                2902.54541015625
            ],
            [
                198.91090393066406,
                400.2217102050781,
                3002.54541015625
            ],
            [
                205.97940063476563,
                413.3518371582031,
                3102.54541015625
            ],
            [
                213.1410369873047,
                426.49029541015625,
                3202.54541015625
            ],
            [
                220.4492645263672,
                439.6363525390625,
                3302.54541015625
            ],
            [
                227.9231414794922,
                452.7933654785156,
                3402.54541015625
            ],
            [
                235.57839965820313,
                465.96331787109375,
                3502.54541015625
            ],
            [
                243.44676208496094,
                479.1427917480469,
                3602.54541015625
            ],
            [
                251.55072021484375,
                492.33404541015625,
                3702.54541015625
            ],
            [
                259.9043884277344,
                505.538330078125,
                3802.54541015625
            ],
            [
                268.56878662109375,
                518.7569580078125,
                3902.54541015625
            ],
            [
                277.5271301269531,
                531.9889526367188,
                4002.54541015625
            ],
            [
                286.8583679199219,
                545.2296142578125,
                4102.54541015625
            ],
            [
                296.53125,
                558.4838256835938,
                4202.54541015625
            ],
            [
                306.5684509277344,
                571.7533569335938,
                4302.54541015625
            ],
            [
                316.9863586425781,
                585.0348510742188,
                4402.54541015625
            ],
            [
                327.7873840332031,
                598.322509765625,
                4502.54541015625
            ],
            [
                338.9814147949219,
                611.6173095703125,
                4602.54541015625
            ],
            [
                350.52972412109375,
                624.9209594726563,
                4702.54541015625
            ],
            [
                362.6585998535156,
                642.3780517578125,
                4802.54541015625
            ],
            [
                374.96282958984375,
                655.798828125,
                4902.54541015625
            ],
            [
                387.63751220703125,
                669.2212524414063,
                5002.54541015625
            ],
            [
                400.7088317871094,
                682.654296875,
                5102.54541015625
            ],
            [
                414.13372802734375,
                696.09033203125,
                5202.54541015625
            ],
            [
                427.9336242675781,
                709.5299072265625,
                5302.54541015625
            ],
            [
                442.1009216308594,
                722.968994140625,
                5402.54541015625
            ],
            [
                456.622314453125,
                736.4058837890625,
                5502.54541015625
            ],
            [
                471.4904479980469,
                749.8528442382813,
                5602.54541015625
            ],
            [
                486.70806884765625,
                763.2952270507813,
                5702.54541015625
            ],
            [
                502.2793884277344,
                776.7378540039063,
                5802.54541015625
            ],
            [
                518.1688232421875,
                790.1765747070313,
                5902.54541015625
            ],
            [
                534.404541015625,
                803.6163940429688,
                6002.54541015625
            ],
            [
                550.947998046875,
                817.0543212890625,
                6102.54541015625
            ],
            [
                567.8104858398438,
                830.4860229492188,
                6202.54541015625
            ],
            [
                584.9799194335938,
                843.9121704101563,
                6302.54541015625
            ],
            [
                602.4462890625,
                857.332763671875,
                6402.54541015625
            ],
            [
                620.1975708007813,
                870.743896484375,
                6502.54541015625
            ],
            [
                638.2305297851563,
                884.148193359375,
                6602.54541015625
            ],
            [
                656.526123046875,
                897.541259765625,
                6702.54541015625
            ],
            [
                675.064697265625,
                910.9227294921875,
                6802.54541015625
            ],
            [
                693.8451538085938,
                924.2908935546875,
                6902.54541015625
            ],
            [
                712.843505859375,
                937.6452026367188,
                7002.54541015625
            ],
            [
                732.0416870117188,
                950.9854125976563,
                7102.54541015625
            ],
            [
                751.424560546875,
                964.3113403320313,
                7202.54541015625
            ],
            [
                770.974365234375,
                977.6229858398438,
                7302.54541015625
            ],
            [
                790.6845703125,
                990.9203491210938,
                7402.54541015625
            ],
            [
                810.52734375,
                1004.2053833007813,
                7502.54541015625
            ],
            [
                830.4996948242188,
                1017.4766845703125,
                7602.54541015625
            ],
            [
                850.580810546875,
                1030.7364501953125,
                7702.54541015625
            ],
            [
                870.7644653320313,
                1043.984619140625,
                7802.54541015625
            ],
            [
                891.038330078125,
                1057.22265625,
                7902.54541015625
            ],
            [
                911.3914794921875,
                1070.45166015625,
                8002.54541015625
            ],
            [
                931.8179931640625,
                1083.672119140625,
                8102.54541015625
            ],
            [
                952.3075561523438,
                1096.8853759765625,
                8202.544921875
            ],
            [
                972.854248046875,
                1110.09228515625,
                8302.544921875
            ],
            [
                993.4525756835938,
                1123.2935791015625,
                8402.544921875
            ],
            [
                1014.0972290039063,
                1136.489990234375,
                8502.544921875
            ],
            [
                1034.78173828125,
                1149.6824951171875,
                8602.544921875
            ],
            [
                1055.50341796875,
                1162.8714599609375,
                8702.544921875
            ],
            [
                1076.2581787109375,
                1176.0576171875,
                8802.544921875
            ],
            [
                1097.042724609375,
                1189.2415771484375,
                8902.544921875
            ],
            [
                1117.854248046875,
                1202.423583984375,
                9002.544921875
            ],
            [
                1138.6900634765625,
                1215.604248046875,
                9102.544921875
            ],
            [
                1159.547607421875,
                1228.783935546875,
                9202.544921875
            ],
            [
                1180.4248046875,
                1241.962890625,
                9302.544921875
            ],
            [
                1201.319580078125,
                1255.1414794921875,
                9402.544921875
            ],
            [
                1222.2301025390625,
                1268.31982421875,
                9502.544921875
            ],
            [
                1243.155029296875,
                1281.498046875,
                9602.544921875
            ],
            [
                1264.0927734375,
                1294.6763916015625,
                9702.544921875
            ],
            [
                1285.0421142578125,
                1307.85498046875,
                9802.544921875
            ],
            [
                1306.001953125,
                1321.033935546875,
                9902.544921875
            ],
            [
                1326.9713134765625,
                1334.21337890625,
                10002.544921875
            ],
            [
                1368.934814453125,
                1360.573486328125,
                10202.544921875
            ],
            [
                1410.9263916015625,
                1386.935791015625,
                10402.544921875
            ],
            [
                1452.9403076171875,
                1413.300537109375,
                10602.544921875
            ],
            [
                1494.9732666015625,
                1439.6676025390625,
                10802.544921875
            ],
            [
                1537.02099609375,
                1466.036865234375,
                11002.544921875
            ],
            [
                1579.0810546875,
                1492.408447265625,
                11202.544921875
            ],
            [
                1621.1513671875,
                1518.7818603515625,
                11402.544921875
            ],
            [
                1663.2288818359375,
                1545.157470703125,
                11602.544921875
            ],
            [
                1705.31298828125,
                1571.53466796875,
                11802.544921875
            ],
            [
                1747.40185546875,
                1597.91357421875,
                12002.544921875
            ],
            [
                1789.49560546875,
                1624.2938232421875,
                12202.544921875
            ],
            [
                1831.59228515625,
                1650.6751708984375,
                12402.544921875
            ],
            [
                1873.6900634765625,
                1677.0579833984375,
                12602.544921875
            ],
            [
                1915.789794921875,
                1703.4415283203125,
                12802.544921875
            ],
            [
                1957.8916015625,
                1729.8258056640625,
                13002.544921875
            ],
            [
                1999.9947509765625,
                1756.210693359375,
                13202.544921875
            ],
            [
                2042.098388671875,
                1782.5960693359375,
                13402.544921875
            ]
        ],
        "zFirstMeasurement": 4.3232
    },
    {
        "E": 4244.477650928204,
        "chi2": 1.3589670658111572,
        "ip": 0.07695666458076014,
        "ipchi2": 4.79109319136747,
        "mass": 493.67699999999996,
        "particleId": "K+",
        "pvx": 0.6151,
        "pvy": 0.075,
        "pvz": -52.9179,
        "px": 321.07990726646557,
        "py": -733.6494952918841,
        "pz": 4138.905611403541,
        "q": 1.0,
        "trajectory": [
            [
                -3.101231098175049,
                8.37829303741455,
                -100.0
            ],
            [
                -2.7134387493133545,
                7.492012977600098,
                -95.0
            ],
            [
                -2.325637102127075,
                6.605731964111328,
                -90.0
            ],
            [
                -1.9378260374069214,
                5.719450950622559,
                -85.0
            ],
            [
                -1.5500051975250244,
                4.833169460296631,
                -80.0
            ],
            [
                -1.1621743440628052,
                3.946887254714966,
                -75.0
            ],
            [
                -0.7743335366249084,
                3.0606045722961426,
                -70.0
            ],
            [
                -0.3864824175834656,
                2.1743216514587402,
                -65.0
            ],
            [
                0.0013791619567200541,
                1.2880381345748901,
                -60.0
            ],
            [
                0.38925138115882874,
                0.4017540514469147,
                -55.0
            ],
            [
                0.7771344184875488,
                -0.4845304787158966,
                -50.0
            ],
            [
                1.16502845287323,
                -1.3708155155181885,
                -45.0
            ],
            [
                1.5529335737228394,
                -2.257101058959961,
                -40.0
            ],
            [
                1.9408501386642456,
                -3.1433870792388916,
                -35.0
            ],
            [
                2.3287782669067383,
                -4.0296735763549805,
                -30.0
            ],
            [
                2.7167181968688965,
                -4.915960788726807,
                -25.0
            ],
            [
                3.1046900749206543,
                -5.80222225189209,
                -20.0
            ],
            [
                3.4926528930664063,
                -6.688510417938232,
                -15.0
            ],
            [
                3.880627393722534,
                -7.574799060821533,
                -10.0
            ],
            [
                4.268613338470459,
                -8.461088180541992,
                -5.0
            ],
            [
                4.656611442565918,
                -9.34737777709961,
                0.0
            ],
            [
                5.04462194442749,
                -10.233668327331543,
                5.0
            ],
            [
                5.432644367218018,
                -11.119958877563477,
                10.0
            ],
            [
                5.820679187774658,
                -12.006250381469727,
                15.0
            ],
            [
                6.20872688293457,
                -12.892541885375977,
                20.0
            ],
            [
                6.596787929534912,
                -13.778834342956543,
                25.0
            ],
            [
                6.984861850738525,
                -14.665127754211426,
                30.0
            ],
            [
                7.372949123382568,
                -15.551421165466309,
                35.0
            ],
            [
                7.761049747467041,
                -16.437715530395508,
                40.0
            ],
            [
                8.149164199829102,
                -17.324010848999023,
                45.0
            ],
            [
                8.537293434143066,
                -18.21030616760254,
                50.0
            ],
            [
                8.925436019897461,
                -19.096601486206055,
                55.0
            ],
            [
                9.313593864440918,
                -19.982898712158203,
                60.0
            ],
            [
                9.701766014099121,
                -20.86919593811035,
                65.0
            ],
            [
                10.08995246887207,
                -21.7554931640625,
                70.0
            ],
            [
                10.478154182434082,
                -22.64179229736328,
                75.0
            ],
            [
                10.866372108459473,
                -23.528091430664063,
                80.0
            ],
            [
                11.25460433959961,
                -24.414390563964844,
                85.0
            ],
            [
                11.642853736877441,
                -25.300689697265625,
                90.0
            ],
            [
                12.03111743927002,
                -26.18699073791504,
                95.0
            ],
            [
                12.419398307800293,
                -27.073293685913086,
                100.0
            ],
            [
                13.972540855407715,
                -30.618501663208008,
                120.0
            ],
            [
                15.526017189025879,
                -34.16372299194336,
                140.0
            ],
            [
                17.07975196838379,
                -37.708953857421875,
                160.0
            ],
            [
                18.633766174316406,
                -41.25419998168945,
                180.0
            ],
            [
                20.188064575195313,
                -44.79945373535156,
                200.0
            ],
            [
                21.742658615112305,
                -48.34471893310547,
                220.0
            ],
            [
                23.297557830810547,
                -51.88999557495117,
                240.0
            ],
            [
                24.852771759033203,
                -55.43528366088867,
                260.0
            ],
            [
                26.408309936523438,
                -58.980587005615234,
                280.0
            ],
            [
                27.964183807373047,
                -62.525901794433594,
                300.0
            ],
            [
                29.52040672302246,
                -66.07122802734375,
                320.0
            ],
            [
                31.077041625976563,
                -69.61656951904297,
                340.0
            ],
            [
                32.63407516479492,
                -73.16192626953125,
                360.0
            ],
            [
                34.19150924682617,
                -76.7072982788086,
                380.0
            ],
            [
                35.74934768676758,
                -80.252685546875,
                400.0
            ],
            [
                37.307621002197266,
                -83.79808807373047,
                420.0
            ],
            [
                38.866329193115234,
                -87.343505859375,
                440.0
            ],
            [
                40.42548370361328,
                -90.88894653320313,
                460.0
            ],
            [
                41.98509216308594,
                -94.43440246582031,
                480.0
            ],
            [
                43.5451774597168,
                -97.97987365722656,
                500.0
            ],
            [
                45.1058464050293,
                -101.52535247802734,
                520.0
            ],
            [
                46.66701889038086,
                -105.07084655761719,
                540.0
            ],
            [
                48.22871398925781,
                -108.61636352539063,
                560.0
            ],
            [
                49.79093933105469,
                -112.1618881225586,
                580.0
            ],
            [
                51.35371398925781,
                -115.70743560791016,
                600.0
            ],
            [
                52.917118072509766,
                -119.25298309326172,
                620.0
            ],
            [
                54.481109619140625,
                -122.79853820800781,
                640.0
            ],
            [
                56.045711517333984,
                -126.34410858154297,
                660.0
            ],
            [
                57.61114501953125,
                -129.88970947265625,
                680.0
            ],
            [
                59.17726516723633,
                -133.43533325195313,
                700.0
            ],
            [
                60.743995666503906,
                -136.98098754882813,
                720.0
            ],
            [
                62.311405181884766,
                -140.5266571044922,
                740.0
            ],
            [
                63.87950897216797,
                -144.07235717773438,
                760.0
            ],
            [
                65.44831848144531,
                -147.61807250976563,
                780.0
            ],
            [
                67.01785278320313,
                -151.163818359375,
                800.0
            ],
            [
                68.58807373046875,
                -154.70957946777344,
                820.0
            ],
            [
                70.1593017578125,
                -158.25531005859375,
                840.0
            ],
            [
                71.73160552978516,
                -161.80099487304688,
                860.0
            ],
            [
                73.30471801757813,
                -165.3466796875,
                880.0
            ],
            [
                74.878662109375,
                -168.89236450195313,
                900.0
            ],
            [
                76.45327758789063,
                -172.4380645751953,
                920.0
            ],
            [
                78.02874755859375,
                -175.9837646484375,
                940.0
            ],
            [
                79.60508728027344,
                -179.52944946289063,
                960.0
            ],
            [
                81.18231964111328,
                -183.0751495361328,
                980.0
            ],
            [
                82.76067352294922,
                -186.6208038330078,
                1000.0
            ],
            [
                90.67520141601563,
                -204.34793090820313,
                1100.0
            ],
            [
                98.61088562011719,
                -222.07522583007813,
                1200.0
            ],
            [
                106.572998046875,
                -239.80145263671875,
                1300.0
            ],
            [
                114.56253814697266,
                -257.5267333984375,
                1400.0
            ],
            [
                122.57733154296875,
                -275.2513427734375,
                1500.0
            ],
            [
                130.611083984375,
                -292.97601318359375,
                1600.0
            ],
            [
                138.6662139892578,
                -310.7012939453125,
                1700.0
            ],
            [
                146.7427520751953,
                -328.4271545410156,
                1800.0
            ],
            [
                154.84051513671875,
                -346.154296875,
                1900.0
            ],
            [
                162.96791076660156,
                -363.8830261230469,
                2000.0
            ],
            [
                171.13623046875,
                -381.6124267578125,
                2100.0
            ],
            [
                179.3294219970703,
                -399.3454895019531,
                2200.0
            ],
            [
                187.5667266845703,
                -417.0824279785156,
                2300.0
            ],
            [
                195.82720947265625,
                -434.82598876953125,
                2400.0
            ],
            [
                204.15435791015625,
                -452.5783386230469,
                2500.0
            ],
            [
                212.5525360107422,
                -470.34161376953125,
                2600.0
            ],
            [
                221.04104614257813,
                -488.1168212890625,
                2700.0
            ],
            [
                229.62916564941406,
                -505.90728759765625,
                2800.0
            ],
            [
                238.34439086914063,
                -523.7161254882813,
                2900.0
            ],
            [
                247.21823120117188,
                -541.54541015625,
                3000.0
            ],
            [
                256.3493957519531,
                -559.39599609375,
                3100.0
            ],
            [
                265.6322937011719,
                -577.2819213867188,
                3200.0
            ],
            [
                275.1968994140625,
                -595.20166015625,
                3300.0
            ],
            [
                285.07501220703125,
                -613.1630859375,
                3400.0
            ],
            [
                295.3135986328125,
                -631.1611328125,
                3500.0
            ],
            [
                305.99017333984375,
                -649.2041015625,
                3600.0
            ],
            [
                317.1397705078125,
                -667.3010864257813,
                3700.0
            ],
            [
                328.84210205078125,
                -685.4572143554688,
                3800.0
            ],
            [
                341.24945068359375,
                -703.6778564453125,
                3900.0
            ],
            [
                354.3088684082031,
                -721.94091796875,
                4000.0
            ],
            [
                368.2638244628906,
                -740.2410278320313,
                4100.0
            ],
            [
                383.03106689453125,
                -758.6261596679688,
                4200.0
            ],
            [
                398.6056213378906,
                -777.041015625,
                4300.0
            ],
            [
                415.1294250488281,
                -795.51171875,
                4400.0
            ],
            [
                432.5860595703125,
                -814.0059204101563,
                4500.0
            ],
            [
                450.9640197753906,
                -832.5396728515625,
                4600.0
            ],
            [
                470.16888427734375,
                -851.1089477539063,
                4700.0
            ],
            [
                492.06640625,
                -886.072265625,
                4800.0
            ],
            [
                513.2711791992188,
                -905.1146240234375,
                4900.0
            ],
            [
                535.3306274414063,
                -924.1703491210938,
                5000.0
            ],
            [
                558.3768310546875,
                -943.2527465820313,
                5100.0
            ],
            [
                582.2758178710938,
                -962.3140869140625,
                5200.0
            ],
            [
                607.0635986328125,
                -981.4129638671875,
                5300.0
            ],
            [
                632.681396484375,
                -1000.5050659179688,
                5400.0
            ],
            [
                659.1571044921875,
                -1019.5796508789063,
                5500.0
            ],
            [
                686.4834594726563,
                -1038.6837158203125,
                5600.0
            ],
            [
                714.6830444335938,
                -1057.76220703125,
                5700.0
            ],
            [
                743.7060546875,
                -1076.8310546875,
                5800.0
            ],
            [
                773.542724609375,
                -1095.8895263671875,
                5900.0
            ],
            [
                804.2679443359375,
                -1114.9228515625,
                6000.0
            ],
            [
                835.8216552734375,
                -1133.9439697265625,
                6100.0
            ],
            [
                868.1536254882813,
                -1152.9278564453125,
                6200.0
            ],
            [
                901.2800903320313,
                -1171.869140625,
                6300.0
            ],
            [
                935.2450561523438,
                -1190.77001953125,
                6400.0
            ],
            [
                970.0189819335938,
                -1209.598388671875,
                6500.0
            ],
            [
                1005.5355834960938,
                -1228.3687744140625,
                6600.0
            ],
            [
                1041.7901611328125,
                -1247.041259765625,
                6700.0
            ],
            [
                1078.70654296875,
                -1265.6202392578125,
                6800.0
            ],
            [
                1116.3162841796875,
                -1284.0792236328125,
                6900.0
            ],
            [
                1154.498291015625,
                -1302.4268798828125,
                7000.0
            ],
            [
                1193.1929931640625,
                -1320.6492919921875,
                7100.0
            ],
            [
                1232.35498046875,
                -1338.7457275390625,
                7200.0
            ],
            [
                1271.9169921875,
                -1356.7205810546875,
                7300.0
            ],
            [
                1311.8494873046875,
                -1374.5704345703125,
                7400.0
            ],
            [
                1352.0736083984375,
                -1392.320556640625,
                7500.0
            ],
            [
                1392.564208984375,
                -1409.958984375,
                7600.0
            ],
            [
                1433.270751953125,
                -1427.504150390625,
                7700.0
            ],
            [
                1474.168701171875,
                -1444.9622802734375,
                7800.0
            ],
            [
                1515.2242431640625,
                -1462.3465576171875,
                7900.0
            ],
            [
                1556.41455078125,
                -1479.6646728515625,
                8000.0
            ],
            [
                1597.7218017578125,
                -1496.9234619140625,
                8100.0
            ],
            [
                1639.1239013671875,
                -1514.136474609375,
                8200.0
            ],
            [
                1680.6085205078125,
                -1531.30859375,
                8300.0
            ],
            [
                1722.1639404296875,
                -1548.4466552734375,
                8400.0
            ],
            [
                1763.780517578125,
                -1565.5574951171875,
                8500.0
            ],
            [
                1805.447265625,
                -1582.646484375,
                8600.0
            ],
            [
                1847.1591796875,
                -1599.7178955078125,
                8700.0
            ],
            [
                1888.909912109375,
                -1616.7757568359375,
                8800.0
            ],
            [
                1930.6954345703125,
                -1633.8236083984375,
                8900.0
            ],
            [
                1972.511474609375,
                -1650.86376953125,
                9000.0
            ],
            [
                2014.3544921875,
                -1667.8985595703125,
                9100.0
            ],
            [
                2056.22119140625,
                -1684.9298095703125,
                9200.0
            ],
            [
                2098.109375,
                -1701.958740234375,
                9300.0
            ],
            [
                2140.016357421875,
                -1718.9864501953125,
                9400.0
            ],
            [
                2181.93994140625,
                -1736.013916015625,
                9500.0
            ],
            [
                2223.878662109375,
                -1753.04150390625,
                9600.0
            ],
            [
                2265.830810546875,
                -1770.06982421875,
                9700.0
            ],
            [
                2307.795166015625,
                -1787.0992431640625,
                9800.0
            ],
            [
                2349.770263671875,
                -1804.1300048828125,
                9900.0
            ],
            [
                2391.755126953125,
                -1821.1622314453125,
                10000.0
            ],
            [
                2475.75,
                -1855.231689453125,
                10200.0
            ],
            [
                2559.772705078125,
                -1889.3082275390625,
                10400.0
            ],
            [
                2643.81689453125,
                -1923.392333984375,
                10600.0
            ],
            [
                2727.87890625,
                -1957.4833984375,
                10800.0
            ],
            [
                2811.953857421875,
                -1991.58154296875,
                11000.0
            ],
            [
                2896.037353515625,
                -2025.6873779296875,
                11200.0
            ],
            [
                2980.12841796875,
                -2059.7998046875,
                11400.0
            ],
            [
                3064.222900390625,
                -2093.91943359375,
                11600.0
            ],
            [
                3148.320556640625,
                -2128.045654296875,
                11800.0
            ],
            [
                3232.41845703125,
                -2162.177734375,
                12000.0
            ],
            [
                3316.51708984375,
                -2196.315673828125,
                12200.0
            ],
            [
                3400.61767578125,
                -2230.45703125,
                12400.0
            ],
            [
                3484.7158203125,
                -2264.603759765625,
                12600.0
            ],
            [
                3568.81298828125,
                -2298.754150390625,
                12800.0
            ],
            [
                3652.909423828125,
                -2332.90771484375,
                13000.0
            ],
            [
                3737.006591796875,
                -2367.063720703125,
                13200.0
            ],
            [
                3821.1044921875,
                -2401.22021484375,
                13400.0
            ]
        ],
        "zFirstMeasurement": 4.3232
    }
]
