[
    {
        "E": 34923.4491146176,
        "chi2": 0.0,
        "ip": 0.04558896542112207,
        "ipchi2": 9.891705895305156,
        "mass": 1875.188,
        "particleId": "D0",
        "pvx": 0.624,
        "pvy": 0.075,
        "pvz": 33.5904,
        "px": 631.23,
        "py": 2422.78,
        "pz": 34783.08,
        "q": 0.0,
        "trajectory": [
            [
                0.6240000128746033,
                0.07500000298023224,
                33.59040069580078
            ],
            [
                0.6269999742507935,
                0.179299995303154,
                34.458099365234375
            ]
        ],
        "zFirstMeasurement": -9999.0
    },
    {
        "E": 15213.069144188408,
        "chi2": 1.2171015739440918,
        "ip": 0.009837572064613977,
        "ipchi2": 0.16494587624346077,
        "mass": 493.677,
        "particleId": "K-",
        "pvx": 0.624,
        "pvy": 0.075,
        "pvz": 33.5904,
        "px": -448.94,
        "py": 1494.2,
        "pz": 15124.8,
        "q": -1.0,
        "trajectory": [
            [
                0.600976824760437,
                0.15121659636497498,
                34.458099365234375
            ],
            [
                0.45256271958351135,
                0.6451746225357056,
                39.458099365234375
            ],
            [
                0.30414482951164246,
                1.1391327381134033,
                44.458099365234375
            ],
            [
                0.15572306513786316,
                1.6330907344818115,
                49.458099365234375
            ],
            [
                0.007297385483980179,
                2.127048969268799,
                54.458099365234375
            ],
            [
                -0.14113228023052216,
                2.621007204055786,
                59.458099365234375
            ],
            [
                -0.2895659804344177,
                3.1149654388427734,
                64.45809936523438
            ],
            [
                -0.4380037784576416,
                3.6089236736297607,
                69.45809936523438
            ],
            [
                -0.5864457488059998,
                4.102881908416748,
                74.45809936523438
            ],
            [
                -0.734891951084137,
                4.5968403816223145,
                79.45809936523438
            ],
            [
                -0.8833423852920532,
                5.090798854827881,
                84.45809936523438
            ],
            [
                -1.0318143367767334,
                5.584746360778809,
                89.45809936523438
            ],
            [
                -1.1802732944488525,
                6.078704833984375,
                94.45809936523438
            ],
            [
                -1.328736424446106,
                6.572663307189941,
                99.45809936523438
            ],
            [
                -1.4772034883499146,
                7.066621780395508,
                104.45809936523438
            ],
            [
                -2.0711138248443604,
                9.04245662689209,
                124.45809936523438
            ],
            [
                -2.665095090866089,
                11.018292427062988,
                144.45809936523438
            ],
            [
                -3.2591521739959717,
                12.994128227233887,
                164.45809936523438
            ],
            [
                -3.8532893657684326,
                14.969965934753418,
                184.45809936523438
            ],
            [
                -4.447511672973633,
                16.945802688598633,
                204.45809936523438
            ],
            [
                -5.041823863983154,
                18.921642303466797,
                224.45809936523438
            ],
            [
                -5.63619327545166,
                20.89748191833496,
                244.45809936523438
            ],
            [
                -6.2306742668151855,
                22.873321533203125,
                264.4580993652344
            ],
            [
                -6.825250148773193,
                24.849163055419922,
                284.4580993652344
            ],
            [
                -7.419923782348633,
                26.82500457763672,
                304.4580993652344
            ],
            [
                -8.014699935913086,
                28.800846099853516,
                324.4580993652344
            ],
            [
                -8.609580993652344,
                30.776689529418945,
                344.4580993652344
            ],
            [
                -9.204572677612305,
                32.752532958984375,
                364.4580993652344
            ],
            [
                -9.799676895141602,
                34.72837829589844,
                384.4580993652344
            ],
            [
                -10.394898414611816,
                36.7042236328125,
                404.4580993652344
            ],
            [
                -10.99024486541748,
                38.68006896972656,
                424.4580993652344
            ],
            [
                -11.58571720123291,
                40.65591812133789,
                444.4580993652344
            ],
            [
                -12.181317329406738,
                42.63176727294922,
                464.4580993652344
            ],
            [
                -12.777050018310547,
                44.60761642456055,
                484.4580993652344
            ],
            [
                -13.372919082641602,
                46.583465576171875,
                504.4580993652344
            ],
            [
                -13.968931198120117,
                48.5593147277832,
                524.4581298828125
            ],
            [
                -14.56508731842041,
                50.5351676940918,
                544.4581298828125
            ],
            [
                -15.161389350891113,
                52.51102066040039,
                564.4581298828125
            ],
            [
                -15.75786018371582,
                54.486873626708984,
                584.4581298828125
            ],
            [
                -16.35450553894043,
                56.46272659301758,
                604.4581298828125
            ],
            [
                -16.95132064819336,
                58.43858337402344,
                624.4581298828125
            ],
            [
                -17.54830551147461,
                60.4144401550293,
                644.4581298828125
            ],
            [
                -18.145463943481445,
                62.390296936035156,
                664.4581298828125
            ],
            [
                -18.742807388305664,
                64.36615753173828,
                684.4581298828125
            ],
            [
                -19.34034538269043,
                66.34201049804688,
                704.4581298828125
            ],
            [
                -19.938066482543945,
                68.31787109375,
                724.4581298828125
            ],
            [
                -20.53598976135254,
                70.29373168945313,
                744.4581298828125
            ],
            [
                -21.134143829345703,
                72.26959228515625,
                764.4581298828125
            ],
            [
                -21.732501983642578,
                74.24545288085938,
                784.4581298828125
            ],
            [
                -22.331071853637695,
                76.2213134765625,
                804.4581298828125
            ],
            [
                -22.92984962463379,
                78.19718170166016,
                824.4581298828125
            ],
            [
                -23.528846740722656,
                80.17304229736328,
                844.4581298828125
            ],
            [
                -24.12806510925293,
                82.1489028930664,
                864.4581298828125
            ],
            [
                -24.72751235961914,
                84.12477111816406,
                884.4581298828125
            ],
            [
                -25.327184677124023,
                86.10063171386719,
                904.4581298828125
            ],
            [
                -25.9271297454834,
                88.07649230957031,
                924.4581298828125
            ],
            [
                -26.527328491210938,
                90.05235290527344,
                944.4581298828125
            ],
            [
                -27.127777099609375,
                92.02821350097656,
                964.4581298828125
            ],
            [
                -27.72848129272461,
                94.00407409667969,
                984.4581298828125
            ],
            [
                -28.329425811767578,
                95.97993469238281,
                1004.4581298828125
            ],
            [
                -31.33846092224121,
                105.8592300415039,
                1104.4581298828125
            ],
            [
                -34.356380462646484,
                115.73847198486328,
                1204.4581298828125
            ],
            [
                -37.380149841308594,
                125.61763763427734,
                1304.4581298828125
            ],
            [
                -40.410743713378906,
                135.49681091308594,
                1404.4581298828125
            ],
            [
                -43.44807052612305,
                145.37594604492188,
                1504.4581298828125
            ],
            [
                -46.491764068603516,
                155.2550506591797,
                1604.4581298828125
            ],
            [
                -49.54216003417969,
                165.1342010498047,
                1704.4581298828125
            ],
            [
                -52.60067367553711,
                175.01333618164063,
                1804.4581298828125
            ],
            [
                -55.66733169555664,
                184.892578125,
                1904.4581298828125
            ],
            [
                -58.743988037109375,
                194.7720184326172,
                2004.4581298828125
            ],
            [
                -61.83247375488281,
                204.65162658691406,
                2104.4580078125
            ],
            [
                -64.93486022949219,
                214.53152465820313,
                2204.4580078125
            ],
            [
                -68.04890441894531,
                224.41165161132813,
                2304.4580078125
            ],
            [
                -71.1834716796875,
                234.29226684570313,
                2404.4580078125
            ],
            [
                -74.34046173095703,
                244.17337036132813,
                2504.4580078125
            ],
            [
                -77.528076171875,
                254.0551300048828,
                2604.4580078125
            ],
            [
                -80.74634552001953,
                263.93768310546875,
                2704.4580078125
            ],
            [
                -84.00423431396484,
                273.8211669921875,
                2804.4580078125
            ],
            [
                -87.31271362304688,
                283.7059020996094,
                2904.4580078125
            ],
            [
                -90.67955017089844,
                293.5920104980469,
                3004.4580078125
            ],
            [
                -94.1078109741211,
                303.4796447753906,
                3104.4580078125
            ],
            [
                -97.61750793457031,
                313.368896484375,
                3204.4580078125
            ],
            [
                -101.21188354492188,
                323.2602844238281,
                3304.4580078125
            ],
            [
                -104.91096496582031,
                333.1534729003906,
                3404.4580078125
            ],
            [
                -108.72224426269531,
                343.0490417480469,
                3504.4580078125
            ],
            [
                -112.65339660644531,
                352.9478454589844,
                3604.4580078125
            ],
            [
                -116.72221374511719,
                362.8489074707031,
                3704.4580078125
            ],
            [
                -120.95255279541016,
                372.7527160644531,
                3804.4580078125
            ],
            [
                -125.34220123291016,
                382.6597900390625,
                3904.4580078125
            ],
            [
                -129.92218017578125,
                392.5699157714844,
                4004.4580078125
            ],
            [
                -134.67124938964844,
                402.4822998046875,
                4104.4580078125
            ],
            [
                -139.63919067382813,
                412.3964538574219,
                4204.4580078125
            ],
            [
                -144.8086700439453,
                422.3121337890625,
                4304.4580078125
            ],
            [
                -150.1787109375,
                432.2303771972656,
                4404.4580078125
            ],
            [
                -155.77215576171875,
                442.1510925292969,
                4504.4580078125
            ],
            [
                -161.56826782226563,
                452.07177734375,
                4604.4580078125
            ],
            [
                -167.59632873535156,
                461.9933166503906,
                4704.4580078125
            ],
            [
                -172.7177276611328,
                469.7577819824219,
                4804.4580078125
            ],
            [
                -179.17636108398438,
                479.6251220703125,
                4904.4580078125
            ],
            [
                -185.8453369140625,
                489.49200439453125,
                5004.4580078125
            ],
            [
                -192.73348999023438,
                499.3585205078125,
                5104.4580078125
            ],
            [
                -199.8274383544922,
                509.22515869140625,
                5204.4580078125
            ],
            [
                -207.1328125,
                519.0924682617188,
                5304.4580078125
            ],
            [
                -214.6441650390625,
                528.9591064453125,
                5404.4580078125
            ],
            [
                -222.3563690185547,
                538.8250732421875,
                5504.4580078125
            ],
            [
                -230.25970458984375,
                548.6905517578125,
                5604.4580078125
            ],
            [
                -238.36062622070313,
                558.5543212890625,
                5704.4580078125
            ],
            [
                -246.65554809570313,
                568.4180297851563,
                5804.4580078125
            ],
            [
                -255.1294403076172,
                578.2800903320313,
                5904.4580078125
            ],
            [
                -263.7921447753906,
                588.1402587890625,
                6004.4580078125
            ],
            [
                -272.6291198730469,
                597.9990234375,
                6104.4580078125
            ],
            [
                -281.63983154296875,
                607.8560180664063,
                6204.4580078125
            ],
            [
                -290.81683349609375,
                617.710693359375,
                6304.4580078125
            ],
            [
                -300.15411376953125,
                627.5631713867188,
                6404.4580078125
            ],
            [
                -309.6497802734375,
                637.4130249023438,
                6504.4580078125
            ],
            [
                -319.2928466796875,
                647.2601928710938,
                6604.4580078125
            ],
            [
                -329.0791320800781,
                657.1041870117188,
                6704.4580078125
            ],
            [
                -338.9973449707031,
                666.9450073242188,
                6804.4580078125
            ],
            [
                -349.0467529296875,
                676.7821655273438,
                6904.4580078125
            ],
            [
                -359.2161560058594,
                686.6156005859375,
                7004.4580078125
            ],
            [
                -369.4969177246094,
                696.4453735351563,
                7104.4580078125
            ],
            [
                -379.881591796875,
                706.2714233398438,
                7204.4580078125
            ],
            [
                -390.3627624511719,
                716.0936889648438,
                7304.4580078125
            ],
            [
                -400.935791015625,
                725.9120483398438,
                7404.4580078125
            ],
            [
                -411.5880126953125,
                735.7269897460938,
                7504.4580078125
            ],
            [
                -422.3173828125,
                745.5381469726563,
                7604.4580078125
            ],
            [
                -433.11395263671875,
                755.345947265625,
                7704.4580078125
            ],
            [
                -443.9742126464844,
                765.1505126953125,
                7804.4580078125
            ],
            [
                -454.8917236328125,
                774.9520263671875,
                7904.4580078125
            ],
            [
                -465.8608093261719,
                784.750732421875,
                8004.4580078125
            ],
            [
                -476.87799072265625,
                794.5468139648438,
                8104.4580078125
            ],
            [
                -487.9373474121094,
                804.3405151367188,
                8204.4580078125
            ],
            [
                -499.0355224609375,
                814.1321411132813,
                8304.4580078125
            ],
            [
                -510.169189453125,
                823.9217529296875,
                8404.4580078125
            ],
            [
                -521.3353271484375,
                833.7095947265625,
                8504.4580078125
            ],
            [
                -532.5296630859375,
                843.4959716796875,
                8604.4580078125
            ],
            [
                -543.75048828125,
                853.2809448242188,
                8704.4580078125
            ],
            [
                -554.9952392578125,
                863.0647583007813,
                8804.4580078125
            ],
            [
                -566.2615966796875,
                872.8475341796875,
                8904.4580078125
            ],
            [
                -577.5478515625,
                882.6293334960938,
                9004.4580078125
            ],
            [
                -588.8519897460938,
                892.4103393554688,
                9104.4580078125
            ],
            [
                -600.17236328125,
                902.190673828125,
                9204.4580078125
            ],
            [
                -611.5075073242188,
                911.970458984375,
                9304.4580078125
            ],
            [
                -622.8560180664063,
                921.749755859375,
                9404.4580078125
            ],
            [
                -634.216552734375,
                931.5286865234375,
                9504.4580078125
            ],
            [
                -645.588134765625,
                941.3072509765625,
                9604.4580078125
            ],
            [
                -656.9696655273438,
                951.0855712890625,
                9704.4580078125
            ],
            [
                -668.3602294921875,
                960.8637084960938,
                9804.4580078125
            ],
            [
                -679.7589721679688,
                970.6416625976563,
                9904.4580078125
            ],
            [
                -691.1651611328125,
                980.4195556640625,
                10004.4580078125
            ],
            [
                -713.9971923828125,
                999.97509765625,
                10204.4580078125
            ],
            [
                -736.8516845703125,
                1019.5305786132813,
                10404.4580078125
            ],
            [
                -759.724365234375,
                1039.086181640625,
                10604.4580078125
            ],
            [
                -782.6124877929688,
                1058.6419677734375,
                10804.4580078125
            ],
            [
                -805.5126953125,
                1078.1981201171875,
                11004.4580078125
            ],
            [
                -828.42333984375,
                1097.7545166015625,
                11204.4580078125
            ],
            [
                -851.3427124023438,
                1117.311279296875,
                11404.4580078125
            ],
            [
                -874.2684936523438,
                1136.868408203125,
                11604.4580078125
            ],
            [
                -897.199951171875,
                1156.4259033203125,
                11804.4580078125
            ],
            [
                -920.1356811523438,
                1175.9837646484375,
                12004.4580078125
            ],
            [
                -943.0758056640625,
                1195.5419921875,
                12204.4580078125
            ],
            [
                -966.0187377929688,
                1215.100341796875,
                12404.4580078125
            ],
            [
                -988.9632568359375,
                1234.6591796875,
                12604.4580078125
            ],
            [
                -1011.9095458984375,
                1254.2181396484375,
                12804.4580078125
            ],
            [
                -1034.8577880859375,
                1273.77734375,
                13004.4580078125
            ],
            [
                -1057.807373046875,
                1293.3365478515625,
                13204.4580078125
            ],
            [
                -1080.757568359375,
                1312.89599609375,
                13404.4580078125
            ]
        ],
        "zFirstMeasurement": 139.4112
    },
    {
        "E": 19711.252053149674,
        "chi2": 1.182412028312683,
        "ip": 0.0827764753452043,
        "ipchi2": 22.341771301191546,
        "mass": 139.57,
        "particleId": "pi+",
        "pvx": 0.624,
        "pvy": 0.075,
        "pvz": 33.5904,
        "px": 1082.2,
        "py": 930.67,
        "pz": 19659.01,
        "q": 1.0,
        "trajectory": [
            [
                0.6329545378684998,
                0.18920274078845978,
                34.458099365234375
            ],
            [
                0.9082033634185791,
                0.42590487003326416,
                39.458099365234375
            ],
            [
                1.1834551095962524,
                0.662606954574585,
                44.458099365234375
            ],
            [
                1.4587098360061646,
                0.899308979511261,
                49.458099365234375
            ],
            [
                1.733967661857605,
                1.136011004447937,
                54.458099365234375
            ],
            [
                2.009228467941284,
                1.3727128505706787,
                59.458099365234375
            ],
            [
                2.2844924926757813,
                1.60941481590271,
                64.45809936523438
            ],
            [
                2.5597596168518066,
                1.846116542816162,
                69.45809936523438
            ],
            [
                2.8350300788879395,
                2.0828182697296143,
                74.45809936523438
            ],
            [
                3.1103036403656006,
                2.3195199966430664,
                79.45809936523438
            ],
            [
                3.385580539703369,
                2.5562217235565186,
                84.45809936523438
            ],
            [
                3.660860776901245,
                2.7929234504699707,
                89.45809936523438
            ],
            [
                3.936166286468506,
                3.029627561569214,
                94.45809936523438
            ],
            [
                4.211453437805176,
                3.266329050064087,
                99.45809936523438
            ],
            [
                4.486742973327637,
                3.50303053855896,
                104.45809936523438
            ],
            [
                5.587934494018555,
                4.449835777282715,
                124.45809936523438
            ],
            [
                6.68917989730835,
                5.396640300750732,
                144.45809936523438
            ],
            [
                7.790482044219971,
                6.343444347381592,
                164.45809936523438
            ],
            [
                8.891844749450684,
                7.290247440338135,
                184.45809936523438
            ],
            [
                9.99327278137207,
                8.23705005645752,
                204.45809936523438
            ],
            [
                11.094768524169922,
                9.18385124206543,
                224.45809936523438
            ],
            [
                12.19633674621582,
                10.13065242767334,
                244.45809936523438
            ],
            [
                13.29794692993164,
                11.077452659606934,
                264.4580993652344
            ],
            [
                14.399649620056152,
                12.024251937866211,
                284.4580993652344
            ],
            [
                15.501426696777344,
                12.971051216125488,
                304.4580993652344
            ],
            [
                16.60328483581543,
                13.91784954071045,
                324.4580993652344
            ],
            [
                17.705223083496094,
                14.86464786529541,
                344.4580993652344
            ],
            [
                18.807247161865234,
                15.811445236206055,
                364.4580993652344
            ],
            [
                19.90935707092285,
                16.758241653442383,
                384.4580993652344
            ],
            [
                21.011560440063477,
                17.70503807067871,
                404.4580993652344
            ],
            [
                22.11385726928711,
                18.65183448791504,
                424.4580993652344
            ],
            [
                23.21625328063965,
                19.598630905151367,
                444.4580993652344
            ],
            [
                24.31874656677246,
                20.545425415039063,
                464.4580993652344
            ],
            [
                25.421344757080078,
                21.492219924926758,
                484.4580993652344
            ],
            [
                26.5240478515625,
                22.439014434814453,
                504.4580993652344
            ],
            [
                27.626861572265625,
                23.38580894470215,
                524.4581298828125
            ],
            [
                28.72978973388672,
                24.332603454589844,
                544.4581298828125
            ],
            [
                29.83283233642578,
                25.27939796447754,
                564.4581298828125
            ],
            [
                30.936010360717773,
                26.2261905670166,
                584.4581298828125
            ],
            [
                32.03931427001953,
                27.172985076904297,
                604.4581298828125
            ],
            [
                33.14274978637695,
                28.119779586791992,
                624.4581298828125
            ],
            [
                34.24631881713867,
                29.066572189331055,
                644.4581298828125
            ],
            [
                35.35003662109375,
                30.01336669921875,
                664.4581298828125
            ],
            [
                36.45389175415039,
                30.960161209106445,
                684.4581298828125
            ],
            [
                37.55788803100586,
                31.90695571899414,
                704.4581298828125
            ],
            [
                38.66202163696289,
                32.8537483215332,
                724.4581298828125
            ],
            [
                39.76633834838867,
                33.80054473876953,
                744.4581298828125
            ],
            [
                40.87083053588867,
                34.747337341308594,
                764.4581298828125
            ],
            [
                41.97548294067383,
                35.69413375854492,
                784.4581298828125
            ],
            [
                43.080299377441406,
                36.640926361083984,
                804.4581298828125
            ],
            [
                44.18528366088867,
                37.58772277832031,
                824.4581298828125
            ],
            [
                45.290443420410156,
                38.53451919555664,
                844.4581298828125
            ],
            [
                46.395774841308594,
                39.4813117980957,
                864.4581298828125
            ],
            [
                47.50129318237305,
                40.42810821533203,
                884.4581298828125
            ],
            [
                48.60700607299805,
                41.374908447265625,
                904.4581298828125
            ],
            [
                49.712928771972656,
                42.32170867919922,
                924.4581298828125
            ],
            [
                50.81904983520508,
                43.26850891113281,
                944.4581298828125
            ],
            [
                51.92536926269531,
                44.21531295776367,
                964.4581298828125
            ],
            [
                53.03193283081055,
                45.162113189697266,
                984.4581298828125
            ],
            [
                54.138729095458984,
                46.108917236328125,
                1004.4581298828125
            ],
            [
                59.675506591796875,
                50.84292221069336,
                1104.4581298828125
            ],
            [
                65.21896362304688,
                55.57687759399414,
                1204.4581298828125
            ],
            [
                70.76710510253906,
                60.31085968017578,
                1304.4581298828125
            ],
            [
                76.32086181640625,
                65.04483032226563,
                1404.4581298828125
            ],
            [
                81.87947082519531,
                69.77874755859375,
                1504.4581298828125
            ],
            [
                87.44335174560547,
                74.51266479492188,
                1604.4581298828125
            ],
            [
                93.0127944946289,
                79.24662017822266,
                1704.4581298828125
            ],
            [
                98.58904266357422,
                83.98062133789063,
                1804.4581298828125
            ],
            [
                104.17221069335938,
                88.71468353271484,
                1904.4581298828125
            ],
            [
                109.7636947631836,
                93.44881439208984,
                2004.4581298828125
            ],
            [
                115.3642578125,
                98.1829833984375,
                2104.4580078125
            ],
            [
                120.97750091552734,
                102.91741943359375,
                2204.4580078125
            ],
            [
                126.60101318359375,
                107.65201568603516,
                2304.4580078125
            ],
            [
                132.24203491210938,
                112.38689422607422,
                2404.4580078125
            ],
            [
                137.9032745361328,
                117.12218475341797,
                2504.4580078125
            ],
            [
                143.5895538330078,
                121.85799407958984,
                2604.4580078125
            ],
            [
                149.30352783203125,
                126.59428405761719,
                2704.4580078125
            ],
            [
                155.04937744140625,
                131.33120727539063,
                2804.4580078125
            ],
            [
                160.83773803710938,
                136.06912231445313,
                2904.4580078125
            ],
            [
                166.67385864257813,
                140.80784606933594,
                3004.4580078125
            ],
            [
                172.55960083007813,
                145.5475311279297,
                3104.4580078125
            ],
            [
                178.5130615234375,
                150.2883758544922,
                3204.4580078125
            ],
            [
                184.53518676757813,
                155.030517578125,
                3304.4580078125
            ],
            [
                190.64085388183594,
                159.77420043945313,
                3404.4580078125
            ],
            [
                196.83770751953125,
                164.5192413330078,
                3504.4580078125
            ],
            [
                203.1276092529297,
                169.26553344726563,
                3604.4580078125
            ],
            [
                209.52511596679688,
                174.01341247558594,
                3704.4580078125
            ],
            [
                216.04551696777344,
                178.76333618164063,
                3804.4580078125
            ],
            [
                222.68577575683594,
                183.51470947265625,
                3904.4580078125
            ],
            [
                229.46517944335938,
                188.26780700683594,
                4004.4580078125
            ],
            [
                236.37628173828125,
                193.0226593017578,
                4104.4580078125
            ],
            [
                243.44644165039063,
                197.77877807617188,
                4204.4580078125
            ],
            [
                250.66928100585938,
                202.53700256347656,
                4304.4580078125
            ],
            [
                258.0443420410156,
                207.29632568359375,
                4404.4580078125
            ],
            [
                265.57769775390625,
                212.0568389892578,
                4504.4580078125
            ],
            [
                273.26702880859375,
                216.81874084472656,
                4604.4580078125
            ],
            [
                281.1297302246094,
                221.5823516845703,
                4704.4580078125
            ],
            [
                290.62835693359375,
                224.5881805419922,
                4804.4580078125
            ],
            [
                298.8460388183594,
                229.302978515625,
                4904.4580078125
            ],
            [
                307.22149658203125,
                234.0184783935547,
                5004.4580078125
            ],
            [
                315.76123046875,
                238.7364044189453,
                5104.4580078125
            ],
            [
                324.45709228515625,
                243.454833984375,
                5204.4580078125
            ],
            [
                333.31146240234375,
                248.1739044189453,
                5304.4580078125
            ],
            [
                342.31878662109375,
                252.89266967773438,
                5404.4580078125
            ],
            [
                351.47869873046875,
                257.6112976074219,
                5504.4580078125
            ],
            [
                360.7833557128906,
                262.33203125,
                5604.4580078125
            ],
            [
                370.23681640625,
                267.0520935058594,
                5704.4580078125
            ],
            [
                379.8344421386719,
                271.77239990234375,
                5804.4580078125
            ],
            [
                389.5666809082031,
                276.4927673339844,
                5904.4580078125
            ],
            [
                399.4389953613281,
                281.21417236328125,
                6004.4580078125
            ],
            [
                409.44207763671875,
                285.9357604980469,
                6104.4580078125
            ],
            [
                419.5727233886719,
                290.65679931640625,
                6204.4580078125
            ],
            [
                429.82733154296875,
                295.37750244140625,
                6304.4580078125
            ],
            [
                440.2002258300781,
                300.09783935546875,
                6404.4580078125
            ],
            [
                450.6884765625,
                304.81756591796875,
                6504.4580078125
            ],
            [
                461.2858581542969,
                309.5371398925781,
                6604.4580078125
            ],
            [
                471.9888916015625,
                314.2560729980469,
                6704.4580078125
            ],
            [
                482.7895812988281,
                318.9742126464844,
                6804.4580078125
            ],
            [
                493.68695068359375,
                323.6917419433594,
                6904.4580078125
            ],
            [
                504.6737365722656,
                328.4085388183594,
                7004.4580078125
            ],
            [
                515.7440185546875,
                333.12445068359375,
                7104.4580078125
            ],
            [
                526.8927001953125,
                337.8394470214844,
                7204.4580078125
            ],
            [
                538.1152954101563,
                342.55364990234375,
                7304.4580078125
            ],
            [
                549.40771484375,
                347.2671203613281,
                7404.4580078125
            ],
            [
                560.7616577148438,
                351.9798889160156,
                7504.4580078125
            ],
            [
                572.1763916015625,
                356.69189453125,
                7604.4580078125
            ],
            [
                583.6447143554688,
                361.4031982421875,
                7704.4580078125
            ],
            [
                595.1644287109375,
                366.1138610839844,
                7804.4580078125
            ],
            [
                606.73095703125,
                370.8239440917969,
                7904.4580078125
            ],
            [
                618.3400268554688,
                375.5335388183594,
                8004.4580078125
            ],
            [
                629.9891357421875,
                380.24267578125,
                8104.4580078125
            ],
            [
                641.673828125,
                384.9514465332031,
                8204.4580078125
            ],
            [
                653.3916625976563,
                389.6598815917969,
                8304.4580078125
            ],
            [
                665.1400146484375,
                394.3680419921875,
                8404.4580078125
            ],
            [
                676.9163818359375,
                399.0759582519531,
                8504.4580078125
            ],
            [
                688.717529296875,
                403.78369140625,
                8604.4580078125
            ],
            [
                700.5421752929688,
                408.49127197265625,
                8704.4580078125
            ],
            [
                712.3878784179688,
                413.19873046875,
                8804.4580078125
            ],
            [
                724.2528076171875,
                417.9061279296875,
                8904.4580078125
            ],
            [
                736.135498046875,
                422.6134948730469,
                9004.4580078125
            ],
            [
                748.0343017578125,
                427.32086181640625,
                9104.4580078125
            ],
            [
                759.94775390625,
                432.0282287597656,
                9204.4580078125
            ],
            [
                771.8745727539063,
                436.73565673828125,
                9304.4580078125
            ],
            [
                783.8134765625,
                441.443115234375,
                9404.4580078125
            ],
            [
                795.763427734375,
                446.150634765625,
                9504.4580078125
            ],
            [
                807.7234497070313,
                450.8582458496094,
                9604.4580078125
            ],
            [
                819.6925659179688,
                455.5659484863281,
                9704.4580078125
            ],
            [
                831.6699829101563,
                460.27374267578125,
                9804.4580078125
            ],
            [
                843.6549682617188,
                464.9816589355469,
                9904.4580078125
            ],
            [
                855.6467895507813,
                469.6896667480469,
                10004.4580078125
            ],
            [
                879.648681640625,
                479.10595703125,
                10204.4580078125
            ],
            [
                903.6713256835938,
                488.522705078125,
                10404.4580078125
            ],
            [
                927.7108764648438,
                497.9398193359375,
                10604.4580078125
            ],
            [
                951.7649536132813,
                507.3573303222656,
                10804.4580078125
            ],
            [
                975.8302612304688,
                516.7752075195313,
                11004.4580078125
            ],
            [
                999.9053344726563,
                526.1934204101563,
                11204.4580078125
            ],
            [
                1023.9886474609375,
                535.6119384765625,
                11404.4580078125
            ],
            [
                1048.0780029296875,
                545.0307006835938,
                11604.4580078125
            ],
            [
                1072.1727294921875,
                554.44970703125,
                11804.4580078125
            ],
            [
                1096.271484375,
                563.8689575195313,
                12004.4580078125
            ],
            [
                1120.37451171875,
                573.2883911132813,
                12204.4580078125
            ],
            [
                1144.4801025390625,
                582.7079467773438,
                12404.4580078125
            ],
            [
                1168.58740234375,
                592.127685546875,
                12604.4580078125
            ],
            [
                1192.6962890625,
                601.5475463867188,
                12804.4580078125
            ],
            [
                1216.80712890625,
                610.967529296875,
                13004.4580078125
            ],
            [
                1240.919189453125,
                620.3875122070313,
                13204.4580078125
            ],
            [
                1265.031982421875,
                629.8076171875,
                13404.4580078125
            ]
        ],
        "zFirstMeasurement": 154.0981
    },
    {
        "E": 36485.85695147154,
        "chi2": 1.077659010887146,
        "ip": 0.05528106094588899,
        "ipchi2": 9.448051388498367,
        "mass": 139.57018,
        "particleId": "pi+",
        "pvx": 0.624,
        "pvy": 0.075,
        "pvz": 33.5904,
        "px": -1346.3370777092618,
        "py": 798.8486174952129,
        "pz": 36451.98890331789,
        "q": 1.0,
        "trajectory": [
            [
                5.604946136474609,
                -2.822354316711426,
                -100.0
            ],
            [
                5.4202351570129395,
                -2.712778329849243,
                -95.0
            ],
            [
                5.235525131225586,
                -2.6032025814056396,
                -90.0
            ],
            [
                5.050816059112549,
                -2.493626832962036,
                -85.0
            ],
            [
                4.866108417510986,
                -2.3840508460998535,
                -80.0
            ],
            [
                4.68140172958374,
                -2.27447509765625,
                -75.0
            ],
            [
                4.4966959953308105,
                -2.1648993492126465,
                -70.0
            ],
            [
                4.311992168426514,
                -2.055323600769043,
                -65.0
            ],
            [
                4.127289295196533,
                -1.9457478523254395,
                -60.0
            ],
            [
                3.942587375640869,
                -1.8361722230911255,
                -55.0
            ],
            [
                3.7578771114349365,
                -1.726596474647522,
                -50.0
            ],
            [
                3.573179244995117,
                -1.6170207262039185,
                -45.0
            ],
            [
                3.3884828090667725,
                -1.5074450969696045,
                -40.0
            ],
            [
                3.2037875652313232,
                -1.397869348526001,
                -35.0
            ],
            [
                3.0190932750701904,
                -1.288293719291687,
                -30.0
            ],
            [
                2.8344004154205322,
                -1.178718090057373,
                -25.0
            ],
            [
                2.6497085094451904,
                -1.069142460823059,
                -20.0
            ],
            [
                2.4650180339813232,
                -0.9595668911933899,
                -15.0
            ],
            [
                2.2803289890289307,
                -0.8499912619590759,
                -10.0
            ],
            [
                2.0956408977508545,
                -0.7404156923294067,
                -5.0
            ],
            [
                1.9109543561935425,
                -0.6308401226997375,
                0.0
            ],
            [
                1.7262691259384155,
                -0.5212645530700684,
                5.0
            ],
            [
                1.5415852069854736,
                -0.41168898344039917,
                10.0
            ],
            [
                1.3569027185440063,
                -0.30211344361305237,
                15.0
            ],
            [
                1.1722216606140137,
                -0.19253793358802795,
                20.0
            ],
            [
                0.9875420928001404,
                -0.08296241611242294,
                25.0
            ],
            [
                0.8028639554977417,
                0.026613080874085426,
                30.0
            ],
            [
                0.6181873083114624,
                0.1361885666847229,
                35.0
            ],
            [
                0.43351221084594727,
                0.24576403200626373,
                40.0
            ],
            [
                0.2488386332988739,
                0.35533949732780457,
                45.0
            ],
            [
                0.06416665017604828,
                0.4649149477481842,
                50.0
            ],
            [
                -0.1205037459731102,
                0.5744903683662415,
                55.0
            ],
            [
                -0.30517250299453735,
                0.6840657591819763,
                60.0
            ],
            [
                -0.489839643239975,
                0.793641209602356,
                65.0
            ],
            [
                -0.6745051145553589,
                0.9032166004180908,
                70.0
            ],
            [
                -0.8591688275337219,
                1.0127919912338257,
                75.0
            ],
            [
                -1.0438308715820313,
                1.1223673820495605,
                80.0
            ],
            [
                -1.228491187095642,
                1.2319426536560059,
                85.0
            ],
            [
                -1.4131497144699097,
                1.3415180444717407,
                90.0
            ],
            [
                -1.5978063344955444,
                1.451093316078186,
                95.0
            ],
            [
                -1.7824612855911255,
                1.560668706893921,
                100.0
            ],
            [
                -2.521062135696411,
                1.9989697933197021,
                120.0
            ],
            [
                -3.259629487991333,
                2.43721342086792,
                140.0
            ],
            [
                -3.9981675148010254,
                2.875514268875122,
                160.0
            ],
            [
                -4.736675262451172,
                3.313814878463745,
                180.0
            ],
            [
                -5.475151538848877,
                3.75211501121521,
                200.0
            ],
            [
                -6.213594436645508,
                4.190415382385254,
                220.0
            ],
            [
                -6.952001094818115,
                4.628715515136719,
                240.0
            ],
            [
                -7.690369606018066,
                5.067015171051025,
                260.0
            ],
            [
                -8.428698539733887,
                5.505314826965332,
                280.0
            ],
            [
                -9.166984558105469,
                5.943614482879639,
                300.0
            ],
            [
                -9.90522575378418,
                6.381913661956787,
                320.0
            ],
            [
                -10.643440246582031,
                6.8202128410339355,
                340.0
            ],
            [
                -11.381599426269531,
                7.258512020111084,
                360.0
            ],
            [
                -12.119710922241211,
                7.696810722351074,
                380.0
            ],
            [
                -12.85777473449707,
                8.135109901428223,
                400.0
            ],
            [
                -13.59578800201416,
                8.573408126831055,
                420.0
            ],
            [
                -14.333749771118164,
                9.011707305908203,
                440.0
            ],
            [
                -15.07165813446045,
                9.450005531311035,
                460.0
            ],
            [
                -15.809511184692383,
                9.888303756713867,
                480.0
            ],
            [
                -16.547306060791016,
                10.3266019821167,
                500.0
            ],
            [
                -17.28504180908203,
                10.764900207519531,
                520.0
            ],
            [
                -18.0227108001709,
                11.203198432922363,
                540.0
            ],
            [
                -18.760318756103516,
                11.641496658325195,
                560.0
            ],
            [
                -19.497859954833984,
                12.079794883728027,
                580.0
            ],
            [
                -20.235334396362305,
                12.51809310913086,
                600.0
            ],
            [
                -20.97273826599121,
                12.956391334533691,
                620.0
            ],
            [
                -21.710071563720703,
                13.394689559936523,
                640.0
            ],
            [
                -22.44733238220215,
                13.832987785339355,
                660.0
            ],
            [
                -23.184518814086914,
                14.271286010742188,
                680.0
            ],
            [
                -23.92161750793457,
                14.709583282470703,
                700.0
            ],
            [
                -24.65863800048828,
                15.147881507873535,
                720.0
            ],
            [
                -25.39557647705078,
                15.58617877960205,
                740.0
            ],
            [
                -26.132431030273438,
                16.024477005004883,
                760.0
            ],
            [
                -26.869199752807617,
                16.4627742767334,
                780.0
            ],
            [
                -27.605880737304688,
                16.901071548461914,
                800.0
            ],
            [
                -28.342451095581055,
                17.339370727539063,
                820.0
            ],
            [
                -29.078927993774414,
                17.777667999267578,
                840.0
            ],
            [
                -29.815298080444336,
                18.215967178344727,
                860.0
            ],
            [
                -30.551563262939453,
                18.654266357421875,
                880.0
            ],
            [
                -31.287723541259766,
                19.092567443847656,
                900.0
            ],
            [
                -32.0237922668457,
                19.530868530273438,
                920.0
            ],
            [
                -32.7597541809082,
                19.96916961669922,
                940.0
            ],
            [
                -33.49560546875,
                20.407470703125,
                960.0
            ],
            [
                -34.23134994506836,
                20.84577178955078,
                980.0
            ],
            [
                -34.96697998046875,
                21.284074783325195,
                1000.0
            ],
            [
                -38.643653869628906,
                23.475584030151367,
                1100.0
            ],
            [
                -42.317291259765625,
                25.667095184326172,
                1200.0
            ],
            [
                -45.987396240234375,
                27.858644485473633,
                1300.0
            ],
            [
                -49.6550407409668,
                30.05018424987793,
                1400.0
            ],
            [
                -53.31996154785156,
                32.24173355102539,
                1500.0
            ],
            [
                -56.98175048828125,
                34.43330001831055,
                1600.0
            ],
            [
                -60.6403923034668,
                36.62487030029297,
                1700.0
            ],
            [
                -64.29574584960938,
                38.816436767578125,
                1800.0
            ],
            [
                -67.94760131835938,
                41.007991790771484,
                1900.0
            ],
            [
                -71.59463500976563,
                43.19953536987305,
                2000.0
            ],
            [
                -75.23719024658203,
                45.391056060791016,
                2100.0
            ],
            [
                -78.87382507324219,
                47.58255386352539,
                2200.0
            ],
            [
                -82.50149536132813,
                49.77406692504883,
                2300.0
            ],
            [
                -86.12178039550781,
                51.96553039550781,
                2400.0
            ],
            [
                -89.72975158691406,
                54.156959533691406,
                2500.0
            ],
            [
                -93.32594299316406,
                56.348331451416016,
                2600.0
            ],
            [
                -96.90680694580078,
                58.53964614868164,
                2700.0
            ],
            [
                -100.46961975097656,
                60.730892181396484,
                2800.0
            ],
            [
                -104.00994873046875,
                62.92204666137695,
                2900.0
            ],
            [
                -107.52417755126953,
                65.11309051513672,
                3000.0
            ],
            [
                -111.0102310180664,
                67.30403137207031,
                3100.0
            ],
            [
                -114.46430969238281,
                69.49481201171875,
                3200.0
            ],
            [
                -117.87256622314453,
                71.6854248046875,
                3300.0
            ],
            [
                -121.2419204711914,
                73.8758773803711,
                3400.0
            ],
            [
                -124.56171417236328,
                76.06612396240234,
                3500.0
            ],
            [
                -127.83076477050781,
                78.25613403320313,
                3600.0
            ],
            [
                -131.04037475585938,
                80.44609832763672,
                3700.0
            ],
            [
                -134.19017028808594,
                82.63584899902344,
                3800.0
            ],
            [
                -137.2693328857422,
                84.82530212402344,
                3900.0
            ],
            [
                -140.28338623046875,
                87.01470947265625,
                4000.0
            ],
            [
                -143.21620178222656,
                89.20413970947266,
                4100.0
            ],
            [
                -146.07415771484375,
                91.39366912841797,
                4200.0
            ],
            [
                -148.84344482421875,
                93.58302307128906,
                4300.0
            ],
            [
                -151.53721618652344,
                95.7723617553711,
                4400.0
            ],
            [
                -154.1455841064453,
                97.96186065673828,
                4500.0
            ],
            [
                -156.6654510498047,
                100.15159606933594,
                4600.0
            ],
            [
                -159.10577392578125,
                102.34136962890625,
                4700.0
            ],
            [
                -161.45440673828125,
                104.53095245361328,
                4800.0
            ],
            [
                -162.90911865234375,
                106.84889221191406,
                4900.0
            ],
            [
                -165.0445556640625,
                109.04778289794922,
                5000.0
            ],
            [
                -167.09317016601563,
                111.24720764160156,
                5100.0
            ],
            [
                -169.05836486816406,
                113.4466552734375,
                5200.0
            ],
            [
                -170.9391632080078,
                115.64649963378906,
                5300.0
            ],
            [
                -172.73875427246094,
                117.84603881835938,
                5400.0
            ],
            [
                -174.45803833007813,
                120.04551696777344,
                5500.0
            ],
            [
                -176.10009765625,
                122.24578094482422,
                5600.0
            ],
            [
                -177.66278076171875,
                124.44590759277344,
                5700.0
            ],
            [
                -179.14930725097656,
                126.64630889892578,
                5800.0
            ],
            [
                -180.5645294189453,
                128.84693908691406,
                5900.0
            ],
            [
                -181.90597534179688,
                131.04795837402344,
                6000.0
            ],
            [
                -183.1779022216797,
                133.24923706054688,
                6100.0
            ],
            [
                -184.38223266601563,
                135.4505615234375,
                6200.0
            ],
            [
                -185.5213623046875,
                137.65203857421875,
                6300.0
            ],
            [
                -186.59786987304688,
                139.85365295410156,
                6400.0
            ],
            [
                -187.61329650878906,
                142.0552520751953,
                6500.0
            ],
            [
                -188.57139587402344,
                144.25711059570313,
                6600.0
            ],
            [
                -189.4735107421875,
                146.45913696289063,
                6700.0
            ],
            [
                -190.3238983154297,
                148.6612548828125,
                6800.0
            ],
            [
                -191.12318420410156,
                150.86343383789063,
                6900.0
            ],
            [
                -191.87506103515625,
                153.0657196044922,
                7000.0
            ],
            [
                -192.5825958251953,
                155.26809692382813,
                7100.0
            ],
            [
                -193.24847412109375,
                157.47055053710938,
                7200.0
            ],
            [
                -193.87493896484375,
                159.67311096191406,
                7300.0
            ],
            [
                -194.46389770507813,
                161.875732421875,
                7400.0
            ],
            [
                -195.01980590820313,
                164.07847595214844,
                7500.0
            ],
            [
                -195.54336547851563,
                166.28131103515625,
                7600.0
            ],
            [
                -196.03787231445313,
                168.4842529296875,
                7700.0
            ],
            [
                -196.50457763671875,
                170.68731689453125,
                7800.0
            ],
            [
                -196.94581604003906,
                172.89048767089844,
                7900.0
            ],
            [
                -197.3638458251953,
                175.09378051757813,
                8000.0
            ],
            [
                -197.7598876953125,
                177.29718017578125,
                8100.0
            ],
            [
                -198.1364288330078,
                179.5006866455078,
                8200.0
            ],
            [
                -198.49468994140625,
                181.70428466796875,
                8300.0
            ],
            [
                -198.8360595703125,
                183.90797424316406,
                8400.0
            ],
            [
                -199.16189575195313,
                186.1117401123047,
                8500.0
            ],
            [
                -199.47393798828125,
                188.31558227539063,
                8600.0
            ],
            [
                -199.77291870117188,
                190.5194854736328,
                8700.0
            ],
            [
                -200.06004333496094,
                192.72344970703125,
                8800.0
            ],
            [
                -200.33639526367188,
                194.92745971679688,
                8900.0
            ],
            [
                -200.60276794433594,
                197.13153076171875,
                9000.0
            ],
            [
                -200.86001586914063,
                199.33566284179688,
                9100.0
            ],
            [
                -201.10899353027344,
                201.53982543945313,
                9200.0
            ],
            [
                -201.3503875732422,
                203.74403381347656,
                9300.0
            ],
            [
                -201.58485412597656,
                205.94827270507813,
                9400.0
            ],
            [
                -201.8130340576172,
                208.1525421142578,
                9500.0
            ],
            [
                -202.03546142578125,
                210.35684204101563,
                9600.0
            ],
            [
                -202.2526397705078,
                212.5611572265625,
                9700.0
            ],
            [
                -202.4650115966797,
                214.7655029296875,
                9800.0
            ],
            [
                -202.67306518554688,
                216.96986389160156,
                9900.0
            ],
            [
                -202.8771209716797,
                219.1742401123047,
                10000.0
            ],
            [
                -203.27468872070313,
                223.58303833007813,
                10200.0
            ],
            [
                -203.66014099121094,
                227.9918670654297,
                10400.0
            ],
            [
                -204.03565979003906,
                232.4007110595703,
                10600.0
            ],
            [
                -204.40267944335938,
                236.80958557128906,
                10800.0
            ],
            [
                -204.7630157470703,
                241.2184600830078,
                11000.0
            ],
            [
                -205.11756896972656,
                245.62733459472656,
                11200.0
            ],
            [
                -205.4672088623047,
                250.0362091064453,
                11400.0
            ],
            [
                -205.81317138671875,
                254.445068359375,
                11600.0
            ],
            [
                -206.15589904785156,
                258.8539123535156,
                11800.0
            ],
            [
                -206.49615478515625,
                263.26275634765625,
                12000.0
            ],
            [
                -206.83387756347656,
                267.6716003417969,
                12200.0
            ],
            [
                -207.16993713378906,
                272.0804443359375,
                12400.0
            ],
            [
                -207.50498962402344,
                276.4892578125,
                12600.0
            ],
            [
                -207.8389892578125,
                280.8980407714844,
                12800.0
            ],
            [
                -208.1718292236328,
                285.3068542480469,
                13000.0
            ],
            [
                -208.50384521484375,
                289.71563720703125,
                13200.0
            ],
            [
                -208.83546447753906,
                294.12445068359375,
                13400.0
            ]
        ],
        "zFirstMeasurement": 229.2578
    },
    {
        "E": 63788.49269100772,
        "chi2": 1.070930004119873,
        "ip": 0.11163095100779687,
        "ipchi2": 7.178197849460605,
        "mass": 139.57018,
        "particleId": "pi-",
        "pvx": 0.624,
        "pvy": 0.075,
        "pvz": 33.5904,
        "px": -968.0328815795085,
        "py": -590.0560972619437,
        "pz": 63778.26484075797,
        "q": -1.0,
        "trajectory": [
            [
                2.543058395385742,
                1.3386307954788208,
                -100.0
            ],
            [
                2.467193603515625,
                1.2923721075057983,
                -95.0
            ],
            [
                2.3913280963897705,
                1.2461134195327759,
                -90.0
            ],
            [
                2.315462112426758,
                1.1998546123504639,
                -85.0
            ],
            [
                2.2395951747894287,
                1.1535959243774414,
                -80.0
            ],
            [
                2.1637277603149414,
                1.1073373556137085,
                -75.0
            ],
            [
                2.087859630584717,
                1.061078667640686,
                -70.0
            ],
            [
                2.011990785598755,
                1.0148199796676636,
                -65.0
            ],
            [
                1.9361212253570557,
                0.9685613512992859,
                -60.0
            ],
            [
                1.8602510690689087,
                0.9223026633262634,
                -55.0
            ],
            [
                1.7843800783157349,
                0.8760440349578857,
                -50.0
            ],
            [
                1.7085083723068237,
                0.8297854661941528,
                -45.0
            ],
            [
                1.6326359510421753,
                0.7835268378257751,
                -40.0
            ],
            [
                1.5567626953125,
                0.7372682094573975,
                -35.0
            ],
            [
                1.4808943271636963,
                0.6910096406936646,
                -30.0
            ],
            [
                1.4050188064575195,
                0.6447510719299316,
                -25.0
            ],
            [
                1.3291425704956055,
                0.5984925031661987,
                -20.0
            ],
            [
                1.253265619277954,
                0.5522339344024658,
                -15.0
            ],
            [
                1.177388072013855,
                0.5059754252433777,
                -10.0
            ],
            [
                1.101509690284729,
                0.4597168564796448,
                -5.0
            ],
            [
                1.0256307125091553,
                0.41345834732055664,
                0.0
            ],
            [
                0.9497508406639099,
                0.3671998083591461,
                5.0
            ],
            [
                0.8738702535629272,
                0.320941299200058,
                10.0
            ],
            [
                0.7979889512062073,
                0.27468281984329224,
                15.0
            ],
            [
                0.7221068143844604,
                0.2284243106842041,
                20.0
            ],
            [
                0.6462238430976868,
                0.18216583132743835,
                25.0
            ],
            [
                0.570340096950531,
                0.1359073668718338,
                30.0
            ],
            [
                0.494455486536026,
                0.08964890241622925,
                35.0
            ],
            [
                0.41857007145881653,
                0.04339044913649559,
                40.0
            ],
            [
                0.3426837623119354,
                -0.002867995761334896,
                45.0
            ],
            [
                0.2667965888977051,
                -0.049126431345939636,
                50.0
            ],
            [
                0.1909085363149643,
                -0.0953848585486412,
                55.0
            ],
            [
                0.11501956731081009,
                -0.14164327085018158,
                60.0
            ],
            [
                0.03912968561053276,
                -0.18790167570114136,
                65.0
            ],
            [
                -0.03676112741231918,
                -0.23416008055210114,
                70.0
            ],
            [
                -0.11265289038419724,
                -0.2804184556007385,
                75.0
            ],
            [
                -0.1885455995798111,
                -0.3266768455505371,
                80.0
            ],
            [
                -0.26443931460380554,
                -0.3729352056980133,
                85.0
            ],
            [
                -0.3403339684009552,
                -0.4191935658454895,
                90.0
            ],
            [
                -0.41622966527938843,
                -0.4654519259929657,
                95.0
            ],
            [
                -0.49212637543678284,
                -0.5117102861404419,
                100.0
            ],
            [
                -0.7957236170768738,
                -0.6967435479164124,
                120.0
            ],
            [
                -1.099338412284851,
                -0.8817766308784485,
                140.0
            ],
            [
                -1.4029724597930908,
                -1.0668096542358398,
                160.0
            ],
            [
                -1.7066154479980469,
                -1.2518424987792969,
                180.0
            ],
            [
                -2.0102837085723877,
                -1.4368752241134644,
                200.0
            ],
            [
                -2.313971757888794,
                -1.6219078302383423,
                220.0
            ],
            [
                -2.617680549621582,
                -1.8069403171539307,
                240.0
            ],
            [
                -2.9214107990264893,
                -1.9919726848602295,
                260.0
            ],
            [
                -3.225162982940674,
                -2.177004814147949,
                280.0
            ],
            [
                -3.5289387702941895,
                -2.362037181854248,
                300.0
            ],
            [
                -3.8327388763427734,
                -2.5470690727233887,
                320.0
            ],
            [
                -4.136574745178223,
                -2.7321605682373047,
                340.0
            ],
            [
                -4.440425395965576,
                -2.9171924591064453,
                360.0
            ],
            [
                -4.744301795959473,
                -3.102224349975586,
                380.0
            ],
            [
                -5.048205375671387,
                -3.2872560024261475,
                400.0
            ],
            [
                -5.352138042449951,
                -3.472287654876709,
                420.0
            ],
            [
                -5.656100273132324,
                -3.6573193073272705,
                440.0
            ],
            [
                -5.9600934982299805,
                -3.842350959777832,
                460.0
            ],
            [
                -6.264118194580078,
                -4.0273823738098145,
                480.0
            ],
            [
                -6.56816291809082,
                -4.212413787841797,
                500.0
            ],
            [
                -6.872260570526123,
                -4.397445201873779,
                520.0
            ],
            [
                -7.176391124725342,
                -4.58247709274292,
                540.0
            ],
            [
                -7.480556488037109,
                -4.767508506774902,
                560.0
            ],
            [
                -7.784758567810059,
                -4.952539920806885,
                580.0
            ],
            [
                -8.088998794555664,
                -5.137571334838867,
                600.0
            ],
            [
                -8.393279075622559,
                -5.32260274887085,
                620.0
            ],
            [
                -8.697602272033691,
                -5.507634162902832,
                640.0
            ],
            [
                -9.001970291137695,
                -5.6926655769348145,
                660.0
            ],
            [
                -9.306384086608887,
                -5.877696990966797,
                680.0
            ],
            [
                -9.610832214355469,
                -6.062728404998779,
                700.0
            ],
            [
                -9.915334701538086,
                -6.24776029586792,
                720.0
            ],
            [
                -10.219886779785156,
                -6.4327921867370605,
                740.0
            ],
            [
                -10.524487495422363,
                -6.617824077606201,
                760.0
            ],
            [
                -10.829140663146973,
                -6.802855968475342,
                780.0
            ],
            [
                -11.133845329284668,
                -6.987888336181641,
                800.0
            ],
            [
                -11.438603401184082,
                -7.1729207038879395,
                820.0
            ],
            [
                -11.743417739868164,
                -7.357953071594238,
                840.0
            ],
            [
                -12.048287391662598,
                -7.542985916137695,
                860.0
            ],
            [
                -12.353215217590332,
                -7.728018760681152,
                880.0
            ],
            [
                -12.658202171325684,
                -7.913052082061768,
                900.0
            ],
            [
                -12.963248252868652,
                -8.098085403442383,
                920.0
            ],
            [
                -13.268355369567871,
                -8.283119201660156,
                940.0
            ],
            [
                -13.573521614074707,
                -8.468152046203613,
                960.0
            ],
            [
                -13.878751754760742,
                -8.653185844421387,
                980.0
            ],
            [
                -14.184045791625977,
                -8.83821964263916,
                1000.0
            ],
            [
                -15.711492538452148,
                -9.763391494750977,
                1100.0
            ],
            [
                -17.2406005859375,
                -10.688567161560059,
                1200.0
            ],
            [
                -18.77142906188965,
                -11.613747596740723,
                1300.0
            ],
            [
                -20.303922653198242,
                -12.538930892944336,
                1400.0
            ],
            [
                -21.83820915222168,
                -13.464117050170898,
                1500.0
            ],
            [
                -23.373756408691406,
                -14.389313697814941,
                1600.0
            ],
            [
                -24.911291122436523,
                -15.314509391784668,
                1700.0
            ],
            [
                -26.450843811035156,
                -16.239707946777344,
                1800.0
            ],
            [
                -27.992656707763672,
                -17.164913177490234,
                1900.0
            ],
            [
                -29.536823272705078,
                -18.09012222290039,
                2000.0
            ],
            [
                -31.08384132385254,
                -19.015336990356445,
                2100.0
            ],
            [
                -32.6345329284668,
                -19.940563201904297,
                2200.0
            ],
            [
                -34.189640045166016,
                -20.86580467224121,
                2300.0
            ],
            [
                -35.749610900878906,
                -21.79106330871582,
                2400.0
            ],
            [
                -37.315948486328125,
                -22.71634292602539,
                2500.0
            ],
            [
                -38.889522552490234,
                -23.641666412353516,
                2600.0
            ],
            [
                -40.47140121459961,
                -24.567007064819336,
                2700.0
            ],
            [
                -42.06471252441406,
                -25.492389678955078,
                2800.0
            ],
            [
                -43.67056655883789,
                -26.41781234741211,
                2900.0
            ],
            [
                -45.290863037109375,
                -27.343278884887695,
                3000.0
            ],
            [
                -46.928924560546875,
                -28.268775939941406,
                3100.0
            ],
            [
                -48.585941314697266,
                -29.194290161132813,
                3200.0
            ],
            [
                -50.26445007324219,
                -30.119836807250977,
                3300.0
            ],
            [
                -51.96752166748047,
                -31.045421600341797,
                3400.0
            ],
            [
                -53.69877624511719,
                -31.971036911010742,
                3500.0
            ],
            [
                -55.46005630493164,
                -32.89672088623047,
                3600.0
            ],
            [
                -57.25540542602539,
                -33.82246780395508,
                3700.0
            ],
            [
                -59.084739685058594,
                -34.74823760986328,
                3800.0
            ],
            [
                -60.95341873168945,
                -35.67411804199219,
                3900.0
            ],
            [
                -62.8637580871582,
                -36.60009765625,
                4000.0
            ],
            [
                -64.81771087646484,
                -37.52618408203125,
                4100.0
            ],
            [
                -66.81407928466797,
                -38.45234298706055,
                4200.0
            ],
            [
                -68.85418701171875,
                -39.378570556640625,
                4300.0
            ],
            [
                -70.94265747070313,
                -40.3049430847168,
                4400.0
            ],
            [
                -73.08325958251953,
                -41.23139190673828,
                4500.0
            ],
            [
                -75.26921081542969,
                -42.157989501953125,
                4600.0
            ],
            [
                -77.50487518310547,
                -43.084739685058594,
                4700.0
            ],
            [
                -79.79058837890625,
                -44.011653900146484,
                4800.0
            ],
            [
                -82.12863159179688,
                -44.938690185546875,
                4900.0
            ],
            [
                -84.5137710571289,
                -45.86581802368164,
                5000.0
            ],
            [
                -87.1013412475586,
                -47.076541900634766,
                5100.0
            ],
            [
                -89.58634185791016,
                -48.01321792602539,
                5200.0
            ],
            [
                -92.11942291259766,
                -48.950191497802734,
                5300.0
            ],
            [
                -94.6989974975586,
                -49.887020111083984,
                5400.0
            ],
            [
                -97.3246841430664,
                -50.82373046875,
                5500.0
            ],
            [
                -99.99436950683594,
                -51.76089859008789,
                5600.0
            ],
            [
                -102.7094497680664,
                -52.69800567626953,
                5700.0
            ],
            [
                -105.46806335449219,
                -53.63530731201172,
                5800.0
            ],
            [
                -108.26753234863281,
                -54.57271194458008,
                5900.0
            ],
            [
                -111.1091537475586,
                -55.51026153564453,
                6000.0
            ],
            [
                -113.99037170410156,
                -56.44797134399414,
                6100.0
            ],
            [
                -116.91022491455078,
                -57.3857307434082,
                6200.0
            ],
            [
                -119.867431640625,
                -58.323509216308594,
                6300.0
            ],
            [
                -122.86045837402344,
                -59.2613410949707,
                6400.0
            ],
            [
                -125.88835906982422,
                -60.19917297363281,
                6500.0
            ],
            [
                -128.9490203857422,
                -61.13709259033203,
                6600.0
            ],
            [
                -132.04173278808594,
                -62.0750846862793,
                6700.0
            ],
            [
                -135.1640167236328,
                -63.01312255859375,
                6800.0
            ],
            [
                -138.3155059814453,
                -63.95115280151367,
                6900.0
            ],
            [
                -141.4940948486328,
                -64.88921356201172,
                7000.0
            ],
            [
                -144.6980743408203,
                -65.8272933959961,
                7100.0
            ],
            [
                -147.9259033203125,
                -66.7654037475586,
                7200.0
            ],
            [
                -151.17633056640625,
                -67.70355224609375,
                7300.0
            ],
            [
                -154.44822692871094,
                -68.64170837402344,
                7400.0
            ],
            [
                -157.7390594482422,
                -69.57992553710938,
                7500.0
            ],
            [
                -161.0484619140625,
                -70.5181655883789,
                7600.0
            ],
            [
                -164.37457275390625,
                -71.45645141601563,
                7700.0
            ],
            [
                -167.71665954589844,
                -72.3947982788086,
                7800.0
            ],
            [
                -171.07339477539063,
                -73.33319091796875,
                7900.0
            ],
            [
                -174.4434814453125,
                -74.27163696289063,
                8000.0
            ],
            [
                -177.8262481689453,
                -75.21014404296875,
                8100.0
            ],
            [
                -181.2202606201172,
                -76.1487045288086,
                8200.0
            ],
            [
                -184.6248016357422,
                -77.08731842041016,
                8300.0
            ],
            [
                -188.03907775878906,
                -78.02598571777344,
                8400.0
            ],
            [
                -191.4623260498047,
                -78.96469116210938,
                8500.0
            ],
            [
                -194.89353942871094,
                -79.90345001220703,
                8600.0
            ],
            [
                -198.33229064941406,
                -80.84223937988281,
                8700.0
            ],
            [
                -201.77789306640625,
                -81.78107452392578,
                8800.0
            ],
            [
                -205.22970581054688,
                -82.71994018554688,
                8900.0
            ],
            [
                -208.6873016357422,
                -83.65884399414063,
                9000.0
            ],
            [
                -212.150146484375,
                -84.5977783203125,
                9100.0
            ],
            [
                -215.61778259277344,
                -85.53675079345703,
                9200.0
            ],
            [
                -219.0897979736328,
                -86.47574615478516,
                9300.0
            ],
            [
                -222.56581115722656,
                -87.41477966308594,
                9400.0
            ],
            [
                -226.0454559326172,
                -88.35382843017578,
                9500.0
            ],
            [
                -229.5284423828125,
                -89.29290771484375,
                9600.0
            ],
            [
                -233.0144500732422,
                -90.23200988769531,
                9700.0
            ],
            [
                -236.50323486328125,
                -91.17112731933594,
                9800.0
            ],
            [
                -239.99452209472656,
                -92.11026763916016,
                9900.0
            ],
            [
                -243.4881134033203,
                -93.04943084716797,
                10000.0
            ],
            [
                -250.48141479492188,
                -94.92779541015625,
                10200.0
            ],
            [
                -257.4817199707031,
                -96.80621337890625,
                10400.0
            ],
            [
                -264.4877624511719,
                -98.68467712402344,
                10600.0
            ],
            [
                -271.4987487792969,
                -100.56317901611328,
                10800.0
            ],
            [
                -278.5135803222656,
                -102.44171142578125,
                11000.0
            ],
            [
                -285.53173828125,
                -104.32026672363281,
                11200.0
            ],
            [
                -292.5527648925781,
                -106.19884490966797,
                11400.0
            ],
            [
                -299.575927734375,
                -108.07743835449219,
                11600.0
            ],
            [
                -306.6009216308594,
                -109.95604705810547,
                11800.0
            ],
            [
                -313.62738037109375,
                -111.83466339111328,
                12000.0
            ],
            [
                -320.6553039550781,
                -113.71328735351563,
                12200.0
            ],
            [
                -327.6841735839844,
                -115.59191131591797,
                12400.0
            ],
            [
                -334.713623046875,
                -117.47055053710938,
                12600.0
            ],
            [
                -341.7436828613281,
                -119.34918212890625,
                12800.0
            ],
            [
                -348.7744140625,
                -121.22782135009766,
                13000.0
            ],
            [
                -355.80560302734375,
                -123.1064682006836,
                13200.0
            ],
            [
                -362.8370361328125,
                -124.985107421875,
                13400.0
            ]
        ],
        "zFirstMeasurement": 599.2573
    }
]
