[
    {
        "E": 139615.54100745116,
        "chi2": 0.0,
        "ip": 0.03845392404578337,
        "ipchi2": 1.5046455604279072,
        "mass": 1836.661,
        "particleId": "D0",
        "pvx": 0.6116,
        "pvy": 0.1035,
        "pvz": 11.7674,
        "px": 2180.5,
        "py": 1514.82,
        "pz": 139578.21,
        "q": 0.0,
        "trajectory": [
            [
                0.6115999817848206,
                0.10350000113248825,
                11.767399787902832
            ],
            [
                0.6858999729156494,
                0.12610000371932983,
                17.239999771118164
            ]
        ],
        "zFirstMeasurement": -9999.0
    },
    {
        "E": 44579.44863236486,
        "chi2": 0.5859248638153076,
        "ip": 0.09277301092908904,
        "ipchi2": 7.636349000350446,
        "mass": 493.677,
        "particleId": "K-",
        "pvx": 0.6116,
        "pvy": 0.1035,
        "pvz": 11.7674,
        "px": 1359.57,
        "py": 135.84,
        "pz": 44555.77,
        "q": -1.0,
        "trajectory": [
            [
                0.6859646439552307,
                0.1262088119983673,
                17.239999771118164
            ],
            [
                0.8385274410247803,
                0.14145323634147644,
                22.239999771118164
            ],
            [
                0.9910889267921448,
                0.15669766068458557,
                27.239999771118164
            ],
            [
                1.1436492204666138,
                0.17194212973117828,
                32.2400016784668
            ],
            [
                1.296208143234253,
                0.1871866136789322,
                37.2400016784668
            ],
            [
                1.448765754699707,
                0.2024311125278473,
                42.2400016784668
            ],
            [
                1.601322054862976,
                0.21767564117908478,
                47.2400016784668
            ],
            [
                1.7538769245147705,
                0.23292018473148346,
                52.2400016784668
            ],
            [
                1.9064304828643799,
                0.24816474318504333,
                57.2400016784668
            ],
            [
                2.0589826107025146,
                0.2634093463420868,
                62.2400016784668
            ],
            [
                2.211533308029175,
                0.27865394949913025,
                67.23999786376953
            ],
            [
                2.3640825748443604,
                0.2938985824584961,
                72.23999786376953
            ],
            [
                2.5166304111480713,
                0.3091432452201843,
                77.23999786376953
            ],
            [
                2.6691765785217285,
                0.32438793778419495,
                82.23999786376953
            ],
            [
                2.821721315383911,
                0.33963263034820557,
                87.23999786376953
            ],
            [
                2.974264621734619,
                0.3548773527145386,
                92.23999786376953
            ],
            [
                3.1268162727355957,
                0.37012210488319397,
                97.23999786376953
            ],
            [
                3.279358148574829,
                0.38536685705184937,
                102.23999786376953
            ],
            [
                3.889510154724121,
                0.44634613394737244,
                122.23999786376953
            ],
            [
                4.499638080596924,
                0.5073257684707642,
                142.24000549316406
            ],
            [
                5.1097412109375,
                0.5683057308197021,
                162.24000549316406
            ],
            [
                5.719817638397217,
                0.6292860507965088,
                182.24000549316406
            ],
            [
                6.329866409301758,
                0.6902667284011841,
                202.24000549316406
            ],
            [
                6.939927101135254,
                0.7512900233268738,
                222.24000549316406
            ],
            [
                7.549917697906494,
                0.8122713565826416,
                242.24000549316406
            ],
            [
                8.15987777709961,
                0.8732529878616333,
                262.239990234375
            ],
            [
                8.769804954528809,
                0.9342349767684937,
                282.239990234375
            ],
            [
                9.37969970703125,
                0.9952172636985779,
                302.239990234375
            ],
            [
                9.989559173583984,
                1.0561997890472412,
                322.239990234375
            ],
            [
                10.599394798278809,
                1.117182731628418,
                342.239990234375
            ],
            [
                11.209175109863281,
                1.1781657934188843,
                362.239990234375
            ],
            [
                11.818920135498047,
                1.2391492128372192,
                382.239990234375
            ],
            [
                12.42862606048584,
                1.3001328706741333,
                402.239990234375
            ],
            [
                13.03829288482666,
                1.361116886138916,
                422.239990234375
            ],
            [
                13.647917747497559,
                1.4221010208129883,
                442.239990234375
            ],
            [
                14.257498741149902,
                1.4830853939056396,
                462.239990234375
            ],
            [
                14.867032051086426,
                1.5440700054168701,
                482.239990234375
            ],
            [
                15.476515769958496,
                1.6050548553466797,
                502.239990234375
            ],
            [
                16.085948944091797,
                1.6660399436950684,
                522.239990234375
            ],
            [
                16.695348739624023,
                1.7270252704620361,
                542.239990234375
            ],
            [
                17.304683685302734,
                1.788010835647583,
                562.239990234375
            ],
            [
                17.913965225219727,
                1.8489965200424194,
                582.239990234375
            ],
            [
                18.523189544677734,
                1.9099823236465454,
                602.239990234375
            ],
            [
                19.132356643676758,
                1.970968246459961,
                622.239990234375
            ],
            [
                19.741464614868164,
                2.031954288482666,
                642.239990234375
            ],
            [
                20.350509643554688,
                2.09294056892395,
                662.239990234375
            ],
            [
                20.959489822387695,
                2.1539270877838135,
                682.239990234375
            ],
            [
                21.568403244018555,
                2.2149133682250977,
                702.239990234375
            ],
            [
                22.177248001098633,
                2.275899887084961,
                722.239990234375
            ],
            [
                22.786020278930664,
                2.336885929107666,
                742.239990234375
            ],
            [
                23.39472007751465,
                2.397871971130371,
                762.239990234375
            ],
            [
                24.003345489501953,
                2.458857774734497,
                782.239990234375
            ],
            [
                24.611894607543945,
                2.519843816757202,
                802.239990234375
            ],
            [
                25.220367431640625,
                2.580829381942749,
                822.239990234375
            ],
            [
                25.828758239746094,
                2.641814947128296,
                842.239990234375
            ],
            [
                26.43706703186035,
                2.7028002738952637,
                862.239990234375
            ],
            [
                27.0452938079834,
                2.7637858390808105,
                882.239990234375
            ],
            [
                27.6534423828125,
                2.8247718811035156,
                902.239990234375
            ],
            [
                28.26150894165039,
                2.8857579231262207,
                922.239990234375
            ],
            [
                28.869487762451172,
                2.9467437267303467,
                942.239990234375
            ],
            [
                29.477378845214844,
                3.0077297687530518,
                962.239990234375
            ],
            [
                30.085176467895508,
                3.0687155723571777,
                982.239990234375
            ],
            [
                30.692874908447266,
                3.129699468612671,
                1002.239990234375
            ],
            [
                33.72995376586914,
                3.4346120357513428,
                1102.239990234375
            ],
            [
                36.7645149230957,
                3.739513397216797,
                1202.239990234375
            ],
            [
                39.79656982421875,
                4.044400691986084,
                1302.239990234375
            ],
            [
                42.82613754272461,
                4.349294185638428,
                1402.239990234375
            ],
            [
                45.854400634765625,
                4.654254913330078,
                1502.239990234375
            ],
            [
                48.879459381103516,
                4.959153652191162,
                1602.239990234375
            ],
            [
                51.901878356933594,
                5.264041423797607,
                1702.239990234375
            ],
            [
                54.92167663574219,
                5.568923473358154,
                1802.239990234375
            ],
            [
                57.93829345703125,
                5.873796463012695,
                1902.239990234375
            ],
            [
                60.95091247558594,
                6.178656578063965,
                2002.239990234375
            ],
            [
                63.95968246459961,
                6.483503818511963,
                2102.239990234375
            ],
            [
                66.96308898925781,
                6.788332462310791,
                2202.239990234375
            ],
            [
                69.96023559570313,
                7.093163967132568,
                2302.239990234375
            ],
            [
                72.95072174072266,
                7.397972583770752,
                2402.239990234375
            ],
            [
                75.93273162841797,
                7.702874183654785,
                2502.239990234375
            ],
            [
                78.90377044677734,
                8.007620811462402,
                2602.239990234375
            ],
            [
                81.86070251464844,
                8.312322616577148,
                2702.239990234375
            ],
            [
                84.80340576171875,
                8.616968154907227,
                2802.239990234375
            ],
            [
                87.72755432128906,
                8.921549797058105,
                2902.239990234375
            ],
            [
                90.63050842285156,
                9.226072311401367,
                3002.239990234375
            ],
            [
                93.50973510742188,
                9.530548095703125,
                3102.239990234375
            ],
            [
                96.35907745361328,
                9.835031509399414,
                3202.239990234375
            ],
            [
                99.17720031738281,
                10.139467239379883,
                3302.239990234375
            ],
            [
                101.9630355834961,
                10.443803787231445,
                3402.239990234375
            ],
            [
                104.70622253417969,
                10.748333930969238,
                3502.239990234375
            ],
            [
                107.4076919555664,
                11.052541732788086,
                3602.239990234375
            ],
            [
                110.06001281738281,
                11.35668659210205,
                3702.239990234375
            ],
            [
                112.66060638427734,
                11.660795211791992,
                3802.239990234375
            ],
            [
                115.20819091796875,
                11.964861869812012,
                3902.239990234375
            ],
            [
                117.69983673095703,
                12.268745422363281,
                4002.239990234375
            ],
            [
                120.1222152709961,
                12.572471618652344,
                4102.240234375
            ],
            [
                122.48384857177734,
                12.87617015838623,
                4202.240234375
            ],
            [
                124.77874755859375,
                13.179689407348633,
                4302.240234375
            ],
            [
                127.0137710571289,
                13.48309326171875,
                4402.240234375
            ],
            [
                129.1746368408203,
                13.786371231079102,
                4502.240234375
            ],
            [
                131.26512145996094,
                14.089405059814453,
                4602.240234375
            ],
            [
                133.28749084472656,
                14.392366409301758,
                4702.240234375
            ],
            [
                135.2373504638672,
                14.6951265335083,
                4802.240234375
            ],
            [
                137.1232452392578,
                14.99777889251709,
                4902.240234375
            ],
            [
                139.9748077392578,
                14.542516708374023,
                5002.240234375
            ],
            [
                141.73777770996094,
                14.823930740356445,
                5102.240234375
            ],
            [
                143.43287658691406,
                15.105239868164063,
                5202.240234375
            ],
            [
                145.05938720703125,
                15.38618278503418,
                5302.240234375
            ],
            [
                146.6194610595703,
                15.667338371276855,
                5402.240234375
            ],
            [
                148.1137237548828,
                15.948627471923828,
                5502.240234375
            ],
            [
                149.5449981689453,
                16.229267120361328,
                5602.240234375
            ],
            [
                150.9115753173828,
                16.510005950927734,
                5702.240234375
            ],
            [
                152.21595764160156,
                16.79050636291504,
                5802.240234375
            ],
            [
                153.4619598388672,
                17.070842742919922,
                5902.240234375
            ],
            [
                154.6477508544922,
                17.350894927978516,
                6002.240234375
            ],
            [
                155.7770538330078,
                17.63071632385254,
                6102.240234375
            ],
            [
                156.8512725830078,
                17.91048240661621,
                6202.240234375
            ],
            [
                157.8721923828125,
                18.190202713012695,
                6302.240234375
            ],
            [
                158.84205627441406,
                18.4698429107666,
                6402.240234375
            ],
            [
                159.7621612548828,
                18.749460220336914,
                6502.240234375
            ],
            [
                160.635498046875,
                19.02890968322754,
                6602.240234375
            ],
            [
                161.4632110595703,
                19.308244705200195,
                6702.240234375
            ],
            [
                162.24871826171875,
                19.587505340576172,
                6802.240234375
            ],
            [
                162.99261474609375,
                19.866710662841797,
                6902.240234375
            ],
            [
                163.6978759765625,
                20.145841598510742,
                7002.240234375
            ],
            [
                164.36695861816406,
                20.42491340637207,
                7102.240234375
            ],
            [
                165.0020294189453,
                20.703927993774414,
                7202.240234375
            ],
            [
                165.60491943359375,
                20.982858657836914,
                7302.240234375
            ],
            [
                166.17727661132813,
                21.2617244720459,
                7402.240234375
            ],
            [
                166.7226104736328,
                21.54048728942871,
                7502.240234375
            ],
            [
                167.241455078125,
                21.81917953491211,
                7602.240234375
            ],
            [
                167.73651123046875,
                22.0977783203125,
                7702.240234375
            ],
            [
                168.2088165283203,
                22.37627601623535,
                7802.240234375
            ],
            [
                168.66026306152344,
                22.65467071533203,
                7902.240234375
            ],
            [
                169.0926513671875,
                22.932966232299805,
                8002.240234375
            ],
            [
                169.5070343017578,
                23.21116065979004,
                8102.240234375
            ],
            [
                169.90536499023438,
                23.489253997802734,
                8202.240234375
            ],
            [
                170.2886962890625,
                23.767255783081055,
                8302.240234375
            ],
            [
                170.65814208984375,
                24.045167922973633,
                8402.240234375
            ],
            [
                171.01483154296875,
                24.322996139526367,
                8502.240234375
            ],
            [
                171.36013793945313,
                24.600751876831055,
                8602.240234375
            ],
            [
                171.69471740722656,
                24.878435134887695,
                8702.240234375
            ],
            [
                172.01953125,
                25.15606117248535,
                8802.240234375
            ],
            [
                172.33546447753906,
                25.43362045288086,
                8902.240234375
            ],
            [
                172.6431884765625,
                25.711116790771484,
                9002.240234375
            ],
            [
                172.94338989257813,
                25.988557815551758,
                9102.240234375
            ],
            [
                173.23678588867188,
                26.265947341918945,
                9202.240234375
            ],
            [
                173.52392578125,
                26.543285369873047,
                9302.240234375
            ],
            [
                173.8053436279297,
                26.820579528808594,
                9402.240234375
            ],
            [
                174.0815887451172,
                27.09783172607422,
                9502.240234375
            ],
            [
                174.3530731201172,
                27.375045776367188,
                9602.240234375
            ],
            [
                174.62022399902344,
                27.652225494384766,
                9702.240234375
            ],
            [
                174.88343811035156,
                27.929372787475586,
                9802.240234375
            ],
            [
                175.14305114746094,
                28.206491470336914,
                9902.240234375
            ],
            [
                175.39938354492188,
                28.48358154296875,
                10002.240234375
            ],
            [
                175.90330505371094,
                29.037694931030273,
                10202.240234375
            ],
            [
                176.39720153808594,
                29.59173011779785,
                10402.240234375
            ],
            [
                176.88290405273438,
                30.145700454711914,
                10602.240234375
            ],
            [
                177.36155700683594,
                30.69961929321289,
                10802.240234375
            ],
            [
                177.83468627929688,
                31.253496170043945,
                11002.240234375
            ],
            [
                178.30303955078125,
                31.807342529296875,
                11202.240234375
            ],
            [
                178.76730346679688,
                32.36116409301758,
                11402.240234375
            ],
            [
                179.228515625,
                32.91496276855469,
                11602.240234375
            ],
            [
                179.6870574951172,
                33.46875,
                11802.240234375
            ],
            [
                180.1435546875,
                34.02252960205078,
                12002.240234375
            ],
            [
                180.59793090820313,
                34.576297760009766,
                12202.240234375
            ],
            [
                181.0509490966797,
                35.130062103271484,
                12402.240234375
            ],
            [
                181.50311279296875,
                35.68382263183594,
                12602.240234375
            ],
            [
                181.9544219970703,
                36.237579345703125,
                12802.240234375
            ],
            [
                182.40476989746094,
                36.79133605957031,
                13002.240234375
            ],
            [
                182.85443115234375,
                37.345088958740234,
                13202.240234375
            ],
            [
                183.30377197265625,
                37.898841857910156,
                13402.240234375
            ]
        ],
        "zFirstMeasurement": 434.2704
    },
    {
        "E": 95036.01394665234,
        "chi2": 1.233770489692688,
        "ip": 0.06306560229126798,
        "ipchi2": 1.5307452971781792,
        "mass": 139.57,
        "particleId": "pi+",
        "pvx": 0.6116,
        "pvy": 0.1035,
        "pvz": 11.7674,
        "px": 820.93,
        "py": 1379.0,
        "pz": 95022.36,
        "q": 1.0,
        "trajectory": [
            [
                0.6858326196670532,
                0.12589961290359497,
                17.239999771118164
            ],
            [
                0.7290331125259399,
                0.19846130907535553,
                22.239999771118164
            ],
            [
                0.7722342014312744,
                0.2710230052471161,
                27.239999771118164
            ],
            [
                0.8154359459877014,
                0.34358468651771545,
                32.2400016784668
            ],
            [
                0.8586382865905762,
                0.41614633798599243,
                37.2400016784668
            ],
            [
                0.9018412232398987,
                0.4887080192565918,
                42.2400016784668
            ],
            [
                0.9450448155403137,
                0.5612696409225464,
                47.2400016784668
            ],
            [
                0.9882490634918213,
                0.6338313221931458,
                52.2400016784668
            ],
            [
                1.0314539670944214,
                0.7063929438591003,
                57.2400016784668
            ],
            [
                1.0746594667434692,
                0.7789545655250549,
                62.2400016784668
            ],
            [
                1.1178656816482544,
                0.8515161871910095,
                67.23999786376953
            ],
            [
                1.1610726118087769,
                0.9240778088569641,
                72.23999786376953
            ],
            [
                1.204280138015747,
                0.9966394305229187,
                77.23999786376953
            ],
            [
                1.2474884986877441,
                1.0692009925842285,
                82.23999786376953
            ],
            [
                1.2906932830810547,
                1.141762614250183,
                87.23999786376953
            ],
            [
                1.333902359008789,
                1.2143241167068481,
                92.23999786376953
            ],
            [
                1.3771121501922607,
                1.2868857383728027,
                97.23999786376953
            ],
            [
                1.4203225374221802,
                1.3594472408294678,
                102.23999786376953
            ],
            [
                1.5931710004806519,
                1.649693489074707,
                122.23999786376953
            ],
            [
                1.7660307884216309,
                1.9399394989013672,
                142.24000549316406
            ],
            [
                1.9389021396636963,
                2.2301852703094482,
                162.24000549316406
            ],
            [
                2.111785888671875,
                2.5204310417175293,
                182.24000549316406
            ],
            [
                2.2846829891204834,
                2.8106768131256104,
                202.24000549316406
            ],
            [
                2.4575932025909424,
                3.1009223461151123,
                222.24000549316406
            ],
            [
                2.6305174827575684,
                3.391167640686035,
                242.24000549316406
            ],
            [
                2.8034558296203613,
                3.681412935256958,
                262.239990234375
            ],
            [
                2.9764089584350586,
                3.971658229827881,
                282.239990234375
            ],
            [
                3.1492998600006104,
                4.261906147003174,
                302.239990234375
            ],
            [
                3.3222861289978027,
                4.552151203155518,
                322.239990234375
            ],
            [
                3.495288610458374,
                4.842396259307861,
                342.239990234375
            ],
            [
                3.6683080196380615,
                5.132640838623047,
                362.239990234375
            ],
            [
                3.8413448333740234,
                5.422885417938232,
                382.239990234375
            ],
            [
                4.014400005340576,
                5.713130474090576,
                402.239990234375
            ],
            [
                4.187474727630615,
                6.0033745765686035,
                422.239990234375
            ],
            [
                4.360569000244141,
                6.293619155883789,
                442.239990234375
            ],
            [
                4.533684253692627,
                6.583863735198975,
                462.239990234375
            ],
            [
                4.706820964813232,
                6.874107837677002,
                482.239990234375
            ],
            [
                4.879974842071533,
                7.1643524169921875,
                502.239990234375
            ],
            [
                5.053159236907959,
                7.454596519470215,
                522.239990234375
            ],
            [
                5.2263665199279785,
                7.744840621948242,
                542.239990234375
            ],
            [
                5.39959716796875,
                8.03508472442627,
                562.239990234375
            ],
            [
                5.572852611541748,
                8.325328826904297,
                582.239990234375
            ],
            [
                5.746134281158447,
                8.615572929382324,
                602.239990234375
            ],
            [
                5.9194440841674805,
                8.905817031860352,
                622.239990234375
            ],
            [
                6.092782497406006,
                9.196060180664063,
                642.239990234375
            ],
            [
                6.266151428222656,
                9.48630428314209,
                662.239990234375
            ],
            [
                6.439552307128906,
                9.776548385620117,
                682.239990234375
            ],
            [
                6.612970352172852,
                10.066792488098145,
                702.239990234375
            ],
            [
                6.786429405212402,
                10.357036590576172,
                722.239990234375
            ],
            [
                6.959921360015869,
                10.647279739379883,
                742.239990234375
            ],
            [
                7.133447170257568,
                10.93752384185791,
                762.239990234375
            ],
            [
                7.307007312774658,
                11.227767944335938,
                782.239990234375
            ],
            [
                7.480602264404297,
                11.518012046813965,
                802.239990234375
            ],
            [
                7.654233932495117,
                11.808256149291992,
                822.239990234375
            ],
            [
                7.827902793884277,
                12.098501205444336,
                842.239990234375
            ],
            [
                8.001609802246094,
                12.388745307922363,
                862.239990234375
            ],
            [
                8.175354957580566,
                12.67898941040039,
                882.239990234375
            ],
            [
                8.349141120910645,
                12.969234466552734,
                902.239990234375
            ],
            [
                8.522966384887695,
                13.259479522705078,
                922.239990234375
            ],
            [
                8.696833610534668,
                13.549723625183105,
                942.239990234375
            ],
            [
                8.870741844177246,
                13.83996868133545,
                962.239990234375
            ],
            [
                9.04469108581543,
                14.130213737487793,
                982.239990234375
            ],
            [
                9.218683242797852,
                14.420458793640137,
                1002.239990234375
            ],
            [
                10.089298248291016,
                15.871684074401855,
                1102.239990234375
            ],
            [
                10.961029052734375,
                17.322912216186523,
                1202.239990234375
            ],
            [
                11.833929061889648,
                18.77414321899414,
                1302.239990234375
            ],
            [
                12.70792293548584,
                20.225374221801758,
                1402.239990234375
            ],
            [
                13.58312702178955,
                21.676607131958008,
                1502.239990234375
            ],
            [
                14.459179878234863,
                23.127845764160156,
                1602.239990234375
            ],
            [
                15.336560249328613,
                24.579082489013672,
                1702.239990234375
            ],
            [
                16.215288162231445,
                26.030323028564453,
                1802.239990234375
            ],
            [
                17.095508575439453,
                27.481563568115234,
                1902.239990234375
            ],
            [
                17.97739601135254,
                28.93280601501465,
                2002.239990234375
            ],
            [
                18.861129760742188,
                30.384052276611328,
                2102.239990234375
            ],
            [
                19.747297286987305,
                31.835302352905273,
                2202.239990234375
            ],
            [
                20.636472702026367,
                33.28656005859375,
                2302.239990234375
            ],
            [
                21.528915405273438,
                34.73782730102539,
                2402.239990234375
            ],
            [
                22.425535202026367,
                36.18910598754883,
                2502.239990234375
            ],
            [
                23.327146530151367,
                37.64040756225586,
                2602.239990234375
            ],
            [
                24.234375,
                39.09171676635742,
                2702.239990234375
            ],
            [
                25.14931869506836,
                40.54305648803711,
                2802.239990234375
            ],
            [
                26.072559356689453,
                41.994415283203125,
                2902.239990234375
            ],
            [
                27.005525588989258,
                43.44579315185547,
                3002.239990234375
            ],
            [
                27.95033836364746,
                44.897193908691406,
                3102.239990234375
            ],
            [
                28.908157348632813,
                46.34861755371094,
                3202.239990234375
            ],
            [
                29.880430221557617,
                47.80006408691406,
                3302.239990234375
            ],
            [
                30.86885643005371,
                49.251529693603516,
                3402.239990234375
            ],
            [
                31.876441955566406,
                50.703025817871094,
                3502.239990234375
            ],
            [
                32.90454864501953,
                52.154541015625,
                3602.239990234375
            ],
            [
                33.955196380615234,
                53.60610580444336,
                3702.239990234375
            ],
            [
                35.02908706665039,
                55.057674407958984,
                3802.239990234375
            ],
            [
                36.128963470458984,
                56.5092887878418,
                3902.239990234375
            ],
            [
                37.25718688964844,
                57.960994720458984,
                4002.239990234375
            ],
            [
                38.414634704589844,
                59.412776947021484,
                4102.240234375
            ],
            [
                39.60103988647461,
                60.864585876464844,
                4202.240234375
            ],
            [
                40.816009521484375,
                62.31642532348633,
                4302.240234375
            ],
            [
                42.06410217285156,
                63.76838302612305,
                4402.240234375
            ],
            [
                43.34672927856445,
                65.2204360961914,
                4502.240234375
            ],
            [
                44.66071319580078,
                66.67252349853516,
                4602.240234375
            ],
            [
                46.006717681884766,
                68.12466430664063,
                4702.240234375
            ],
            [
                47.38711929321289,
                69.57695770263672,
                4802.240234375
            ],
            [
                48.802371978759766,
                71.0293197631836,
                4902.240234375
            ],
            [
                50.2496452331543,
                72.48179626464844,
                5002.240234375
            ],
            [
                51.627620697021484,
                74.24111938476563,
                5102.240234375
            ],
            [
                53.137306213378906,
                75.70869445800781,
                5202.240234375
            ],
            [
                54.679283142089844,
                77.17643737792969,
                5302.240234375
            ],
            [
                56.252437591552734,
                78.6440658569336,
                5402.240234375
            ],
            [
                57.85639953613281,
                80.11166381835938,
                5502.240234375
            ],
            [
                59.49000930786133,
                81.5795669555664,
                5602.240234375
            ],
            [
                61.153987884521484,
                83.04740905761719,
                5702.240234375
            ],
            [
                62.847171783447266,
                84.5153579711914,
                5802.240234375
            ],
            [
                64.56771087646484,
                85.98339080810547,
                5902.240234375
            ],
            [
                66.3165283203125,
                87.45156860351563,
                6002.240234375
            ],
            [
                68.09195709228516,
                88.91984558105469,
                6102.240234375
            ],
            [
                69.89326477050781,
                90.38813781738281,
                6202.240234375
            ],
            [
                71.71957397460938,
                91.85646057128906,
                6302.240234375
            ],
            [
                73.56986999511719,
                93.32481384277344,
                6402.240234375
            ],
            [
                75.44355773925781,
                94.79316711425781,
                6502.240234375
            ],
            [
                77.3392333984375,
                96.26160430908203,
                6602.240234375
            ],
            [
                79.25633239746094,
                97.7300796508789,
                6702.240234375
            ],
            [
                81.19324493408203,
                99.1985855102539,
                6802.240234375
            ],
            [
                83.14972686767578,
                100.66710662841797,
                6902.240234375
            ],
            [
                85.12437438964844,
                102.13565826416016,
                7002.240234375
            ],
            [
                87.11599731445313,
                103.6042251586914,
                7102.240234375
            ],
            [
                89.12361145019531,
                105.07281494140625,
                7202.240234375
            ],
            [
                91.14633178710938,
                106.54142761230469,
                7302.240234375
            ],
            [
                93.18339538574219,
                108.01006317138672,
                7402.240234375
            ],
            [
                95.233154296875,
                109.47874450683594,
                7502.240234375
            ],
            [
                97.29534149169922,
                110.94744110107422,
                7602.240234375
            ],
            [
                99.36868286132813,
                112.41617584228516,
                7702.240234375
            ],
            [
                101.45269775390625,
                113.88495635986328,
                7802.240234375
            ],
            [
                103.5464859008789,
                115.35376739501953,
                7902.240234375
            ],
            [
                105.64920806884766,
                116.82262420654297,
                8002.240234375
            ],
            [
                107.7603759765625,
                118.29151916503906,
                8102.240234375
            ],
            [
                109.8790512084961,
                119.76045989990234,
                8202.240234375
            ],
            [
                112.00475311279297,
                121.22943878173828,
                8302.240234375
            ],
            [
                114.13695526123047,
                122.69844818115234,
                8402.240234375
            ],
            [
                116.27513122558594,
                124.16749572753906,
                8502.240234375
            ],
            [
                118.41863250732422,
                125.6365737915039,
                8602.240234375
            ],
            [
                120.56715393066406,
                127.10568237304688,
                8702.240234375
            ],
            [
                122.72024536132813,
                128.57481384277344,
                8802.240234375
            ],
            [
                124.87747955322266,
                130.04397583007813,
                8902.240234375
            ],
            [
                127.03856658935547,
                131.51316833496094,
                9002.240234375
            ],
            [
                129.20315551757813,
                132.98239135742188,
                9102.240234375
            ],
            [
                131.37094116210938,
                134.45162963867188,
                9202.240234375
            ],
            [
                133.54165649414063,
                135.92088317871094,
                9302.240234375
            ],
            [
                135.71502685546875,
                137.39016723632813,
                9402.240234375
            ],
            [
                137.8908233642578,
                138.85946655273438,
                9502.240234375
            ],
            [
                140.06884765625,
                140.3287811279297,
                9602.240234375
            ],
            [
                142.24888610839844,
                141.79811096191406,
                9702.240234375
            ],
            [
                144.4307861328125,
                143.26747131347656,
                9802.240234375
            ],
            [
                146.61434936523438,
                144.73683166503906,
                9902.240234375
            ],
            [
                148.79945373535156,
                146.20620727539063,
                10002.240234375
            ],
            [
                153.17373657226563,
                149.14498901367188,
                10202.240234375
            ],
            [
                157.55270385742188,
                152.0838165283203,
                10402.240234375
            ],
            [
                161.93548583984375,
                155.0226593017578,
                10602.240234375
            ],
            [
                166.32156372070313,
                157.9615478515625,
                10802.240234375
            ],
            [
                170.71022033691406,
                160.90045166015625,
                11002.240234375
            ],
            [
                175.1011199951172,
                163.83937072753906,
                11202.240234375
            ],
            [
                179.49391174316406,
                166.77828979492188,
                11402.240234375
            ],
            [
                183.88812255859375,
                169.7172393798828,
                11602.240234375
            ],
            [
                188.28358459472656,
                172.65618896484375,
                11802.240234375
            ],
            [
                192.6800079345703,
                175.5951385498047,
                12002.240234375
            ],
            [
                197.07740783691406,
                178.5341033935547,
                12202.240234375
            ],
            [
                201.47544860839844,
                181.4730682373047,
                12402.240234375
            ],
            [
                205.87388610839844,
                184.4120330810547,
                12602.240234375
            ],
            [
                210.27272033691406,
                187.3509979248047,
                12802.240234375
            ],
            [
                214.67201232910156,
                190.28997802734375,
                13002.240234375
            ],
            [
                219.0716094970703,
                193.22894287109375,
                13202.240234375
            ],
            [
                223.4713592529297,
                196.1679229736328,
                13402.240234375
            ]
        ],
        "zFirstMeasurement": 584.4155
    },
    {
        "E": 7691.516423803905,
        "chi2": 1.0536494255065918,
        "ip": 0.4011197298677792,
        "ipchi2": 4.448740820173682,
        "mass": 139.57018,
        "particleId": "pi+",
        "pvx": 0.6116,
        "pvy": 0.1035,
        "pvz": 11.7674,
        "px": 2.222672306248681,
        "py": 275.2241025416499,
        "pz": 7685.32314321317,
        "q": 1.0,
        "trajectory": [
            [
                0.9351101517677307,
                -3.7111618518829346,
                -100.0
            ],
            [
                0.9364300966262817,
                -3.5321013927459717,
                -95.0
            ],
            [
                0.9377167820930481,
                -3.353041648864746,
                -90.0
            ],
            [
                0.9390535354614258,
                -3.1739814281463623,
                -85.0
            ],
            [
                0.9403953552246094,
                -2.9949214458465576,
                -80.0
            ],
            [
                0.9417423009872437,
                -2.815861463546753,
                -75.0
            ],
            [
                0.9430944323539734,
                -2.6368017196655273,
                -70.0
            ],
            [
                0.9444519281387329,
                -2.4577419757843018,
                -65.0
            ],
            [
                0.945814847946167,
                -2.278682231903076,
                -60.0
            ],
            [
                0.9471832513809204,
                -2.0996227264404297,
                -55.0
            ],
            [
                0.9485573172569275,
                -1.9205634593963623,
                -50.0
            ],
            [
                0.9499370455741882,
                -1.7415040731430054,
                -45.0
            ],
            [
                0.9513226747512817,
                -1.5624449253082275,
                -40.0
            ],
            [
                0.9527141451835632,
                -1.3833858966827393,
                -35.0
            ],
            [
                0.9541116952896118,
                -1.204326868057251,
                -30.0
            ],
            [
                0.9555153846740723,
                -1.0252679586410522,
                -25.0
            ],
            [
                0.9569252729415894,
                -0.8462091684341431,
                -20.0
            ],
            [
                0.9583414793014526,
                -0.6671504974365234,
                -15.0
            ],
            [
                0.9597641229629517,
                -0.4880918860435486,
                -10.0
            ],
            [
                0.9611932635307312,
                -0.3090333938598633,
                -5.0
            ],
            [
                0.9626290798187256,
                -0.12997500598430634,
                0.0
            ],
            [
                0.9640715718269348,
                0.049083296209573746,
                5.0
            ],
            [
                0.965520977973938,
                0.22814150154590607,
                10.0
            ],
            [
                0.9669772386550903,
                0.4071996212005615,
                15.0
            ],
            [
                0.9684406518936157,
                0.5862576365470886,
                20.0
            ],
            [
                0.9699112176895142,
                0.7653155326843262,
                25.0
            ],
            [
                0.97138911485672,
                0.944373369216919,
                30.0
            ],
            [
                0.9728744029998779,
                1.1234310865402222,
                35.0
            ],
            [
                0.9743672609329224,
                1.3024886846542358,
                40.0
            ],
            [
                0.9758678078651428,
                1.4815462827682495,
                45.0
            ],
            [
                0.9773760437965393,
                1.660603642463684,
                50.0
            ],
            [
                0.9788922667503357,
                1.8396610021591187,
                55.0
            ],
            [
                0.980416476726532,
                2.0187182426452637,
                60.0
            ],
            [
                0.9819487929344177,
                2.197775363922119,
                65.0
            ],
            [
                0.9834893941879272,
                2.3768324851989746,
                70.0
            ],
            [
                0.9850383400917053,
                2.555889368057251,
                75.0
            ],
            [
                0.9865957498550415,
                2.7349462509155273,
                80.0
            ],
            [
                0.9881618022918701,
                2.9140031337738037,
                85.0
            ],
            [
                0.9897365570068359,
                3.093059778213501,
                90.0
            ],
            [
                0.9913201928138733,
                3.272116184234619,
                95.0
            ],
            [
                0.9929127097129822,
                3.4511728286743164,
                100.0
            ],
            [
                0.9992963075637817,
                4.167397499084473,
                120.0
            ],
            [
                1.0058634281158447,
                4.8836212158203125,
                140.0
            ],
            [
                1.012574553489685,
                5.5998430252075195,
                160.0
            ],
            [
                1.0194404125213623,
                6.31606388092041,
                180.0
            ],
            [
                1.026464819908142,
                7.032282829284668,
                200.0
            ],
            [
                1.0336402654647827,
                7.748461723327637,
                220.0
            ],
            [
                1.0410031080245972,
                8.464677810668945,
                240.0
            ],
            [
                1.048543930053711,
                9.180892944335938,
                260.0
            ],
            [
                1.0562700033187866,
                9.897107124328613,
                280.0
            ],
            [
                1.0641887187957764,
                10.613319396972656,
                300.0
            ],
            [
                1.07230806350708,
                11.3295316696167,
                320.0
            ],
            [
                1.0805635452270508,
                12.045741081237793,
                340.0
            ],
            [
                1.0891406536102295,
                12.761950492858887,
                360.0
            ],
            [
                1.0979276895523071,
                13.478158950805664,
                380.0
            ],
            [
                1.1069316864013672,
                14.194366455078125,
                400.0
            ],
            [
                1.1161646842956543,
                14.91057300567627,
                420.0
            ],
            [
                1.1256401538848877,
                15.626778602600098,
                440.0
            ],
            [
                1.1353715658187866,
                16.34298324584961,
                460.0
            ],
            [
                1.145372748374939,
                17.059186935424805,
                480.0
            ],
            [
                1.155657172203064,
                17.775390625,
                500.0
            ],
            [
                1.1662384271621704,
                18.491592407226563,
                520.0
            ],
            [
                1.1770198345184326,
                19.207794189453125,
                540.0
            ],
            [
                1.1881641149520874,
                19.923995971679688,
                560.0
            ],
            [
                1.1996212005615234,
                20.640195846557617,
                580.0
            ],
            [
                1.2114003896713257,
                21.356395721435547,
                600.0
            ],
            [
                1.2235132455825806,
                22.072595596313477,
                620.0
            ],
            [
                1.2359684705734253,
                22.788795471191406,
                640.0
            ],
            [
                1.248780608177185,
                23.504993438720703,
                660.0
            ],
            [
                1.261967658996582,
                24.22119140625,
                680.0
            ],
            [
                1.2755322456359863,
                24.937389373779297,
                700.0
            ],
            [
                1.28948974609375,
                25.653587341308594,
                720.0
            ],
            [
                1.3038568496704102,
                26.36978530883789,
                740.0
            ],
            [
                1.3186372518539429,
                27.08598518371582,
                760.0
            ],
            [
                1.3338420391082764,
                27.80218505859375,
                780.0
            ],
            [
                1.3494819402694702,
                28.51838493347168,
                800.0
            ],
            [
                1.3655644655227661,
                29.23458480834961,
                820.0
            ],
            [
                1.3821033239364624,
                29.95078468322754,
                840.0
            ],
            [
                1.3991093635559082,
                30.6669864654541,
                860.0
            ],
            [
                1.416589617729187,
                31.383188247680664,
                880.0
            ],
            [
                1.4345333576202393,
                32.099388122558594,
                900.0
            ],
            [
                1.452947735786438,
                32.81558609008789,
                920.0
            ],
            [
                1.4718632698059082,
                33.53178787231445,
                940.0
            ],
            [
                1.4912904500961304,
                34.24798583984375,
                960.0
            ],
            [
                1.5112395286560059,
                34.96418762207031,
                980.0
            ],
            [
                1.5317679643630981,
                35.68039321899414,
                1000.0
            ],
            [
                1.6424319744110107,
                39.26146697998047,
                1100.0
            ],
            [
                1.767442226409912,
                42.84259033203125,
                1200.0
            ],
            [
                1.9066680669784546,
                46.423744201660156,
                1300.0
            ],
            [
                2.060650587081909,
                50.0048942565918,
                1400.0
            ],
            [
                2.2234532833099365,
                53.58587646484375,
                1500.0
            ],
            [
                2.4033937454223633,
                57.167015075683594,
                1600.0
            ],
            [
                2.598327159881592,
                60.74820327758789,
                1700.0
            ],
            [
                2.8081142902374268,
                64.32942199707031,
                1800.0
            ],
            [
                3.0358026027679443,
                67.9106674194336,
                1900.0
            ],
            [
                3.286135196685791,
                71.49193572998047,
                2000.0
            ],
            [
                3.5578229427337646,
                75.07320404052734,
                2100.0
            ],
            [
                3.859952449798584,
                78.6545181274414,
                2200.0
            ],
            [
                4.197836875915527,
                82.23584747314453,
                2300.0
            ],
            [
                4.573520183563232,
                85.81727600097656,
                2400.0
            ],
            [
                4.99998664855957,
                89.39848327636719,
                2500.0
            ],
            [
                5.486415386199951,
                92.98018646240234,
                2600.0
            ],
            [
                6.052781105041504,
                96.56208038330078,
                2700.0
            ],
            [
                6.7001166343688965,
                100.14421844482422,
                2800.0
            ],
            [
                7.453224182128906,
                103.72672271728516,
                2900.0
            ],
            [
                8.327281951904297,
                107.30945587158203,
                3000.0
            ],
            [
                9.338229179382324,
                110.89254760742188,
                3100.0
            ],
            [
                10.520895004272461,
                114.47607421875,
                3200.0
            ],
            [
                11.883773803710938,
                118.06018829345703,
                3300.0
            ],
            [
                13.431693077087402,
                121.64495086669922,
                3400.0
            ],
            [
                15.229989051818848,
                125.22998046875,
                3500.0
            ],
            [
                17.26519012451172,
                128.8162384033203,
                3600.0
            ],
            [
                19.58642578125,
                132.40394592285156,
                3700.0
            ],
            [
                22.207578659057617,
                135.99252319335938,
                3800.0
            ],
            [
                25.139461517333984,
                139.581787109375,
                3900.0
            ],
            [
                28.397546768188477,
                143.1731719970703,
                4000.0
            ],
            [
                32.05839538574219,
                146.7670135498047,
                4100.0
            ],
            [
                36.079017639160156,
                150.36236572265625,
                4200.0
            ],
            [
                40.49181365966797,
                153.95925903320313,
                4300.0
            ],
            [
                45.256874084472656,
                157.55760192871094,
                4400.0
            ],
            [
                50.455806732177734,
                161.1598663330078,
                4500.0
            ],
            [
                56.06643295288086,
                164.76315307617188,
                4600.0
            ],
            [
                62.081336975097656,
                168.3677978515625,
                4700.0
            ],
            [
                68.5172348022461,
                171.9736328125,
                4800.0
            ],
            [
                75.3329849243164,
                175.58132934570313,
                4900.0
            ],
            [
                79.92011260986328,
                181.9373321533203,
                5000.0
            ],
            [
                87.5144271850586,
                185.62408447265625,
                5100.0
            ],
            [
                95.51046752929688,
                189.31153869628906,
                5200.0
            ],
            [
                103.91243743896484,
                193.00108337402344,
                5300.0
            ],
            [
                112.70563507080078,
                196.68894958496094,
                5400.0
            ],
            [
                121.89201354980469,
                200.37625122070313,
                5500.0
            ],
            [
                131.44683837890625,
                204.0687255859375,
                5600.0
            ],
            [
                141.385498046875,
                207.75930786132813,
                5700.0
            ],
            [
                151.69349670410156,
                211.4507293701172,
                5800.0
            ],
            [
                162.34832763671875,
                215.14193725585938,
                5900.0
            ],
            [
                173.36178588867188,
                218.83547973632813,
                6000.0
            ],
            [
                184.7132110595703,
                222.52935791015625,
                6100.0
            ],
            [
                196.39312744140625,
                226.2217559814453,
                6200.0
            ],
            [
                208.39340209960938,
                229.9132537841797,
                6300.0
            ],
            [
                220.69903564453125,
                233.6035614013672,
                6400.0
            ],
            [
                233.3022003173828,
                237.29200744628906,
                6500.0
            ],
            [
                246.18600463867188,
                240.97975158691406,
                6600.0
            ],
            [
                259.343994140625,
                244.66558837890625,
                6700.0
            ],
            [
                272.7557373046875,
                248.34915161132813,
                6800.0
            ],
            [
                286.418212890625,
                252.03054809570313,
                6900.0
            ],
            [
                300.31280517578125,
                255.70950317382813,
                7000.0
            ],
            [
                314.4255676269531,
                259.3857421875,
                7100.0
            ],
            [
                328.7422180175781,
                263.0592346191406,
                7200.0
            ],
            [
                343.2520446777344,
                266.7299499511719,
                7300.0
            ],
            [
                357.9456481933594,
                270.3981018066406,
                7400.0
            ],
            [
                372.8003845214844,
                274.06378173828125,
                7500.0
            ],
            [
                387.81390380859375,
                277.7266845703125,
                7600.0
            ],
            [
                402.9695739746094,
                281.3871154785156,
                7700.0
            ],
            [
                418.2608337402344,
                285.0451354980469,
                7800.0
            ],
            [
                433.6761169433594,
                288.70098876953125,
                7900.0
            ],
            [
                449.2043151855469,
                292.354736328125,
                8000.0
            ],
            [
                464.8393249511719,
                296.0065612792969,
                8100.0
            ],
            [
                480.5689392089844,
                299.6567077636719,
                8200.0
            ],
            [
                496.3871154785156,
                303.30523681640625,
                8300.0
            ],
            [
                512.287109375,
                306.9523010253906,
                8400.0
            ],
            [
                528.26220703125,
                310.5980224609375,
                8500.0
            ],
            [
                544.3037109375,
                314.24261474609375,
                8600.0
            ],
            [
                560.4080810546875,
                317.88616943359375,
                8700.0
            ],
            [
                576.5693359375,
                321.5287170410156,
                8800.0
            ],
            [
                592.7823486328125,
                325.1705627441406,
                8900.0
            ],
            [
                609.0432739257813,
                328.8116760253906,
                9000.0
            ],
            [
                625.34765625,
                332.4522399902344,
                9100.0
            ],
            [
                641.6915283203125,
                336.0923156738281,
                9200.0
            ],
            [
                658.071533203125,
                339.73199462890625,
                9300.0
            ],
            [
                674.4844360351563,
                343.371337890625,
                9400.0
            ],
            [
                690.9271240234375,
                347.0104064941406,
                9500.0
            ],
            [
                707.3970336914063,
                350.6492614746094,
                9600.0
            ],
            [
                723.8917236328125,
                354.2879638671875,
                9700.0
            ],
            [
                740.4089965820313,
                357.9265441894531,
                9800.0
            ],
            [
                756.9466552734375,
                361.5650329589844,
                9900.0
            ],
            [
                773.5029296875,
                365.2034606933594,
                10000.0
            ],
            [
                806.6649780273438,
                372.4802551269531,
                10200.0
            ],
            [
                839.8834228515625,
                379.7571105957031,
                10400.0
            ],
            [
                873.1478271484375,
                387.03411865234375,
                10600.0
            ],
            [
                906.4514770507813,
                394.31134033203125,
                10800.0
            ],
            [
                939.7857666015625,
                401.5888977050781,
                11000.0
            ],
            [
                973.1463623046875,
                408.86669921875,
                11200.0
            ],
            [
                1006.5293579101563,
                416.1448059082031,
                11400.0
            ],
            [
                1039.928955078125,
                423.4232482910156,
                11600.0
            ],
            [
                1073.3428955078125,
                430.7019958496094,
                11800.0
            ],
            [
                1106.767822265625,
                437.98101806640625,
                12000.0
            ],
            [
                1140.2041015625,
                445.26025390625,
                12200.0
            ],
            [
                1173.6475830078125,
                452.5397033691406,
                12400.0
            ],
            [
                1207.095458984375,
                459.8194274902344,
                12600.0
            ],
            [
                1240.5477294921875,
                467.0993347167969,
                12800.0
            ],
            [
                1274.0050048828125,
                474.37933349609375,
                13000.0
            ],
            [
                1307.4659423828125,
                481.6594543457031,
                13200.0
            ],
            [
                1340.9287109375,
                488.939697265625,
                13400.0
            ]
        ],
        "zFirstMeasurement": 434.2704
    },
    {
        "E": 3825.486907407373,
        "chi2": 0.8487481474876404,
        "ip": 27.257669208846803,
        "ipchi2": 3568.7564857855846,
        "mass": 139.57018,
        "particleId": "pi-",
        "pvx": 0.6404,
        "pvy": 0.019,
        "pvz": 57.9645,
        "px": 188.57262017144245,
        "py": -211.7441852702978,
        "pz": 3812.4106560712853,
        "q": -1.0,
        "trajectory": [
            [
                -29.832021713256836,
                24.164424896240234,
                -100.0
            ],
            [
                -29.582759857177734,
                23.88669204711914,
                -95.0
            ],
            [
                -29.33350944519043,
                23.608957290649414,
                -90.0
            ],
            [
                -29.084266662597656,
                23.33122444152832,
                -85.0
            ],
            [
                -28.835033416748047,
                23.053489685058594,
                -80.0
            ],
            [
                -28.585811614990234,
                22.7757568359375,
                -75.0
            ],
            [
                -28.336597442626953,
                22.498023986816406,
                -70.0
            ],
            [
                -28.08739471435547,
                22.220293045043945,
                -65.0
            ],
            [
                -27.83820343017578,
                21.94256019592285,
                -60.0
            ],
            [
                -27.589019775390625,
                21.66482925415039,
                -55.0
            ],
            [
                -27.3398494720459,
                21.387096405029297,
                -50.0
            ],
            [
                -27.090688705444336,
                21.109365463256836,
                -45.0
            ],
            [
                -26.84153938293457,
                20.831634521484375,
                -40.0
            ],
            [
                -26.592403411865234,
                20.553905487060547,
                -35.0
            ],
            [
                -26.343276977539063,
                20.276174545288086,
                -30.0
            ],
            [
                -26.094161987304688,
                19.998443603515625,
                -25.0
            ],
            [
                -25.845060348510742,
                19.720714569091797,
                -20.0
            ],
            [
                -25.595970153808594,
                19.44298553466797,
                -15.0
            ],
            [
                -25.346891403198242,
                19.16525650024414,
                -10.0
            ],
            [
                -25.09782600402832,
                18.887527465820313,
                -5.0
            ],
            [
                -24.848773956298828,
                18.609798431396484,
                0.0
            ],
            [
                -24.5997371673584,
                18.33207130432129,
                5.0
            ],
            [
                -24.3507137298584,
                18.054344177246094,
                10.0
            ],
            [
                -24.101703643798828,
                17.7766170501709,
                15.0
            ],
            [
                -23.852706909179688,
                17.498889923095703,
                20.0
            ],
            [
                -23.603723526000977,
                17.221162796020508,
                25.0
            ],
            [
                -23.354755401611328,
                16.943435668945313,
                30.0
            ],
            [
                -23.10580062866211,
                16.66571044921875,
                35.0
            ],
            [
                -22.85685920715332,
                16.387983322143555,
                40.0
            ],
            [
                -22.607933044433594,
                16.110258102416992,
                45.0
            ],
            [
                -22.359024047851563,
                15.83253288269043,
                50.0
            ],
            [
                -22.11013412475586,
                15.55480670928955,
                55.0
            ],
            [
                -21.86126136779785,
                15.277082443237305,
                60.0
            ],
            [
                -21.61240577697754,
                14.999357223510742,
                65.0
            ],
            [
                -21.363567352294922,
                14.721632957458496,
                70.0
            ],
            [
                -21.114742279052734,
                14.44390869140625,
                75.0
            ],
            [
                -20.865934371948242,
                14.16618537902832,
                80.0
            ],
            [
                -20.617141723632813,
                13.888461112976074,
                85.0
            ],
            [
                -20.368364334106445,
                13.610738754272461,
                90.0
            ],
            [
                -20.11960220336914,
                13.333015441894531,
                95.0
            ],
            [
                -19.8708553314209,
                13.055293083190918,
                100.0
            ],
            [
                -18.876047134399414,
                11.944405555725098,
                120.0
            ],
            [
                -17.881511688232422,
                10.83352279663086,
                140.0
            ],
            [
                -16.88726043701172,
                9.72264575958252,
                160.0
            ],
            [
                -15.893310546875,
                8.611773490905762,
                180.0
            ],
            [
                -14.899675369262695,
                7.500906467437744,
                200.0
            ],
            [
                -13.906373023986816,
                6.39004373550415,
                220.0
            ],
            [
                -12.91341781616211,
                5.279186248779297,
                240.0
            ],
            [
                -11.920821189880371,
                4.168333530426025,
                260.0
            ],
            [
                -10.928595542907715,
                3.057485342025757,
                280.0
            ],
            [
                -9.936756134033203,
                1.946642279624939,
                300.0
            ],
            [
                -8.945206642150879,
                0.8358043432235718,
                320.0
            ],
            [
                -7.954243183135986,
                -0.2750292718410492,
                340.0
            ],
            [
                -6.963684558868408,
                -1.3858580589294434,
                360.0
            ],
            [
                -5.97355318069458,
                -2.4966821670532227,
                380.0
            ],
            [
                -4.983872413635254,
                -3.60750150680542,
                400.0
            ],
            [
                -3.9946653842926025,
                -4.718316078186035,
                420.0
            ],
            [
                -3.005958318710327,
                -5.829126358032227,
                440.0
            ],
            [
                -2.0177783966064453,
                -6.939931869506836,
                460.0
            ],
            [
                -1.0301531553268433,
                -8.050732612609863,
                480.0
            ],
            [
                -0.04276234656572342,
                -9.161531448364258,
                500.0
            ],
            [
                0.943713366985321,
                -10.272322654724121,
                520.0
            ],
            [
                1.92963445186615,
                -11.383110046386719,
                540.0
            ],
            [
                2.9149692058563232,
                -12.493891716003418,
                560.0
            ],
            [
                3.8996856212615967,
                -13.604668617248535,
                580.0
            ],
            [
                4.88375186920166,
                -14.71544075012207,
                600.0
            ],
            [
                5.867135524749756,
                -15.826208114624023,
                620.0
            ],
            [
                6.849800109863281,
                -16.93697166442871,
                640.0
            ],
            [
                7.8317108154296875,
                -18.047731399536133,
                660.0
            ],
            [
                8.812830924987793,
                -19.158489227294922,
                680.0
            ],
            [
                9.793499946594238,
                -20.269237518310547,
                700.0
            ],
            [
                10.77316665649414,
                -21.379987716674805,
                720.0
            ],
            [
                11.752015113830566,
                -22.49073600769043,
                740.0
            ],
            [
                12.730023384094238,
                -23.60148048400879,
                760.0
            ],
            [
                13.707168579101563,
                -24.71222496032715,
                780.0
            ],
            [
                14.683440208435059,
                -25.822967529296875,
                800.0
            ],
            [
                15.658809661865234,
                -26.93370819091797,
                820.0
            ],
            [
                16.633249282836914,
                -28.044448852539063,
                840.0
            ],
            [
                17.606739044189453,
                -29.155189514160156,
                860.0
            ],
            [
                18.579254150390625,
                -30.26593017578125,
                880.0
            ],
            [
                19.550771713256836,
                -31.376672744750977,
                900.0
            ],
            [
                20.521291732788086,
                -32.4874153137207,
                920.0
            ],
            [
                21.490774154663086,
                -33.59815979003906,
                940.0
            ],
            [
                22.459217071533203,
                -34.70890426635742,
                960.0
            ],
            [
                23.42662239074707,
                -35.81964874267578,
                980.0
            ],
            [
                24.392972946166992,
                -36.930389404296875,
                1000.0
            ],
            [
                29.20831298828125,
                -42.484107971191406,
                1100.0
            ],
            [
                33.99568557739258,
                -48.03788375854492,
                1200.0
            ],
            [
                38.753692626953125,
                -53.59174346923828,
                1300.0
            ],
            [
                43.48443603515625,
                -59.1456298828125,
                1400.0
            ],
            [
                48.18492126464844,
                -64.6995849609375,
                1500.0
            ],
            [
                52.86343765258789,
                -70.25373840332031,
                1600.0
            ],
            [
                57.50967788696289,
                -75.8077621459961,
                1700.0
            ],
            [
                62.122684478759766,
                -81.36173248291016,
                1800.0
            ],
            [
                66.69901275634766,
                -86.91557312011719,
                1900.0
            ],
            [
                71.23416900634766,
                -92.46923828125,
                2000.0
            ],
            [
                75.7242431640625,
                -98.02249145507813,
                2100.0
            ],
            [
                80.1551742553711,
                -103.57533264160156,
                2200.0
            ],
            [
                84.51249694824219,
                -109.1275405883789,
                2300.0
            ],
            [
                88.79013061523438,
                -114.6790771484375,
                2400.0
            ],
            [
                92.96637725830078,
                -120.2298583984375,
                2500.0
            ],
            [
                97.0180892944336,
                -125.7796630859375,
                2600.0
            ],
            [
                100.93678283691406,
                -131.3282012939453,
                2700.0
            ],
            [
                104.66578674316406,
                -136.8748016357422,
                2800.0
            ],
            [
                108.19327545166016,
                -142.41990661621094,
                2900.0
            ],
            [
                111.48193359375,
                -147.9634552001953,
                3000.0
            ],
            [
                114.48258972167969,
                -153.50418090820313,
                3100.0
            ],
            [
                117.16370391845703,
                -159.0413055419922,
                3200.0
            ],
            [
                119.48845672607422,
                -164.57568359375,
                3300.0
            ],
            [
                121.41898345947266,
                -170.10833740234375,
                3400.0
            ],
            [
                122.87873840332031,
                -175.638427734375,
                3500.0
            ],
            [
                123.82513427734375,
                -181.16761779785156,
                3600.0
            ],
            [
                124.21533966064453,
                -186.69667053222656,
                3700.0
            ],
            [
                124.02210998535156,
                -192.22525024414063,
                3800.0
            ],
            [
                123.18189239501953,
                -197.75657653808594,
                3900.0
            ],
            [
                121.63645935058594,
                -203.28939819335938,
                4000.0
            ],
            [
                119.35102081298828,
                -208.82469177246094,
                4100.0
            ],
            [
                116.32917022705078,
                -214.36386108398438,
                4200.0
            ],
            [
                112.59028625488281,
                -219.90744018554688,
                4300.0
            ],
            [
                108.01042175292969,
                -225.45608520507813,
                4400.0
            ],
            [
                102.56942749023438,
                -231.00790405273438,
                4500.0
            ],
            [
                96.29815673828125,
                -236.56668090820313,
                4600.0
            ],
            [
                89.22988891601563,
                -242.13365173339844,
                4700.0
            ],
            [
                81.30211639404297,
                -247.70521545410156,
                4800.0
            ],
            [
                72.45613098144531,
                -253.28207397460938,
                4900.0
            ],
            [
                62.80393981933594,
                -258.86273193359375,
                5000.0
            ],
            [
                45.483154296875,
                -267.33721923828125,
                5100.0
            ],
            [
                34.20978546142578,
                -272.7823791503906,
                5200.0
            ],
            [
                22.108966827392578,
                -278.235595703125,
                5300.0
            ],
            [
                9.204575538635254,
                -283.68505859375,
                5400.0
            ],
            [
                -4.536977767944336,
                -289.1290283203125,
                5500.0
            ],
            [
                -19.011831283569336,
                -294.58868408203125,
                5600.0
            ],
            [
                -34.28306579589844,
                -300.0425109863281,
                5700.0
            ],
            [
                -50.322689056396484,
                -305.4994812011719,
                5800.0
            ],
            [
                -67.1114273071289,
                -310.9514465332031,
                5900.0
            ],
            [
                -84.62178802490234,
                -316.4048767089844,
                6000.0
            ],
            [
                -102.83555603027344,
                -321.8566589355469,
                6100.0
            ],
            [
                -121.73684692382813,
                -327.3016052246094,
                6200.0
            ],
            [
                -141.32093811035156,
                -332.7394714355469,
                6300.0
            ],
            [
                -161.5493621826172,
                -338.1703186035156,
                6400.0
            ],
            [
                -182.4203338623047,
                -343.5905456542969,
                6500.0
            ],
            [
                -203.87266540527344,
                -349.0030212402344,
                6600.0
            ],
            [
                -225.91090393066406,
                -354.40338134765625,
                6700.0
            ],
            [
                -248.4992218017578,
                -359.79083251953125,
                6800.0
            ],
            [
                -271.61541748046875,
                -365.1629333496094,
                6900.0
            ],
            [
                -295.22857666015625,
                -370.518798828125,
                7000.0
            ],
            [
                -319.3114929199219,
                -375.8583068847656,
                7100.0
            ],
            [
                -343.83251953125,
                -381.1816711425781,
                7200.0
            ],
            [
                -368.77020263671875,
                -386.4877014160156,
                7300.0
            ],
            [
                -394.10205078125,
                -391.7759094238281,
                7400.0
            ],
            [
                -419.7890930175781,
                -397.0474548339844,
                7500.0
            ],
            [
                -445.809326171875,
                -402.3012390136719,
                7600.0
            ],
            [
                -472.136962890625,
                -407.5384826660156,
                7700.0
            ],
            [
                -498.7572937011719,
                -412.7591857910156,
                7800.0
            ],
            [
                -525.6444702148438,
                -417.96405029296875,
                7900.0
            ],
            [
                -552.774658203125,
                -423.1542053222656,
                8000.0
            ],
            [
                -580.1339721679688,
                -428.3301696777344,
                8100.0
            ],
            [
                -607.6961059570313,
                -433.4933166503906,
                8200.0
            ],
            [
                -635.4479370117188,
                -438.64422607421875,
                8300.0
            ],
            [
                -663.374755859375,
                -443.7837219238281,
                8400.0
            ],
            [
                -691.4639892578125,
                -448.91253662109375,
                8500.0
            ],
            [
                -719.692138671875,
                -454.0322265625,
                8600.0
            ],
            [
                -748.053955078125,
                -459.14306640625,
                8700.0
            ],
            [
                -776.53662109375,
                -464.2459716796875,
                8800.0
            ],
            [
                -805.1287231445313,
                -469.3418273925781,
                8900.0
            ],
            [
                -833.8218383789063,
                -474.4312438964844,
                9000.0
            ],
            [
                -862.6065673828125,
                -479.51495361328125,
                9100.0
            ],
            [
                -891.4742431640625,
                -484.59368896484375,
                9200.0
            ],
            [
                -920.4175415039063,
                -489.66802978515625,
                9300.0
            ],
            [
                -949.4295043945313,
                -494.738525390625,
                9400.0
            ],
            [
                -978.5034790039063,
                -499.8056945800781,
                9500.0
            ],
            [
                -1007.6341552734375,
                -504.8699951171875,
                9600.0
            ],
            [
                -1036.81591796875,
                -509.9318542480469,
                9700.0
            ],
            [
                -1066.0443115234375,
                -514.9915771484375,
                9800.0
            ],
            [
                -1095.314453125,
                -520.049560546875,
                9900.0
            ],
            [
                -1124.6229248046875,
                -525.1060180664063,
                10000.0
            ],
            [
                -1183.34033203125,
                -535.2155151367188,
                10200.0
            ],
            [
                -1242.1717529296875,
                -545.3215942382813,
                10400.0
            ],
            [
                -1301.0958251953125,
                -555.4257202148438,
                10600.0
            ],
            [
                -1360.09765625,
                -565.5285034179688,
                10800.0
            ],
            [
                -1419.15966796875,
                -575.6309814453125,
                11000.0
            ],
            [
                -1478.2730712890625,
                -585.7335205078125,
                11200.0
            ],
            [
                -1537.4296875,
                -595.836181640625,
                11400.0
            ],
            [
                -1596.6185302734375,
                -605.9395141601563,
                11600.0
            ],
            [
                -1655.833984375,
                -616.043701171875,
                11800.0
            ],
            [
                -1715.069580078125,
                -626.1487426757813,
                12000.0
            ],
            [
                -1774.3265380859375,
                -636.2542724609375,
                12200.0
            ],
            [
                -1833.5963134765625,
                -646.3606567382813,
                12400.0
            ],
            [
                -1892.8741455078125,
                -656.4680786132813,
                12600.0
            ],
            [
                -1952.1588134765625,
                -666.5762329101563,
                12800.0
            ],
            [
                -2011.4534912109375,
                -676.6846923828125,
                13000.0
            ],
            [
                -2070.75390625,
                -686.7935791015625,
                13200.0
            ],
            [
                -2130.057373046875,
                -696.9030151367188,
                13400.0
            ]
        ],
        "zFirstMeasurement": 584.4155
    }
]
