[
    {
        "E": 21536.914931897314,
        "chi2": 0.0,
        "ip": 1.893016137872629,
        "ipchi2": 10358.217442355752,
        "mass": 1853.242,
        "particleId": "D0",
        "pvx": 0.5943,
        "pvy": 0.1037,
        "pvz": 48.8273,
        "px": -1176.4,
        "py": -2841.97,
        "pz": 21235.43,
        "q": 0.0,
        "trajectory": [
            [
                0.5942999720573425,
                0.10369999706745148,
                48.827301025390625
            ],
            [
                -1.097499966621399,
                -3.914599895477295,
                65.72309875488281
            ]
        ],
        "zFirstMeasurement": -9999.0
    },
    {
        "E": 7143.693895244772,
        "chi2": 1.2504831552505493,
        "ip": 0.04449897128513978,
        "ipchi2": 1.7322551031352265,
        "mass": 493.677,
        "particleId": "K-",
        "pvx": 0.5943,
        "pvy": 0.1037,
        "pvz": 48.8273,
        "px": -664.35,
        "py": -1647.41,
        "pz": 6901.69,
        "q": -1.0,
        "trajectory": [
            [
                -1.07622492313385,
                -3.9228153228759766,
                65.72309875488281
            ],
            [
                -1.5575848817825317,
                -5.116293430328369,
                70.72309875488281
            ],
            [
                -2.0389206409454346,
                -6.309779644012451,
                75.72309875488281
            ],
            [
                -2.5202648639678955,
                -7.503265857696533,
                80.72309875488281
            ],
            [
                -3.001617908477783,
                -8.696752548217773,
                85.72309875488281
            ],
            [
                -3.4829795360565186,
                -9.890239715576172,
                90.72309875488281
            ],
            [
                -3.9643502235412598,
                -11.08372688293457,
                95.72309875488281
            ],
            [
                -4.445730209350586,
                -12.277214050292969,
                100.72309875488281
            ],
            [
                -6.371341705322266,
                -17.051166534423828,
                120.72309875488281
            ],
            [
                -8.297111511230469,
                -21.825122833251953,
                140.7230987548828
            ],
            [
                -10.223048210144043,
                -26.599082946777344,
                160.7230987548828
            ],
            [
                -12.149161338806152,
                -31.373050689697266,
                180.7230987548828
            ],
            [
                -14.075348854064941,
                -36.14701843261719,
                200.7230987548828
            ],
            [
                -16.001779556274414,
                -40.92099380493164,
                220.7230987548828
            ],
            [
                -17.928394317626953,
                -45.694976806640625,
                240.7230987548828
            ],
            [
                -19.855199813842773,
                -50.46896743774414,
                260.7231140136719
            ],
            [
                -21.782201766967773,
                -55.24296569824219,
                280.7231140136719
            ],
            [
                -23.709415435791016,
                -60.0169677734375,
                300.7231140136719
            ],
            [
                -25.6368408203125,
                -64.79098510742188,
                320.7231140136719
            ],
            [
                -27.56448745727539,
                -69.56500244140625,
                340.7231140136719
            ],
            [
                -29.492359161376953,
                -74.33903503417969,
                360.7231140136719
            ],
            [
                -31.42046356201172,
                -79.11307525634766,
                380.7231140136719
            ],
            [
                -33.34880828857422,
                -83.88713073730469,
                400.7231140136719
            ],
            [
                -35.277408599853516,
                -88.66118621826172,
                420.7231140136719
            ],
            [
                -37.20626449584961,
                -93.43526458740234,
                440.7231140136719
            ],
            [
                -39.13539505004883,
                -98.2093505859375,
                460.7231140136719
            ],
            [
                -41.06480407714844,
                -102.98345184326172,
                480.7231140136719
            ],
            [
                -42.9945068359375,
                -107.75756072998047,
                500.7231140136719
            ],
            [
                -44.92451477050781,
                -112.53169250488281,
                520.7230834960938
            ],
            [
                -46.85482406616211,
                -117.30583190917969,
                540.7230834960938
            ],
            [
                -48.78543472290039,
                -122.07999420166016,
                560.7230834960938
            ],
            [
                -50.71636199951172,
                -126.85416412353516,
                580.7230834960938
            ],
            [
                -52.64760971069336,
                -131.62835693359375,
                600.7230834960938
            ],
            [
                -54.57925033569336,
                -136.40255737304688,
                620.7230834960938
            ],
            [
                -56.511295318603516,
                -141.17677307128906,
                640.7230834960938
            ],
            [
                -58.44369888305664,
                -145.9510040283203,
                660.7230834960938
            ],
            [
                -60.37647247314453,
                -150.72525024414063,
                680.7230834960938
            ],
            [
                -62.309627532958984,
                -155.49952697753906,
                700.7230834960938
            ],
            [
                -64.24319458007813,
                -160.27378845214844,
                720.7230834960938
            ],
            [
                -66.17713165283203,
                -165.04806518554688,
                740.7230834960938
            ],
            [
                -68.1114730834961,
                -169.82237243652344,
                760.7230834960938
            ],
            [
                -70.0462417602539,
                -174.5966796875,
                780.7230834960938
            ],
            [
                -71.98155212402344,
                -179.3710174560547,
                800.7230834960938
            ],
            [
                -73.91732788085938,
                -184.14537048339844,
                820.7230834960938
            ],
            [
                -75.85359191894531,
                -188.9197540283203,
                840.7230834960938
            ],
            [
                -77.79032897949219,
                -193.6941375732422,
                860.7230834960938
            ],
            [
                -79.7275390625,
                -198.46853637695313,
                880.7230834960938
            ],
            [
                -81.66522979736328,
                -203.24295043945313,
                900.7230834960938
            ],
            [
                -83.60330963134766,
                -208.01739501953125,
                920.7230834960938
            ],
            [
                -85.54188537597656,
                -212.79185485839844,
                940.7230834960938
            ],
            [
                -87.48120880126953,
                -217.5662841796875,
                960.7230834960938
            ],
            [
                -89.42115020751953,
                -222.3406982421875,
                980.7230834960938
            ],
            [
                -91.36164855957031,
                -227.1151123046875,
                1000.7230834960938
            ],
            [
                -101.07565307617188,
                -250.98695373535156,
                1100.72314453125
            ],
            [
                -110.80409240722656,
                -274.8583679199219,
                1200.72314453125
            ],
            [
                -120.54779052734375,
                -298.7294006347656,
                1300.72314453125
            ],
            [
                -130.3067169189453,
                -322.5998229980469,
                1400.72314453125
            ],
            [
                -140.0804901123047,
                -346.4698181152344,
                1500.72314453125
            ],
            [
                -149.8639373779297,
                -370.3396911621094,
                1600.72314453125
            ],
            [
                -159.660400390625,
                -394.2100524902344,
                1700.72314453125
            ],
            [
                -169.46664428710938,
                -418.0813293457031,
                1800.72314453125
            ],
            [
                -179.28451538085938,
                -441.9537353515625,
                1900.72314453125
            ],
            [
                -189.11143493652344,
                -465.827880859375,
                2000.72314453125
            ],
            [
                -198.95584106445313,
                -489.7046203613281,
                2100.72314453125
            ],
            [
                -208.80929565429688,
                -513.583984375,
                2200.72314453125
            ],
            [
                -218.66465759277344,
                -537.468017578125,
                2300.72314453125
            ],
            [
                -228.53665161132813,
                -561.3587646484375,
                2400.72314453125
            ],
            [
                -238.42515563964844,
                -585.25927734375,
                2500.72314453125
            ],
            [
                -248.338623046875,
                -609.169677734375,
                2600.72314453125
            ],
            [
                -258.27777099609375,
                -633.0940551757813,
                2700.72314453125
            ],
            [
                -268.2592468261719,
                -657.0354614257813,
                2800.72314453125
            ],
            [
                -278.2930603027344,
                -680.9929809570313,
                2900.72314453125
            ],
            [
                -288.3831787109375,
                -704.9691772460938,
                3000.72314453125
            ],
            [
                -298.56121826171875,
                -728.9655151367188,
                3100.72314453125
            ],
            [
                -308.82281494140625,
                -752.9878540039063,
                3200.72314453125
            ],
            [
                -319.1985168457031,
                -777.0406494140625,
                3300.72314453125
            ],
            [
                -329.71209716796875,
                -801.1320190429688,
                3400.72314453125
            ],
            [
                -340.4244384765625,
                -825.2596435546875,
                3500.72314453125
            ],
            [
                -351.33331298828125,
                -849.4310302734375,
                3600.72314453125
            ],
            [
                -362.5616760253906,
                -873.648193359375,
                3700.72314453125
            ],
            [
                -374.078857421875,
                -897.912109375,
                3800.72314453125
            ],
            [
                -385.9976806640625,
                -922.2288208007813,
                3900.72314453125
            ],
            [
                -398.3865966796875,
                -946.6026000976563,
                4000.72314453125
            ],
            [
                -411.35260009765625,
                -971.0242919921875,
                4100.72314453125
            ],
            [
                -424.8952941894531,
                -995.4948120117188,
                4200.72314453125
            ],
            [
                -439.0850830078125,
                -1020.0042114257813,
                4300.72314453125
            ],
            [
                -453.92181396484375,
                -1044.5518798828125,
                4400.72314453125
            ],
            [
                -469.30023193359375,
                -1069.1204833984375,
                4500.72314453125
            ],
            [
                -485.4037170410156,
                -1093.713623046875,
                4600.72314453125
            ],
            [
                -502.0908508300781,
                -1118.3348388671875,
                4700.72314453125
            ],
            [
                -516.6297607421875,
                -1140.122314453125,
                4800.72314453125
            ],
            [
                -534.5803833007813,
                -1164.7130126953125,
                4900.72314453125
            ],
            [
                -552.8369750976563,
                -1189.3077392578125,
                5000.72314453125
            ],
            [
                -571.886474609375,
                -1213.883056640625,
                5100.72314453125
            ],
            [
                -591.3233642578125,
                -1238.482177734375,
                5200.72314453125
            ],
            [
                -611.4213256835938,
                -1263.0908203125,
                5300.72314453125
            ],
            [
                -631.9124145507813,
                -1287.68017578125,
                5400.72314453125
            ],
            [
                -652.9371337890625,
                -1312.34326171875,
                5500.72314453125
            ],
            [
                -674.4674072265625,
                -1336.955322265625,
                5600.72314453125
            ],
            [
                -696.5687255859375,
                -1361.5751953125,
                5700.72314453125
            ],
            [
                -719.182373046875,
                -1386.2027587890625,
                5800.72314453125
            ],
            [
                -742.1712036132813,
                -1410.8416748046875,
                5900.72314453125
            ],
            [
                -765.7836303710938,
                -1435.4764404296875,
                6000.72314453125
            ],
            [
                -789.8768310546875,
                -1460.0924072265625,
                6100.72314453125
            ],
            [
                -814.4807739257813,
                -1484.709716796875,
                6200.72314453125
            ],
            [
                -839.6300659179688,
                -1509.330810546875,
                6300.72314453125
            ],
            [
                -865.3021240234375,
                -1533.9300537109375,
                6400.72314453125
            ],
            [
                -891.573974609375,
                -1558.5128173828125,
                6500.72314453125
            ],
            [
                -918.3924560546875,
                -1583.032470703125,
                6600.72314453125
            ],
            [
                -945.7797241210938,
                -1607.49951171875,
                6700.72314453125
            ],
            [
                -973.6194458007813,
                -1631.8990478515625,
                6800.72314453125
            ],
            [
                -1001.86865234375,
                -1656.195068359375,
                6900.72314453125
            ],
            [
                -1030.441162109375,
                -1680.4085693359375,
                7000.72314453125
            ],
            [
                -1059.282958984375,
                -1704.5389404296875,
                7100.72314453125
            ],
            [
                -1088.342529296875,
                -1728.5843505859375,
                7200.72314453125
            ],
            [
                -1117.5916748046875,
                -1752.5557861328125,
                7300.72314453125
            ],
            [
                -1147.0003662109375,
                -1776.4432373046875,
                7400.72314453125
            ],
            [
                -1176.5166015625,
                -1800.2666015625,
                7500.72314453125
            ],
            [
                -1206.1109619140625,
                -1824.0240478515625,
                7600.72314453125
            ],
            [
                -1235.7569580078125,
                -1847.728515625,
                7700.72314453125
            ],
            [
                -1265.439697265625,
                -1871.3837890625,
                7800.72314453125
            ],
            [
                -1295.1351318359375,
                -1894.9990234375,
                7900.72314453125
            ],
            [
                -1324.841552734375,
                -1918.5819091796875,
                8000.72314453125
            ],
            [
                -1354.552490234375,
                -1942.13720703125,
                8100.72314453125
            ],
            [
                -1384.26806640625,
                -1965.6722412109375,
                8200.72265625
            ],
            [
                -1413.984375,
                -1989.190185546875,
                8300.72265625
            ],
            [
                -1443.7010498046875,
                -2012.694580078125,
                8400.72265625
            ],
            [
                -1473.417724609375,
                -2036.1884765625,
                8500.72265625
            ],
            [
                -1503.1336669921875,
                -2059.6748046875,
                8600.72265625
            ],
            [
                -1532.84912109375,
                -2083.1552734375,
                8700.72265625
            ],
            [
                -1562.5634765625,
                -2106.631103515625,
                8800.72265625
            ],
            [
                -1592.277587890625,
                -2130.104248046875,
                8900.72265625
            ],
            [
                -1621.9910888671875,
                -2153.5751953125,
                9000.72265625
            ],
            [
                -1651.7042236328125,
                -2177.044921875,
                9100.72265625
            ],
            [
                -1681.4169921875,
                -2200.514404296875,
                9200.72265625
            ],
            [
                -1711.12939453125,
                -2223.98388671875,
                9300.72265625
            ],
            [
                -1740.8414306640625,
                -2247.453857421875,
                9400.72265625
            ],
            [
                -1770.5533447265625,
                -2270.92431640625,
                9500.72265625
            ],
            [
                -1800.2650146484375,
                -2294.39599609375,
                9600.72265625
            ],
            [
                -1829.9764404296875,
                -2317.868408203125,
                9700.72265625
            ],
            [
                -1859.6876220703125,
                -2341.34228515625,
                9800.72265625
            ],
            [
                -1889.398681640625,
                -2364.817138671875,
                9900.72265625
            ],
            [
                -1919.109619140625,
                -2388.29345703125,
                10000.72265625
            ],
            [
                -1978.5311279296875,
                -2435.25,
                10200.72265625
            ],
            [
                -2037.9520263671875,
                -2482.211669921875,
                10400.72265625
            ],
            [
                -2097.3720703125,
                -2529.1787109375,
                10600.72265625
            ],
            [
                -2156.791015625,
                -2576.150390625,
                10800.72265625
            ],
            [
                -2216.20947265625,
                -2623.12646484375,
                11000.72265625
            ],
            [
                -2275.626708984375,
                -2670.107177734375,
                11200.72265625
            ],
            [
                -2335.042236328125,
                -2717.091552734375,
                11400.72265625
            ],
            [
                -2394.4560546875,
                -2764.080078125,
                11600.72265625
            ],
            [
                -2453.869140625,
                -2811.07177734375,
                11800.72265625
            ],
            [
                -2513.281005859375,
                -2858.066650390625,
                12000.72265625
            ],
            [
                -2572.6904296875,
                -2905.064697265625,
                12200.72265625
            ],
            [
                -2632.0986328125,
                -2952.065185546875,
                12400.72265625
            ],
            [
                -2691.50537109375,
                -2999.068359375,
                12600.72265625
            ],
            [
                -2750.912109375,
                -3046.0732421875,
                12800.72265625
            ],
            [
                -2810.31689453125,
                -3093.079833984375,
                13000.72265625
            ],
            [
                -2869.720458984375,
                -3140.088134765625,
                13200.72265625
            ],
            [
                -2929.123046875,
                -3187.096923828125,
                13400.72265625
            ]
        ],
        "zFirstMeasurement": 81.3571
    },
    {
        "E": 14394.93312048018,
        "chi2": 0.7783990502357483,
        "ip": 0.04235413488734198,
        "ipchi2": 3.368285038042238,
        "mass": 139.57,
        "particleId": "pi+",
        "pvx": 0.5828,
        "pvy": 0.1088,
        "pvz": 17.6934,
        "px": -513.74,
        "py": -1194.09,
        "pz": 14335.44,
        "q": 1.0,
        "trajectory": [
            [
                -1.101477861404419,
                -3.912736415863037,
                65.72309875488281
            ],
            [
                -1.280626654624939,
                -4.32921838760376,
                70.72309875488281
            ],
            [
                -1.4597713947296143,
                -4.745700836181641,
                75.72309875488281
            ],
            [
                -1.6389120817184448,
                -5.162182807922363,
                80.72309875488281
            ],
            [
                -1.8180487155914307,
                -5.578665256500244,
                85.72309875488281
            ],
            [
                -1.9971811771392822,
                -5.995147228240967,
                90.72309875488281
            ],
            [
                -2.17630934715271,
                -6.411629676818848,
                95.72309875488281
            ],
            [
                -2.355433225631714,
                -6.82811164855957,
                100.72309875488281
            ],
            [
                -3.0718841552734375,
                -8.494041442871094,
                120.72309875488281
            ],
            [
                -3.7882604598999023,
                -10.1599702835083,
                140.7230987548828
            ],
            [
                -4.504556655883789,
                -11.825900077819824,
                160.7230987548828
            ],
            [
                -5.220767974853516,
                -13.491829872131348,
                180.7230987548828
            ],
            [
                -5.9368896484375,
                -15.157758712768555,
                200.7230987548828
            ],
            [
                -6.652964115142822,
                -16.823688507080078,
                220.7230987548828
            ],
            [
                -7.368920803070068,
                -18.4896183013916,
                240.7230987548828
            ],
            [
                -8.084783554077148,
                -20.155548095703125,
                260.7231140136719
            ],
            [
                -8.80054759979248,
                -21.82147789001465,
                280.7231140136719
            ],
            [
                -9.516209602355957,
                -23.487407684326172,
                300.7231140136719
            ],
            [
                -10.231765747070313,
                -25.153335571289063,
                320.7231140136719
            ],
            [
                -10.947212219238281,
                -26.819265365600586,
                340.7231140136719
            ],
            [
                -11.66254711151123,
                -28.485193252563477,
                360.7231140136719
            ],
            [
                -12.377765655517578,
                -30.151121139526367,
                380.7231140136719
            ],
            [
                -13.092864036560059,
                -31.817049026489258,
                400.7231140136719
            ],
            [
                -13.807832717895508,
                -33.482975006103516,
                420.7231140136719
            ],
            [
                -14.522665977478027,
                -35.148902893066406,
                440.7231140136719
            ],
            [
                -15.237361907958984,
                -36.81482696533203,
                460.7231140136719
            ],
            [
                -15.951920509338379,
                -38.480751037597656,
                480.7231140136719
            ],
            [
                -16.666336059570313,
                -40.14667510986328,
                500.7231140136719
            ],
            [
                -17.380599975585938,
                -41.812599182128906,
                520.7230834960938
            ],
            [
                -18.094711303710938,
                -43.478519439697266,
                540.7230834960938
            ],
            [
                -18.80866813659668,
                -45.144439697265625,
                560.7230834960938
            ],
            [
                -19.5224666595459,
                -46.810359954833984,
                580.7230834960938
            ],
            [
                -20.236087799072266,
                -48.47627639770508,
                600.7230834960938
            ],
            [
                -20.949508666992188,
                -50.14219284057617,
                620.7230834960938
            ],
            [
                -21.662752151489258,
                -51.808109283447266,
                640.7230834960938
            ],
            [
                -22.375812530517578,
                -53.47402572631836,
                660.7230834960938
            ],
            [
                -23.088685989379883,
                -55.13993835449219,
                680.7230834960938
            ],
            [
                -23.801366806030273,
                -56.805850982666016,
                700.7230834960938
            ],
            [
                -24.513858795166016,
                -58.471763610839844,
                720.7230834960938
            ],
            [
                -25.226150512695313,
                -60.137672424316406,
                740.7230834960938
            ],
            [
                -25.938213348388672,
                -61.80358123779297,
                760.7230834960938
            ],
            [
                -26.64999771118164,
                -63.46949005126953,
                780.7230834960938
            ],
            [
                -27.36155891418457,
                -65.13539123535156,
                800.7230834960938
            ],
            [
                -28.07289695739746,
                -66.80130004882813,
                820.7230834960938
            ],
            [
                -28.78400421142578,
                -68.46720123291016,
                840.7230834960938
            ],
            [
                -29.494873046875,
                -70.13310241699219,
                860.7230834960938
            ],
            [
                -30.20549774169922,
                -71.79899597167969,
                880.7230834960938
            ],
            [
                -30.915878295898438,
                -73.46489715576172,
                900.7230834960938
            ],
            [
                -31.626041412353516,
                -75.13079071044922,
                920.7230834960938
            ],
            [
                -32.33589553833008,
                -76.79667663574219,
                940.7230834960938
            ],
            [
                -33.04546356201172,
                -78.46256256103516,
                960.7230834960938
            ],
            [
                -33.754756927490234,
                -80.12844848632813,
                980.7230834960938
            ],
            [
                -34.463775634765625,
                -81.79432678222656,
                1000.7230834960938
            ],
            [
                -38.00497817993164,
                -90.12369537353516,
                1100.72314453125
            ],
            [
                -41.536102294921875,
                -98.4532470703125,
                1200.72314453125
            ],
            [
                -45.061397552490234,
                -106.78268432617188,
                1300.72314453125
            ],
            [
                -48.57940673828125,
                -115.11212921142578,
                1400.72314453125
            ],
            [
                -52.089473724365234,
                -123.44159698486328,
                1500.72314453125
            ],
            [
                -55.59347915649414,
                -131.77110290527344,
                1600.72314453125
            ],
            [
                -59.089576721191406,
                -140.1005401611328,
                1700.72314453125
            ],
            [
                -62.577449798583984,
                -148.4298858642578,
                1800.72314453125
            ],
            [
                -66.0558853149414,
                -156.75906372070313,
                1900.72314453125
            ],
            [
                -69.52494049072266,
                -165.0880126953125,
                2000.72314453125
            ],
            [
                -72.98050689697266,
                -173.41677856445313,
                2100.72314453125
            ],
            [
                -76.41844177246094,
                -181.7453155517578,
                2200.72314453125
            ],
            [
                -79.84505462646484,
                -190.07345581054688,
                2300.72314453125
            ],
            [
                -83.24858093261719,
                -198.4010772705078,
                2400.72314453125
            ],
            [
                -86.62835693359375,
                -206.72802734375,
                2500.72314453125
            ],
            [
                -89.97441864013672,
                -215.05419921875,
                2600.72314453125
            ],
            [
                -93.2858657836914,
                -223.3793182373047,
                2700.72314453125
            ],
            [
                -96.55259704589844,
                -231.70339965820313,
                2800.72314453125
            ],
            [
                -99.7688217163086,
                -240.0261993408203,
                2900.72314453125
            ],
            [
                -102.92259979248047,
                -248.3474578857422,
                3000.72314453125
            ],
            [
                -106.00712585449219,
                -256.6673583984375,
                3100.72314453125
            ],
            [
                -109.00056457519531,
                -264.9866638183594,
                3200.72314453125
            ],
            [
                -111.91117858886719,
                -273.3040466308594,
                3300.72314453125
            ],
            [
                -114.70948791503906,
                -281.6199645996094,
                3400.72314453125
            ],
            [
                -117.38496398925781,
                -289.93402099609375,
                3500.72314453125
            ],
            [
                -119.9350814819336,
                -298.2454833984375,
                3600.72314453125
            ],
            [
                -122.33698272705078,
                -306.5555419921875,
                3700.72314453125
            ],
            [
                -124.57943725585938,
                -314.8645935058594,
                3800.72314453125
            ],
            [
                -126.65473937988281,
                -323.1717224121094,
                3900.72314453125
            ],
            [
                -128.5360870361328,
                -331.4765625,
                4000.72314453125
            ],
            [
                -130.23703002929688,
                -339.7791748046875,
                4100.72314453125
            ],
            [
                -131.7142791748047,
                -348.0823669433594,
                4200.72314453125
            ],
            [
                -132.97860717773438,
                -356.3840637207031,
                4300.72314453125
            ],
            [
                -134.02978515625,
                -364.68328857421875,
                4400.72314453125
            ],
            [
                -134.86935424804688,
                -372.9814453125,
                4500.72314453125
            ],
            [
                -135.47735595703125,
                -381.2789611816406,
                4600.72314453125
            ],
            [
                -135.86190795898438,
                -389.57684326171875,
                4700.72314453125
            ],
            [
                -138.35755920410156,
                -397.4942321777344,
                4800.72314453125
            ],
            [
                -138.34288024902344,
                -405.78912353515625,
                4900.72314453125
            ],
            [
                -138.10916137695313,
                -414.08367919921875,
                5000.72314453125
            ],
            [
                -137.64674377441406,
                -422.3778076171875,
                5100.72314453125
            ],
            [
                -136.97030639648438,
                -430.6711730957031,
                5200.72314453125
            ],
            [
                -136.0769500732422,
                -438.9638366699219,
                5300.72314453125
            ],
            [
                -134.97171020507813,
                -447.2561340332031,
                5400.72314453125
            ],
            [
                -133.6529541015625,
                -455.5491027832031,
                5500.72314453125
            ],
            [
                -132.13575744628906,
                -463.84051513671875,
                5600.72314453125
            ],
            [
                -130.41151428222656,
                -472.1309509277344,
                5700.72314453125
            ],
            [
                -128.48924255371094,
                -480.4208068847656,
                5800.72314453125
            ],
            [
                -126.37965393066406,
                -488.7100524902344,
                5900.72314453125
            ],
            [
                -124.07477569580078,
                -496.9986267089844,
                6000.72314453125
            ],
            [
                -121.59039306640625,
                -505.2861633300781,
                6100.72314453125
            ],
            [
                -118.92849731445313,
                -513.5728759765625,
                6200.72314453125
            ],
            [
                -116.0922622680664,
                -521.85888671875,
                6300.72314453125
            ],
            [
                -113.09072875976563,
                -530.1439819335938,
                6400.72314453125
            ],
            [
                -109.92892456054688,
                -538.4279174804688,
                6500.72314453125
            ],
            [
                -106.61261749267578,
                -546.7109375,
                6600.72314453125
            ],
            [
                -103.14873504638672,
                -554.992431640625,
                6700.72314453125
            ],
            [
                -99.54926300048828,
                -563.2725219726563,
                6800.72314453125
            ],
            [
                -95.81432342529297,
                -571.5513916015625,
                6900.72314453125
            ],
            [
                -91.95561218261719,
                -579.8287963867188,
                7000.72314453125
            ],
            [
                -87.98085021972656,
                -588.1046142578125,
                7100.72314453125
            ],
            [
                -83.89793395996094,
                -596.3787841796875,
                7200.72314453125
            ],
            [
                -79.71383666992188,
                -604.6512451171875,
                7300.72314453125
            ],
            [
                -75.43285369873047,
                -612.922119140625,
                7400.72314453125
            ],
            [
                -71.06844329833984,
                -621.1912231445313,
                7500.72314453125
            ],
            [
                -66.62139129638672,
                -629.4586181640625,
                7600.72314453125
            ],
            [
                -62.10215759277344,
                -637.7243041992188,
                7700.72314453125
            ],
            [
                -57.51410675048828,
                -645.98828125,
                7800.72314453125
            ],
            [
                -52.86381530761719,
                -654.2506713867188,
                7900.72314453125
            ],
            [
                -48.15740966796875,
                -662.5114135742188,
                8000.72314453125
            ],
            [
                -43.39814758300781,
                -670.7706298828125,
                8100.72314453125
            ],
            [
                -38.59250259399414,
                -679.0284423828125,
                8200.72265625
            ],
            [
                -33.74381637573242,
                -687.2848510742188,
                8300.72265625
            ],
            [
                -28.85554313659668,
                -695.5399780273438,
                8400.72265625
            ],
            [
                -23.9311466217041,
                -703.7938842773438,
                8500.72265625
            ],
            [
                -18.97502326965332,
                -712.0466918945313,
                8600.72265625
            ],
            [
                -13.989014625549316,
                -720.2984619140625,
                8700.72265625
            ],
            [
                -8.976043701171875,
                -728.54931640625,
                8800.72265625
            ],
            [
                -3.9387288093566895,
                -736.7992553710938,
                8900.72265625
            ],
            [
                1.1210581064224243,
                -745.04833984375,
                9000.72265625
            ],
            [
                6.201195240020752,
                -753.2966918945313,
                9100.72265625
            ],
            [
                11.299751281738281,
                -761.5443725585938,
                9200.72265625
            ],
            [
                16.415136337280273,
                -769.7914428710938,
                9300.72265625
            ],
            [
                21.545801162719727,
                -778.0379028320313,
                9400.72265625
            ],
            [
                26.690303802490234,
                -786.2838134765625,
                9500.72265625
            ],
            [
                31.84746551513672,
                -794.529296875,
                9600.72265625
            ],
            [
                37.01609420776367,
                -802.7742919921875,
                9700.72265625
            ],
            [
                42.1951904296875,
                -811.0189208984375,
                9800.72265625
            ],
            [
                47.38372802734375,
                -819.26318359375,
                9900.72265625
            ],
            [
                52.580928802490234,
                -827.5071411132813,
                10000.72265625
            ],
            [
                62.99821853637695,
                -843.994140625,
                10200.72265625
            ],
            [
                73.441650390625,
                -860.480224609375,
                10400.72265625
            ],
            [
                83.90644836425781,
                -876.965576171875,
                10600.72265625
            ],
            [
                94.3895263671875,
                -893.4502563476563,
                10800.72265625
            ],
            [
                104.88690185546875,
                -909.9345092773438,
                11000.72265625
            ],
            [
                115.39657592773438,
                -926.4183349609375,
                11200.72265625
            ],
            [
                125.91670989990234,
                -942.90185546875,
                11400.72265625
            ],
            [
                136.44476318359375,
                -959.3851318359375,
                11600.72265625
            ],
            [
                146.97952270507813,
                -975.8682861328125,
                11800.72265625
            ],
            [
                157.51951599121094,
                -992.351318359375,
                12000.72265625
            ],
            [
                168.0648651123047,
                -1008.8341674804688,
                12200.72265625
            ],
            [
                178.61367797851563,
                -1025.3170166015625,
                12400.72265625
            ],
            [
                189.16464233398438,
                -1041.7998046875,
                12600.72265625
            ],
            [
                199.7176971435547,
                -1058.2825927734375,
                12800.72265625
            ],
            [
                210.27322387695313,
                -1074.7652587890625,
                13000.72265625
            ],
            [
                220.8304443359375,
                -1091.2479248046875,
                13200.72265625
            ],
            [
                231.3884735107422,
                -1107.7305908203125,
                13400.72265625
            ]
        ],
        "zFirstMeasurement": 109.4064
    },
    {
        "E": 20756.629249007296,
        "chi2": 1.1308226585388184,
        "ip": 0.137451709233208,
        "ipchi2": 7.72343514319522,
        "mass": 139.57018,
        "particleId": "pi+",
        "pvx": 0.5828,
        "pvy": 0.1088,
        "pvz": 17.6934,
        "px": 526.586079432166,
        "py": 169.87962928780016,
        "pz": 20748.78372238,
        "q": 1.0,
        "trajectory": [
            [
                -2.3282647132873535,
                -0.7399490475654602,
                -100.0
            ],
            [
                -2.2014071941375732,
                -0.6990109086036682,
                -95.0
            ],
            [
                -2.0745480060577393,
                -0.6580728888511658,
                -90.0
            ],
            [
                -1.9476869106292725,
                -0.6171348690986633,
                -85.0
            ],
            [
                -1.8208239078521729,
                -0.5761969685554504,
                -80.0
            ],
            [
                -1.6939589977264404,
                -0.5352590084075928,
                -75.0
            ],
            [
                -1.5670921802520752,
                -0.49432119727134705,
                -70.0
            ],
            [
                -1.4402233362197876,
                -0.4533833861351013,
                -65.0
            ],
            [
                -1.3133524656295776,
                -0.41244563460350037,
                -60.0
            ],
            [
                -1.1864794492721558,
                -0.3715079128742218,
                -55.0
            ],
            [
                -1.0596044063568115,
                -0.330570250749588,
                -50.0
            ],
            [
                -0.9327272176742554,
                -0.2896326184272766,
                -45.0
            ],
            [
                -0.8058478236198425,
                -0.24869506061077118,
                -40.0
            ],
            [
                -0.678966224193573,
                -0.20775753259658813,
                -35.0
            ],
            [
                -0.552082359790802,
                -0.16682006418704987,
                -30.0
            ],
            [
                -0.42519626021385193,
                -0.12588262557983398,
                -25.0
            ],
            [
                -0.29830777645111084,
                -0.08494523912668228,
                -20.0
            ],
            [
                -0.17141695320606232,
                -0.04400790110230446,
                -15.0
            ],
            [
                -0.044523727148771286,
                -0.00307060731574893,
                -10.0
            ],
            [
                0.08237194269895554,
                0.03786664083600044,
                -5.0
            ],
            [
                0.20927008986473083,
                0.07880384474992752,
                0.0
            ],
            [
                0.3361707329750061,
                0.11974100768566132,
                5.0
            ],
            [
                0.4630739688873291,
                0.16067811846733093,
                10.0
            ],
            [
                0.5899797677993774,
                0.20161519944667816,
                15.0
            ],
            [
                0.7168882489204407,
                0.24255222082138062,
                20.0
            ],
            [
                0.8437994122505188,
                0.2834891974925995,
                25.0
            ],
            [
                0.9707133173942566,
                0.32442614436149597,
                30.0
            ],
            [
                1.0976300239562988,
                0.3653630316257477,
                35.0
            ],
            [
                1.2245495319366455,
                0.4062998592853546,
                40.0
            ],
            [
                1.3514719009399414,
                0.44723665714263916,
                45.0
            ],
            [
                1.4783971309661865,
                0.4881734251976013,
                50.0
            ],
            [
                1.6053253412246704,
                0.5291101336479187,
                55.0
            ],
            [
                1.7322566509246826,
                0.5700467824935913,
                60.0
            ],
            [
                1.859190821647644,
                0.6109834313392639,
                65.0
            ],
            [
                1.9861282110214233,
                0.6519200205802917,
                70.0
            ],
            [
                2.1130688190460205,
                0.6928565502166748,
                75.0
            ],
            [
                2.2400124073028564,
                0.7337930202484131,
                80.0
            ],
            [
                2.3669593334198,
                0.7747294306755066,
                85.0
            ],
            [
                2.4939093589782715,
                0.8156658411026001,
                90.0
            ],
            [
                2.620842218399048,
                0.8566021919250488,
                95.0
            ],
            [
                2.747795820236206,
                0.8975384831428528,
                100.0
            ],
            [
                3.255641460418701,
                1.0612833499908447,
                120.0
            ],
            [
                3.7635388374328613,
                1.225027322769165,
                140.0
            ],
            [
                4.271489143371582,
                1.3887706995010376,
                160.0
            ],
            [
                4.779496192932129,
                1.5525134801864624,
                180.0
            ],
            [
                5.287562847137451,
                1.7162554264068604,
                200.0
            ],
            [
                5.795744895935059,
                1.8799915313720703,
                220.0
            ],
            [
                6.303936004638672,
                2.043732166290283,
                240.0
            ],
            [
                6.812192916870117,
                2.207472324371338,
                260.0
            ],
            [
                7.3205180168151855,
                2.3712117671966553,
                280.0
            ],
            [
                7.828914642333984,
                2.5349504947662354,
                300.0
            ],
            [
                8.337385177612305,
                2.6986887454986572,
                320.0
            ],
            [
                8.845906257629395,
                2.862426280975342,
                340.0
            ],
            [
                9.354546546936035,
                3.026163339614868,
                360.0
            ],
            [
                9.863265037536621,
                3.1898999214172363,
                380.0
            ],
            [
                10.372063636779785,
                3.3536360263824463,
                400.0
            ],
            [
                10.88094711303711,
                3.517371654510498,
                420.0
            ],
            [
                11.389920234680176,
                3.6811068058013916,
                440.0
            ],
            [
                11.898988723754883,
                3.844841480255127,
                460.0
            ],
            [
                12.408156394958496,
                4.008575439453125,
                480.0
            ],
            [
                12.91742992401123,
                4.172309398651123,
                500.0
            ],
            [
                13.426812171936035,
                4.336042881011963,
                520.0
            ],
            [
                13.936269760131836,
                4.4997758865356445,
                540.0
            ],
            [
                14.44586181640625,
                4.663508415222168,
                560.0
            ],
            [
                14.95556926727295,
                4.827240467071533,
                580.0
            ],
            [
                15.465396881103516,
                4.990972518920898,
                600.0
            ],
            [
                15.975348472595215,
                5.154704570770264,
                620.0
            ],
            [
                16.485427856445313,
                5.3184356689453125,
                640.0
            ],
            [
                16.99563980102539,
                5.4821672439575195,
                660.0
            ],
            [
                17.505992889404297,
                5.645898342132568,
                680.0
            ],
            [
                18.01648712158203,
                5.809628963470459,
                700.0
            ],
            [
                18.527128219604492,
                5.973360061645508,
                720.0
            ],
            [
                19.037921905517578,
                6.137091636657715,
                740.0
            ],
            [
                19.548870086669922,
                6.300823211669922,
                760.0
            ],
            [
                20.059978485107422,
                6.464555263519287,
                780.0
            ],
            [
                20.57124900817871,
                6.628287315368652,
                800.0
            ],
            [
                21.082687377929688,
                6.792019844055176,
                820.0
            ],
            [
                21.594295501708984,
                6.955752849578857,
                840.0
            ],
            [
                22.106081008911133,
                7.119485855102539,
                860.0
            ],
            [
                22.6180419921875,
                7.283218860626221,
                880.0
            ],
            [
                23.130170822143555,
                7.446950912475586,
                900.0
            ],
            [
                23.642475128173828,
                7.610682964324951,
                920.0
            ],
            [
                24.154966354370117,
                7.774415016174316,
                940.0
            ],
            [
                24.667648315429688,
                7.938147068023682,
                960.0
            ],
            [
                25.180524826049805,
                8.101879119873047,
                980.0
            ],
            [
                25.693618774414063,
                8.26561450958252,
                1000.0
            ],
            [
                28.26209831237793,
                9.084309577941895,
                1100.0
            ],
            [
                30.835956573486328,
                9.903026580810547,
                1200.0
            ],
            [
                33.41517639160156,
                10.721770286560059,
                1300.0
            ],
            [
                35.99978256225586,
                11.540502548217773,
                1400.0
            ],
            [
                38.587249755859375,
                12.359101295471191,
                1500.0
            ],
            [
                41.181514739990234,
                13.177821159362793,
                1600.0
            ],
            [
                43.78145217895508,
                13.996564865112305,
                1700.0
            ],
            [
                46.386962890625,
                14.81532096862793,
                1800.0
            ],
            [
                48.99923324584961,
                15.634098052978516,
                1900.0
            ],
            [
                51.62008285522461,
                16.452903747558594,
                2000.0
            ],
            [
                54.24906539916992,
                17.271738052368164,
                2100.0
            ],
            [
                56.88954544067383,
                18.090614318847656,
                2200.0
            ],
            [
                59.54331970214844,
                18.90949821472168,
                2300.0
            ],
            [
                62.21136474609375,
                19.72844123840332,
                2400.0
            ],
            [
                64.89774322509766,
                20.54721450805664,
                2500.0
            ],
            [
                67.60745239257813,
                21.366315841674805,
                2600.0
            ],
            [
                70.34710693359375,
                22.185529708862305,
                2700.0
            ],
            [
                73.1171875,
                23.0048885345459,
                2800.0
            ],
            [
                75.92691802978516,
                23.824417114257813,
                2900.0
            ],
            [
                78.7818832397461,
                24.64409828186035,
                3000.0
            ],
            [
                81.68799591064453,
                25.463918685913086,
                3100.0
            ],
            [
                84.65779113769531,
                26.283798217773438,
                3200.0
            ],
            [
                87.69474029541016,
                27.103843688964844,
                3300.0
            ],
            [
                90.8006820678711,
                27.924156188964844,
                3400.0
            ],
            [
                93.99884796142578,
                28.744163513183594,
                3500.0
            ],
            [
                97.28565216064453,
                29.56488609313965,
                3600.0
            ],
            [
                100.67835235595703,
                30.385847091674805,
                3700.0
            ],
            [
                104.18193054199219,
                31.206972122192383,
                3800.0
            ],
            [
                107.79972076416016,
                32.02824401855469,
                3900.0
            ],
            [
                111.53791809082031,
                32.85000228881836,
                4000.0
            ],
            [
                115.42422485351563,
                33.67220687866211,
                4100.0
            ],
            [
                119.44243621826172,
                34.49457931518555,
                4200.0
            ],
            [
                123.60447692871094,
                35.317386627197266,
                4300.0
            ],
            [
                127.89481353759766,
                36.14051055908203,
                4400.0
            ],
            [
                132.34494018554688,
                36.96406173706055,
                4500.0
            ],
            [
                136.94664001464844,
                37.78812789916992,
                4600.0
            ],
            [
                141.6962432861328,
                38.612430572509766,
                4700.0
            ],
            [
                146.60052490234375,
                39.43712615966797,
                4800.0
            ],
            [
                151.64369201660156,
                40.262123107910156,
                4900.0
            ],
            [
                158.64199829101563,
                38.931968688964844,
                5000.0
            ],
            [
                164.0167236328125,
                39.70280838012695,
                5100.0
            ],
            [
                169.537841796875,
                40.473876953125,
                5200.0
            ],
            [
                175.2071533203125,
                41.24574279785156,
                5300.0
            ],
            [
                181.01983642578125,
                42.017120361328125,
                5400.0
            ],
            [
                186.9751739501953,
                42.78815460205078,
                5500.0
            ],
            [
                193.0660400390625,
                43.560691833496094,
                5600.0
            ],
            [
                199.2970428466797,
                44.33296203613281,
                5700.0
            ],
            [
                205.66253662109375,
                45.10566711425781,
                5800.0
            ],
            [
                212.15435791015625,
                45.878631591796875,
                5900.0
            ],
            [
                218.77662658691406,
                46.65229797363281,
                6000.0
            ],
            [
                225.52108764648438,
                47.426422119140625,
                6100.0
            ],
            [
                232.3848419189453,
                48.200592041015625,
                6200.0
            ],
            [
                239.3640594482422,
                48.97480010986328,
                6300.0
            ],
            [
                246.45394897460938,
                49.749088287353516,
                6400.0
            ],
            [
                253.65187072753906,
                50.52333068847656,
                6500.0
            ],
            [
                260.9507751464844,
                51.297882080078125,
                6600.0
            ],
            [
                268.3487548828125,
                52.072574615478516,
                6700.0
            ],
            [
                275.8382263183594,
                52.8473014831543,
                6800.0
            ],
            [
                283.4180908203125,
                53.62207794189453,
                6900.0
            ],
            [
                291.08160400390625,
                54.39691925048828,
                7000.0
            ],
            [
                298.82366943359375,
                55.1717643737793,
                7100.0
            ],
            [
                306.6394348144531,
                55.94660949707031,
                7200.0
            ],
            [
                314.5250244140625,
                56.72149658203125,
                7300.0
            ],
            [
                322.47698974609375,
                57.496437072753906,
                7400.0
            ],
            [
                330.4876403808594,
                58.2714729309082,
                7500.0
            ],
            [
                338.5555114746094,
                59.04655456542969,
                7600.0
            ],
            [
                346.67498779296875,
                59.82172393798828,
                7700.0
            ],
            [
                354.8437805175781,
                60.59699630737305,
                7800.0
            ],
            [
                363.05780029296875,
                61.372398376464844,
                7900.0
            ],
            [
                371.3130798339844,
                62.14791488647461,
                8000.0
            ],
            [
                379.607421875,
                62.923561096191406,
                8100.0
            ],
            [
                387.93646240234375,
                63.699344635009766,
                8200.0
            ],
            [
                396.2979736328125,
                64.47525787353516,
                8300.0
            ],
            [
                404.6895446777344,
                65.25129699707031,
                8400.0
            ],
            [
                413.1087341308594,
                66.02745819091797,
                8500.0
            ],
            [
                421.5524597167969,
                66.8037338256836,
                8600.0
            ],
            [
                430.0193786621094,
                67.58011627197266,
                8700.0
            ],
            [
                438.50738525390625,
                68.3565902709961,
                8800.0
            ],
            [
                447.0145568847656,
                69.13318634033203,
                8900.0
            ],
            [
                455.5394592285156,
                69.90988159179688,
                9000.0
            ],
            [
                464.08056640625,
                70.68667602539063,
                9100.0
            ],
            [
                472.6363220214844,
                71.46356964111328,
                9200.0
            ],
            [
                481.20556640625,
                72.24056243896484,
                9300.0
            ],
            [
                489.787109375,
                73.01763153076172,
                9400.0
            ],
            [
                498.3797607421875,
                73.79478454589844,
                9500.0
            ],
            [
                506.982666015625,
                74.572021484375,
                9600.0
            ],
            [
                515.5948486328125,
                75.34931945800781,
                9700.0
            ],
            [
                524.2155151367188,
                76.1266860961914,
                9800.0
            ],
            [
                532.8438720703125,
                76.90411376953125,
                9900.0
            ],
            [
                541.479248046875,
                77.68160247802734,
                10000.0
            ],
            [
                558.7686767578125,
                79.23672485351563,
                10200.0
            ],
            [
                576.0795288085938,
                80.79203033447266,
                10400.0
            ],
            [
                593.4078979492188,
                82.34748840332031,
                10600.0
            ],
            [
                610.751220703125,
                83.90306854248047,
                10800.0
            ],
            [
                628.1062622070313,
                85.45875549316406,
                11000.0
            ],
            [
                645.4714965820313,
                87.0145263671875,
                11200.0
            ],
            [
                662.8453369140625,
                88.57037353515625,
                11400.0
            ],
            [
                680.2255859375,
                90.12627410888672,
                11600.0
            ],
            [
                697.6115112304688,
                91.68222045898438,
                11800.0
            ],
            [
                715.001708984375,
                93.23819732666016,
                12000.0
            ],
            [
                732.3963623046875,
                94.7942123413086,
                12200.0
            ],
            [
                749.7938842773438,
                96.35025024414063,
                12400.0
            ],
            [
                767.1931762695313,
                97.90630340576172,
                12600.0
            ],
            [
                784.59423828125,
                99.46237182617188,
                12800.0
            ],
            [
                801.997314453125,
                101.0184555053711,
                13000.0
            ],
            [
                819.40185546875,
                102.57454681396484,
                13200.0
            ],
            [
                836.8070068359375,
                104.13064575195313,
                13400.0
            ]
        ],
        "zFirstMeasurement": 434.2704
    }
]
