[
    {
        "E": 23340.31967765988,
        "chi2": 0.0,
        "ip": 0.09376147885023677,
        "ipchi2": 60.66057132070313,
        "mass": 1851.711,
        "particleId": "D0",
        "pvx": 0.6077,
        "pvy": 0.0712,
        "pvz": 23.3386,
        "px": 4219.07,
        "py": -365.62,
        "pz": 22878.1,
        "q": 0.0,
        "trajectory": [
            [
                0.607699990272522,
                0.07119999825954437,
                23.338600158691406
            ],
            [
                0.6711999773979187,
                0.1136000007390976,
                24.104000091552734
            ]
        ],
        "zFirstMeasurement": -9999.0
    },
    {
        "E": 13671.803464724668,
        "chi2": 1.8512297868728638,
        "ip": 0.13509258688839398,
        "ipchi2": 113.40224159608981,
        "mass": 493.677,
        "particleId": "K-",
        "pvx": 0.6077,
        "pvy": 0.0712,
        "pvz": 23.3386,
        "px": 3117.01,
        "py": -750.26,
        "pz": 13281.41,
        "q": -1.0,
        "trajectory": [
            [
                0.6664890646934509,
                0.0959862694144249,
                24.104000091552734
            ],
            [
                1.8399323225021362,
                -0.1864597648382187,
                29.104000091552734
            ],
            [
                3.013371229171753,
                -0.4689055383205414,
                34.104000091552734
            ],
            [
                4.186805725097656,
                -0.7513510584831238,
                39.104000091552734
            ],
            [
                5.360246181488037,
                -1.0337885618209839,
                44.104000091552734
            ],
            [
                6.533671855926514,
                -1.316233515739441,
                49.104000091552734
            ],
            [
                7.707092761993408,
                -1.5986782312393188,
                54.104000091552734
            ],
            [
                8.880509376525879,
                -1.8811227083206177,
                59.104000091552734
            ],
            [
                10.05392074584961,
                -2.163566827774048,
                64.10399627685547
            ],
            [
                11.227328300476074,
                -2.4460108280181885,
                69.10399627685547
            ],
            [
                12.40073013305664,
                -2.72845458984375,
                74.10399627685547
            ],
            [
                13.574128150939941,
                -3.0108978748321533,
                79.10399627685547
            ],
            [
                14.747520446777344,
                -3.2933411598205566,
                84.10399627685547
            ],
            [
                15.920907974243164,
                -3.5757839679718018,
                89.10399627685547
            ],
            [
                17.09429168701172,
                -3.8582265377044678,
                94.10399627685547
            ],
            [
                18.267667770385742,
                -4.140668869018555,
                99.10399627685547
            ],
            [
                19.4410400390625,
                -4.4231109619140625,
                104.10399627685547
            ],
            [
                24.134477615356445,
                -5.552875995635986,
                124.10399627685547
            ],
            [
                28.827823638916016,
                -6.682636260986328,
                144.10400390625
            ],
            [
                33.52107238769531,
                -7.812392234802246,
                164.10400390625
            ],
            [
                38.21427917480469,
                -8.942144393920898,
                184.10400390625
            ],
            [
                42.90735626220703,
                -10.071890830993652,
                204.10400390625
            ],
            [
                47.60033416748047,
                -11.201632499694824,
                224.10400390625
            ],
            [
                52.29320526123047,
                -12.331368446350098,
                244.10400390625
            ],
            [
                56.985965728759766,
                -13.461099624633789,
                264.10400390625
            ],
            [
                61.67861557006836,
                -14.590825080871582,
                284.10400390625
            ],
            [
                66.37114715576172,
                -15.720545768737793,
                304.10400390625
            ],
            [
                71.06355285644531,
                -16.85025978088379,
                324.10400390625
            ],
            [
                75.7558364868164,
                -17.97996711730957,
                344.10400390625
            ],
            [
                80.44798278808594,
                -19.109670639038086,
                364.10400390625
            ],
            [
                85.13999938964844,
                -20.23936653137207,
                384.10400390625
            ],
            [
                89.83187866210938,
                -21.369054794311523,
                404.10400390625
            ],
            [
                94.52361297607422,
                -22.498737335205078,
                424.10400390625
            ],
            [
                99.21520233154297,
                -23.6284122467041,
                444.10400390625
            ],
            [
                103.9066390991211,
                -24.758081436157227,
                464.10400390625
            ],
            [
                108.59790802001953,
                -25.887741088867188,
                484.10400390625
            ],
            [
                113.28900909423828,
                -27.01739501953125,
                504.10400390625
            ],
            [
                117.97991943359375,
                -28.147043228149414,
                524.10400390625
            ],
            [
                122.67063903808594,
                -29.276681900024414,
                544.10400390625
            ],
            [
                127.36116790771484,
                -30.406314849853516,
                564.10400390625
            ],
            [
                132.051513671875,
                -31.535940170288086,
                584.10400390625
            ],
            [
                136.7416534423828,
                -32.665557861328125,
                604.10400390625
            ],
            [
                141.4315643310547,
                -33.795169830322266,
                624.10400390625
            ],
            [
                146.1212615966797,
                -34.924774169921875,
                644.10400390625
            ],
            [
                150.81072998046875,
                -36.05437088012695,
                664.10400390625
            ],
            [
                155.49996948242188,
                -37.1839599609375,
                684.10400390625
            ],
            [
                160.18899536132813,
                -38.31353759765625,
                704.10400390625
            ],
            [
                164.8778839111328,
                -39.44309997558594,
                724.10400390625
            ],
            [
                169.56655883789063,
                -40.57265090942383,
                744.10400390625
            ],
            [
                174.2550048828125,
                -41.70219421386719,
                764.10400390625
            ],
            [
                178.94322204589844,
                -42.831722259521484,
                784.10400390625
            ],
            [
                183.63101196289063,
                -43.961265563964844,
                804.10400390625
            ],
            [
                188.31845092773438,
                -45.0908088684082,
                824.10400390625
            ],
            [
                193.00558471679688,
                -46.22035217285156,
                844.10400390625
            ],
            [
                197.69239807128906,
                -47.349891662597656,
                864.10400390625
            ],
            [
                202.3788604736328,
                -48.47942352294922,
                884.10400390625
            ],
            [
                207.0650177001953,
                -49.60895538330078,
                904.10400390625
            ],
            [
                211.75088500976563,
                -50.73847961425781,
                924.10400390625
            ],
            [
                216.4364013671875,
                -51.86800003051758,
                944.10400390625
            ],
            [
                221.12149047851563,
                -52.997528076171875,
                964.10400390625
            ],
            [
                225.8060302734375,
                -54.127079010009766,
                984.10400390625
            ],
            [
                230.4901885986328,
                -55.256629943847656,
                1004.10400390625
            ],
            [
                253.90516662597656,
                -60.90440368652344,
                1104.10400390625
            ],
            [
                277.3128967285156,
                -66.55217742919922,
                1204.10400390625
            ],
            [
                300.7110900878906,
                -72.20000457763672,
                1304.10400390625
            ],
            [
                324.0995788574219,
                -77.84790802001953,
                1404.10400390625
            ],
            [
                347.478515625,
                -83.49585723876953,
                1504.10400390625
            ],
            [
                370.8527526855469,
                -89.14374542236328,
                1604.10400390625
            ],
            [
                394.2172546386719,
                -94.79159545898438,
                1704.10400390625
            ],
            [
                417.5719909667969,
                -100.43936157226563,
                1804.10400390625
            ],
            [
                440.91448974609375,
                -106.0869369506836,
                1904.10400390625
            ],
            [
                464.2421875,
                -111.73409271240234,
                2004.10400390625
            ],
            [
                487.5513916015625,
                -117.38052368164063,
                2104.10400390625
            ],
            [
                510.8453063964844,
                -123.02621459960938,
                2204.10400390625
            ],
            [
                534.1232299804688,
                -128.6702880859375,
                2304.10400390625
            ],
            [
                557.3788452148438,
                -134.31265258789063,
                2404.10400390625
            ],
            [
                580.6036987304688,
                -139.9525146484375,
                2504.10400390625
            ],
            [
                603.7913818359375,
                -145.5893096923828,
                2604.10400390625
            ],
            [
                626.9378051757813,
                -151.2224578857422,
                2704.10400390625
            ],
            [
                650.0330810546875,
                -156.8513641357422,
                2804.10400390625
            ],
            [
                673.0658569335938,
                -162.47557067871094,
                2904.10400390625
            ],
            [
                696.03076171875,
                -168.09361267089844,
                3004.10400390625
            ],
            [
                718.9016723632813,
                -173.70506286621094,
                3104.10400390625
            ],
            [
                741.6942138671875,
                -179.3086395263672,
                3204.10400390625
            ],
            [
                764.382568359375,
                -184.90431213378906,
                3304.10400390625
            ],
            [
                786.9465942382813,
                -190.49081420898438,
                3404.10400390625
            ],
            [
                809.3753662109375,
                -196.06643676757813,
                3504.10400390625
            ],
            [
                831.6636352539063,
                -201.6330108642578,
                3604.10400390625
            ],
            [
                853.7794189453125,
                -207.1898193359375,
                3704.10400390625
            ],
            [
                875.7254028320313,
                -212.73699951171875,
                3804.10400390625
            ],
            [
                897.4751586914063,
                -218.27354431152344,
                3904.10400390625
            ],
            [
                919.0249633789063,
                -223.79942321777344,
                4004.10400390625
            ],
            [
                940.352294921875,
                -229.3229522705078,
                4104.10400390625
            ],
            [
                961.4683837890625,
                -234.8355712890625,
                4204.10400390625
            ],
            [
                982.3445434570313,
                -240.3398895263672,
                4304.10400390625
            ],
            [
                1002.9758911132813,
                -245.83750915527344,
                4404.10400390625
            ],
            [
                1023.390625,
                -251.33004760742188,
                4504.10400390625
            ],
            [
                1043.536376953125,
                -256.81939697265625,
                4604.10400390625
            ],
            [
                1063.4588623046875,
                -262.30401611328125,
                4704.10400390625
            ],
            [
                1085.31640625,
                -269.4392395019531,
                4804.10400390625
            ],
            [
                1104.7730712890625,
                -274.9781799316406,
                4904.10400390625
            ],
            [
                1123.990966796875,
                -280.5148620605469,
                5004.10400390625
            ],
            [
                1142.9600830078125,
                -286.0494689941406,
                5104.10400390625
            ],
            [
                1161.696044921875,
                -291.5815124511719,
                5204.10400390625
            ],
            [
                1180.1949462890625,
                -297.1116638183594,
                5304.10400390625
            ],
            [
                1198.4639892578125,
                -302.6405029296875,
                5404.10400390625
            ],
            [
                1216.5028076171875,
                -308.166259765625,
                5504.10400390625
            ],
            [
                1234.3270263671875,
                -313.692138671875,
                5604.10400390625
            ],
            [
                1251.9306640625,
                -319.2169494628906,
                5704.10400390625
            ],
            [
                1269.320068359375,
                -324.7408142089844,
                5804.10400390625
            ],
            [
                1286.509033203125,
                -330.2643737792969,
                5904.10400390625
            ],
            [
                1303.489013671875,
                -335.7882385253906,
                6004.10400390625
            ],
            [
                1320.27734375,
                -341.31170654296875,
                6104.10400390625
            ],
            [
                1336.8770751953125,
                -346.8351135253906,
                6204.10400390625
            ],
            [
                1353.293701171875,
                -352.3582458496094,
                6304.10400390625
            ],
            [
                1369.53662109375,
                -357.8814697265625,
                6404.10400390625
            ],
            [
                1385.611083984375,
                -363.4051513671875,
                6504.10400390625
            ],
            [
                1401.52490234375,
                -368.9294128417969,
                6604.10400390625
            ],
            [
                1417.28564453125,
                -374.4541931152344,
                6704.10400390625
            ],
            [
                1432.9052734375,
                -379.9796447753906,
                6804.10400390625
            ],
            [
                1448.3843994140625,
                -385.50604248046875,
                6904.10400390625
            ],
            [
                1463.7349853515625,
                -391.0329284667969,
                7004.10400390625
            ],
            [
                1478.9661865234375,
                -396.56011962890625,
                7104.10400390625
            ],
            [
                1494.0859375,
                -402.0876770019531,
                7204.10400390625
            ],
            [
                1509.101318359375,
                -407.61553955078125,
                7304.10400390625
            ],
            [
                1524.017578125,
                -413.1436767578125,
                7404.10400390625
            ],
            [
                1538.8482666015625,
                -418.67169189453125,
                7504.10400390625
            ],
            [
                1553.593994140625,
                -424.19976806640625,
                7604.10400390625
            ],
            [
                1568.265625,
                -429.72760009765625,
                7704.10400390625
            ],
            [
                1582.8668212890625,
                -435.25506591796875,
                7804.10400390625
            ],
            [
                1597.404296875,
                -440.78204345703125,
                7904.10400390625
            ],
            [
                1611.88427734375,
                -446.3083801269531,
                8004.10400390625
            ],
            [
                1626.3104248046875,
                -451.833984375,
                8104.10400390625
            ],
            [
                1640.6893310546875,
                -457.35870361328125,
                8204.103515625
            ],
            [
                1655.024658203125,
                -462.8824768066406,
                8304.103515625
            ],
            [
                1669.320068359375,
                -468.4051818847656,
                8404.103515625
            ],
            [
                1683.5791015625,
                -473.9267883300781,
                8504.103515625
            ],
            [
                1697.8062744140625,
                -479.4472961425781,
                8604.103515625
            ],
            [
                1712.0035400390625,
                -484.96661376953125,
                8704.103515625
            ],
            [
                1726.174072265625,
                -490.48480224609375,
                8804.103515625
            ],
            [
                1740.3204345703125,
                -496.0017395019531,
                8904.103515625
            ],
            [
                1754.4447021484375,
                -501.5174560546875,
                9004.103515625
            ],
            [
                1768.5489501953125,
                -507.0320129394531,
                9104.103515625
            ],
            [
                1782.6353759765625,
                -512.5453491210938,
                9204.103515625
            ],
            [
                1796.7054443359375,
                -518.0576171875,
                9304.103515625
            ],
            [
                1810.7607421875,
                -523.5687866210938,
                9404.103515625
            ],
            [
                1824.8028564453125,
                -529.078857421875,
                9504.103515625
            ],
            [
                1838.8330078125,
                -534.5879516601563,
                9604.103515625
            ],
            [
                1852.8521728515625,
                -540.0961303710938,
                9704.103515625
            ],
            [
                1866.861572265625,
                -545.6033935546875,
                9804.103515625
            ],
            [
                1880.8621826171875,
                -551.1098022460938,
                9904.103515625
            ],
            [
                1894.854736328125,
                -556.6154174804688,
                10004.103515625
            ],
            [
                1922.818603515625,
                -567.6243896484375,
                10204.103515625
            ],
            [
                1950.7584228515625,
                -578.6307373046875,
                10404.103515625
            ],
            [
                1978.678955078125,
                -589.6347045898438,
                10604.103515625
            ],
            [
                2006.5831298828125,
                -600.6365966796875,
                10804.103515625
            ],
            [
                2034.474609375,
                -611.63671875,
                11004.103515625
            ],
            [
                2062.355224609375,
                -622.63525390625,
                11204.103515625
            ],
            [
                2090.2265625,
                -633.63232421875,
                11404.103515625
            ],
            [
                2118.091552734375,
                -644.6282958984375,
                11604.103515625
            ],
            [
                2145.95068359375,
                -655.6231689453125,
                11804.103515625
            ],
            [
                2173.805419921875,
                -666.6171875,
                12004.103515625
            ],
            [
                2201.65576171875,
                -677.6103515625,
                12204.103515625
            ],
            [
                2229.5029296875,
                -688.6029052734375,
                12404.103515625
            ],
            [
                2257.34912109375,
                -699.5949096679688,
                12604.103515625
            ],
            [
                2285.193359375,
                -710.5864868164063,
                12804.103515625
            ],
            [
                2313.035400390625,
                -721.57763671875,
                13004.103515625
            ],
            [
                2340.876220703125,
                -732.5684814453125,
                13204.103515625
            ],
            [
                2368.71630859375,
                -743.5591430664063,
                13404.103515625
            ]
        ],
        "zFirstMeasurement": 64.4073
    },
    {
        "E": 9670.704493277479,
        "chi2": 1.33542799949646,
        "ip": 0.02683585181091777,
        "ipchi2": 1.9169765670419192,
        "mass": 139.57,
        "particleId": "pi+",
        "pvx": 0.6077,
        "pvy": 0.0712,
        "pvz": 23.3386,
        "px": 1102.73,
        "py": 385.9,
        "pz": 9598.86,
        "q": 1.0,
        "trajectory": [
            [
                0.6734331250190735,
                0.11717402935028076,
                24.104000091552734
            ],
            [
                1.2478474378585815,
                0.31818723678588867,
                29.104000091552734
            ],
            [
                1.822267770767212,
                0.519200325012207,
                34.104000091552734
            ],
            [
                2.3966939449310303,
                0.7202132344245911,
                39.104000091552734
            ],
            [
                2.9711265563964844,
                0.9212259650230408,
                44.104000091552734
            ],
            [
                3.545565128326416,
                1.1222386360168457,
                49.104000091552734
            ],
            [
                4.120009899139404,
                1.3232511281967163,
                54.104000091552734
            ],
            [
                4.694470405578613,
                1.5242542028427124,
                59.104000091552734
            ],
            [
                5.268928050994873,
                1.7252663373947144,
                64.10399627685547
            ],
            [
                5.843391418457031,
                1.9262783527374268,
                69.10399627685547
            ],
            [
                6.417860984802246,
                2.1272902488708496,
                74.10399627685547
            ],
            [
                6.992336750030518,
                2.3283019065856934,
                79.10399627685547
            ],
            [
                7.566819190979004,
                2.529313564300537,
                84.10399627685547
            ],
            [
                8.141307830810547,
                2.7303249835968018,
                89.10399627685547
            ],
            [
                8.715803146362305,
                2.9313361644744873,
                94.10399627685547
            ],
            [
                9.290305137634277,
                3.132347345352173,
                99.10399627685547
            ],
            [
                9.864814758300781,
                3.3333582878112793,
                104.10399627685547
            ],
            [
                12.162919998168945,
                4.1374006271362305,
                124.10399627685547
            ],
            [
                14.46114444732666,
                4.941441059112549,
                144.10400390625
            ],
            [
                16.75949478149414,
                5.745479583740234,
                164.10400390625
            ],
            [
                19.0579776763916,
                6.549515724182129,
                184.10400390625
            ],
            [
                21.356531143188477,
                7.353549480438232,
                204.10400390625
            ],
            [
                23.65526008605957,
                8.157581329345703,
                224.10400390625
            ],
            [
                25.95412826538086,
                8.9616117477417,
                244.10400390625
            ],
            [
                28.253141403198242,
                9.765640258789063,
                264.10400390625
            ],
            [
                30.55230712890625,
                10.569666862487793,
                284.10400390625
            ],
            [
                32.85163116455078,
                11.37369155883789,
                304.10400390625
            ],
            [
                35.15111541748047,
                12.177715301513672,
                324.10400390625
            ],
            [
                37.45077133178711,
                12.981736183166504,
                344.10400390625
            ],
            [
                39.75060272216797,
                13.785757064819336,
                364.10400390625
            ],
            [
                42.05060958862305,
                14.589775085449219,
                384.10400390625
            ],
            [
                44.350799560546875,
                15.393792152404785,
                404.10400390625
            ],
            [
                46.651187896728516,
                16.19780731201172,
                424.10400390625
            ],
            [
                48.9517707824707,
                17.00182342529297,
                444.10400390625
            ],
            [
                51.25257873535156,
                17.805835723876953,
                464.10400390625
            ],
            [
                53.55360412597656,
                18.60984992980957,
                484.10400390625
            ],
            [
                55.8548469543457,
                19.413860321044922,
                504.10400390625
            ],
            [
                58.156333923339844,
                20.217872619628906,
                524.10400390625
            ],
            [
                60.45805358886719,
                21.021883010864258,
                544.10400390625
            ],
            [
                62.76001739501953,
                21.82589340209961,
                564.10400390625
            ],
            [
                65.06222534179688,
                22.629901885986328,
                584.10400390625
            ],
            [
                67.36469268798828,
                23.433910369873047,
                604.10400390625
            ],
            [
                69.66748046875,
                24.2379207611084,
                624.10400390625
            ],
            [
                71.97054290771484,
                25.04193115234375,
                644.10400390625
            ],
            [
                74.27388763427734,
                25.8459415435791,
                664.10400390625
            ],
            [
                76.5775146484375,
                26.649951934814453,
                684.10400390625
            ],
            [
                78.88143157958984,
                27.453960418701172,
                704.10400390625
            ],
            [
                81.18561553955078,
                28.257965087890625,
                724.10400390625
            ],
            [
                83.49009704589844,
                29.061969757080078,
                744.10400390625
            ],
            [
                85.79488372802734,
                29.865970611572266,
                764.10400390625
            ],
            [
                88.10012817382813,
                30.669979095458984,
                784.10400390625
            ],
            [
                90.40581512451172,
                31.4739933013916,
                804.10400390625
            ],
            [
                92.71186065673828,
                32.27800750732422,
                824.10400390625
            ],
            [
                95.01827239990234,
                33.0820198059082,
                844.10400390625
            ],
            [
                97.32505798339844,
                33.88603591918945,
                864.10400390625
            ],
            [
                99.63223266601563,
                34.6900520324707,
                884.10400390625
            ],
            [
                101.9397964477539,
                35.49407196044922,
                904.10400390625
            ],
            [
                104.24771118164063,
                36.298091888427734,
                924.10400390625
            ],
            [
                106.55609893798828,
                37.10211944580078,
                944.10400390625
            ],
            [
                108.86502838134766,
                37.90615463256836,
                964.10400390625
            ],
            [
                111.17440032958984,
                38.7101936340332,
                984.10400390625
            ],
            [
                113.48419189453125,
                39.51423263549805,
                1004.10400390625
            ],
            [
                125.04093170166016,
                43.53437423706055,
                1104.10400390625
            ],
            [
                136.60813903808594,
                47.554405212402344,
                1204.10400390625
            ],
            [
                148.1870574951172,
                51.574440002441406,
                1304.10400390625
            ],
            [
                159.77720642089844,
                55.594425201416016,
                1404.10400390625
            ],
            [
                171.37954711914063,
                59.61436462402344,
                1504.10400390625
            ],
            [
                182.990478515625,
                63.634178161621094,
                1604.10400390625
            ],
            [
                194.61410522460938,
                67.65403747558594,
                1704.10400390625
            ],
            [
                206.25054931640625,
                71.67400360107422,
                1804.10400390625
            ],
            [
                217.90301513671875,
                75.69422912597656,
                1904.10400390625
            ],
            [
                229.5717315673828,
                79.71488952636719,
                2004.10400390625
            ],
            [
                241.26498413085938,
                83.73596954345703,
                2104.10400390625
            ],
            [
                252.97877502441406,
                87.75747680664063,
                2204.10400390625
            ],
            [
                264.714599609375,
                91.77973937988281,
                2304.10400390625
            ],
            [
                276.4872131347656,
                95.80287170410156,
                2404.10400390625
            ],
            [
                288.2994689941406,
                99.82744598388672,
                2504.10400390625
            ],
            [
                300.165283203125,
                103.85391998291016,
                2604.10400390625
            ],
            [
                312.0875549316406,
                107.88229370117188,
                2704.10400390625
            ],
            [
                324.0815734863281,
                111.91297149658203,
                2804.10400390625
            ],
            [
                336.15924072265625,
                115.94699096679688,
                2904.10400390625
            ],
            [
                348.33428955078125,
                119.98450469970703,
                3004.10400390625
            ],
            [
                360.627685546875,
                124.02538299560547,
                3104.10400390625
            ],
            [
                373.04498291015625,
                128.0703582763672,
                3204.10400390625
            ],
            [
                385.6013488769531,
                132.1200408935547,
                3304.10400390625
            ],
            [
                398.3362731933594,
                136.1752166748047,
                3404.10400390625
            ],
            [
                411.2623596191406,
                140.2356719970703,
                3504.10400390625
            ],
            [
                424.38055419921875,
                144.3015899658203,
                3604.10400390625
            ],
            [
                437.7290344238281,
                148.372802734375,
                3704.10400390625
            ],
            [
                451.3193054199219,
                152.45046997070313,
                3804.10400390625
            ],
            [
                465.1651916503906,
                156.53514099121094,
                3904.10400390625
            ],
            [
                479.2982482910156,
                160.6264190673828,
                4004.10400390625
            ],
            [
                493.71368408203125,
                164.72116088867188,
                4104.10400390625
            ],
            [
                508.441162109375,
                168.82302856445313,
                4204.10400390625
            ],
            [
                523.4996948242188,
                172.93072509765625,
                4304.10400390625
            ],
            [
                538.8833618164063,
                177.04344177246094,
                4404.10400390625
            ],
            [
                554.5740356445313,
                181.16065979003906,
                4504.10400390625
            ],
            [
                570.6216430664063,
                185.2804412841797,
                4604.10400390625
            ],
            [
                587.0015258789063,
                189.40480041503906,
                4704.10400390625
            ],
            [
                605.4880981445313,
                195.33726501464844,
                4804.10400390625
            ],
            [
                622.609619140625,
                199.51873779296875,
                4904.10400390625
            ],
            [
                640.0631103515625,
                203.70220947265625,
                5004.10400390625
            ],
            [
                657.8632202148438,
                207.89263916015625,
                5104.10400390625
            ],
            [
                675.9928588867188,
                212.08517456054688,
                5204.10400390625
            ],
            [
                694.4580688476563,
                216.27972412109375,
                5304.10400390625
            ],
            [
                713.2470092773438,
                220.47409057617188,
                5404.10400390625
            ],
            [
                732.35888671875,
                224.6673126220703,
                5504.10400390625
            ],
            [
                751.776611328125,
                228.86666870117188,
                5604.10400390625
            ],
            [
                771.5101318359375,
                233.06459045410156,
                5704.10400390625
            ],
            [
                791.5496215820313,
                237.26220703125,
                5804.10400390625
            ],
            [
                811.8755493164063,
                241.4590301513672,
                5904.10400390625
            ],
            [
                832.4999389648438,
                245.65846252441406,
                6004.10400390625
            ],
            [
                853.4033203125,
                249.8583221435547,
                6104.10400390625
            ],
            [
                874.5789184570313,
                254.05618286132813,
                6204.10400390625
            ],
            [
                896.019287109375,
                258.2523498535156,
                6304.10400390625
            ],
            [
                917.7113037109375,
                262.447021484375,
                6404.10400390625
            ],
            [
                939.6486206054688,
                266.6391906738281,
                6504.10400390625
            ],
            [
                961.8193359375,
                270.83038330078125,
                6604.10400390625
            ],
            [
                984.2156982421875,
                275.0187072753906,
                6704.10400390625
            ],
            [
                1006.820556640625,
                279.20391845703125,
                6804.10400390625
            ],
            [
                1029.632080078125,
                283.38671875,
                6904.10400390625
            ],
            [
                1052.6348876953125,
                287.566650390625,
                7004.10400390625
            ],
            [
                1075.81591796875,
                291.7432556152344,
                7104.10400390625
            ],
            [
                1099.16357421875,
                295.91650390625,
                7204.10400390625
            ],
            [
                1122.6685791015625,
                300.08660888671875,
                7304.10400390625
            ],
            [
                1146.3226318359375,
                304.2539978027344,
                7404.10400390625
            ],
            [
                1170.1070556640625,
                308.41864013671875,
                7504.10400390625
            ],
            [
                1194.0206298828125,
                312.5804443359375,
                7604.10400390625
            ],
            [
                1218.048095703125,
                316.7396240234375,
                7704.10400390625
            ],
            [
                1242.18408203125,
                320.89642333984375,
                7804.10400390625
            ],
            [
                1266.4189453125,
                325.0511474609375,
                7904.10400390625
            ],
            [
                1290.7430419921875,
                329.20404052734375,
                8004.10400390625
            ],
            [
                1315.1512451171875,
                333.3552551269531,
                8104.10400390625
            ],
            [
                1339.633544921875,
                337.50518798828125,
                8204.103515625
            ],
            [
                1364.184814453125,
                341.6540222167969,
                8304.103515625
            ],
            [
                1388.79931640625,
                345.8019104003906,
                8404.103515625
            ],
            [
                1413.4715576171875,
                349.9490966796875,
                8504.103515625
            ],
            [
                1438.194580078125,
                354.0958251953125,
                8604.103515625
            ],
            [
                1462.9654541015625,
                358.2421875,
                8704.103515625
            ],
            [
                1487.7791748046875,
                362.3883361816406,
                8804.103515625
            ],
            [
                1512.631591796875,
                366.5345153808594,
                8904.103515625
            ],
            [
                1537.519775390625,
                370.68072509765625,
                9004.103515625
            ],
            [
                1562.4400634765625,
                374.8271179199219,
                9104.103515625
            ],
            [
                1587.3892822265625,
                378.9737854003906,
                9204.103515625
            ],
            [
                1612.3648681640625,
                383.1207580566406,
                9304.103515625
            ],
            [
                1637.3641357421875,
                387.2680969238281,
                9404.103515625
            ],
            [
                1662.384765625,
                391.4158630371094,
                9504.103515625
            ],
            [
                1687.4249267578125,
                395.56402587890625,
                9604.103515625
            ],
            [
                1712.4825439453125,
                399.712646484375,
                9704.103515625
            ],
            [
                1737.555908203125,
                403.8616943359375,
                9804.103515625
            ],
            [
                1762.6435546875,
                408.01123046875,
                9904.103515625
            ],
            [
                1787.744140625,
                412.16119384765625,
                10004.103515625
            ],
            [
                1837.9791259765625,
                420.4624938964844,
                10204.103515625
            ],
            [
                1888.2523193359375,
                428.76544189453125,
                10404.103515625
            ],
            [
                1938.55615234375,
                437.0699768066406,
                10604.103515625
            ],
            [
                1988.885986328125,
                445.3759460449219,
                10804.103515625
            ],
            [
                2039.2354736328125,
                453.6832275390625,
                11004.103515625
            ],
            [
                2089.601806640625,
                461.99169921875,
                11204.103515625
            ],
            [
                2139.982421875,
                470.30120849609375,
                11404.103515625
            ],
            [
                2190.373291015625,
                478.6116943359375,
                11604.103515625
            ],
            [
                2240.772705078125,
                486.92303466796875,
                11804.103515625
            ],
            [
                2291.1787109375,
                495.2350769042969,
                12004.103515625
            ],
            [
                2341.591552734375,
                503.54779052734375,
                12204.103515625
            ],
            [
                2392.008544921875,
                511.8610534667969,
                12404.103515625
            ],
            [
                2442.427978515625,
                520.1748657226563,
                12604.103515625
            ],
            [
                2492.849365234375,
                528.489013671875,
                12804.103515625
            ],
            [
                2543.274169921875,
                536.803466796875,
                13004.103515625
            ],
            [
                2593.700927734375,
                545.1182861328125,
                13204.103515625
            ],
            [
                2644.12841796875,
                553.4332885742188,
                13404.103515625
            ]
        ],
        "zFirstMeasurement": 94.1031
    },
    {
        "E": 11025.723416662748,
        "chi2": 1.679231882095337,
        "ip": 0.3812346837383372,
        "ipchi2": 5.68860717453738,
        "mass": 139.57018,
        "particleId": "pi+",
        "pvx": 0.6077,
        "pvy": 0.0712,
        "pvz": 23.3386,
        "px": 91.70135791510955,
        "py": -337.3920692357384,
        "pz": 11019.294645219963,
        "q": 1.0,
        "trajectory": [
            [
                -0.6979401707649231,
                4.1059136390686035,
                -100.0
            ],
            [
                -0.6564338207244873,
                3.9528238773345947,
                -95.0
            ],
            [
                -0.6149236559867859,
                3.799734115600586,
                -90.0
            ],
            [
                -0.5734096765518188,
                3.646644353866577,
                -85.0
            ],
            [
                -0.5318918228149414,
                3.4935543537139893,
                -80.0
            ],
            [
                -0.4903997480869293,
                3.3404643535614014,
                -75.0
            ],
            [
                -0.4488697052001953,
                3.1873741149902344,
                -70.0
            ],
            [
                -0.4073360562324524,
                3.0342841148376465,
                -65.0
            ],
            [
                -0.3657987713813782,
                2.8811938762664795,
                -60.0
            ],
            [
                -0.3242577612400055,
                2.7281033992767334,
                -55.0
            ],
            [
                -0.2827129662036896,
                2.5750131607055664,
                -50.0
            ],
            [
                -0.24116431176662445,
                2.4219226837158203,
                -45.0
            ],
            [
                -0.19961170852184296,
                2.268832206726074,
                -40.0
            ],
            [
                -0.1580551117658615,
                2.115741491317749,
                -35.0
            ],
            [
                -0.11649444699287415,
                1.9626508951187134,
                -30.0
            ],
            [
                -0.07492963969707489,
                1.8095600605010986,
                -25.0
            ],
            [
                -0.033360566943883896,
                1.6564692258834839,
                -20.0
            ],
            [
                0.008212839253246784,
                1.5033782720565796,
                -15.0
            ],
            [
                0.04979053884744644,
                1.3502873182296753,
                -10.0
            ],
            [
                0.09137261658906937,
                1.1971962451934814,
                -5.0
            ],
            [
                0.13295915722846985,
                1.044105052947998,
                0.0
            ],
            [
                0.17455023527145386,
                0.8910139203071594,
                5.0
            ],
            [
                0.21614594757556915,
                0.7379226088523865,
                10.0
            ],
            [
                0.2577463686466217,
                0.5848312377929688,
                15.0
            ],
            [
                0.2993515729904175,
                0.43173980712890625,
                20.0
            ],
            [
                0.34096166491508484,
                0.2786482870578766,
                25.0
            ],
            [
                0.38257670402526855,
                0.12555670738220215,
                30.0
            ],
            [
                0.4241967797279358,
                -0.02753494307398796,
                35.0
            ],
            [
                0.4658220112323761,
                -0.18062667548656464,
                40.0
            ],
            [
                0.5074524283409119,
                -0.333718478679657,
                45.0
            ],
            [
                0.5490881204605103,
                -0.4868103563785553,
                50.0
            ],
            [
                0.5907291769981384,
                -0.6399022936820984,
                55.0
            ],
            [
                0.6323757171630859,
                -0.7929943203926086,
                60.0
            ],
            [
                0.6740277409553528,
                -0.9460864663124084,
                65.0
            ],
            [
                0.7156854271888733,
                -1.099178671836853,
                70.0
            ],
            [
                0.7573487758636475,
                -1.2522708177566528,
                75.0
            ],
            [
                0.7990179657936096,
                -1.4053632020950317,
                80.0
            ],
            [
                0.8406929969787598,
                -1.5584555864334106,
                85.0
            ],
            [
                0.8823739290237427,
                -1.711548089981079,
                90.0
            ],
            [
                0.9240609407424927,
                -1.8646405935287476,
                95.0
            ],
            [
                0.9657540321350098,
                -2.017733335494995,
                100.0
            ],
            [
                1.1325892210006714,
                -2.6301045417785645,
                120.0
            ],
            [
                1.2994694709777832,
                -3.24247670173645,
                140.0
            ],
            [
                1.466484785079956,
                -3.8548502922058105,
                160.0
            ],
            [
                1.6336064338684082,
                -4.467225074768066,
                180.0
            ],
            [
                1.8008371591567993,
                -5.079600811004639,
                200.0
            ],
            [
                1.9681816101074219,
                -5.691977500915527,
                220.0
            ],
            [
                2.1356189250946045,
                -6.3044047355651855,
                240.0
            ],
            [
                2.3032073974609375,
                -6.916783809661865,
                260.0
            ],
            [
                2.4709243774414063,
                -7.529163837432861,
                280.0
            ],
            [
                2.638775110244751,
                -8.141545295715332,
                300.0
            ],
            [
                2.806765079498291,
                -8.753927230834961,
                320.0
            ],
            [
                2.9748494625091553,
                -9.366310119628906,
                340.0
            ],
            [
                3.143157720565796,
                -9.978693962097168,
                360.0
            ],
            [
                3.3116116523742676,
                -10.591078758239746,
                380.0
            ],
            [
                3.4802165031433105,
                -11.203463554382324,
                400.0
            ],
            [
                3.6489808559417725,
                -11.815850257873535,
                420.0
            ],
            [
                3.817913770675659,
                -12.428236961364746,
                440.0
            ],
            [
                3.9870247840881348,
                -13.040624618530273,
                460.0
            ],
            [
                4.156323432922363,
                -13.6530122756958,
                480.0
            ],
            [
                4.32581901550293,
                -14.265400886535645,
                500.0
            ],
            [
                4.495521068572998,
                -14.877790451049805,
                520.0
            ],
            [
                4.66536283493042,
                -15.490180969238281,
                540.0
            ],
            [
                4.835456848144531,
                -16.102571487426758,
                560.0
            ],
            [
                5.005768775939941,
                -16.714962005615234,
                580.0
            ],
            [
                5.176305294036865,
                -17.327354431152344,
                600.0
            ],
            [
                5.347074508666992,
                -17.93974494934082,
                620.0
            ],
            [
                5.518082141876221,
                -18.55213737487793,
                640.0
            ],
            [
                5.6893391609191895,
                -19.16452980041504,
                660.0
            ],
            [
                5.860858917236328,
                -19.77692222595215,
                680.0
            ],
            [
                6.032642841339111,
                -20.389314651489258,
                700.0
            ],
            [
                6.2047014236450195,
                -21.001707077026367,
                720.0
            ],
            [
                6.37704610824585,
                -21.614097595214844,
                740.0
            ],
            [
                6.549680233001709,
                -22.22648811340332,
                760.0
            ],
            [
                6.722611904144287,
                -22.838876724243164,
                780.0
            ],
            [
                6.895847797393799,
                -23.45126724243164,
                800.0
            ],
            [
                7.069394111633301,
                -24.06365394592285,
                820.0
            ],
            [
                7.243260383605957,
                -24.676040649414063,
                840.0
            ],
            [
                7.417454242706299,
                -25.288427352905273,
                860.0
            ],
            [
                7.59197998046875,
                -25.90081214904785,
                880.0
            ],
            [
                7.766826629638672,
                -26.513200759887695,
                900.0
            ],
            [
                7.942002773284912,
                -27.12558937072754,
                920.0
            ],
            [
                8.11752986907959,
                -27.73797607421875,
                940.0
            ],
            [
                8.293416023254395,
                -28.35036277770996,
                960.0
            ],
            [
                8.469666481018066,
                -28.962749481201172,
                980.0
            ],
            [
                8.646323204040527,
                -29.57512855529785,
                1000.0
            ],
            [
                9.535215377807617,
                -32.636985778808594,
                1100.0
            ],
            [
                10.434163093566895,
                -35.69878387451172,
                1200.0
            ],
            [
                11.34310245513916,
                -38.76051712036133,
                1300.0
            ],
            [
                12.262307167053223,
                -41.822261810302734,
                1400.0
            ],
            [
                13.187531471252441,
                -44.88426971435547,
                1500.0
            ],
            [
                14.124927520751953,
                -47.946022033691406,
                1600.0
            ],
            [
                15.072846412658691,
                -51.00772476196289,
                1700.0
            ],
            [
                16.03119468688965,
                -54.069393157958984,
                1800.0
            ],
            [
                17.002111434936523,
                -57.13102722167969,
                1900.0
            ],
            [
                17.98900604248047,
                -60.19260787963867,
                2000.0
            ],
            [
                18.99097442626953,
                -63.254146575927734,
                2100.0
            ],
            [
                20.014328002929688,
                -66.31562042236328,
                2200.0
            ],
            [
                21.062742233276367,
                -69.37715911865234,
                2300.0
            ],
            [
                22.137773513793945,
                -72.43864440917969,
                2400.0
            ],
            [
                23.248252868652344,
                -75.50053405761719,
                2500.0
            ],
            [
                24.400983810424805,
                -78.56188201904297,
                2600.0
            ],
            [
                25.609716415405273,
                -81.62310791015625,
                2700.0
            ],
            [
                26.875288009643555,
                -84.68429565429688,
                2800.0
            ],
            [
                28.214984893798828,
                -87.74544525146484,
                2900.0
            ],
            [
                29.639339447021484,
                -90.80642700195313,
                3000.0
            ],
            [
                31.159561157226563,
                -93.86749267578125,
                3100.0
            ],
            [
                32.79940414428711,
                -96.92913818359375,
                3200.0
            ],
            [
                34.565208435058594,
                -99.99111938476563,
                3300.0
            ],
            [
                36.46037292480469,
                -103.05314636230469,
                3400.0
            ],
            [
                38.53007507324219,
                -106.11640930175781,
                3500.0
            ],
            [
                40.764854431152344,
                -109.17890167236328,
                3600.0
            ],
            [
                43.198875427246094,
                -112.24209594726563,
                3700.0
            ],
            [
                45.84174728393555,
                -115.30549621582031,
                3800.0
            ],
            [
                48.700008392333984,
                -118.3691635131836,
                3900.0
            ],
            [
                51.78568649291992,
                -121.4328842163086,
                4000.0
            ],
            [
                55.15140151977539,
                -124.49687957763672,
                4100.0
            ],
            [
                58.766876220703125,
                -127.5615463256836,
                4200.0
            ],
            [
                62.65464401245117,
                -130.6262969970703,
                4300.0
            ],
            [
                66.7860336303711,
                -133.69119262695313,
                4400.0
            ],
            [
                71.22137451171875,
                -136.75726318359375,
                4500.0
            ],
            [
                75.94245147705078,
                -139.82205200195313,
                4600.0
            ],
            [
                80.9437026977539,
                -142.88717651367188,
                4700.0
            ],
            [
                86.23774719238281,
                -145.95132446289063,
                4800.0
            ],
            [
                91.79576110839844,
                -149.0159149169922,
                4900.0
            ],
            [
                88.2270278930664,
                -154.42140197753906,
                5000.0
            ],
            [
                94.44255828857422,
                -157.49449157714844,
                5100.0
            ],
            [
                100.93350219726563,
                -160.567138671875,
                5200.0
            ],
            [
                107.70137023925781,
                -163.6383819580078,
                5300.0
            ],
            [
                114.74120330810547,
                -166.71014404296875,
                5400.0
            ],
            [
                122.05523681640625,
                -169.78306579589844,
                5500.0
            ],
            [
                129.62413024902344,
                -172.8538360595703,
                5600.0
            ],
            [
                137.45953369140625,
                -175.92422485351563,
                5700.0
            ],
            [
                145.55072021484375,
                -178.99365234375,
                5800.0
            ],
            [
                153.88406372070313,
                -182.06222534179688,
                5900.0
            ],
            [
                162.46875,
                -185.1298065185547,
                6000.0
            ],
            [
                171.28221130371094,
                -188.19595336914063,
                6100.0
            ],
            [
                180.32211303710938,
                -191.2610321044922,
                6200.0
            ],
            [
                189.58380126953125,
                -194.3255157470703,
                6300.0
            ],
            [
                199.056640625,
                -197.38900756835938,
                6400.0
            ],
            [
                208.73684692382813,
                -200.45144653320313,
                6500.0
            ],
            [
                218.60882568359375,
                -203.5125732421875,
                6600.0
            ],
            [
                228.67013549804688,
                -206.5720977783203,
                6700.0
            ],
            [
                238.90731811523438,
                -209.6301727294922,
                6800.0
            ],
            [
                249.31716918945313,
                -212.6868438720703,
                6900.0
            ],
            [
                259.8861083984375,
                -215.741943359375,
                7000.0
            ],
            [
                270.6053771972656,
                -218.7954864501953,
                7100.0
            ],
            [
                281.46539306640625,
                -221.8474578857422,
                7200.0
            ],
            [
                292.4588317871094,
                -224.89773559570313,
                7300.0
            ],
            [
                303.5789794921875,
                -227.94638061523438,
                7400.0
            ],
            [
                314.8119201660156,
                -230.99331665039063,
                7500.0
            ],
            [
                326.1530456542969,
                -234.03860473632813,
                7600.0
            ],
            [
                337.5925598144531,
                -237.08224487304688,
                7700.0
            ],
            [
                349.12603759765625,
                -240.12417602539063,
                7800.0
            ],
            [
                360.7454833984375,
                -243.16448974609375,
                7900.0
            ],
            [
                372.4433288574219,
                -246.2032928466797,
                8000.0
            ],
            [
                384.21527099609375,
                -249.2406005859375,
                8100.0
            ],
            [
                396.05291748046875,
                -252.2765350341797,
                8200.0
            ],
            [
                407.9520568847656,
                -255.31117248535156,
                8300.0
            ],
            [
                419.9080810546875,
                -258.3446044921875,
                8400.0
            ],
            [
                431.9164733886719,
                -261.3769226074219,
                8500.0
            ],
            [
                443.9709167480469,
                -264.40826416015625,
                8600.0
            ],
            [
                456.06915283203125,
                -267.4386901855469,
                8700.0
            ],
            [
                468.20709228515625,
                -270.4682922363281,
                8800.0
            ],
            [
                480.38104248046875,
                -273.4971008300781,
                8900.0
            ],
            [
                492.5884094238281,
                -276.52520751953125,
                9000.0
            ],
            [
                504.82611083984375,
                -279.55267333984375,
                9100.0
            ],
            [
                517.0914306640625,
                -282.57958984375,
                9200.0
            ],
            [
                529.3819580078125,
                -285.60601806640625,
                9300.0
            ],
            [
                541.6954956054688,
                -288.6319580078125,
                9400.0
            ],
            [
                554.0299072265625,
                -291.65753173828125,
                9500.0
            ],
            [
                566.3834228515625,
                -294.6827697753906,
                9600.0
            ],
            [
                578.7543334960938,
                -297.70770263671875,
                9700.0
            ],
            [
                591.1410522460938,
                -300.73236083984375,
                9800.0
            ],
            [
                603.5421142578125,
                -303.7568054199219,
                9900.0
            ],
            [
                615.9563598632813,
                -306.78106689453125,
                10000.0
            ],
            [
                640.819580078125,
                -312.8291015625,
                10200.0
            ],
            [
                665.72265625,
                -318.87664794921875,
                10400.0
            ],
            [
                690.658203125,
                -324.92388916015625,
                10600.0
            ],
            [
                715.6215209960938,
                -330.9709167480469,
                10800.0
            ],
            [
                740.6065673828125,
                -337.0178527832031,
                11000.0
            ],
            [
                765.6104125976563,
                -343.06475830078125,
                11200.0
            ],
            [
                790.630126953125,
                -349.1116027832031,
                11400.0
            ],
            [
                815.6617431640625,
                -355.1585388183594,
                11600.0
            ],
            [
                840.70361328125,
                -361.2055358886719,
                11800.0
            ],
            [
                865.7534790039063,
                -367.25262451171875,
                12000.0
            ],
            [
                890.8114624023438,
                -373.29974365234375,
                12200.0
            ],
            [
                915.8746948242188,
                -379.3469543457031,
                12400.0
            ],
            [
                940.9409790039063,
                -385.394287109375,
                12600.0
            ],
            [
                966.0106201171875,
                -391.44171142578125,
                12800.0
            ],
            [
                991.083984375,
                -397.4891662597656,
                13000.0
            ],
            [
                1016.1599731445313,
                -403.5366516113281,
                13200.0
            ],
            [
                1041.2371826171875,
                -409.5841979980469,
                13400.0
            ]
        ],
        "zFirstMeasurement": 434.2704
    },
    {
        "E": 16390.32425878284,
        "chi2": 1.134605050086975,
        "ip": 0.07542708208624337,
        "ipchi2": 8.319124036348114,
        "mass": 139.57018,
        "particleId": "pi-",
        "pvx": 0.6077,
        "pvy": 0.0712,
        "pvz": 23.3386,
        "px": 502.686189840983,
        "py": -1199.1561219116368,
        "pz": 16338.071509903639,
        "q": -1.0,
        "trajectory": [
            [
                -3.1444971561431885,
                9.18549919128418,
                -100.0
            ],
            [
                -2.990589141845703,
                8.81851577758789,
                -95.0
            ],
            [
                -2.836683988571167,
                8.451532363891602,
                -90.0
            ],
            [
                -2.682781219482422,
                8.084547996520996,
                -85.0
            ],
            [
                -2.528881072998047,
                7.717564582824707,
                -80.0
            ],
            [
                -2.3749635219573975,
                7.350581169128418,
                -75.0
            ],
            [
                -2.221071481704712,
                6.983597755432129,
                -70.0
            ],
            [
                -2.0671820640563965,
                6.61661434173584,
                -65.0
            ],
            [
                -1.913294792175293,
                6.249631404876709,
                -60.0
            ],
            [
                -1.7594101428985596,
                5.88264799118042,
                -55.0
            ],
            [
                -1.6055281162261963,
                5.515665054321289,
                -50.0
            ],
            [
                -1.4516485929489136,
                5.148681640625,
                -45.0
            ],
            [
                -1.297771692276001,
                4.781698703765869,
                -40.0
            ],
            [
                -1.1438974142074585,
                4.414715766906738,
                -35.0
            ],
            [
                -0.9900259971618652,
                4.047732830047607,
                -30.0
            ],
            [
                -0.8361572623252869,
                3.6807501316070557,
                -25.0
            ],
            [
                -0.6822914481163025,
                3.313767433166504,
                -20.0
            ],
            [
                -0.5284284949302673,
                2.946784734725952,
                -15.0
            ],
            [
                -0.3745684027671814,
                2.5798020362854004,
                -10.0
            ],
            [
                -0.22071129083633423,
                2.2128195762634277,
                -5.0
            ],
            [
                -0.06685714423656464,
                1.8458369970321655,
                0.0
            ],
            [
                0.08699394762516022,
                1.4788546562194824,
                5.0
            ],
            [
                0.24084194004535675,
                1.1118723154067993,
                10.0
            ],
            [
                0.394686758518219,
                0.744890034198761,
                15.0
            ],
            [
                0.5485283732414246,
                0.37790781259536743,
                20.0
            ],
            [
                0.7023667097091675,
                0.010925675742328167,
                25.0
            ],
            [
                0.8562017679214478,
                -0.3560563921928406,
                30.0
            ],
            [
                1.010033369064331,
                -0.723038375377655,
                35.0
            ],
            [
                1.163861632347107,
                -1.0900202989578247,
                40.0
            ],
            [
                1.3176863193511963,
                -1.4570021629333496,
                45.0
            ],
            [
                1.4715074300765991,
                -1.8239840269088745,
                50.0
            ],
            [
                1.625325083732605,
                -2.1909656524658203,
                55.0
            ],
            [
                1.7791389226913452,
                -2.5579473972320557,
                60.0
            ],
            [
                1.932949185371399,
                -2.924928903579712,
                65.0
            ],
            [
                2.0867555141448975,
                -3.291910409927368,
                70.0
            ],
            [
                2.24055814743042,
                -3.6588919162750244,
                75.0
            ],
            [
                2.3943569660186768,
                -4.025873184204102,
                80.0
            ],
            [
                2.548151731491089,
                -4.392854690551758,
                85.0
            ],
            [
                2.7019994258880615,
                -4.759846210479736,
                90.0
            ],
            [
                2.8557863235473633,
                -5.126827239990234,
                95.0
            ],
            [
                3.0095696449279785,
                -5.493808269500732,
                100.0
            ],
            [
                3.6246657371520996,
                -6.961732387542725,
                120.0
            ],
            [
                4.239699363708496,
                -8.429655075073242,
                140.0
            ],
            [
                4.854666709899902,
                -9.897576332092285,
                160.0
            ],
            [
                5.469562530517578,
                -11.365496635437012,
                180.0
            ],
            [
                6.0843825340271,
                -12.833415985107422,
                200.0
            ],
            [
                6.699122905731201,
                -14.3013334274292,
                220.0
            ],
            [
                7.313778877258301,
                -15.769250869750977,
                240.0
            ],
            [
                7.928380966186523,
                -17.237167358398438,
                260.0
            ],
            [
                8.542878150939941,
                -18.705081939697266,
                280.0
            ],
            [
                9.157285690307617,
                -20.17299461364746,
                300.0
            ],
            [
                9.771599769592285,
                -21.640907287597656,
                320.0
            ],
            [
                10.385817527770996,
                -23.10881805419922,
                340.0
            ],
            [
                10.9999361038208,
                -24.57672882080078,
                360.0
            ],
            [
                11.613950729370117,
                -26.04463768005371,
                380.0
            ],
            [
                12.227859497070313,
                -27.51254653930664,
                400.0
            ],
            [
                12.841653823852539,
                -28.980453491210938,
                420.0
            ],
            [
                13.455333709716797,
                -30.4483585357666,
                440.0
            ],
            [
                14.068896293640137,
                -31.916263580322266,
                460.0
            ],
            [
                14.682336807250977,
                -33.3841667175293,
                480.0
            ],
            [
                15.295653343200684,
                -34.85206985473633,
                500.0
            ],
            [
                15.908836364746094,
                -36.319969177246094,
                520.0
            ],
            [
                16.521886825561523,
                -37.787872314453125,
                540.0
            ],
            [
                17.13479995727539,
                -39.25577163696289,
                560.0
            ],
            [
                17.74755859375,
                -40.723670959472656,
                580.0
            ],
            [
                18.360166549682617,
                -42.191566467285156,
                600.0
            ],
            [
                18.97261619567871,
                -43.65946578979492,
                620.0
            ],
            [
                19.584909439086914,
                -45.12736129760742,
                640.0
            ],
            [
                20.19702911376953,
                -46.59525680541992,
                660.0
            ],
            [
                20.808982849121094,
                -48.06315231323242,
                680.0
            ],
            [
                21.420766830444336,
                -49.53104782104492,
                700.0
            ],
            [
                22.032384872436523,
                -50.998939514160156,
                720.0
            ],
            [
                22.643800735473633,
                -52.46683120727539,
                740.0
            ],
            [
                23.255002975463867,
                -53.934722900390625,
                760.0
            ],
            [
                23.866012573242188,
                -55.402618408203125,
                780.0
            ],
            [
                24.476823806762695,
                -56.87051010131836,
                800.0
            ],
            [
                25.087440490722656,
                -58.338401794433594,
                820.0
            ],
            [
                25.697851181030273,
                -59.80629348754883,
                840.0
            ],
            [
                26.30805206298828,
                -61.27418518066406,
                860.0
            ],
            [
                26.918039321899414,
                -62.7420768737793,
                880.0
            ],
            [
                27.527799606323242,
                -64.20996856689453,
                900.0
            ],
            [
                28.13730812072754,
                -65.67787170410156,
                920.0
            ],
            [
                28.746583938598633,
                -67.14578247070313,
                940.0
            ],
            [
                29.35562515258789,
                -68.61368560791016,
                960.0
            ],
            [
                29.96439552307129,
                -70.08159637451172,
                980.0
            ],
            [
                30.572856903076172,
                -71.54950714111328,
                1000.0
            ],
            [
                33.6118278503418,
                -78.88905334472656,
                1100.0
            ],
            [
                36.64280319213867,
                -86.22859954833984,
                1200.0
            ],
            [
                39.668121337890625,
                -93.5682373046875,
                1300.0
            ],
            [
                42.686790466308594,
                -100.90792846679688,
                1400.0
            ],
            [
                45.699432373046875,
                -108.2475814819336,
                1500.0
            ],
            [
                48.70589065551758,
                -115.5872573852539,
                1600.0
            ],
            [
                51.70574188232422,
                -122.92696380615234,
                1700.0
            ],
            [
                54.69773483276367,
                -130.2667236328125,
                1800.0
            ],
            [
                57.681602478027344,
                -137.60647583007813,
                1900.0
            ],
            [
                60.65592956542969,
                -144.9461669921875,
                2000.0
            ],
            [
                63.619468688964844,
                -152.28570556640625,
                2100.0
            ],
            [
                66.56891632080078,
                -159.62522888183594,
                2200.0
            ],
            [
                69.5064697265625,
                -166.96456909179688,
                2300.0
            ],
            [
                72.42396545410156,
                -174.30380249023438,
                2400.0
            ],
            [
                75.31844329833984,
                -181.64285278320313,
                2500.0
            ],
            [
                78.18390655517578,
                -188.98162841796875,
                2600.0
            ],
            [
                81.01775360107422,
                -196.32022094726563,
                2700.0
            ],
            [
                83.8143081665039,
                -203.65843200683594,
                2800.0
            ],
            [
                86.56172180175781,
                -210.99603271484375,
                2900.0
            ],
            [
                89.25354766845703,
                -218.33311462402344,
                3000.0
            ],
            [
                91.88743591308594,
                -225.6696319580078,
                3100.0
            ],
            [
                94.44290161132813,
                -233.00482177734375,
                3200.0
            ],
            [
                96.91777801513672,
                -240.33938598632813,
                3300.0
            ],
            [
                99.29545593261719,
                -247.67294311523438,
                3400.0
            ],
            [
                101.56656646728516,
                -255.005615234375,
                3500.0
            ],
            [
                103.72671508789063,
                -262.337890625,
                3600.0
            ],
            [
                105.7593002319336,
                -269.669677734375,
                3700.0
            ],
            [
                107.64462280273438,
                -276.999755859375,
                3800.0
            ],
            [
                109.3874282836914,
                -284.32904052734375,
                3900.0
            ],
            [
                110.96125030517578,
                -291.6583251953125,
                4000.0
            ],
            [
                112.37741088867188,
                -298.9879455566406,
                4100.0
            ],
            [
                113.59966278076172,
                -306.3171691894531,
                4200.0
            ],
            [
                114.6393051147461,
                -313.6453857421875,
                4300.0
            ],
            [
                115.49455261230469,
                -320.9752502441406,
                4400.0
            ],
            [
                116.15690612792969,
                -328.30474853515625,
                4500.0
            ],
            [
                116.62923431396484,
                -335.6350402832031,
                4600.0
            ],
            [
                116.89147186279297,
                -342.9645690917969,
                4700.0
            ],
            [
                116.97599029541016,
                -350.2939453125,
                4800.0
            ],
            [
                118.45472717285156,
                -358.6944274902344,
                4900.0
            ],
            [
                118.1588134765625,
                -366.05731201171875,
                5000.0
            ],
            [
                117.66374969482422,
                -373.4211120605469,
                5100.0
            ],
            [
                116.98188781738281,
                -380.7852783203125,
                5200.0
            ],
            [
                116.10990905761719,
                -388.1505126953125,
                5300.0
            ],
            [
                115.05155944824219,
                -395.5154113769531,
                5400.0
            ],
            [
                113.80792999267578,
                -402.8794250488281,
                5500.0
            ],
            [
                112.39216613769531,
                -410.24542236328125,
                5600.0
            ],
            [
                110.79527282714844,
                -417.611328125,
                5700.0
            ],
            [
                109.0257797241211,
                -424.977783203125,
                5800.0
            ],
            [
                107.093017578125,
                -432.3440856933594,
                5900.0
            ],
            [
                104.99018859863281,
                -439.71075439453125,
                6000.0
            ],
            [
                102.73078155517578,
                -447.07781982421875,
                6100.0
            ],
            [
                100.31560516357422,
                -454.4446716308594,
                6200.0
            ],
            [
                97.74990844726563,
                -461.8112487792969,
                6300.0
            ],
            [
                95.0405044555664,
                -469.1776123046875,
                6400.0
            ],
            [
                92.19056701660156,
                -476.5435791015625,
                6500.0
            ],
            [
                89.20792388916016,
                -483.9091796875,
                6600.0
            ],
            [
                86.09654235839844,
                -491.2744140625,
                6700.0
            ],
            [
                82.86722564697266,
                -498.63916015625,
                6800.0
            ],
            [
                79.52011108398438,
                -506.0030212402344,
                6900.0
            ],
            [
                76.06488037109375,
                -513.3660888671875,
                7000.0
            ],
            [
                72.50825500488281,
                -520.728271484375,
                7100.0
            ],
            [
                68.85739135742188,
                -528.0897216796875,
                7200.0
            ],
            [
                65.11770629882813,
                -535.4502563476563,
                7300.0
            ],
            [
                61.293174743652344,
                -542.809814453125,
                7400.0
            ],
            [
                57.39521789550781,
                -550.1685791015625,
                7500.0
            ],
            [
                53.424930572509766,
                -557.5263061523438,
                7600.0
            ],
            [
                49.390769958496094,
                -564.8831787109375,
                7700.0
            ],
            [
                45.29566192626953,
                -572.2391967773438,
                7800.0
            ],
            [
                41.14531326293945,
                -579.5944213867188,
                7900.0
            ],
            [
                36.94491195678711,
                -586.9487915039063,
                8000.0
            ],
            [
                32.69734573364258,
                -594.3024291992188,
                8100.0
            ],
            [
                28.408334732055664,
                -601.6553955078125,
                8200.0
            ],
            [
                24.080717086791992,
                -609.0076904296875,
                8300.0
            ],
            [
                19.717580795288086,
                -616.3593139648438,
                8400.0
            ],
            [
                15.321988105773926,
                -623.7103881835938,
                8500.0
            ],
            [
                10.897807121276855,
                -631.0608520507813,
                8600.0
            ],
            [
                6.446674823760986,
                -638.4108276367188,
                8700.0
            ],
            [
                1.971177101135254,
                -645.76025390625,
                8800.0
            ],
            [
                -2.5263381004333496,
                -653.1093139648438,
                8900.0
            ],
            [
                -7.044208526611328,
                -660.4578857421875,
                9000.0
            ],
            [
                -11.580535888671875,
                -667.8060913085938,
                9100.0
            ],
            [
                -16.133586883544922,
                -675.1539916992188,
                9200.0
            ],
            [
                -20.701932907104492,
                -682.5015869140625,
                9300.0
            ],
            [
                -25.284181594848633,
                -689.848876953125,
                9400.0
            ],
            [
                -29.879030227661133,
                -697.1958618164063,
                9500.0
            ],
            [
                -34.48541259765625,
                -704.5426635742188,
                9600.0
            ],
            [
                -39.10224533081055,
                -711.8892822265625,
                9700.0
            ],
            [
                -43.7286262512207,
                -719.2356567382813,
                9800.0
            ],
            [
                -48.36362075805664,
                -726.5819091796875,
                9900.0
            ],
            [
                -53.00651931762695,
                -733.927978515625,
                10000.0
            ],
            [
                -62.313209533691406,
                -748.6197509765625,
                10200.0
            ],
            [
                -71.64383697509766,
                -763.31103515625,
                10400.0
            ],
            [
                -80.99400329589844,
                -778.0020141601563,
                10600.0
            ],
            [
                -90.36087799072266,
                -792.6926879882813,
                10800.0
            ],
            [
                -99.7408447265625,
                -807.3831787109375,
                11000.0
            ],
            [
                -109.13212585449219,
                -822.0735473632813,
                11200.0
            ],
            [
                -118.53300476074219,
                -836.7637329101563,
                11400.0
            ],
            [
                -127.94109344482422,
                -851.4537963867188,
                11600.0
            ],
            [
                -137.3553924560547,
                -866.143798828125,
                11800.0
            ],
            [
                -146.77450561523438,
                -880.8338012695313,
                12000.0
            ],
            [
                -156.19854736328125,
                -895.523681640625,
                12200.0
            ],
            [
                -165.62576293945313,
                -910.213623046875,
                12400.0
            ],
            [
                -175.054931640625,
                -924.9035034179688,
                12600.0
            ],
            [
                -184.48606872558594,
                -939.5933837890625,
                12800.0
            ],
            [
                -193.91946411132813,
                -954.2832641601563,
                13000.0
            ],
            [
                -203.35446166992188,
                -968.9730834960938,
                13200.0
            ],
            [
                -212.7902069091797,
                -983.6629638671875,
                13400.0
            ]
        ],
        "zFirstMeasurement": 154.0981
    }
]
