[
    {
        "E": 19884.064340185872,
        "chi2": 0.0,
        "ip": 0.024971348254165436,
        "ipchi2": 3.317716612040799,
        "mass": 1855.57,
        "particleId": "D0",
        "pvx": 0.633,
        "pvy": 0.0379,
        "pvz": 14.268,
        "px": 2542.11,
        "py": 1193.9,
        "pz": 19597.07,
        "q": 0.0,
        "trajectory": [
            [
                0.6330000162124634,
                0.03790000081062317,
                14.267999649047852
            ],
            [
                0.6861000061035156,
                0.04529999941587448,
                14.761199951171875
            ]
        ],
        "zFirstMeasurement": -9999.0
    },
    {
        "E": 13730.884290607704,
        "chi2": 1.1526728868484497,
        "ip": 0.005500927710469636,
        "ipchi2": 0.13562763415172308,
        "mass": 493.677,
        "particleId": "K-",
        "pvx": 0.633,
        "pvy": 0.0379,
        "pvz": 14.268,
        "px": 1501.37,
        "py": 68.98,
        "pz": 13639.45,
        "q": -1.0,
        "trajectory": [
            [
                0.6927526593208313,
                0.04127010703086853,
                14.761199951171875
            ],
            [
                1.2431219816207886,
                0.06655625998973846,
                19.761199951171875
            ],
            [
                1.7934871912002563,
                0.09184253960847855,
                24.761199951171875
            ],
            [
                2.34384822845459,
                0.11712893098592758,
                29.761199951171875
            ],
            [
                2.894205331802368,
                0.14241544902324677,
                34.761199951171875
            ],
            [
                3.4445579051971436,
                0.1677020788192749,
                39.761199951171875
            ],
            [
                3.994906187057495,
                0.1929888278245926,
                44.761199951171875
            ],
            [
                4.545249938964844,
                0.21827569603919983,
                49.761199951171875
            ],
            [
                5.095569610595703,
                0.24362808465957642,
                54.761199951171875
            ],
            [
                5.645905017852783,
                0.26891520619392395,
                59.761199951171875
            ],
            [
                6.1962361335754395,
                0.29420244693756104,
                64.76119995117188
            ],
            [
                6.746562957763672,
                0.31948980689048767,
                69.76119995117188
            ],
            [
                7.2968854904174805,
                0.34477728605270386,
                74.76119995117188
            ],
            [
                7.847203731536865,
                0.3700648844242096,
                79.76119995117188
            ],
            [
                8.397517204284668,
                0.3953526020050049,
                84.76119995117188
            ],
            [
                8.947826385498047,
                0.4206404387950897,
                89.76119995117188
            ],
            [
                9.498130798339844,
                0.4459283947944641,
                94.76119995117188
            ],
            [
                10.048430442810059,
                0.47121647000312805,
                99.76119995117188
            ],
            [
                10.598725318908691,
                0.49650466442108154,
                104.76119995117188
            ],
            [
                12.799856185913086,
                0.597658634185791,
                124.76119995117188
            ],
            [
                15.000903129577637,
                0.6988144516944885,
                144.76119995117188
            ],
            [
                17.201862335205078,
                0.7999721765518188,
                164.76119995117188
            ],
            [
                19.402729034423828,
                0.9011316895484924,
                184.76119995117188
            ],
            [
                21.603544235229492,
                1.0022932291030884,
                204.76119995117188
            ],
            [
                23.80423927307129,
                1.1034564971923828,
                224.76119995117188
            ],
            [
                26.004833221435547,
                1.2046215534210205,
                244.76119995117188
            ],
            [
                28.2053279876709,
                1.3057883977890015,
                264.7611999511719
            ],
            [
                30.40571403503418,
                1.4069571495056152,
                284.7611999511719
            ],
            [
                32.605987548828125,
                1.5081276893615723,
                304.7611999511719
            ],
            [
                34.806148529052734,
                1.6093000173568726,
                324.7611999511719
            ],
            [
                37.00619125366211,
                1.7104741334915161,
                344.7611999511719
            ],
            [
                39.206111907958984,
                1.811650037765503,
                364.7611999511719
            ],
            [
                41.40590286254883,
                1.912827730178833,
                384.7611999511719
            ],
            [
                43.605567932128906,
                2.014007329940796,
                404.7611999511719
            ],
            [
                45.80509567260742,
                2.1151883602142334,
                424.7611999511719
            ],
            [
                48.00448226928711,
                2.2163712978363037,
                444.7611999511719
            ],
            [
                50.203712463378906,
                2.3175559043884277,
                464.7611999511719
            ],
            [
                52.40279006958008,
                2.4187424182891846,
                484.7611999511719
            ],
            [
                54.601715087890625,
                2.519930362701416,
                504.7611999511719
            ],
            [
                56.80046463012695,
                2.621119976043701,
                524.76123046875
            ],
            [
                58.99905014038086,
                2.722311019897461,
                544.76123046875
            ],
            [
                61.19746780395508,
                2.8235037326812744,
                564.76123046875
            ],
            [
                63.39570999145508,
                2.9246978759765625,
                584.76123046875
            ],
            [
                65.59376525878906,
                3.025893449783325,
                604.76123046875
            ],
            [
                67.7916030883789,
                3.1270883083343506,
                624.76123046875
            ],
            [
                69.98924255371094,
                3.2282843589782715,
                644.76123046875
            ],
            [
                72.18669128417969,
                3.329481363296509,
                664.76123046875
            ],
            [
                74.38392639160156,
                3.4306793212890625,
                684.76123046875
            ],
            [
                76.58097076416016,
                3.53187894821167,
                704.76123046875
            ],
            [
                78.77782440185547,
                3.633082866668701,
                724.76123046875
            ],
            [
                80.9744644165039,
                3.734288454055786,
                744.76123046875
            ],
            [
                83.17089080810547,
                3.8354952335357666,
                764.76123046875
            ],
            [
                85.36699676513672,
                3.936699867248535,
                784.76123046875
            ],
            [
                87.56278228759766,
                4.037903308868408,
                804.76123046875
            ],
            [
                89.75831604003906,
                4.139107704162598,
                824.76123046875
            ],
            [
                91.95359802246094,
                4.240312576293945,
                844.76123046875
            ],
            [
                94.14860534667969,
                4.341517925262451,
                864.76123046875
            ],
            [
                96.34334564208984,
                4.442723274230957,
                884.76123046875
            ],
            [
                98.53781127929688,
                4.543929100036621,
                904.76123046875
            ],
            [
                100.7320327758789,
                4.645135402679443,
                924.76123046875
            ],
            [
                102.9259033203125,
                4.746335029602051,
                944.76123046875
            ],
            [
                105.11940002441406,
                4.847522258758545,
                964.76123046875
            ],
            [
                107.31258392333984,
                4.9487080574035645,
                984.76123046875
            ],
            [
                109.5054702758789,
                5.049891471862793,
                1004.76123046875
            ],
            [
                120.4645004272461,
                5.555814266204834,
                1104.76123046875
            ],
            [
                131.4161834716797,
                6.061795711517334,
                1204.76123046875
            ],
            [
                142.3595428466797,
                6.567725658416748,
                1304.76123046875
            ],
            [
                153.29510498046875,
                7.073647499084473,
                1404.76123046875
            ],
            [
                164.22198486328125,
                7.579553127288818,
                1504.76123046875
            ],
            [
                175.14268493652344,
                8.08556079864502,
                1604.76123046875
            ],
            [
                186.05442810058594,
                8.59156608581543,
                1704.76123046875
            ],
            [
                196.95700073242188,
                9.097557067871094,
                1804.76123046875
            ],
            [
                207.84800720214844,
                9.60340690612793,
                1904.76123046875
            ],
            [
                218.72744750976563,
                10.109186172485352,
                2004.76123046875
            ],
            [
                229.58941650390625,
                10.61485481262207,
                2104.76123046875
            ],
            [
                240.43643188476563,
                11.120518684387207,
                2204.76123046875
            ],
            [
                251.26742553710938,
                11.626185417175293,
                2304.76123046875
            ],
            [
                262.0719909667969,
                12.131731033325195,
                2404.76123046875
            ],
            [
                272.84814453125,
                12.637102127075195,
                2504.76123046875
            ],
            [
                283.5859680175781,
                13.142213821411133,
                2604.76123046875
            ],
            [
                294.283203125,
                13.646949768066406,
                2704.76123046875
            ],
            [
                304.9294128417969,
                14.151373863220215,
                2804.76123046875
            ],
            [
                315.51641845703125,
                14.655325889587402,
                2904.76123046875
            ],
            [
                326.03350830078125,
                15.158774375915527,
                3004.76123046875
            ],
            [
                336.46685791015625,
                15.66176700592041,
                3104.76123046875
            ],
            [
                346.8123779296875,
                16.164579391479492,
                3204.76123046875
            ],
            [
                357.05963134765625,
                16.666820526123047,
                3304.76123046875
            ],
            [
                367.1812744140625,
                17.16848373413086,
                3404.76123046875
            ],
            [
                377.1682434082031,
                17.66977882385254,
                3504.76123046875
            ],
            [
                387.0207214355469,
                18.170276641845703,
                3604.76123046875
            ],
            [
                396.712890625,
                18.670053482055664,
                3704.76123046875
            ],
            [
                406.2383117675781,
                19.169281005859375,
                3804.76123046875
            ],
            [
                415.5878601074219,
                19.66797637939453,
                3904.76123046875
            ],
            [
                424.7388610839844,
                20.165882110595703,
                4004.76123046875
            ],
            [
                433.69488525390625,
                20.66270637512207,
                4104.76123046875
            ],
            [
                442.4389953613281,
                21.159160614013672,
                4204.76123046875
            ],
            [
                450.9562683105469,
                21.65524673461914,
                4304.76123046875
            ],
            [
                459.25042724609375,
                22.150175094604492,
                4404.76123046875
            ],
            [
                467.3360900878906,
                22.644359588623047,
                4504.76123046875
            ],
            [
                475.1788024902344,
                23.13773536682129,
                4604.76123046875
            ],
            [
                482.7966613769531,
                23.630443572998047,
                4704.76123046875
            ],
            [
                490.637939453125,
                23.863920211791992,
                4804.76123046875
            ],
            [
                497.8378601074219,
                24.358400344848633,
                4904.76123046875
            ],
            [
                504.8133850097656,
                24.8524112701416,
                5004.76123046875
            ],
            [
                511.55609130859375,
                25.344449996948242,
                5104.76123046875
            ],
            [
                518.0776977539063,
                25.836101531982422,
                5204.76123046875
            ],
            [
                524.375244140625,
                26.326908111572266,
                5304.76123046875
            ],
            [
                530.4559936523438,
                26.81817626953125,
                5404.76123046875
            ],
            [
                536.3209228515625,
                27.309846878051758,
                5504.76123046875
            ],
            [
                541.9813842773438,
                27.79926300048828,
                5604.76123046875
            ],
            [
                547.431640625,
                28.28892707824707,
                5704.76123046875
            ],
            [
                552.6787719726563,
                28.77814292907715,
                5804.76123046875
            ],
            [
                557.73583984375,
                29.266860961914063,
                5904.76123046875
            ],
            [
                562.5963745117188,
                29.754257202148438,
                6004.76123046875
            ],
            [
                567.2731323242188,
                30.240943908691406,
                6104.76123046875
            ],
            [
                571.7713012695313,
                30.727598190307617,
                6204.76123046875
            ],
            [
                576.0955200195313,
                31.214122772216797,
                6304.76123046875
            ],
            [
                580.2542724609375,
                31.700408935546875,
                6404.76123046875
            ],
            [
                584.2518920898438,
                32.18663787841797,
                6504.76123046875
            ],
            [
                588.0973510742188,
                32.67219924926758,
                6604.76123046875
            ],
            [
                591.7952270507813,
                33.15745162963867,
                6704.76123046875
            ],
            [
                595.3561401367188,
                33.64252853393555,
                6804.76123046875
            ],
            [
                598.7822875976563,
                34.12724685668945,
                6904.76123046875
            ],
            [
                602.0833740234375,
                34.61166000366211,
                7004.76123046875
            ],
            [
                605.2673950195313,
                35.09590530395508,
                7104.76123046875
            ],
            [
                608.3416137695313,
                35.58001708984375,
                7204.76123046875
            ],
            [
                611.3117065429688,
                36.063846588134766,
                7304.76123046875
            ],
            [
                614.1837158203125,
                36.54736328125,
                7404.76123046875
            ],
            [
                616.9684448242188,
                37.03057098388672,
                7504.76123046875
            ],
            [
                619.6676635742188,
                37.513484954833984,
                7604.76123046875
            ],
            [
                622.290283203125,
                37.996097564697266,
                7704.76123046875
            ],
            [
                624.8397827148438,
                38.4783821105957,
                7804.76123046875
            ],
            [
                627.3222045898438,
                38.96031188964844,
                7904.76123046875
            ],
            [
                629.743408203125,
                39.44190979003906,
                8004.76123046875
            ],
            [
                632.1069946289063,
                39.92317199707031,
                8104.76123046875
            ],
            [
                634.4190063476563,
                40.40409851074219,
                8204.7607421875
            ],
            [
                636.6829833984375,
                40.88470458984375,
                8304.7607421875
            ],
            [
                638.902587890625,
                41.36500930786133,
                8404.7607421875
            ],
            [
                641.0812377929688,
                41.84501647949219,
                8504.7607421875
            ],
            [
                643.2236328125,
                42.32476806640625,
                8604.7607421875
            ],
            [
                645.3317260742188,
                42.804264068603516,
                8704.7607421875
            ],
            [
                647.4087524414063,
                43.283538818359375,
                8804.7607421875
            ],
            [
                649.4574584960938,
                43.7625732421875,
                8904.7607421875
            ],
            [
                651.4799194335938,
                44.24138641357422,
                9004.7607421875
            ],
            [
                653.478515625,
                44.719993591308594,
                9104.7607421875
            ],
            [
                655.4554443359375,
                45.198402404785156,
                9204.7607421875
            ],
            [
                657.4124145507813,
                45.67662811279297,
                9304.7607421875
            ],
            [
                659.3513793945313,
                46.154685974121094,
                9404.7607421875
            ],
            [
                661.2738037109375,
                46.63258361816406,
                9504.7607421875
            ],
            [
                663.18115234375,
                47.11033630371094,
                9604.7607421875
            ],
            [
                665.0748291015625,
                47.58795166015625,
                9704.7607421875
            ],
            [
                666.9559936523438,
                48.0654411315918,
                9804.7607421875
            ],
            [
                668.8258056640625,
                48.542816162109375,
                9904.7607421875
            ],
            [
                670.6851806640625,
                49.020084381103516,
                10004.7607421875
            ],
            [
                674.37646484375,
                49.97433853149414,
                10204.7607421875
            ],
            [
                678.0360107421875,
                50.928260803222656,
                10404.7607421875
            ],
            [
                681.6697998046875,
                51.88191223144531,
                10604.7607421875
            ],
            [
                685.2813720703125,
                52.83533477783203,
                10804.7607421875
            ],
            [
                688.8755493164063,
                53.78857421875,
                11004.7607421875
            ],
            [
                692.4546508789063,
                54.741661071777344,
                11204.7607421875
            ],
            [
                696.0209350585938,
                55.69462203979492,
                11404.7607421875
            ],
            [
                699.5777587890625,
                56.647483825683594,
                11604.7607421875
            ],
            [
                703.1260986328125,
                57.60026931762695,
                11804.7607421875
            ],
            [
                706.6680908203125,
                58.5529899597168,
                12004.7607421875
            ],
            [
                710.2034301757813,
                59.50565719604492,
                12204.7607421875
            ],
            [
                713.7344360351563,
                60.45828628540039,
                12404.7607421875
            ],
            [
                717.262939453125,
                61.410888671875,
                12604.7607421875
            ],
            [
                720.7886962890625,
                62.363468170166016,
                12804.7607421875
            ],
            [
                724.3113403320313,
                63.3160285949707,
                13004.7607421875
            ],
            [
                727.8319702148438,
                64.26856994628906,
                13204.7607421875
            ],
            [
                731.3514404296875,
                65.22109985351563,
                13404.7607421875
            ]
        ],
        "zFirstMeasurement": 94.1031
    },
    {
        "E": 6153.077851173121,
        "chi2": 1.0416942834854126,
        "ip": 0.08636049694928583,
        "ipchi2": 23.581833072961707,
        "mass": 139.57,
        "particleId": "pi+",
        "pvx": 0.633,
        "pvy": 0.0379,
        "pvz": 14.268,
        "px": 1041.16,
        "py": 1124.54,
        "pz": 5957.54,
        "q": 1.0,
        "trajectory": [
            [
                0.668656051158905,
                0.05760110914707184,
                14.761199951171875
            ],
            [
                1.542479157447815,
                1.0013982057571411,
                19.761199951171875
            ],
            [
                2.4163119792938232,
                1.9451950788497925,
                24.761199951171875
            ],
            [
                3.290154457092285,
                2.8889920711517334,
                29.761199951171875
            ],
            [
                4.164007186889648,
                3.8327889442443848,
                34.761199951171875
            ],
            [
                5.0378923416137695,
                4.776618480682373,
                39.761199951171875
            ],
            [
                5.911765098571777,
                5.720415115356445,
                44.761199951171875
            ],
            [
                6.785647392272949,
                6.664211750030518,
                49.761199951171875
            ],
            [
                7.659540176391602,
                7.60800838470459,
                54.761199951171875
            ],
            [
                8.533442497253418,
                8.55180549621582,
                59.761199951171875
            ],
            [
                9.407356262207031,
                9.495601654052734,
                64.76119995117188
            ],
            [
                10.281279563903809,
                10.439398765563965,
                69.76119995117188
            ],
            [
                11.155213356018066,
                11.383194923400879,
                74.76119995117188
            ],
            [
                12.029158592224121,
                12.32699203491211,
                79.76119995117188
            ],
            [
                12.903114318847656,
                13.270788192749023,
                84.76119995117188
            ],
            [
                13.777081489562988,
                14.214585304260254,
                89.76119995117188
            ],
            [
                14.651060104370117,
                15.158381462097168,
                94.76119995117188
            ],
            [
                15.525049209594727,
                16.1021785736084,
                99.76119995117188
            ],
            [
                16.399051666259766,
                17.045974731445313,
                104.76119995117188
            ],
            [
                19.895174026489258,
                20.821163177490234,
                124.76119995117188
            ],
            [
                23.391496658325195,
                24.59635353088379,
                144.76119995117188
            ],
            [
                26.887962341308594,
                28.37154197692871,
                164.76119995117188
            ],
            [
                30.38466453552246,
                32.146732330322266,
                184.76119995117188
            ],
            [
                33.88158416748047,
                35.92192840576172,
                204.76119995117188
            ],
            [
                37.37872314453125,
                39.69712829589844,
                224.76119995117188
            ],
            [
                40.876094818115234,
                43.47233200073242,
                244.76119995117188
            ],
            [
                44.37370681762695,
                47.24753952026367,
                264.7611999511719
            ],
            [
                47.871559143066406,
                51.02275085449219,
                284.7611999511719
            ],
            [
                51.36967468261719,
                54.797969818115234,
                304.7611999511719
            ],
            [
                54.86805725097656,
                58.57319641113281,
                324.7611999511719
            ],
            [
                58.3667106628418,
                62.34843063354492,
                344.7611999511719
            ],
            [
                61.86565017700195,
                66.12367248535156,
                364.7611999511719
            ],
            [
                65.36487579345703,
                69.89891815185547,
                384.7611999511719
            ],
            [
                68.8644027709961,
                73.67417907714844,
                404.7611999511719
            ],
            [
                72.3642349243164,
                77.44944763183594,
                424.7611999511719
            ],
            [
                75.86438751220703,
                81.2247314453125,
                444.7611999511719
            ],
            [
                79.36487579345703,
                85.00003051757813,
                464.7611999511719
            ],
            [
                82.86570739746094,
                88.77533721923828,
                484.7611999511719
            ],
            [
                86.36689758300781,
                92.5506591796875,
                504.7611999511719
            ],
            [
                89.86848449707031,
                96.32599639892578,
                524.76123046875
            ],
            [
                93.3704605102539,
                100.10135650634766,
                544.76123046875
            ],
            [
                96.87281799316406,
                103.8767318725586,
                564.76123046875
            ],
            [
                100.37557220458984,
                107.6521224975586,
                584.76123046875
            ],
            [
                103.87873840332031,
                111.42753601074219,
                604.76123046875
            ],
            [
                107.3823471069336,
                115.20296478271484,
                624.76123046875
            ],
            [
                110.886474609375,
                118.97840118408203,
                644.76123046875
            ],
            [
                114.39104461669922,
                122.75386810302734,
                664.76123046875
            ],
            [
                117.89608764648438,
                126.52935028076172,
                684.76123046875
            ],
            [
                121.40157318115234,
                130.30484008789063,
                704.76123046875
            ],
            [
                124.9074935913086,
                134.08033752441406,
                724.76123046875
            ],
            [
                128.4138946533203,
                137.8558349609375,
                744.76123046875
            ],
            [
                131.9207763671875,
                141.63134765625,
                764.76123046875
            ],
            [
                135.4281463623047,
                145.40687561035156,
                784.76123046875
            ],
            [
                138.936279296875,
                149.1824493408203,
                804.76123046875
            ],
            [
                142.44508361816406,
                152.95803833007813,
                824.76123046875
            ],
            [
                145.95445251464844,
                156.73365783691406,
                844.76123046875
            ],
            [
                149.46449279785156,
                160.50927734375,
                864.76123046875
            ],
            [
                152.97512817382813,
                164.28492736816406,
                884.76123046875
            ],
            [
                156.48638916015625,
                168.0605926513672,
                904.76123046875
            ],
            [
                159.99830627441406,
                171.83631896972656,
                924.76123046875
            ],
            [
                163.5109100341797,
                175.61207580566406,
                944.76123046875
            ],
            [
                167.02435302734375,
                179.3878173828125,
                964.76123046875
            ],
            [
                170.5387420654297,
                183.1635284423828,
                984.76123046875
            ],
            [
                174.05377197265625,
                186.93927001953125,
                1004.76123046875
            ],
            [
                191.64007568359375,
                205.8175811767578,
                1104.76123046875
            ],
            [
                209.24501037597656,
                224.69505310058594,
                1204.76123046875
            ],
            [
                226.86752319335938,
                243.57168579101563,
                1304.76123046875
            ],
            [
                244.50978088378906,
                262.4473571777344,
                1404.76123046875
            ],
            [
                262.17449951171875,
                281.3235778808594,
                1504.76123046875
            ],
            [
                279.8418884277344,
                300.1985778808594,
                1604.76123046875
            ],
            [
                297.5270080566406,
                319.0732116699219,
                1704.76123046875
            ],
            [
                315.2279968261719,
                337.9501647949219,
                1804.76123046875
            ],
            [
                332.9476623535156,
                356.8287658691406,
                1904.76123046875
            ],
            [
                350.6856689453125,
                375.70965576171875,
                2004.76123046875
            ],
            [
                368.45159912109375,
                394.5945129394531,
                2104.76123046875
            ],
            [
                386.23980712890625,
                413.4858703613281,
                2204.76123046875
            ],
            [
                404.03485107421875,
                432.3846130371094,
                2304.76123046875
            ],
            [
                421.85198974609375,
                451.2922058105469,
                2404.76123046875
            ],
            [
                439.71160888671875,
                470.21478271484375,
                2504.76123046875
            ],
            [
                457.61895751953125,
                489.15777587890625,
                2604.76123046875
            ],
            [
                475.5796203613281,
                508.1230773925781,
                2704.76123046875
            ],
            [
                493.6156311035156,
                527.1149291992188,
                2804.76123046875
            ],
            [
                511.74365234375,
                546.134765625,
                2904.76123046875
            ],
            [
                529.9742431640625,
                565.18994140625,
                3004.76123046875
            ],
            [
                548.3683471679688,
                584.2850341796875,
                3104.76123046875
            ],
            [
                566.8792114257813,
                603.4231567382813,
                3204.76123046875
            ],
            [
                585.5661010742188,
                622.61376953125,
                3304.76123046875
            ],
            [
                604.488037109375,
                641.8609619140625,
                3404.76123046875
            ],
            [
                623.6619262695313,
                661.1796875,
                3504.76123046875
            ],
            [
                643.1304931640625,
                680.5614013671875,
                3604.76123046875
            ],
            [
                662.9676513671875,
                700.0154418945313,
                3704.76123046875
            ],
            [
                683.1944580078125,
                719.542724609375,
                3804.76123046875
            ],
            [
                703.9522094726563,
                739.147216796875,
                3904.76123046875
            ],
            [
                725.2267456054688,
                758.8218383789063,
                4004.76123046875
            ],
            [
                747.05810546875,
                778.5511474609375,
                4104.76123046875
            ],
            [
                769.5465087890625,
                798.35546875,
                4204.76123046875
            ],
            [
                792.6174926757813,
                818.2211303710938,
                4304.76123046875
            ],
            [
                816.3944091796875,
                838.1344604492188,
                4404.76123046875
            ],
            [
                840.8677978515625,
                858.1009521484375,
                4504.76123046875
            ],
            [
                865.9519653320313,
                878.1084594726563,
                4604.76123046875
            ],
            [
                891.6785278320313,
                898.137451171875,
                4704.76123046875
            ],
            [
                910.3650512695313,
                914.1337280273438,
                4804.76123046875
            ],
            [
                937.2788696289063,
                934.09130859375,
                4904.76123046875
            ],
            [
                964.7684326171875,
                954.02490234375,
                5004.76123046875
            ],
            [
                992.9873657226563,
                973.9843139648438,
                5104.76123046875
            ],
            [
                1021.792236328125,
                993.9506225585938,
                5204.76123046875
            ],
            [
                1051.2098388671875,
                1013.9373779296875,
                5304.76123046875
            ],
            [
                1081.23583984375,
                1033.933837890625,
                5404.76123046875
            ],
            [
                1111.874267578125,
                1053.93359375,
                5504.76123046875
            ],
            [
                1143.138427734375,
                1073.9171142578125,
                5604.76123046875
            ],
            [
                1174.9993896484375,
                1093.88916015625,
                5704.76123046875
            ],
            [
                1207.467529296875,
                1113.85693359375,
                5804.76123046875
            ],
            [
                1240.4866943359375,
                1133.80712890625,
                5904.76123046875
            ],
            [
                1274.14599609375,
                1153.7412109375,
                6004.76123046875
            ],
            [
                1308.3907470703125,
                1173.6702880859375,
                6104.76123046875
            ],
            [
                1343.1759033203125,
                1193.5745849609375,
                6204.76123046875
            ],
            [
                1378.5426025390625,
                1213.4456787109375,
                6304.76123046875
            ],
            [
                1414.5108642578125,
                1233.2877197265625,
                6404.76123046875
            ],
            [
                1451.0291748046875,
                1253.078125,
                6504.76123046875
            ],
            [
                1488.100830078125,
                1272.807861328125,
                6604.76123046875
            ],
            [
                1525.70361328125,
                1292.4710693359375,
                6704.76123046875
            ],
            [
                1563.7640380859375,
                1312.0582275390625,
                6804.76123046875
            ],
            [
                1602.2908935546875,
                1331.5587158203125,
                6904.76123046875
            ],
            [
                1641.2152099609375,
                1350.976318359375,
                7004.76123046875
            ],
            [
                1680.4879150390625,
                1370.3099365234375,
                7104.76123046875
            ],
            [
                1720.07568359375,
                1389.555419921875,
                7204.76123046875
            ],
            [
                1759.923095703125,
                1408.7225341796875,
                7304.76123046875
            ],
            [
                1800.0048828125,
                1427.8114013671875,
                7404.76123046875
            ],
            [
                1840.2684326171875,
                1446.8453369140625,
                7504.76123046875
            ],
            [
                1880.7020263671875,
                1465.8104248046875,
                7604.76123046875
            ],
            [
                1921.266357421875,
                1484.7266845703125,
                7704.76123046875
            ],
            [
                1961.9415283203125,
                1503.6015625,
                7804.76123046875
            ],
            [
                2002.7054443359375,
                1522.447021484375,
                7904.76123046875
            ],
            [
                2043.54345703125,
                1541.268310546875,
                8004.76123046875
            ],
            [
                2084.443603515625,
                1560.071533203125,
                8104.76123046875
            ],
            [
                2125.393798828125,
                1578.8634033203125,
                8204.7607421875
            ],
            [
                2166.3857421875,
                1597.64794921875,
                8304.7607421875
            ],
            [
                2207.413818359375,
                1616.4287109375,
                8404.7607421875
            ],
            [
                2248.471435546875,
                1635.2103271484375,
                8504.7607421875
            ],
            [
                2289.55517578125,
                1653.9912109375,
                8604.7607421875
            ],
            [
                2330.660888671875,
                1672.775390625,
                8704.7607421875
            ],
            [
                2371.78564453125,
                1691.5635986328125,
                8804.7607421875
            ],
            [
                2412.92822265625,
                1710.356201171875,
                8904.7607421875
            ],
            [
                2454.08642578125,
                1729.1531982421875,
                9004.7607421875
            ],
            [
                2495.25830078125,
                1747.955078125,
                9104.7607421875
            ],
            [
                2536.44287109375,
                1766.7613525390625,
                9204.7607421875
            ],
            [
                2577.638916015625,
                1785.57177734375,
                9304.7607421875
            ],
            [
                2618.84521484375,
                1804.3858642578125,
                9404.7607421875
            ],
            [
                2660.06103515625,
                1823.203125,
                9504.7607421875
            ],
            [
                2701.28515625,
                1842.0233154296875,
                9604.7607421875
            ],
            [
                2742.517333984375,
                1860.8460693359375,
                9704.7607421875
            ],
            [
                2783.756103515625,
                1879.6710205078125,
                9804.7607421875
            ],
            [
                2825.001220703125,
                1898.4981689453125,
                9904.7607421875
            ],
            [
                2866.25146484375,
                1917.3272705078125,
                10004.7607421875
            ],
            [
                2948.765625,
                1954.991943359375,
                10204.7607421875
            ],
            [
                3031.294189453125,
                1992.6639404296875,
                10404.7607421875
            ],
            [
                3113.834716796875,
                2030.3406982421875,
                10604.7607421875
            ],
            [
                3196.3818359375,
                2068.025146484375,
                10804.7607421875
            ],
            [
                3278.9345703125,
                2105.715087890625,
                11004.7607421875
            ],
            [
                3361.490234375,
                2143.409912109375,
                11204.7607421875
            ],
            [
                3444.0478515625,
                2181.1103515625,
                11404.7607421875
            ],
            [
                3526.608154296875,
                2218.813232421875,
                11604.7607421875
            ],
            [
                3609.16748046875,
                2256.52197265625,
                11804.7607421875
            ],
            [
                3691.72607421875,
                2294.23486328125,
                12004.7607421875
            ],
            [
                3774.2841796875,
                2331.951904296875,
                12204.7607421875
            ],
            [
                3856.841796875,
                2369.673095703125,
                12404.7607421875
            ],
            [
                3939.400146484375,
                2407.394287109375,
                12604.7607421875
            ],
            [
                4021.955810546875,
                2445.119384765625,
                12804.7607421875
            ],
            [
                4104.51025390625,
                2482.84765625,
                13004.7607421875
            ],
            [
                4187.06689453125,
                2520.57275390625,
                13204.7607421875
            ],
            [
                4269.62060546875,
                2558.305908203125,
                13404.7607421875
            ]
        ],
        "zFirstMeasurement": 64.4073
    },
    {
        "E": 6213.857648775456,
        "chi2": 1.2773157358169556,
        "ip": 0.2755541384221232,
        "ipchi2": 293.3722511552028,
        "mass": 139.57018,
        "particleId": "pi-",
        "pvx": 0.633,
        "pvy": 0.0379,
        "pvz": 14.268,
        "px": 845.5468626849157,
        "py": -634.192132975989,
        "pz": 6121.715273154662,
        "q": -1.0,
        "trajectory": [
            [
                -14.997785568237305,
                11.643084526062012,
                -100.0
            ],
            [
                -14.3070068359375,
                11.125089645385742,
                -95.0
            ],
            [
                -13.61623477935791,
                10.607095718383789,
                -90.0
            ],
            [
                -12.925419807434082,
                10.08910083770752,
                -85.0
            ],
            [
                -12.23466968536377,
                9.571107864379883,
                -80.0
            ],
            [
                -11.543925285339355,
                9.053115844726563,
                -75.0
            ],
            [
                -10.853187561035156,
                8.535122871398926,
                -70.0
            ],
            [
                -10.162456512451172,
                8.017130851745605,
                -65.0
            ],
            [
                -9.471732139587402,
                7.499139785766602,
                -60.0
            ],
            [
                -8.781014442443848,
                6.981148719787598,
                -55.0
            ],
            [
                -8.090304374694824,
                6.463158130645752,
                -50.0
            ],
            [
                -7.399600505828857,
                5.945167541503906,
                -45.0
            ],
            [
                -6.708904266357422,
                5.427177429199219,
                -40.0
            ],
            [
                -6.018215656280518,
                4.909188270568848,
                -35.0
            ],
            [
                -5.327534198760986,
                4.391199111938477,
                -30.0
            ],
            [
                -4.636860370635986,
                3.8732101917266846,
                -25.0
            ],
            [
                -3.9461941719055176,
                3.355221748352051,
                -20.0
            ],
            [
                -3.255535840988159,
                2.837233781814575,
                -15.0
            ],
            [
                -2.5648856163024902,
                2.319246292114258,
                -10.0
            ],
            [
                -1.8742433786392212,
                1.801259160041809,
                -5.0
            ],
            [
                -1.1836094856262207,
                1.2832725048065186,
                0.0
            ],
            [
                -0.49298393726348877,
                0.7652861475944519,
                5.0
            ],
            [
                0.19763311743736267,
                0.24730028212070465,
                10.0
            ],
            [
                0.8882415294647217,
                -0.2706851363182068,
                15.0
            ],
            [
                1.5788410902023315,
                -0.7886701226234436,
                20.0
            ],
            [
                2.2694315910339355,
                -1.306654691696167,
                25.0
            ],
            [
                2.9600131511688232,
                -1.824638843536377,
                30.0
            ],
            [
                3.650585412979126,
                -2.3426225185394287,
                35.0
            ],
            [
                4.341177463531494,
                -2.8605918884277344,
                40.0
            ],
            [
                5.031731128692627,
                -3.378574848175049,
                45.0
            ],
            [
                5.722275733947754,
                -3.896557092666626,
                50.0
            ],
            [
                6.412811279296875,
                -4.414538860321045,
                55.0
            ],
            [
                7.103336811065674,
                -4.932520389556885,
                60.0
            ],
            [
                7.793853282928467,
                -5.450501441955566,
                65.0
            ],
            [
                8.484359741210938,
                -5.96848201751709,
                70.0
            ],
            [
                9.174856185913086,
                -6.486462116241455,
                75.0
            ],
            [
                9.86534309387207,
                -7.004441738128662,
                80.0
            ],
            [
                10.555819511413574,
                -7.522420883178711,
                85.0
            ],
            [
                11.246285438537598,
                -8.040399551391602,
                90.0
            ],
            [
                11.93674087524414,
                -8.558377265930176,
                95.0
            ],
            [
                12.627184867858887,
                -9.07635498046875,
                100.0
            ],
            [
                15.38885498046875,
                -11.148260116577148,
                120.0
            ],
            [
                18.150341033935547,
                -13.220157623291016,
                140.0
            ],
            [
                20.911624908447266,
                -15.292046546936035,
                160.0
            ],
            [
                23.67281723022461,
                -17.363929748535156,
                180.0
            ],
            [
                26.433746337890625,
                -19.435802459716797,
                200.0
            ],
            [
                29.19446563720703,
                -21.507665634155273,
                220.0
            ],
            [
                31.954967498779297,
                -23.579519271850586,
                240.0
            ],
            [
                34.715248107910156,
                -25.651365280151367,
                260.0
            ],
            [
                37.47529602050781,
                -27.72319984436035,
                280.0
            ],
            [
                40.23509979248047,
                -29.795024871826172,
                300.0
            ],
            [
                42.99464416503906,
                -31.866840362548828,
                320.0
            ],
            [
                45.75393295288086,
                -33.93864440917969,
                340.0
            ],
            [
                48.5129508972168,
                -36.01043701171875,
                360.0
            ],
            [
                51.27169418334961,
                -38.082218170166016,
                380.0
            ],
            [
                54.030155181884766,
                -40.153987884521484,
                400.0
            ],
            [
                56.78831481933594,
                -42.225746154785156,
                420.0
            ],
            [
                59.54616928100586,
                -44.29749298095703,
                440.0
            ],
            [
                62.3037109375,
                -46.369224548339844,
                460.0
            ],
            [
                65.0609130859375,
                -48.440940856933594,
                480.0
            ],
            [
                67.81777954101563,
                -50.51264572143555,
                500.0
            ],
            [
                70.57425689697266,
                -52.58434295654297,
                520.0
            ],
            [
                73.3303451538086,
                -54.65602111816406,
                540.0
            ],
            [
                76.08606719970703,
                -56.72768783569336,
                560.0
            ],
            [
                78.84139251708984,
                -58.79934310913086,
                580.0
            ],
            [
                81.5963363647461,
                -60.87097930908203,
                600.0
            ],
            [
                84.35082244873047,
                -62.9426155090332,
                620.0
            ],
            [
                87.10484313964844,
                -65.01423645019531,
                640.0
            ],
            [
                89.85841369628906,
                -67.0858383178711,
                660.0
            ],
            [
                92.61153411865234,
                -69.15743255615234,
                680.0
            ],
            [
                95.36418914794922,
                -71.22901153564453,
                700.0
            ],
            [
                98.1164779663086,
                -73.3005599975586,
                720.0
            ],
            [
                100.86829376220703,
                -75.37210083007813,
                740.0
            ],
            [
                103.61962127685547,
                -77.44361114501953,
                760.0
            ],
            [
                106.37046813964844,
                -79.5151138305664,
                780.0
            ],
            [
                109.12063598632813,
                -81.58661651611328,
                800.0
            ],
            [
                111.87007141113281,
                -83.65813446044922,
                820.0
            ],
            [
                114.61893463134766,
                -85.7296371459961,
                840.0
            ],
            [
                117.3671646118164,
                -87.80113983154297,
                860.0
            ],
            [
                120.11473846435547,
                -89.87263488769531,
                880.0
            ],
            [
                122.8616943359375,
                -91.94412231445313,
                900.0
            ],
            [
                125.60811614990234,
                -94.01559448242188,
                920.0
            ],
            [
                128.35391235351563,
                -96.08706665039063,
                940.0
            ],
            [
                131.0989990234375,
                -98.1585464477539,
                960.0
            ],
            [
                133.84304809570313,
                -100.23011779785156,
                980.0
            ],
            [
                136.5863800048828,
                -102.30169677734375,
                1000.0
            ],
            [
                150.2908935546875,
                -112.65972900390625,
                1100.0
            ],
            [
                163.97918701171875,
                -123.01769256591797,
                1200.0
            ],
            [
                177.64892578125,
                -133.37599182128906,
                1300.0
            ],
            [
                191.29945373535156,
                -143.73497009277344,
                1400.0
            ],
            [
                204.9316864013672,
                -154.09425354003906,
                1500.0
            ],
            [
                218.5520782470703,
                -164.4533233642578,
                1600.0
            ],
            [
                232.15237426757813,
                -174.81214904785156,
                1700.0
            ],
            [
                245.7344207763672,
                -185.17050170898438,
                1800.0
            ],
            [
                259.2944641113281,
                -195.52825927734375,
                1900.0
            ],
            [
                272.8284912109375,
                -205.8854522705078,
                2000.0
            ],
            [
                286.3280029296875,
                -216.24081420898438,
                2100.0
            ],
            [
                299.7987060546875,
                -226.594482421875,
                2200.0
            ],
            [
                313.2381896972656,
                -236.9441680908203,
                2300.0
            ],
            [
                326.63238525390625,
                -247.2901153564453,
                2400.0
            ],
            [
                339.96612548828125,
                -257.6303405761719,
                2500.0
            ],
            [
                353.2305908203125,
                -267.9631042480469,
                2600.0
            ],
            [
                366.412841796875,
                -278.28875732421875,
                2700.0
            ],
            [
                379.49700927734375,
                -288.6048583984375,
                2800.0
            ],
            [
                392.4582214355469,
                -298.91033935546875,
                2900.0
            ],
            [
                405.2886962890625,
                -309.20257568359375,
                3000.0
            ],
            [
                417.9300231933594,
                -319.48162841796875,
                3100.0
            ],
            [
                430.4043884277344,
                -329.7421875,
                3200.0
            ],
            [
                442.6641540527344,
                -339.98529052734375,
                3300.0
            ],
            [
                454.6750183105469,
                -350.2081298828125,
                3400.0
            ],
            [
                466.4057312011719,
                -360.4102478027344,
                3500.0
            ],
            [
                477.8427734375,
                -370.5962829589844,
                3600.0
            ],
            [
                488.9178161621094,
                -380.7610778808594,
                3700.0
            ],
            [
                499.629638671875,
                -390.9072570800781,
                3800.0
            ],
            [
                509.91558837890625,
                -401.03070068359375,
                3900.0
            ],
            [
                519.7675170898438,
                -411.1392517089844,
                4000.0
            ],
            [
                529.1455078125,
                -421.24310302734375,
                4100.0
            ],
            [
                538.0460205078125,
                -431.3243408203125,
                4200.0
            ],
            [
                546.4299926757813,
                -441.3940124511719,
                4300.0
            ],
            [
                554.2724609375,
                -451.45574951171875,
                4400.0
            ],
            [
                561.6453247070313,
                -461.51239013671875,
                4500.0
            ],
            [
                568.4230346679688,
                -471.5664367675781,
                4600.0
            ],
            [
                574.7155151367188,
                -481.61572265625,
                4700.0
            ],
            [
                573.3231201171875,
                -498.4571228027344,
                4800.0
            ],
            [
                578.4443969726563,
                -508.71356201171875,
                4900.0
            ],
            [
                583.0397338867188,
                -518.9651489257813,
                5000.0
            ],
            [
                587.105224609375,
                -529.219970703125,
                5100.0
            ],
            [
                590.6660766601563,
                -539.472900390625,
                5200.0
            ],
            [
                593.7152099609375,
                -549.7274780273438,
                5300.0
            ],
            [
                596.2633666992188,
                -559.9801025390625,
                5400.0
            ],
            [
                598.3051147460938,
                -570.2301025390625,
                5500.0
            ],
            [
                599.8822631835938,
                -580.4859008789063,
                5600.0
            ],
            [
                600.9730834960938,
                -590.7401123046875,
                5700.0
            ],
            [
                601.5911865234375,
                -600.9949951171875,
                5800.0
            ],
            [
                601.7660522460938,
                -611.2481689453125,
                5900.0
            ],
            [
                601.4841918945313,
                -621.5032348632813,
                6000.0
            ],
            [
                600.7785034179688,
                -631.7576904296875,
                6100.0
            ],
            [
                599.6527709960938,
                -642.0104370117188,
                6200.0
            ],
            [
                598.1116943359375,
                -652.2618408203125,
                6300.0
            ],
            [
                596.1784057617188,
                -662.5114135742188,
                6400.0
            ],
            [
                593.862548828125,
                -672.7572631835938,
                6500.0
            ],
            [
                591.181884765625,
                -683.0012817382813,
                6600.0
            ],
            [
                588.1502685546875,
                -693.2413330078125,
                6700.0
            ],
            [
                584.7957763671875,
                -703.4766845703125,
                6800.0
            ],
            [
                581.1214599609375,
                -713.7066650390625,
                6900.0
            ],
            [
                577.1558837890625,
                -723.9307250976563,
                7000.0
            ],
            [
                572.9171752929688,
                -734.1484375,
                7100.0
            ],
            [
                568.4251098632813,
                -744.3594360351563,
                7200.0
            ],
            [
                563.6983032226563,
                -754.56298828125,
                7300.0
            ],
            [
                558.7464599609375,
                -764.7589111328125,
                7400.0
            ],
            [
                553.602783203125,
                -774.9472045898438,
                7500.0
            ],
            [
                548.2710571289063,
                -785.12744140625,
                7600.0
            ],
            [
                542.7750854492188,
                -795.2997436523438,
                7700.0
            ],
            [
                537.1240234375,
                -805.4642333984375,
                7800.0
            ],
            [
                531.3341674804688,
                -815.6209716796875,
                7900.0
            ],
            [
                525.4193115234375,
                -825.7701416015625,
                8000.0
            ],
            [
                519.3878173828125,
                -835.9119873046875,
                8100.0
            ],
            [
                513.2546997070313,
                -846.0468139648438,
                8200.0
            ],
            [
                507.0276184082031,
                -856.1748046875,
                8300.0
            ],
            [
                500.71478271484375,
                -866.2962646484375,
                8400.0
            ],
            [
                494.3239440917969,
                -876.4114990234375,
                8500.0
            ],
            [
                487.8652038574219,
                -886.5208740234375,
                8600.0
            ],
            [
                481.342529296875,
                -896.6246337890625,
                8700.0
            ],
            [
                474.7624206542969,
                -906.7230834960938,
                8800.0
            ],
            [
                468.13055419921875,
                -916.816650390625,
                8900.0
            ],
            [
                461.45111083984375,
                -926.9056396484375,
                9000.0
            ],
            [
                454.72869873046875,
                -936.9902954101563,
                9100.0
            ],
            [
                447.96746826171875,
                -947.0709228515625,
                9200.0
            ],
            [
                441.1709289550781,
                -957.1478271484375,
                9300.0
            ],
            [
                434.3423156738281,
                -967.2212524414063,
                9400.0
            ],
            [
                427.4847717285156,
                -977.2913818359375,
                9500.0
            ],
            [
                420.60076904296875,
                -987.3585815429688,
                9600.0
            ],
            [
                413.69287109375,
                -997.4229736328125,
                9700.0
            ],
            [
                406.7631530761719,
                -1007.4848022460938,
                9800.0
            ],
            [
                399.8137512207031,
                -1017.5443115234375,
                9900.0
            ],
            [
                392.84637451171875,
                -1027.6015625,
                10000.0
            ],
            [
                378.8640441894531,
                -1047.7103271484375,
                10200.0
            ],
            [
                364.82733154296875,
                -1067.812255859375,
                10400.0
            ],
            [
                350.7465515136719,
                -1087.908447265625,
                10600.0
            ],
            [
                336.62786865234375,
                -1107.9998779296875,
                10800.0
            ],
            [
                322.47955322265625,
                -1128.087158203125,
                11000.0
            ],
            [
                308.3056945800781,
                -1148.171142578125,
                11200.0
            ],
            [
                294.1102600097656,
                -1168.252197265625,
                11400.0
            ],
            [
                279.89892578125,
                -1188.3310546875,
                11600.0
            ],
            [
                265.67333984375,
                -1208.407958984375,
                11800.0
            ],
            [
                251.4369354248047,
                -1228.483154296875,
                12000.0
            ],
            [
                237.1894073486328,
                -1248.5570068359375,
                12200.0
            ],
            [
                222.93496704101563,
                -1268.6298828125,
                12400.0
            ],
            [
                208.67652893066406,
                -1288.7020263671875,
                12600.0
            ],
            [
                194.41329956054688,
                -1308.7734375,
                12800.0
            ],
            [
                180.14498901367188,
                -1328.8443603515625,
                13000.0
            ],
            [
                165.87303161621094,
                -1348.9146728515625,
                13200.0
            ],
            [
                151.59963989257813,
                -1368.9847412109375,
                13400.0
            ]
        ],
        "zFirstMeasurement": 64.4073
    },
    {
        "E": 14925.512582646714,
        "chi2": 1.3000564575195313,
        "ip": 4.499403031704831,
        "ipchi2": 3081.149870780126,
        "mass": 139.57018,
        "particleId": "pi-",
        "pvx": 0.633,
        "pvy": 0.0379,
        "pvz": 14.268,
        "px": -323.8103777456597,
        "py": -282.14593827440603,
        "pz": 14918.6791147333,
        "q": -1.0,
        "trajectory": [
            [
                0.8834449648857117,
                6.108100891113281,
                -100.0
            ],
            [
                0.7750281095504761,
                6.013538360595703,
                -95.0
            ],
            [
                0.666608452796936,
                5.918976306915283,
                -90.0
            ],
            [
                0.5581859946250916,
                5.824413776397705,
                -85.0
            ],
            [
                0.44976070523262024,
                5.729851245880127,
                -80.0
            ],
            [
                0.3413325250148773,
                5.635289192199707,
                -75.0
            ],
            [
                0.232901468873024,
                5.540726661682129,
                -70.0
            ],
            [
                0.12446745485067368,
                5.446164608001709,
                -65.0
            ],
            [
                0.016030455008149147,
                5.351602077484131,
                -60.0
            ],
            [
                -0.09240956604480743,
                5.257040023803711,
                -55.0
            ],
            [
                -0.2008526474237442,
                5.162477970123291,
                -50.0
            ],
            [
                -0.3092988133430481,
                5.067915916442871,
                -45.0
            ],
            [
                -0.41774824261665344,
                4.973353862762451,
                -40.0
            ],
            [
                -0.526174008846283,
                4.878791809082031,
                -35.0
            ],
            [
                -0.6346337199211121,
                4.784229755401611,
                -30.0
            ],
            [
                -0.7430962920188904,
                4.689667701721191,
                -25.0
            ],
            [
                -0.8515616655349731,
                4.5951056480407715,
                -20.0
            ],
            [
                -0.9600300192832947,
                4.50054407119751,
                -15.0
            ],
            [
                -1.068501353263855,
                4.40598201751709,
                -10.0
            ],
            [
                -1.1769758462905884,
                4.311420440673828,
                -5.0
            ],
            [
                -1.2854533195495605,
                4.216858386993408,
                0.0
            ],
            [
                -1.3939341306686401,
                4.1222968101501465,
                5.0
            ],
            [
                -1.5024181604385376,
                4.027734756469727,
                10.0
            ],
            [
                -1.610905408859253,
                3.933173418045044,
                15.0
            ],
            [
                -1.7193961143493652,
                3.838611602783203,
                20.0
            ],
            [
                -1.827890157699585,
                3.7440500259399414,
                25.0
            ],
            [
                -1.9363877773284912,
                3.6494884490966797,
                30.0
            ],
            [
                -2.044888973236084,
                3.554927110671997,
                35.0
            ],
            [
                -2.1533937454223633,
                3.4603655338287354,
                40.0
            ],
            [
                -2.261902093887329,
                3.3658039569854736,
                45.0
            ],
            [
                -2.3704144954681396,
                3.271242618560791,
                50.0
            ],
            [
                -2.4789304733276367,
                3.1766812801361084,
                55.0
            ],
            [
                -2.5874502658843994,
                3.082119941711426,
                60.0
            ],
            [
                -2.695974111557007,
                2.987558603286743,
                65.0
            ],
            [
                -2.80450177192688,
                2.8929972648620605,
                70.0
            ],
            [
                -2.9130334854125977,
                2.798436164855957,
                75.0
            ],
            [
                -3.0215694904327393,
                2.7038748264312744,
                80.0
            ],
            [
                -3.1301095485687256,
                2.609313726425171,
                85.0
            ],
            [
                -3.2386538982391357,
                2.5147526264190674,
                90.0
            ],
            [
                -3.3472025394439697,
                2.420191526412964,
                95.0
            ],
            [
                -3.4557554721832275,
                2.3256304264068604,
                100.0
            ],
            [
                -3.890011787414551,
                1.9473865032196045,
                120.0
            ],
            [
                -4.324343204498291,
                1.5691430568695068,
                140.0
            ],
            [
                -4.758756637573242,
                1.190900206565857,
                160.0
            ],
            [
                -5.193207740783691,
                0.81265789270401,
                180.0
            ],
            [
                -5.6277666091918945,
                0.4344159960746765,
                200.0
            ],
            [
                -6.062410831451416,
                0.05617453157901764,
                220.0
            ],
            [
                -6.497143268585205,
                -0.3220665156841278,
                240.0
            ],
            [
                -6.931882381439209,
                -0.7003105282783508,
                260.0
            ],
            [
                -7.366800308227539,
                -1.0785508155822754,
                280.0
            ],
            [
                -7.801819801330566,
                -1.456790804862976,
                300.0
            ],
            [
                -8.23694133758545,
                -1.835030436515808,
                320.0
            ],
            [
                -8.672168731689453,
                -2.2132697105407715,
                340.0
            ],
            [
                -9.107470512390137,
                -2.591508626937866,
                360.0
            ],
            [
                -9.542941093444824,
                -2.96974778175354,
                380.0
            ],
            [
                -9.978520393371582,
                -3.3479864597320557,
                400.0
            ],
            [
                -10.414216041564941,
                -3.7262251377105713,
                420.0
            ],
            [
                -10.850034713745117,
                -4.104463577270508,
                440.0
            ],
            [
                -11.285983085632324,
                -4.482701778411865,
                460.0
            ],
            [
                -11.72206974029541,
                -4.860940456390381,
                480.0
            ],
            [
                -12.158299446105957,
                -5.239178657531738,
                500.0
            ],
            [
                -12.594680786132813,
                -5.617417335510254,
                520.0
            ],
            [
                -13.031219482421875,
                -5.995655536651611,
                540.0
            ],
            [
                -13.46786117553711,
                -6.373893737792969,
                560.0
            ],
            [
                -13.904699325561523,
                -6.752132415771484,
                580.0
            ],
            [
                -14.341703414916992,
                -7.130370616912842,
                600.0
            ],
            [
                -14.77888011932373,
                -7.508609771728516,
                620.0
            ],
            [
                -15.216238021850586,
                -7.886848449707031,
                640.0
            ],
            [
                -15.653779029846191,
                -8.265087127685547,
                660.0
            ],
            [
                -16.091510772705078,
                -8.643326759338379,
                680.0
            ],
            [
                -16.529438018798828,
                -9.021565437316895,
                700.0
            ],
            [
                -16.96756935119629,
                -9.399806022644043,
                720.0
            ],
            [
                -17.405908584594727,
                -9.778047561645508,
                740.0
            ],
            [
                -17.84446144104004,
                -10.156289100646973,
                760.0
            ],
            [
                -18.283233642578125,
                -10.534530639648438,
                780.0
            ],
            [
                -18.722230911254883,
                -10.912774085998535,
                800.0
            ],
            [
                -19.161455154418945,
                -11.291016578674316,
                820.0
            ],
            [
                -19.60091781616211,
                -11.66926097869873,
                840.0
            ],
            [
                -20.040618896484375,
                -12.047506332397461,
                860.0
            ],
            [
                -20.480560302734375,
                -12.425750732421875,
                880.0
            ],
            [
                -20.920745849609375,
                -12.803994178771973,
                900.0
            ],
            [
                -21.361175537109375,
                -13.182238578796387,
                920.0
            ],
            [
                -21.801864624023438,
                -13.560483932495117,
                940.0
            ],
            [
                -22.242830276489258,
                -13.93873119354248,
                960.0
            ],
            [
                -22.68408203125,
                -14.316983222961426,
                980.0
            ],
            [
                -23.1256160736084,
                -14.695235252380371,
                1000.0
            ],
            [
                -25.337366104125977,
                -16.586515426635742,
                1100.0
            ],
            [
                -27.55654525756836,
                -18.477825164794922,
                1200.0
            ],
            [
                -29.78300666809082,
                -20.36916732788086,
                1300.0
            ],
            [
                -32.016929626464844,
                -22.260501861572266,
                1400.0
            ],
            [
                -34.25566482543945,
                -24.151704788208008,
                1500.0
            ],
            [
                -36.503475189208984,
                -26.043062210083008,
                1600.0
            ],
            [
                -38.758968353271484,
                -27.93444061279297,
                1700.0
            ],
            [
                -41.021968841552734,
                -29.825847625732422,
                1800.0
            ],
            [
                -43.29465866088867,
                -31.717294692993164,
                1900.0
            ],
            [
                -45.57864761352539,
                -33.608795166015625,
                2000.0
            ],
            [
                -47.87455368041992,
                -35.50035858154297,
                2100.0
            ],
            [
                -50.18561553955078,
                -37.39196014404297,
                2200.0
            ],
            [
                -52.5157470703125,
                -39.283653259277344,
                2300.0
            ],
            [
                -54.865455627441406,
                -41.17546844482422,
                2400.0
            ],
            [
                -57.242042541503906,
                -43.06721496582031,
                2500.0
            ],
            [
                -59.649200439453125,
                -44.9593620300293,
                2600.0
            ],
            [
                -62.09889602661133,
                -46.85176467895508,
                2700.0
            ],
            [
                -64.58966827392578,
                -48.744415283203125,
                2800.0
            ],
            [
                -67.13634490966797,
                -50.63737106323242,
                2900.0
            ],
            [
                -69.74584197998047,
                -52.530670166015625,
                3000.0
            ],
            [
                -72.42434692382813,
                -54.4242057800293,
                3100.0
            ],
            [
                -75.19441223144531,
                -56.31794738769531,
                3200.0
            ],
            [
                -78.05390167236328,
                -58.21199035644531,
                3300.0
            ],
            [
                -81.01268005371094,
                -60.106502532958984,
                3400.0
            ],
            [
                -84.09844970703125,
                -62.000938415527344,
                3500.0
            ],
            [
                -87.30775451660156,
                -63.89642333984375,
                3600.0
            ],
            [
                -90.66361999511719,
                -65.79227447509766,
                3700.0
            ],
            [
                -94.17442321777344,
                -67.688720703125,
                3800.0
            ],
            [
                -97.84219360351563,
                -69.58580017089844,
                3900.0
            ],
            [
                -101.67765808105469,
                -71.48363494873047,
                4000.0
            ],
            [
                -105.724609375,
                -73.38235473632813,
                4100.0
            ],
            [
                -109.9487533569336,
                -75.28160858154297,
                4200.0
            ],
            [
                -114.3702163696289,
                -77.18168640136719,
                4300.0
            ],
            [
                -118.9797134399414,
                -79.08240509033203,
                4400.0
            ],
            [
                -123.80908966064453,
                -80.98347473144531,
                4500.0
            ],
            [
                -128.85154724121094,
                -82.88591766357422,
                4600.0
            ],
            [
                -134.09381103515625,
                -84.78880310058594,
                4700.0
            ],
            [
                -139.55380249023438,
                -86.6929702758789,
                4800.0
            ],
            [
                -145.21083068847656,
                -88.59761810302734,
                4900.0
            ],
            [
                -150.871337890625,
                -89.6019287109375,
                5000.0
            ],
            [
                -156.9262237548828,
                -91.48152923583984,
                5100.0
            ],
            [
                -163.18544006347656,
                -93.361572265625,
                5200.0
            ],
            [
                -169.6510467529297,
                -95.24304962158203,
                5300.0
            ],
            [
                -176.31687927246094,
                -97.12393188476563,
                5400.0
            ],
            [
                -183.18284606933594,
                -99.0042953491211,
                5500.0
            ],
            [
                -190.23724365234375,
                -100.88677978515625,
                5600.0
            ],
            [
                -197.487548828125,
                -102.76893615722656,
                5700.0
            ],
            [
                -204.92584228515625,
                -104.65196990966797,
                5800.0
            ],
            [
                -212.5410919189453,
                -106.53534698486328,
                5900.0
            ],
            [
                -220.3385009765625,
                -108.41920471191406,
                6000.0
            ],
            [
                -228.30654907226563,
                -110.30365753173828,
                6100.0
            ],
            [
                -236.44126892089844,
                -112.1881332397461,
                6200.0
            ],
            [
                -244.7382354736328,
                -114.0725326538086,
                6300.0
            ],
            [
                -253.1900634765625,
                -115.95694732666016,
                6400.0
            ],
            [
                -261.79290771484375,
                -117.84115600585938,
                6500.0
            ],
            [
                -270.53729248046875,
                -119.7254409790039,
                6600.0
            ],
            [
                -279.4205017089844,
                -121.60970306396484,
                6700.0
            ],
            [
                -288.4321594238281,
                -123.4938735961914,
                6800.0
            ],
            [
                -297.5703430175781,
                -125.37760162353516,
                6900.0
            ],
            [
                -306.8257141113281,
                -127.2610092163086,
                7000.0
            ],
            [
                -316.1913146972656,
                -129.14413452148438,
                7100.0
            ],
            [
                -325.6602478027344,
                -131.02700805664063,
                7200.0
            ],
            [
                -335.22711181640625,
                -132.90963745117188,
                7300.0
            ],
            [
                -344.8869323730469,
                -134.7918701171875,
                7400.0
            ],
            [
                -354.6289367675781,
                -136.6739501953125,
                7500.0
            ],
            [
                -364.4512023925781,
                -138.55569458007813,
                7600.0
            ],
            [
                -374.34588623046875,
                -140.43727111816406,
                7700.0
            ],
            [
                -384.3097229003906,
                -142.3186798095703,
                7800.0
            ],
            [
                -394.3369140625,
                -144.19993591308594,
                7900.0
            ],
            [
                -404.4219055175781,
                -146.08106994628906,
                8000.0
            ],
            [
                -414.5616149902344,
                -147.96212768554688,
                8100.0
            ],
            [
                -424.7498779296875,
                -149.84310913085938,
                8200.0
            ],
            [
                -434.9836120605469,
                -151.7240447998047,
                8300.0
            ],
            [
                -445.2593994140625,
                -153.60491943359375,
                8400.0
            ],
            [
                -455.5738525390625,
                -155.4857635498047,
                8500.0
            ],
            [
                -465.92254638671875,
                -157.36659240722656,
                8600.0
            ],
            [
                -476.3036804199219,
                -159.2473907470703,
                8700.0
            ],
            [
                -486.71429443359375,
                -161.12815856933594,
                8800.0
            ],
            [
                -497.1515808105469,
                -163.00894165039063,
                8900.0
            ],
            [
                -507.6136779785156,
                -164.88973999023438,
                9000.0
            ],
            [
                -518.0983276367188,
                -166.7705535888672,
                9100.0
            ],
            [
                -528.6034545898438,
                -168.65139770507813,
                9200.0
            ],
            [
                -539.1273193359375,
                -170.53228759765625,
                9300.0
            ],
            [
                -549.6683349609375,
                -172.41322326660156,
                9400.0
            ],
            [
                -560.2247924804688,
                -174.294189453125,
                9500.0
            ],
            [
                -570.7955322265625,
                -176.1752166748047,
                9600.0
            ],
            [
                -581.379150390625,
                -178.05630493164063,
                9700.0
            ],
            [
                -591.974609375,
                -179.9374237060547,
                9800.0
            ],
            [
                -602.5806884765625,
                -181.81861877441406,
                9900.0
            ],
            [
                -613.1965942382813,
                -183.69985961914063,
                10000.0
            ],
            [
                -634.4542846679688,
                -187.46249389648438,
                10200.0
            ],
            [
                -655.74169921875,
                -191.22532653808594,
                10400.0
            ],
            [
                -677.0533447265625,
                -194.98837280273438,
                10600.0
            ],
            [
                -698.3856811523438,
                -198.7515869140625,
                10800.0
            ],
            [
                -719.7342529296875,
                -202.51498413085938,
                11000.0
            ],
            [
                -741.0968627929688,
                -206.27850341796875,
                11200.0
            ],
            [
                -762.4713745117188,
                -210.04217529296875,
                11400.0
            ],
            [
                -783.8547973632813,
                -213.8059539794922,
                11600.0
            ],
            [
                -805.245849609375,
                -217.56983947753906,
                11800.0
            ],
            [
                -826.6428833007813,
                -221.3338165283203,
                12000.0
            ],
            [
                -848.0460205078125,
                -225.0978546142578,
                12200.0
            ],
            [
                -869.4530639648438,
                -228.86196899414063,
                12400.0
            ],
            [
                -890.8624877929688,
                -232.6261444091797,
                12600.0
            ],
            [
                -912.2743530273438,
                -236.39036560058594,
                12800.0
            ],
            [
                -933.6890258789063,
                -240.15463256835938,
                13000.0
            ],
            [
                -955.1055908203125,
                -243.91891479492188,
                13200.0
            ],
            [
                -976.5231323242188,
                -247.6832275390625,
                13400.0
            ]
        ],
        "zFirstMeasurement": 449.2342
    }
]
