[
    {
        "E": 101328.87527270625,
        "chi2": 0.0,
        "ip": 0.03530051997866476,
        "ipchi2": 9.247490821763714,
        "mass": 1870.398,
        "particleId": "D0",
        "pvx": 0.5738,
        "pvy": 0.0629,
        "pvz": 20.4986,
        "px": 5747.68,
        "py": 1793.35,
        "pz": 101132.54,
        "q": 0.0,
        "trajectory": [
            [
                0.5738000273704529,
                0.06289999932050705,
                20.498600006103516
            ],
            [
                0.9430999755859375,
                0.16410000622272491,
                26.376800537109375
            ]
        ],
        "zFirstMeasurement": -9999.0
    },
    {
        "E": 37384.79553560321,
        "chi2": 0.7783971428871155,
        "ip": 0.12335025044201259,
        "ipchi2": 49.41921822422805,
        "mass": 493.677,
        "particleId": "K-",
        "pvx": 0.5738,
        "pvy": 0.0629,
        "pvz": 20.4986,
        "px": 2473.23,
        "py": 1388.14,
        "pz": 37273.79,
        "q": -1.0,
        "trajectory": [
            [
                0.9500085711479187,
                0.15911969542503357,
                26.376800537109375
            ],
            [
                1.2817699909210205,
                0.34532874822616577,
                31.376800537109375
            ],
            [
                1.6135298013687134,
                0.5315378308296204,
                36.376800537109375
            ],
            [
                1.945288062095642,
                0.717746913433075,
                41.376800537109375
            ],
            [
                2.2770447731018066,
                0.9039560556411743,
                46.376800537109375
            ],
            [
                2.608799934387207,
                1.0901652574539185,
                51.376800537109375
            ],
            [
                2.9405531883239746,
                1.276374340057373,
                56.376800537109375
            ],
            [
                3.2723050117492676,
                1.4625836610794067,
                61.376800537109375
            ],
            [
                3.604055166244507,
                1.6487928628921509,
                66.37680053710938
            ],
            [
                3.9358036518096924,
                1.8350021839141846,
                71.37680053710938
            ],
            [
                4.267550468444824,
                2.0212113857269287,
                76.37680053710938
            ],
            [
                4.599295139312744,
                2.207420825958252,
                81.37680053710938
            ],
            [
                4.931050777435303,
                2.3936288356781006,
                86.37680053710938
            ],
            [
                5.262792110443115,
                2.5798380374908447,
                91.37680053710938
            ],
            [
                5.594532012939453,
                2.766047477722168,
                96.37680053710938
            ],
            [
                5.926270008087158,
                2.9522571563720703,
                101.37680053710938
            ],
            [
                7.253206729888916,
                3.6970951557159424,
                121.37680053710938
            ],
            [
                8.58011531829834,
                4.441934108734131,
                141.37680053710938
            ],
            [
                9.906993865966797,
                5.186773300170898,
                161.37680053710938
            ],
            [
                11.233840942382813,
                5.931612491607666,
                181.37680053710938
            ],
            [
                12.560653686523438,
                6.67645263671875,
                201.37680053710938
            ],
            [
                13.887431144714355,
                7.421293258666992,
                221.37680053710938
            ],
            [
                15.214171409606934,
                8.166133880615234,
                241.37680053710938
            ],
            [
                16.5408878326416,
                8.910975456237793,
                261.3768005371094
            ],
            [
                17.867555618286133,
                9.655817031860352,
                281.3768005371094
            ],
            [
                19.194185256958008,
                10.40065860748291,
                301.3768005371094
            ],
            [
                20.52077293395996,
                11.145501136779785,
                321.3768005371094
            ],
            [
                21.84731674194336,
                11.89034366607666,
                341.3768005371094
            ],
            [
                23.173816680908203,
                12.635187149047852,
                361.3768005371094
            ],
            [
                24.50027084350586,
                13.380030632019043,
                381.3768005371094
            ],
            [
                25.826677322387695,
                14.124874114990234,
                401.3768005371094
            ],
            [
                27.153034210205078,
                14.869717597961426,
                421.3768005371094
            ],
            [
                28.479339599609375,
                15.614562034606934,
                441.3768005371094
            ],
            [
                29.805591583251953,
                16.359407424926758,
                461.3768005371094
            ],
            [
                31.131790161132813,
                17.104251861572266,
                481.3768005371094
            ],
            [
                32.45793151855469,
                17.849096298217773,
                501.3768005371094
            ],
            [
                33.78401565551758,
                18.59394073486328,
                521.3767700195313
            ],
            [
                35.11003875732422,
                19.338787078857422,
                541.3767700195313
            ],
            [
                36.436004638671875,
                20.08363151550293,
                561.3767700195313
            ],
            [
                37.761898040771484,
                20.82847785949707,
                581.3767700195313
            ],
            [
                39.08772659301758,
                21.57332420349121,
                601.3767700195313
            ],
            [
                40.413482666015625,
                22.31816864013672,
                621.3767700195313
            ],
            [
                41.73917007446289,
                23.06301498413086,
                641.3767700195313
            ],
            [
                43.064781188964844,
                23.807861328125,
                661.3767700195313
            ],
            [
                44.390316009521484,
                24.552705764770508,
                681.3767700195313
            ],
            [
                45.71577835083008,
                25.29755210876465,
                701.3767700195313
            ],
            [
                47.041168212890625,
                26.04239845275879,
                721.3767700195313
            ],
            [
                48.36646270751953,
                26.78724479675293,
                741.3767700195313
            ],
            [
                49.69166564941406,
                27.532089233398438,
                761.3767700195313
            ],
            [
                51.016780853271484,
                28.276935577392578,
                781.3767700195313
            ],
            [
                52.34180450439453,
                29.02178192138672,
                801.3767700195313
            ],
            [
                53.666744232177734,
                29.766626358032227,
                821.3767700195313
            ],
            [
                54.99159240722656,
                30.511472702026367,
                841.3767700195313
            ],
            [
                56.31634521484375,
                31.256317138671875,
                861.3767700195313
            ],
            [
                57.6410026550293,
                32.001163482666016,
                881.3767700195313
            ],
            [
                58.96555709838867,
                32.74600601196289,
                901.3767700195313
            ],
            [
                60.28999710083008,
                33.490848541259766,
                921.3767700195313
            ],
            [
                61.61433410644531,
                34.23569107055664,
                941.3767700195313
            ],
            [
                62.93856430053711,
                34.980533599853516,
                961.3767700195313
            ],
            [
                64.2626724243164,
                35.725372314453125,
                981.3767700195313
            ],
            [
                65.5866470336914,
                36.47021484375,
                1001.3767700195313
            ],
            [
                72.20507049560547,
                40.19442367553711,
                1101.3768310546875
            ],
            [
                78.82000732421875,
                43.91865921020508,
                1201.3768310546875
            ],
            [
                85.43241882324219,
                47.642879486083984,
                1301.3768310546875
            ],
            [
                92.04185485839844,
                51.367103576660156,
                1401.3768310546875
            ],
            [
                98.64872741699219,
                55.09136199951172,
                1501.3768310546875
            ],
            [
                105.25284576416016,
                58.81562042236328,
                1601.3768310546875
            ],
            [
                111.85396575927734,
                62.53985595703125,
                1701.3768310546875
            ],
            [
                118.45149993896484,
                66.26406860351563,
                1801.3768310546875
            ],
            [
                125.04534912109375,
                69.98825073242188,
                1901.3768310546875
            ],
            [
                131.63482666015625,
                73.71239471435547,
                2001.3768310546875
            ],
            [
                138.21949768066406,
                77.43653106689453,
                2101.376708984375
            ],
            [
                144.79742431640625,
                81.1605224609375,
                2201.376708984375
            ],
            [
                151.3699493408203,
                84.88444519042969,
                2301.376708984375
            ],
            [
                157.9331512451172,
                88.60822296142578,
                2401.376708984375
            ],
            [
                164.4856719970703,
                92.33179473876953,
                2501.376708984375
            ],
            [
                171.02484130859375,
                96.05511474609375,
                2601.376708984375
            ],
            [
                177.5494384765625,
                99.77819061279297,
                2701.376708984375
            ],
            [
                184.05697631835938,
                103.50096130371094,
                2801.376708984375
            ],
            [
                190.54197692871094,
                107.22325134277344,
                2901.376708984375
            ],
            [
                197.00184631347656,
                110.9451675415039,
                3001.376708984375
            ],
            [
                203.43539428710938,
                114.66661071777344,
                3101.376708984375
            ],
            [
                209.833251953125,
                118.38753509521484,
                3201.376708984375
            ],
            [
                216.19483947753906,
                122.10785675048828,
                3301.376708984375
            ],
            [
                222.51220703125,
                125.82747650146484,
                3401.376708984375
            ],
            [
                228.78172302246094,
                129.54649353027344,
                3501.376708984375
            ],
            [
                235.00218200683594,
                133.2649688720703,
                3601.376708984375
            ],
            [
                241.16603088378906,
                136.98277282714844,
                3701.376708984375
            ],
            [
                247.2655029296875,
                140.69970703125,
                3801.376708984375
            ],
            [
                253.302490234375,
                144.41607666015625,
                3901.376708984375
            ],
            [
                259.2662658691406,
                148.13172912597656,
                4001.376708984375
            ],
            [
                265.1612243652344,
                151.84664916992188,
                4101.376953125
            ],
            [
                270.97296142578125,
                155.56114196777344,
                4201.376953125
            ],
            [
                276.704833984375,
                159.27479553222656,
                4301.376953125
            ],
            [
                282.3569641113281,
                162.98800659179688,
                4401.376953125
            ],
            [
                287.9266662597656,
                166.70079040527344,
                4501.376953125
            ],
            [
                293.41412353515625,
                170.41305541992188,
                4601.376953125
            ],
            [
                298.8114929199219,
                174.12460327148438,
                4701.376953125
            ],
            [
                304.1321105957031,
                177.83587646484375,
                4801.376953125
            ],
            [
                308.78973388671875,
                182.14144897460938,
                4901.376953125
            ],
            [
                313.9293212890625,
                185.86962890625,
                5001.376953125
            ],
            [
                318.9833679199219,
                189.59683227539063,
                5101.376953125
            ],
            [
                323.955810546875,
                193.32386779785156,
                5201.376953125
            ],
            [
                328.8455505371094,
                197.0505828857422,
                5301.376953125
            ],
            [
                333.65557861328125,
                200.7774658203125,
                5401.376953125
            ],
            [
                338.3863220214844,
                204.5043182373047,
                5501.376953125
            ],
            [
                343.0416259765625,
                208.23031616210938,
                5601.376953125
            ],
            [
                347.61920166015625,
                211.9564666748047,
                5701.376953125
            ],
            [
                352.1219482421875,
                215.68243408203125,
                5801.376953125
            ],
            [
                356.5546875,
                219.408203125,
                5901.376953125
            ],
            [
                360.9148254394531,
                223.13340759277344,
                6001.376953125
            ],
            [
                365.20703125,
                226.85841369628906,
                6101.376953125
            ],
            [
                369.4328918457031,
                230.58346557617188,
                6201.376953125
            ],
            [
                373.5946044921875,
                234.30844116210938,
                6301.376953125
            ],
            [
                377.69488525390625,
                238.0333709716797,
                6401.376953125
            ],
            [
                381.7353515625,
                241.75833129882813,
                6501.376953125
            ],
            [
                385.7194519042969,
                245.4830780029297,
                6601.376953125
            ],
            [
                389.648681640625,
                249.20777893066406,
                6701.376953125
            ],
            [
                393.5273132324219,
                252.93247985839844,
                6801.376953125
            ],
            [
                397.3558349609375,
                256.6571044921875,
                6901.376953125
            ],
            [
                401.1380310058594,
                260.3816833496094,
                7001.376953125
            ],
            [
                404.8768615722656,
                264.10626220703125,
                7101.376953125
            ],
            [
                408.57501220703125,
                267.830810546875,
                7201.376953125
            ],
            [
                412.23480224609375,
                271.5553283691406,
                7301.376953125
            ],
            [
                415.8580627441406,
                275.27978515625,
                7401.376953125
            ],
            [
                419.44927978515625,
                279.004150390625,
                7501.376953125
            ],
            [
                423.0089416503906,
                282.7284240722656,
                7601.376953125
            ],
            [
                426.54052734375,
                286.4526062011719,
                7701.376953125
            ],
            [
                430.04522705078125,
                290.17669677734375,
                7801.376953125
            ],
            [
                433.5253601074219,
                293.90069580078125,
                7901.376953125
            ],
            [
                436.9831237792969,
                297.6245422363281,
                8001.376953125
            ],
            [
                440.41973876953125,
                301.3482666015625,
                8101.376953125
            ],
            [
                443.837646484375,
                305.0718688964844,
                8201.376953125
            ],
            [
                447.238037109375,
                308.7953186035156,
                8301.376953125
            ],
            [
                450.6222839355469,
                312.5186462402344,
                8401.376953125
            ],
            [
                453.9916687011719,
                316.2418212890625,
                8501.376953125
            ],
            [
                457.347900390625,
                319.96490478515625,
                8601.376953125
            ],
            [
                460.6916809082031,
                323.6878356933594,
                8701.376953125
            ],
            [
                464.0242004394531,
                327.41064453125,
                8801.376953125
            ],
            [
                467.34649658203125,
                331.1333312988281,
                8901.376953125
            ],
            [
                470.6592712402344,
                334.85589599609375,
                9001.376953125
            ],
            [
                473.9634094238281,
                338.578369140625,
                9101.376953125
            ],
            [
                477.2597351074219,
                342.3006896972656,
                9201.376953125
            ],
            [
                480.54888916015625,
                346.0229187011719,
                9301.376953125
            ],
            [
                483.83148193359375,
                349.7450256347656,
                9401.376953125
            ],
            [
                487.1081237792969,
                353.467041015625,
                9501.376953125
            ],
            [
                490.3793640136719,
                357.18896484375,
                9601.376953125
            ],
            [
                493.6456298828125,
                360.9107666015625,
                9701.376953125
            ],
            [
                496.90740966796875,
                364.63250732421875,
                9801.376953125
            ],
            [
                500.1650695800781,
                368.3541564941406,
                9901.376953125
            ],
            [
                503.41900634765625,
                372.0757141113281,
                10001.376953125
            ],
            [
                509.9169616699219,
                379.5186462402344,
                10201.376953125
            ],
            [
                516.4035034179688,
                386.9613037109375,
                10401.376953125
            ],
            [
                522.8807373046875,
                394.4037170410156,
                10601.376953125
            ],
            [
                529.3500366210938,
                401.845947265625,
                10801.376953125
            ],
            [
                535.8130493164063,
                409.2879943847656,
                11001.376953125
            ],
            [
                542.2706298828125,
                416.7298889160156,
                11201.376953125
            ],
            [
                548.7236938476563,
                424.17169189453125,
                11401.376953125
            ],
            [
                555.1732788085938,
                431.61334228515625,
                11601.376953125
            ],
            [
                561.6198120117188,
                439.054931640625,
                11801.376953125
            ],
            [
                568.0640869140625,
                446.4964294433594,
                12001.376953125
            ],
            [
                574.5060424804688,
                453.9378662109375,
                12201.376953125
            ],
            [
                580.9463500976563,
                461.3792419433594,
                12401.376953125
            ],
            [
                587.3858642578125,
                468.820556640625,
                12601.376953125
            ],
            [
                593.8242797851563,
                476.2618408203125,
                12801.376953125
            ],
            [
                600.26171875,
                483.703125,
                13001.376953125
            ],
            [
                606.6983032226563,
                491.14434814453125,
                13201.376953125
            ],
            [
                613.1345825195313,
                498.5855712890625,
                13401.376953125
            ]
        ],
        "zFirstMeasurement": 154.0981
    },
    {
        "E": 63932.77219835612,
        "chi2": 0.8025716543197632,
        "ip": 0.09240527039382619,
        "ipchi2": 45.255323440067436,
        "mass": 139.57,
        "particleId": "pi+",
        "pvx": 0.5738,
        "pvy": 0.0629,
        "pvz": 20.4986,
        "px": 3273.17,
        "py": 405.29,
        "pz": 63847.49,
        "q": 1.0,
        "trajectory": [
            [
                0.940061628818512,
                0.16608694195747375,
                26.376800537109375
            ],
            [
                1.1963920593261719,
                0.19782546162605286,
                31.376800537109375
            ],
            [
                1.4527233839035034,
                0.22956396639347076,
                36.376800537109375
            ],
            [
                1.7090555429458618,
                0.26130247116088867,
                41.376800537109375
            ],
            [
                1.9653886556625366,
                0.293040931224823,
                46.376800537109375
            ],
            [
                2.2217228412628174,
                0.3247793912887573,
                51.376800537109375
            ],
            [
                2.478057861328125,
                0.35651782155036926,
                56.376800537109375
            ],
            [
                2.734393835067749,
                0.3882562518119812,
                61.376800537109375
            ],
            [
                2.9907307624816895,
                0.41999465227127075,
                66.37680053710938
            ],
            [
                3.2470688819885254,
                0.4517330229282379,
                71.37680053710938
            ],
            [
                3.5034077167510986,
                0.4834713935852051,
                76.37680053710938
            ],
            [
                3.7597477436065674,
                0.5152097344398499,
                81.37680053710938
            ],
            [
                4.016088962554932,
                0.5469480752944946,
                86.37680053710938
            ],
            [
                4.272430896759033,
                0.5786863565444946,
                91.37680053710938
            ],
            [
                4.528798580169678,
                0.6104042530059814,
                96.37680053710938
            ],
            [
                4.78514289855957,
                0.6421425342559814,
                101.37680053710938
            ],
            [
                5.8105292320251465,
                0.7690955996513367,
                121.37680053710938
            ],
            [
                6.835931301116943,
                0.8960483074188232,
                141.37680053710938
            ],
            [
                7.8613505363464355,
                1.023000717163086,
                161.37680053710938
            ],
            [
                8.886787414550781,
                1.1499528884887695,
                181.37680053710938
            ],
            [
                9.912242889404297,
                1.276904821395874,
                201.37680053710938
            ],
            [
                10.937719345092773,
                1.4038565158843994,
                221.37680053710938
            ],
            [
                11.963216781616211,
                1.5308078527450562,
                241.37680053710938
            ],
            [
                12.988737106323242,
                1.6577589511871338,
                261.3768005371094
            ],
            [
                14.0142822265625,
                1.7847098112106323,
                281.3768005371094
            ],
            [
                15.039837837219238,
                1.9116604328155518,
                301.3768005371094
            ],
            [
                16.065425872802734,
                2.0386106967926025,
                321.3768005371094
            ],
            [
                17.091039657592773,
                2.1655609607696533,
                341.3768005371094
            ],
            [
                18.11667823791504,
                2.292510747909546,
                361.3768005371094
            ],
            [
                19.142343521118164,
                2.4194602966308594,
                381.3768005371094
            ],
            [
                20.16803741455078,
                2.546409845352173,
                401.3768005371094
            ],
            [
                21.19375991821289,
                2.673358917236328,
                421.3768005371094
            ],
            [
                22.219511032104492,
                2.8003079891204834,
                441.3768005371094
            ],
            [
                23.24529457092285,
                2.9272568225860596,
                461.3768005371094
            ],
            [
                24.271108627319336,
                3.0542051792144775,
                481.3768005371094
            ],
            [
                25.296955108642578,
                3.1811535358428955,
                501.3768005371094
            ],
            [
                26.32283592224121,
                3.3081016540527344,
                521.3767700195313
            ],
            [
                27.348751068115234,
                3.435049533843994,
                541.3767700195313
            ],
            [
                28.374704360961914,
                3.561997413635254,
                561.3767700195313
            ],
            [
                29.400697708129883,
                3.6889450550079346,
                581.3767700195313
            ],
            [
                30.426729202270508,
                3.815892457962036,
                601.3767700195313
            ],
            [
                31.452802658081055,
                3.942840099334717,
                621.3767700195313
            ],
            [
                32.47891616821289,
                4.069787502288818,
                641.3767700195313
            ],
            [
                33.50507354736328,
                4.19673490524292,
                661.3767700195313
            ],
            [
                34.531272888183594,
                4.323681831359863,
                681.3767700195313
            ],
            [
                35.557518005371094,
                4.450629234313965,
                701.3767700195313
            ],
            [
                36.58380889892578,
                4.577576160430908,
                721.3767700195313
            ],
            [
                37.61015319824219,
                4.704522609710693,
                741.3767700195313
            ],
            [
                38.63654708862305,
                4.831469535827637,
                761.3767700195313
            ],
            [
                39.66299057006836,
                4.958415985107422,
                781.3767700195313
            ],
            [
                40.68948745727539,
                5.085362434387207,
                801.3767700195313
            ],
            [
                41.716033935546875,
                5.212308883666992,
                821.3767700195313
            ],
            [
                42.74263381958008,
                5.339255332946777,
                841.3767700195313
            ],
            [
                43.769287109375,
                5.466201305389404,
                861.3767700195313
            ],
            [
                44.795997619628906,
                5.593148231506348,
                881.3767700195313
            ],
            [
                45.82278060913086,
                5.720096588134766,
                901.3767700195313
            ],
            [
                46.84962844848633,
                5.847045421600342,
                921.3767700195313
            ],
            [
                47.87654495239258,
                5.973994255065918,
                941.3767700195313
            ],
            [
                48.90351867675781,
                6.100943565368652,
                961.3767700195313
            ],
            [
                49.93056106567383,
                6.227893352508545,
                981.3767700195313
            ],
            [
                50.95766830444336,
                6.3548431396484375,
                1001.3767700195313
            ],
            [
                56.09402084350586,
                6.989587306976318,
                1101.3768310546875
            ],
            [
                61.232444763183594,
                7.624331951141357,
                1201.3768310546875
            ],
            [
                66.3723373413086,
                8.25908374786377,
                1301.3768310546875
            ],
            [
                71.513916015625,
                8.893835067749023,
                1401.3768310546875
            ],
            [
                76.65697479248047,
                9.52857780456543,
                1501.3768310546875
            ],
            [
                81.8017807006836,
                10.163326263427734,
                1601.3768310546875
            ],
            [
                86.94840240478516,
                10.79808521270752,
                1701.3768310546875
            ],
            [
                92.09717559814453,
                11.432851791381836,
                1801.3768310546875
            ],
            [
                97.24788665771484,
                12.067626953125,
                1901.3768310546875
            ],
            [
                102.40122985839844,
                12.702385902404785,
                2001.3768310546875
            ],
            [
                107.5572509765625,
                13.337151527404785,
                2101.376708984375
            ],
            [
                112.71757507324219,
                13.971948623657227,
                2201.376708984375
            ],
            [
                117.88127136230469,
                14.606752395629883,
                2301.376708984375
            ],
            [
                123.05021667480469,
                15.241582870483398,
                2401.376708984375
            ],
            [
                128.22601318359375,
                15.876446723937988,
                2501.376708984375
            ],
            [
                133.40928649902344,
                16.511354446411133,
                2601.376708984375
            ],
            [
                138.6011199951172,
                17.146305084228516,
                2701.376708984375
            ],
            [
                143.80311584472656,
                17.78128433227539,
                2801.376708984375
            ],
            [
                149.0182647705078,
                18.41632843017578,
                2901.376708984375
            ],
            [
                154.2483673095703,
                19.051441192626953,
                3001.376708984375
            ],
            [
                159.4939422607422,
                19.686626434326172,
                3101.376708984375
            ],
            [
                164.76101684570313,
                20.321849822998047,
                3201.376708984375
            ],
            [
                170.04965209960938,
                20.9571590423584,
                3301.376708984375
            ],
            [
                175.36328125,
                21.592557907104492,
                3401.376708984375
            ],
            [
                180.705322265625,
                22.228008270263672,
                3501.376708984375
            ],
            [
                186.0758056640625,
                22.863527297973633,
                3601.376708984375
            ],
            [
                191.48001098632813,
                23.499174118041992,
                3701.376708984375
            ],
            [
                196.9207305908203,
                24.134910583496094,
                3801.376708984375
            ],
            [
                202.39926147460938,
                24.77069091796875,
                3901.376708984375
            ],
            [
                207.91751098632813,
                25.4066219329834,
                4001.376708984375
            ],
            [
                213.4787139892578,
                26.042736053466797,
                4101.376953125
            ],
            [
                219.08755493164063,
                26.67898941040039,
                4201.376953125
            ],
            [
                224.742431640625,
                27.3153018951416,
                4301.376953125
            ],
            [
                230.4434051513672,
                27.951793670654297,
                4401.376953125
            ],
            [
                236.19171142578125,
                28.588401794433594,
                4501.376953125
            ],
            [
                241.98934936523438,
                29.225208282470703,
                4601.376953125
            ],
            [
                247.8370819091797,
                29.862146377563477,
                4701.376953125
            ],
            [
                253.7318878173828,
                30.499101638793945,
                4801.376953125
            ],
            [
                259.22308349609375,
                31.027244567871094,
                4901.376953125
            ],
            [
                265.20703125,
                31.66156578063965,
                5001.376953125
            ],
            [
                271.2407531738281,
                32.296260833740234,
                5101.376953125
            ],
            [
                277.3220520019531,
                32.93103790283203,
                5201.376953125
            ],
            [
                283.4515075683594,
                33.5660514831543,
                5301.376953125
            ],
            [
                289.62750244140625,
                34.20092010498047,
                5401.376953125
            ],
            [
                295.8496398925781,
                34.83568572998047,
                5501.376953125
            ],
            [
                302.1158752441406,
                35.4709358215332,
                5601.376953125
            ],
            [
                308.427490234375,
                36.106109619140625,
                5701.376953125
            ],
            [
                314.7826843261719,
                36.74141311645508,
                5801.376953125
            ],
            [
                321.1787414550781,
                37.376808166503906,
                5901.376953125
            ],
            [
                327.6170654296875,
                38.01244354248047,
                6001.376953125
            ],
            [
                334.09503173828125,
                38.64823532104492,
                6101.376953125
            ],
            [
                340.6116638183594,
                39.28403854370117,
                6201.376953125
            ],
            [
                347.1656188964844,
                39.91986083984375,
                6301.376953125
            ],
            [
                353.7554016113281,
                40.55571746826172,
                6401.376953125
            ],
            [
                360.38006591796875,
                41.191566467285156,
                6501.376953125
            ],
            [
                367.0375061035156,
                41.82753372192383,
                6601.376953125
            ],
            [
                373.7269592285156,
                42.46355056762695,
                6701.376953125
            ],
            [
                380.4459533691406,
                43.09959411621094,
                6801.376953125
            ],
            [
                387.19415283203125,
                43.73567199707031,
                6901.376953125
            ],
            [
                393.96942138671875,
                44.37178421020508,
                7001.376953125
            ],
            [
                400.7700500488281,
                45.00791549682617,
                7101.376953125
            ],
            [
                407.594482421875,
                45.64405822753906,
                7201.376953125
            ],
            [
                414.44146728515625,
                46.28022766113281,
                7301.376953125
            ],
            [
                421.3098449707031,
                46.91643524169922,
                7401.376953125
            ],
            [
                428.1971435546875,
                47.55268859863281,
                7501.376953125
            ],
            [
                435.10296630859375,
                48.1889762878418,
                7601.376953125
            ],
            [
                442.025390625,
                48.82530212402344,
                7701.376953125
            ],
            [
                448.9637451171875,
                49.46167755126953,
                7801.376953125
            ],
            [
                455.91668701171875,
                50.09811019897461,
                7901.376953125
            ],
            [
                462.8829040527344,
                50.734588623046875,
                8001.376953125
            ],
            [
                469.8617248535156,
                51.371124267578125,
                8101.376953125
            ],
            [
                476.8516845703125,
                52.00771713256836,
                8201.376953125
            ],
            [
                483.8521423339844,
                52.64435958862305,
                8301.376953125
            ],
            [
                490.8622741699219,
                53.28105545043945,
                8401.376953125
            ],
            [
                497.8812561035156,
                53.91779708862305,
                8501.376953125
            ],
            [
                504.9081726074219,
                54.55458450317383,
                8601.376953125
            ],
            [
                511.94256591796875,
                55.1914176940918,
                8701.376953125
            ],
            [
                518.9837646484375,
                55.828285217285156,
                8801.376953125
            ],
            [
                526.0310668945313,
                56.46519470214844,
                8901.376953125
            ],
            [
                533.0841064453125,
                57.102149963378906,
                9001.376953125
            ],
            [
                540.142333984375,
                57.739139556884766,
                9101.376953125
            ],
            [
                547.205322265625,
                58.376163482666016,
                9201.376953125
            ],
            [
                554.2725830078125,
                59.013221740722656,
                9301.376953125
            ],
            [
                561.3438110351563,
                59.65031433105469,
                9401.376953125
            ],
            [
                568.4186401367188,
                60.287437438964844,
                9501.376953125
            ],
            [
                575.4967651367188,
                60.924583435058594,
                9601.376953125
            ],
            [
                582.5778198242188,
                61.56175994873047,
                9701.376953125
            ],
            [
                589.6616821289063,
                62.19895935058594,
                9801.376953125
            ],
            [
                596.7479248046875,
                62.836177825927734,
                9901.376953125
            ],
            [
                603.8364868164063,
                63.473419189453125,
                10001.376953125
            ],
            [
                618.0195922851563,
                64.74795532226563,
                10201.376953125
            ],
            [
                632.2095336914063,
                66.0225601196289,
                10401.376953125
            ],
            [
                646.4051513671875,
                67.29721069335938,
                10601.376953125
            ],
            [
                660.6055297851563,
                68.57190704345703,
                10801.376953125
            ],
            [
                674.8096923828125,
                69.84664154052734,
                11001.376953125
            ],
            [
                689.0171508789063,
                71.12140655517578,
                11201.376953125
            ],
            [
                703.227294921875,
                72.39620208740234,
                11401.376953125
            ],
            [
                717.4395751953125,
                73.67100524902344,
                11601.376953125
            ],
            [
                731.6536865234375,
                74.94583129882813,
                11801.376953125
            ],
            [
                745.869140625,
                76.22067260742188,
                12001.376953125
            ],
            [
                760.0859985351563,
                77.49551391601563,
                12201.376953125
            ],
            [
                774.3038330078125,
                78.77037048339844,
                12401.376953125
            ],
            [
                788.522216796875,
                80.04523468017578,
                12601.376953125
            ],
            [
                802.7411499023438,
                81.32009887695313,
                12801.376953125
            ],
            [
                816.9607543945313,
                82.594970703125,
                13001.376953125
            ],
            [
                831.1807861328125,
                83.86984252929688,
                13201.376953125
            ],
            [
                845.4010620117188,
                85.14472198486328,
                13401.376953125
            ]
        ],
        "zFirstMeasurement": 184.2987
    },
    {
        "E": 18196.63526713511,
        "chi2": 0.9824957251548767,
        "ip": 0.630228454108088,
        "ipchi2": 16.61387699977657,
        "mass": 139.57018,
        "particleId": "pi-",
        "pvx": 0.6587,
        "pvy": 0.1233,
        "pvz": -33.6734,
        "px": 164.5363925084299,
        "py": 432.99341703367514,
        "pz": 18190.20339870739,
        "q": -1.0,
        "trajectory": [
            [
                -0.4867548644542694,
                -1.1395583152770996,
                -100.0
            ],
            [
                -0.44149938225746155,
                -1.020540475845337,
                -95.0
            ],
            [
                -0.3962460458278656,
                -0.9015227556228638,
                -90.0
            ],
            [
                -0.35099491477012634,
                -0.7825049161911011,
                -85.0
            ],
            [
                -0.30574601888656616,
                -0.6634870171546936,
                -80.0
            ],
            [
                -0.26049938797950745,
                -0.5444691181182861,
                -75.0
            ],
            [
                -0.21525508165359497,
                -0.4254511296749115,
                -70.0
            ],
            [
                -0.17001314461231232,
                -0.3064331114292145,
                -65.0
            ],
            [
                -0.12477360665798187,
                -0.18741503357887268,
                -60.0
            ],
            [
                -0.07953651994466782,
                -0.0683969259262085,
                -55.0
            ],
            [
                -0.034301917999982834,
                0.05062123388051987,
                -50.0
            ],
            [
                0.01093014981597662,
                0.1696394383907318,
                -45.0
            ],
            [
                0.056159645318984985,
                0.28865769505500793,
                -40.0
            ],
            [
                0.10138652473688126,
                0.40767598152160645,
                -35.0
            ],
            [
                0.14661073684692383,
                0.5266942977905273,
                -30.0
            ],
            [
                0.1918322592973709,
                0.6457127332687378,
                -25.0
            ],
            [
                0.23705102503299713,
                0.7647311687469482,
                -20.0
            ],
            [
                0.2822670340538025,
                0.8837496042251587,
                -15.0
            ],
            [
                0.3274801969528198,
                1.0027681589126587,
                -10.0
            ],
            [
                0.37269046902656555,
                1.1217867136001587,
                -5.0
            ],
            [
                0.4178978502750397,
                1.2408052682876587,
                0.0
            ],
            [
                0.4631022810935974,
                1.3598239421844482,
                5.0
            ],
            [
                0.508303701877594,
                1.4788426160812378,
                10.0
            ],
            [
                0.553502082824707,
                1.597861409187317,
                15.0
            ],
            [
                0.5986974239349365,
                1.716880202293396,
                20.0
            ],
            [
                0.6438896059989929,
                1.835898995399475,
                25.0
            ],
            [
                0.6890786290168762,
                1.9549177885055542,
                30.0
            ],
            [
                0.7342644333839417,
                2.073936700820923,
                35.0
            ],
            [
                0.7794468402862549,
                2.192955732345581,
                40.0
            ],
            [
                0.8246257305145264,
                2.3119747638702393,
                45.0
            ],
            [
                0.8698012232780457,
                2.4309937953948975,
                50.0
            ],
            [
                0.914973258972168,
                2.5500128269195557,
                55.0
            ],
            [
                0.9601417183876038,
                2.669031858444214,
                60.0
            ],
            [
                1.005327820777893,
                2.788051128387451,
                65.0
            ],
            [
                1.050492763519287,
                2.9070703983306885,
                70.0
            ],
            [
                1.0956543684005737,
                3.026089668273926,
                75.0
            ],
            [
                1.140812635421753,
                3.145108938217163,
                80.0
            ],
            [
                1.1859675645828247,
                3.2641282081604004,
                85.0
            ],
            [
                1.23111891746521,
                3.383147716522217,
                90.0
            ],
            [
                1.2762666940689087,
                3.502167224884033,
                95.0
            ],
            [
                1.3214111328125,
                3.6211864948272705,
                100.0
            ],
            [
                1.5019522905349731,
                4.097264766693115,
                120.0
            ],
            [
                1.6824347972869873,
                4.573343753814697,
                140.0
            ],
            [
                1.862856149673462,
                5.049423694610596,
                160.0
            ],
            [
                2.0432145595550537,
                5.525504112243652,
                180.0
            ],
            [
                2.223451614379883,
                6.001572608947754,
                200.0
            ],
            [
                2.4036717414855957,
                6.477654457092285,
                220.0
            ],
            [
                2.5838189125061035,
                6.953736782073975,
                240.0
            ],
            [
                2.7638907432556152,
                7.429819583892822,
                260.0
            ],
            [
                2.9438846111297607,
                7.905903339385986,
                280.0
            ],
            [
                3.1237971782684326,
                8.381987571716309,
                300.0
            ],
            [
                3.3036248683929443,
                8.858072280883789,
                320.0
            ],
            [
                3.4833953380584717,
                9.33415699005127,
                340.0
            ],
            [
                3.663029670715332,
                9.810242652893066,
                360.0
            ],
            [
                3.8425755500793457,
                10.28632926940918,
                380.0
            ],
            [
                4.022029876708984,
                10.762414932250977,
                400.0
            ],
            [
                4.201387405395508,
                11.238502502441406,
                420.0
            ],
            [
                4.380641937255859,
                11.71458911895752,
                440.0
            ],
            [
                4.559789180755615,
                12.190677642822266,
                460.0
            ],
            [
                4.738821983337402,
                12.666765213012695,
                480.0
            ],
            [
                4.9177350997924805,
                13.142853736877441,
                500.0
            ],
            [
                5.096523284912109,
                13.618942260742188,
                520.0
            ],
            [
                5.27522611618042,
                14.09503173828125,
                540.0
            ],
            [
                5.4537763595581055,
                14.571120262145996,
                560.0
            ],
            [
                5.6321940422058105,
                15.047210693359375,
                580.0
            ],
            [
                5.8104753494262695,
                15.523300170898438,
                600.0
            ],
            [
                5.988615989685059,
                15.999390602111816,
                620.0
            ],
            [
                6.166611194610596,
                16.475481033325195,
                640.0
            ],
            [
                6.344455718994141,
                16.951570510864258,
                660.0
            ],
            [
                6.522140979766846,
                17.427661895751953,
                680.0
            ],
            [
                6.699666500091553,
                17.903751373291016,
                700.0
            ],
            [
                6.877025604248047,
                18.37984275817871,
                720.0
            ],
            [
                7.054210662841797,
                18.855932235717773,
                740.0
            ],
            [
                7.231220722198486,
                19.332021713256836,
                760.0
            ],
            [
                7.408051013946533,
                19.8081111907959,
                780.0
            ],
            [
                7.5846967697143555,
                20.28420066833496,
                800.0
            ],
            [
                7.7611541748046875,
                20.760290145874023,
                820.0
            ],
            [
                7.937418460845947,
                21.236379623413086,
                840.0
            ],
            [
                8.113484382629395,
                21.71246910095215,
                860.0
            ],
            [
                8.289348602294922,
                22.188556671142578,
                880.0
            ],
            [
                8.465019226074219,
                22.66464614868164,
                900.0
            ],
            [
                8.640491485595703,
                23.140735626220703,
                920.0
            ],
            [
                8.815750122070313,
                23.616825103759766,
                940.0
            ],
            [
                8.990793228149414,
                24.092914581298828,
                960.0
            ],
            [
                9.165614128112793,
                24.56900405883789,
                980.0
            ],
            [
                9.340189933776855,
                25.045089721679688,
                1000.0
            ],
            [
                10.209670066833496,
                27.42550277709961,
                1100.0
            ],
            [
                11.073064804077148,
                29.80589485168457,
                1200.0
            ],
            [
                11.930419921875,
                32.1862678527832,
                1300.0
            ],
            [
                12.781571388244629,
                34.566646575927734,
                1400.0
            ],
            [
                13.629145622253418,
                36.94712829589844,
                1500.0
            ],
            [
                14.469319343566895,
                39.327518463134766,
                1600.0
            ],
            [
                15.303037643432617,
                41.7078857421875,
                1700.0
            ],
            [
                16.130502700805664,
                44.08823776245117,
                1800.0
            ],
            [
                16.950345993041992,
                46.468570709228516,
                1900.0
            ],
            [
                17.760534286499023,
                48.84888458251953,
                2000.0
            ],
            [
                18.561594009399414,
                51.229183197021484,
                2100.0
            ],
            [
                19.34968376159668,
                53.60944747924805,
                2200.0
            ],
            [
                20.122610092163086,
                55.98969650268555,
                2300.0
            ],
            [
                20.879426956176758,
                58.369895935058594,
                2400.0
            ],
            [
                21.614803314208984,
                60.750221252441406,
                2500.0
            ],
            [
                22.324480056762695,
                63.130279541015625,
                2600.0
            ],
            [
                23.000198364257813,
                65.51023864746094,
                2700.0
            ],
            [
                23.641475677490234,
                67.89008331298828,
                2800.0
            ],
            [
                24.23779296875,
                70.269775390625,
                2900.0
            ],
            [
                24.782766342163086,
                72.64937591552734,
                3000.0
            ],
            [
                25.26963996887207,
                75.02887725830078,
                3100.0
            ],
            [
                25.68384552001953,
                77.4083251953125,
                3200.0
            ],
            [
                26.02166748046875,
                79.78765106201172,
                3300.0
            ],
            [
                26.28106689453125,
                82.16683959960938,
                3400.0
            ],
            [
                26.434528350830078,
                84.54629516601563,
                3500.0
            ],
            [
                26.487852096557617,
                86.92533111572266,
                3600.0
            ],
            [
                26.420398712158203,
                89.3041763305664,
                3700.0
            ],
            [
                26.226442337036133,
                91.68305206298828,
                3800.0
            ],
            [
                25.90196990966797,
                94.06206512451172,
                3900.0
            ],
            [
                25.440277099609375,
                96.44072723388672,
                4000.0
            ],
            [
                24.809322357177734,
                98.81900024414063,
                4100.0
            ],
            [
                24.027616500854492,
                101.1972427368164,
                4200.0
            ],
            [
                23.081695556640625,
                103.57534790039063,
                4300.0
            ],
            [
                21.988855361938477,
                105.95338439941406,
                4400.0
            ],
            [
                20.71331214904785,
                108.33064270019531,
                4500.0
            ],
            [
                19.265222549438477,
                110.70774841308594,
                4600.0
            ],
            [
                17.648178100585938,
                113.08485412597656,
                4700.0
            ],
            [
                15.854716300964355,
                115.46177673339844,
                4800.0
            ],
            [
                13.902618408203125,
                117.83824920654297,
                4900.0
            ],
            [
                16.242177963256836,
                120.34453582763672,
                5000.0
            ],
            [
                14.012362480163574,
                122.72091674804688,
                5100.0
            ],
            [
                11.614676475524902,
                125.0971908569336,
                5200.0
            ],
            [
                9.047118186950684,
                127.47272491455078,
                5300.0
            ],
            [
                6.316582202911377,
                129.84878540039063,
                5400.0
            ],
            [
                3.4244797229766846,
                132.22482299804688,
                5500.0
            ],
            [
                0.3769068121910095,
                134.5994110107422,
                5600.0
            ],
            [
                -2.830293655395508,
                136.97413635253906,
                5700.0
            ],
            [
                -6.190785884857178,
                139.34829711914063,
                5800.0
            ],
            [
                -9.695005416870117,
                141.72183227539063,
                5900.0
            ],
            [
                -13.347662925720215,
                144.09449768066406,
                6000.0
            ],
            [
                -17.140607833862305,
                146.46656799316406,
                6100.0
            ],
            [
                -21.06940269470215,
                148.83836364746094,
                6200.0
            ],
            [
                -25.129568099975586,
                151.20973205566406,
                6300.0
            ],
            [
                -29.31604766845703,
                153.58067321777344,
                6400.0
            ],
            [
                -33.62546157836914,
                155.9513702392578,
                6500.0
            ],
            [
                -38.05057907104492,
                158.3213348388672,
                6600.0
            ],
            [
                -42.58849334716797,
                160.69073486328125,
                6700.0
            ],
            [
                -47.23080825805664,
                163.05966186523438,
                6800.0
            ],
            [
                -51.976192474365234,
                165.42811584472656,
                6900.0
            ],
            [
                -56.81717300415039,
                167.79603576660156,
                7000.0
            ],
            [
                -61.74751663208008,
                170.16343688964844,
                7100.0
            ],
            [
                -66.76193237304688,
                172.53033447265625,
                7200.0
            ],
            [
                -71.85588073730469,
                174.8966522216797,
                7300.0
            ],
            [
                -77.02545928955078,
                177.262451171875,
                7400.0
            ],
            [
                -82.2618179321289,
                179.6276397705078,
                7500.0
            ],
            [
                -87.5633773803711,
                181.9922637939453,
                7600.0
            ],
            [
                -92.92361450195313,
                184.35629272460938,
                7700.0
            ],
            [
                -98.33995056152344,
                186.7197265625,
                7800.0
            ],
            [
                -103.80762481689453,
                189.0825653076172,
                7900.0
            ],
            [
                -109.32217407226563,
                191.44483947753906,
                8000.0
            ],
            [
                -114.88108825683594,
                193.80657958984375,
                8100.0
            ],
            [
                -120.47936248779297,
                196.16778564453125,
                8200.0
            ],
            [
                -126.1145248413086,
                198.52850341796875,
                8300.0
            ],
            [
                -131.7838134765625,
                200.88876342773438,
                8400.0
            ],
            [
                -137.48448181152344,
                203.24859619140625,
                8500.0
            ],
            [
                -143.2129669189453,
                205.60804748535156,
                8600.0
            ],
            [
                -148.96778869628906,
                207.96714782714844,
                8700.0
            ],
            [
                -154.7465362548828,
                210.325927734375,
                8800.0
            ],
            [
                -160.54701232910156,
                212.6844024658203,
                8900.0
            ],
            [
                -166.36766052246094,
                215.04258728027344,
                9000.0
            ],
            [
                -172.20664978027344,
                217.4005126953125,
                9100.0
            ],
            [
                -178.06234741210938,
                219.75819396972656,
                9200.0
            ],
            [
                -183.933349609375,
                222.11566162109375,
                9300.0
            ],
            [
                -189.81829833984375,
                224.47293090820313,
                9400.0
            ],
            [
                -195.71592712402344,
                226.8300323486328,
                9500.0
            ],
            [
                -201.62518310546875,
                229.1869659423828,
                9600.0
            ],
            [
                -207.5449981689453,
                231.5437469482422,
                9700.0
            ],
            [
                -213.47447204589844,
                233.90042114257813,
                9800.0
            ],
            [
                -219.41268920898438,
                236.2569580078125,
                9900.0
            ],
            [
                -225.3589324951172,
                238.6134033203125,
                10000.0
            ],
            [
                -237.27268981933594,
                243.32603454589844,
                10200.0
            ],
            [
                -249.2108612060547,
                248.0383758544922,
                10400.0
            ],
            [
                -261.16900634765625,
                252.75050354003906,
                10600.0
            ],
            [
                -273.144287109375,
                257.46246337890625,
                10800.0
            ],
            [
                -285.13299560546875,
                262.1742858886719,
                11000.0
            ],
            [
                -297.1333312988281,
                266.88604736328125,
                11200.0
            ],
            [
                -309.1435241699219,
                271.59771728515625,
                11400.0
            ],
            [
                -321.1611633300781,
                276.3093566894531,
                11600.0
            ],
            [
                -333.18524169921875,
                281.0209655761719,
                11800.0
            ],
            [
                -345.21429443359375,
                285.7325744628906,
                12000.0
            ],
            [
                -357.2484436035156,
                290.44415283203125,
                12200.0
            ],
            [
                -369.2859191894531,
                295.1557312011719,
                12400.0
            ],
            [
                -381.325439453125,
                299.8673400878906,
                12600.0
            ],
            [
                -393.36700439453125,
                304.5789794921875,
                12800.0
            ],
            [
                -405.4109191894531,
                309.29058837890625,
                13000.0
            ],
            [
                -417.45648193359375,
                314.002197265625,
                13200.0
            ],
            [
                -429.50286865234375,
                318.7138366699219,
                13400.0
            ]
        ],
        "zFirstMeasurement": 434.2704
    },
    {
        "E": 6204.4600238252215,
        "chi2": 1.3203973770141602,
        "ip": 0.29067336019158074,
        "ipchi2": 15.36092219148518,
        "mass": 139.57018,
        "particleId": "pi+",
        "pvx": 0.5738,
        "pvy": 0.0629,
        "pvz": 20.4986,
        "px": -46.818443968774034,
        "py": -414.0250557084756,
        "pz": 6188.879998727553,
        "q": 1.0,
        "trajectory": [
            [
                1.7101014852523804,
                7.936635971069336,
                -100.0
            ],
            [
                1.6720988750457764,
                7.602147579193115,
                -95.0
            ],
            [
                1.6341030597686768,
                7.267658710479736,
                -90.0
            ],
            [
                1.5961140394210815,
                6.933170318603516,
                -85.0
            ],
            [
                1.558075189590454,
                6.5986809730529785,
                -80.0
            ],
            [
                1.5201079845428467,
                6.2641921043396,
                -75.0
            ],
            [
                1.482146978378296,
                5.9297027587890625,
                -70.0
            ],
            [
                1.4441922903060913,
                5.595213890075684,
                -65.0
            ],
            [
                1.4062440395355225,
                5.2607245445251465,
                -60.0
            ],
            [
                1.3683024644851685,
                4.926235198974609,
                -55.0
            ],
            [
                1.3303675651550293,
                4.591745853424072,
                -50.0
            ],
            [
                1.292439579963684,
                4.257256031036377,
                -45.0
            ],
            [
                1.2545185089111328,
                3.9227662086486816,
                -40.0
            ],
            [
                1.216604471206665,
                3.5882763862609863,
                -35.0
            ],
            [
                1.1786978244781494,
                3.253786325454712,
                -30.0
            ],
            [
                1.1407984495162964,
                2.9192962646484375,
                -25.0
            ],
            [
                1.1029064655303955,
                2.584806203842163,
                -20.0
            ],
            [
                1.065022349357605,
                2.2503156661987305,
                -15.0
            ],
            [
                1.0271458625793457,
                1.915825366973877,
                -10.0
            ],
            [
                0.9892770648002625,
                1.5813348293304443,
                -5.0
            ],
            [
                0.9514162540435791,
                1.2468441724777222,
                0.0
            ],
            [
                0.9135634899139404,
                0.9123533964157104,
                5.0
            ],
            [
                0.8757190108299255,
                0.577862560749054,
                10.0
            ],
            [
                0.8378828167915344,
                0.2433716058731079,
                15.0
            ],
            [
                0.8000551462173462,
                -0.09111945331096649,
                20.0
            ],
            [
                0.7622361183166504,
                -0.42561063170433044,
                25.0
            ],
            [
                0.7244259119033813,
                -0.7601019144058228,
                30.0
            ],
            [
                0.6866247057914734,
                -1.0945932865142822,
                35.0
            ],
            [
                0.6488324999809265,
                -1.4290847778320313,
                40.0
            ],
            [
                0.6110495924949646,
                -1.7635763883590698,
                45.0
            ],
            [
                0.5732761025428772,
                -2.0980679988861084,
                50.0
            ],
            [
                0.5355120897293091,
                -2.4325597286224365,
                55.0
            ],
            [
                0.49775776267051697,
                -2.7670516967773438,
                60.0
            ],
            [
                0.4600132703781128,
                -3.101543664932251,
                65.0
            ],
            [
                0.4222787618637085,
                -3.4360358715057373,
                70.0
            ],
            [
                0.38455435633659363,
                -3.7705280780792236,
                75.0
            ],
            [
                0.3468402326107025,
                -4.105020523071289,
                80.0
            ],
            [
                0.3091365098953247,
                -4.439512729644775,
                85.0
            ],
            [
                0.27144336700439453,
                -4.77400541305542,
                90.0
            ],
            [
                0.2337014526128769,
                -5.10853910446167,
                95.0
            ],
            [
                0.19603033363819122,
                -5.4430317878723145,
                100.0
            ],
            [
                0.04544137790799141,
                -6.781003952026367,
                120.0
            ],
            [
                -0.10498598963022232,
                -8.118977546691895,
                140.0
            ],
            [
                -0.2552400529384613,
                -9.456952095031738,
                160.0
            ],
            [
                -0.40530917048454285,
                -10.794928550720215,
                180.0
            ],
            [
                -0.555181622505188,
                -12.132905960083008,
                200.0
            ],
            [
                -0.7048457860946655,
                -13.470885276794434,
                220.0
            ],
            [
                -0.8542888164520264,
                -14.808865547180176,
                240.0
            ],
            [
                -1.003496766090393,
                -16.146846771240234,
                260.0
            ],
            [
                -1.152573823928833,
                -17.484830856323242,
                280.0
            ],
            [
                -1.301350712776184,
                -18.82281494140625,
                300.0
            ],
            [
                -1.449881672859192,
                -20.160799026489258,
                320.0
            ],
            [
                -1.598158359527588,
                -21.4987850189209,
                340.0
            ],
            [
                -1.746172308921814,
                -22.836772918701172,
                360.0
            ],
            [
                -1.8939149379730225,
                -24.174758911132813,
                380.0
            ],
            [
                -2.0413730144500732,
                -25.512746810913086,
                400.0
            ],
            [
                -2.188532829284668,
                -26.850736618041992,
                420.0
            ],
            [
                -2.335391044616699,
                -28.188724517822266,
                440.0
            ],
            [
                -2.481938362121582,
                -29.526714324951172,
                460.0
            ],
            [
                -2.6281659603118896,
                -30.864704132080078,
                480.0
            ],
            [
                -2.774064779281616,
                -32.202693939208984,
                500.0
            ],
            [
                -2.9196155071258545,
                -33.54068374633789,
                520.0
            ],
            [
                -3.06481671333313,
                -34.8786735534668,
                540.0
            ],
            [
                -3.209643840789795,
                -36.2166633605957,
                560.0
            ],
            [
                -3.3540618419647217,
                -37.55465316772461,
                580.0
            ],
            [
                -3.49809193611145,
                -38.892642974853516,
                600.0
            ],
            [
                -3.6416869163513184,
                -40.230628967285156,
                620.0
            ],
            [
                -3.7848591804504395,
                -41.5686149597168,
                640.0
            ],
            [
                -3.9276044368743896,
                -42.90660095214844,
                660.0
            ],
            [
                -4.069912433624268,
                -44.24458312988281,
                680.0
            ],
            [
                -4.211772441864014,
                -45.58256530761719,
                700.0
            ],
            [
                -4.353184223175049,
                -46.92055130004883,
                720.0
            ],
            [
                -4.494025707244873,
                -48.2585334777832,
                740.0
            ],
            [
                -4.634372711181641,
                -49.59651565551758,
                760.0
            ],
            [
                -4.774214744567871,
                -50.93449401855469,
                780.0
            ],
            [
                -4.913541316986084,
                -52.2724723815918,
                800.0
            ],
            [
                -5.0523552894592285,
                -53.610450744628906,
                820.0
            ],
            [
                -5.190633296966553,
                -54.94842529296875,
                840.0
            ],
            [
                -5.328363418579102,
                -56.286399841308594,
                860.0
            ],
            [
                -5.4655351638793945,
                -57.62437057495117,
                880.0
            ],
            [
                -5.602051734924316,
                -58.96232604980469,
                900.0
            ],
            [
                -5.738001823425293,
                -60.300270080566406,
                920.0
            ],
            [
                -5.873329162597656,
                -61.638206481933594,
                940.0
            ],
            [
                -6.0078325271606445,
                -62.97614669799805,
                960.0
            ],
            [
                -6.141688346862793,
                -64.31407928466797,
                980.0
            ],
            [
                -6.2748847007751465,
                -65.65200805664063,
                1000.0
            ],
            [
                -6.932005405426025,
                -72.34169006347656,
                1100.0
            ],
            [
                -7.56757926940918,
                -79.03144073486328,
                1200.0
            ],
            [
                -8.188642501831055,
                -85.72100067138672,
                1300.0
            ],
            [
                -8.792460441589355,
                -92.4105224609375,
                1400.0
            ],
            [
                -9.380325317382813,
                -99.10013580322266,
                1500.0
            ],
            [
                -9.95120906829834,
                -105.78971862792969,
                1600.0
            ],
            [
                -10.505035400390625,
                -112.47909545898438,
                1700.0
            ],
            [
                -11.036526679992676,
                -119.16836547851563,
                1800.0
            ],
            [
                -11.548521041870117,
                -125.85749053955078,
                1900.0
            ],
            [
                -12.03417682647705,
                -132.54661560058594,
                2000.0
            ],
            [
                -12.491718292236328,
                -139.2356719970703,
                2100.0
            ],
            [
                -12.909817695617676,
                -145.92434692382813,
                2200.0
            ],
            [
                -13.295979499816895,
                -152.61293029785156,
                2300.0
            ],
            [
                -13.630228042602539,
                -159.30093383789063,
                2400.0
            ],
            [
                -13.900583267211914,
                -165.98855590820313,
                2500.0
            ],
            [
                -14.094278335571289,
                -172.67572021484375,
                2600.0
            ],
            [
                -14.204511642456055,
                -179.36216735839844,
                2700.0
            ],
            [
                -14.215188980102539,
                -186.0481414794922,
                2800.0
            ],
            [
                -14.094975471496582,
                -192.73388671875,
                2900.0
            ],
            [
                -13.824952125549316,
                -199.41896057128906,
                3000.0
            ],
            [
                -13.402717590332031,
                -206.10354614257813,
                3100.0
            ],
            [
                -12.766468048095703,
                -212.78939819335938,
                3200.0
            ],
            [
                -11.916132926940918,
                -219.4751434326172,
                3300.0
            ],
            [
                -10.808846473693848,
                -226.16148376464844,
                3400.0
            ],
            [
                -9.416487693786621,
                -232.8484344482422,
                3500.0
            ],
            [
                -7.735300064086914,
                -239.5353546142578,
                3600.0
            ],
            [
                -5.710203170776367,
                -246.2230987548828,
                3700.0
            ],
            [
                -3.2967796325683594,
                -252.9144744873047,
                3800.0
            ],
            [
                -0.49917060136795044,
                -259.6071472167969,
                3900.0
            ],
            [
                2.7312047481536865,
                -266.30084228515625,
                4000.0
            ],
            [
                6.395259380340576,
                -272.9952697753906,
                4100.0
            ],
            [
                10.564153671264648,
                -279.6929626464844,
                4200.0
            ],
            [
                15.221121788024902,
                -286.3945617675781,
                4300.0
            ],
            [
                20.365041732788086,
                -293.09429931640625,
                4400.0
            ],
            [
                26.013702392578125,
                -299.7973937988281,
                4500.0
            ],
            [
                32.177528381347656,
                -306.5018005371094,
                4600.0
            ],
            [
                38.88656997680664,
                -313.2100830078125,
                4700.0
            ],
            [
                46.07331848144531,
                -319.9196472167969,
                4800.0
            ],
            [
                44.647857666015625,
                -339.50140380859375,
                4900.0
            ],
            [
                52.897071838378906,
                -346.54522705078125,
                5000.0
            ],
            [
                61.660579681396484,
                -353.59259033203125,
                5100.0
            ],
            [
                70.92582702636719,
                -360.63916015625,
                5200.0
            ],
            [
                80.70136260986328,
                -367.6855773925781,
                5300.0
            ],
            [
                90.97384643554688,
                -374.7312927246094,
                5400.0
            ],
            [
                101.7535629272461,
                -381.7779235839844,
                5500.0
            ],
            [
                112.99234771728516,
                -388.8238525390625,
                5600.0
            ],
            [
                124.71804809570313,
                -395.8658142089844,
                5700.0
            ],
            [
                136.91302490234375,
                -402.9063415527344,
                5800.0
            ],
            [
                149.55906677246094,
                -409.9429931640625,
                5900.0
            ],
            [
                162.65478515625,
                -416.977783203125,
                6000.0
            ],
            [
                176.1763153076172,
                -424.0083923339844,
                6100.0
            ],
            [
                190.11819458007813,
                -431.0339660644531,
                6200.0
            ],
            [
                204.47402954101563,
                -438.05499267578125,
                6300.0
            ],
            [
                219.2209930419922,
                -445.0707092285156,
                6400.0
            ],
            [
                234.3514404296875,
                -452.07989501953125,
                6500.0
            ],
            [
                249.84222412109375,
                -459.0829162597656,
                6600.0
            ],
            [
                265.685302734375,
                -466.0772705078125,
                6700.0
            ],
            [
                281.8551940917969,
                -473.0631408691406,
                6800.0
            ],
            [
                298.3448791503906,
                -480.0401306152344,
                6900.0
            ],
            [
                315.13128662109375,
                -487.0075378417969,
                7000.0
            ],
            [
                332.1969299316406,
                -493.9650573730469,
                7100.0
            ],
            [
                349.52276611328125,
                -500.91265869140625,
                7200.0
            ],
            [
                367.09368896484375,
                -507.8497619628906,
                7300.0
            ],
            [
                384.8983459472656,
                -514.776611328125,
                7400.0
            ],
            [
                402.9065856933594,
                -521.6934814453125,
                7500.0
            ],
            [
                421.1144714355469,
                -528.599853515625,
                7600.0
            ],
            [
                439.4996643066406,
                -535.4964599609375,
                7700.0
            ],
            [
                458.0539245605469,
                -542.3831176757813,
                7800.0
            ],
            [
                476.76165771484375,
                -549.2604370117188,
                7900.0
            ],
            [
                495.6085205078125,
                -556.1290283203125,
                8000.0
            ],
            [
                514.5863647460938,
                -562.9891967773438,
                8100.0
            ],
            [
                533.6793823242188,
                -569.8417358398438,
                8200.0
            ],
            [
                552.879638671875,
                -576.6871948242188,
                8300.0
            ],
            [
                572.1787719726563,
                -583.52587890625,
                8400.0
            ],
            [
                591.5682373046875,
                -590.3585205078125,
                8500.0
            ],
            [
                611.0371704101563,
                -597.1857299804688,
                8600.0
            ],
            [
                630.5810546875,
                -604.0079345703125,
                8700.0
            ],
            [
                650.192626953125,
                -610.82568359375,
                8800.0
            ],
            [
                669.8652954101563,
                -617.6393432617188,
                8900.0
            ],
            [
                689.5944213867188,
                -624.4493408203125,
                9000.0
            ],
            [
                709.3745727539063,
                -631.256103515625,
                9100.0
            ],
            [
                729.2009887695313,
                -638.0599975585938,
                9200.0
            ],
            [
                749.069580078125,
                -644.861328125,
                9300.0
            ],
            [
                768.9764404296875,
                -651.6605224609375,
                9400.0
            ],
            [
                788.9178466796875,
                -658.4578247070313,
                9500.0
            ],
            [
                808.890869140625,
                -665.2534790039063,
                9600.0
            ],
            [
                828.8924560546875,
                -672.0476684570313,
                9700.0
            ],
            [
                848.9201049804688,
                -678.8406982421875,
                9800.0
            ],
            [
                868.97119140625,
                -685.6326904296875,
                9900.0
            ],
            [
                889.0437622070313,
                -692.4237670898438,
                10000.0
            ],
            [
                929.245361328125,
                -706.0039672851563,
                10200.0
            ],
            [
                969.5115356445313,
                -719.5822143554688,
                10400.0
            ],
            [
                1009.8300170898438,
                -733.1593017578125,
                10600.0
            ],
            [
                1050.19287109375,
                -746.735595703125,
                10800.0
            ],
            [
                1090.59033203125,
                -760.3117065429688,
                11000.0
            ],
            [
                1131.017333984375,
                -773.8878784179688,
                11200.0
            ],
            [
                1171.4696044921875,
                -787.464111328125,
                11400.0
            ],
            [
                1211.9403076171875,
                -801.0408325195313,
                11600.0
            ],
            [
                1252.4268798828125,
                -814.6181030273438,
                11800.0
            ],
            [
                1292.9256591796875,
                -828.1958618164063,
                12000.0
            ],
            [
                1333.4368896484375,
                -841.77392578125,
                12200.0
            ],
            [
                1373.9560546875,
                -855.3525390625,
                12400.0
            ],
            [
                1414.47998046875,
                -868.9318237304688,
                12600.0
            ],
            [
                1455.008544921875,
                -882.5115966796875,
                12800.0
            ],
            [
                1495.5426025390625,
                -896.0914916992188,
                13000.0
            ],
            [
                1536.0806884765625,
                -909.6716918945313,
                13200.0
            ],
            [
                1576.62060546875,
                -923.252197265625,
                13400.0
            ]
        ],
        "zFirstMeasurement": 169.4538
    }
]
