[
    {
        "E": 41064.156652387755,
        "chi2": 0.0,
        "ip": 0.030650169478996715,
        "ipchi2": 2.9866278369279824,
        "mass": 1870.996,
        "particleId": "D0",
        "pvx": 0.6348,
        "pvy": 0.0486,
        "pvz": 68.5645,
        "px": 2731.96,
        "py": -1451.01,
        "pz": 40904.71,
        "q": 0.0,
        "trajectory": [
            [
                0.6348000168800354,
                0.04859999939799309,
                68.56449890136719
            ],
            [
                0.781499981880188,
                -0.03680000081658363,
                71.20429992675781
            ]
        ],
        "zFirstMeasurement": -9999.0
    },
    {
        "E": 17679.73701763851,
        "chi2": 1.81844961643219,
        "ip": 0.1508633057363458,
        "ipchi2": 57.451885175459125,
        "mass": 493.677,
        "particleId": "K-",
        "pvx": 0.6348,
        "pvy": 0.0486,
        "pvz": 68.5645,
        "px": 1654.16,
        "py": -1316.35,
        "pz": 17545.95,
        "q": -1.0,
        "trajectory": [
            [
                0.7774839997291565,
                -0.04077216982841492,
                71.20429992675781
            ],
            [
                1.248854637145996,
                -0.4159046709537506,
                76.20429992675781
            ],
            [
                1.7202249765396118,
                -0.7910193800926208,
                81.20429992675781
            ],
            [
                2.191591739654541,
                -1.166133999824524,
                86.20429992675781
            ],
            [
                2.662954807281494,
                -1.5412484407424927,
                91.20429992675781
            ],
            [
                3.1343142986297607,
                -1.9163628816604614,
                96.20429992675781
            ],
            [
                3.605670213699341,
                -2.2914772033691406,
                101.20429992675781
            ],
            [
                5.491056442260742,
                -3.791918992996216,
                121.20429992675781
            ],
            [
                7.376382350921631,
                -5.292373180389404,
                141.2042999267578
            ],
            [
                9.261645317077637,
                -6.792825698852539,
                161.2042999267578
            ],
            [
                11.146841049194336,
                -8.293275833129883,
                181.2042999267578
            ],
            [
                13.031965255737305,
                -9.793724060058594,
                201.2042999267578
            ],
            [
                14.917015075683594,
                -11.294170379638672,
                221.2042999267578
            ],
            [
                16.801984786987305,
                -12.794614791870117,
                241.2042999267578
            ],
            [
                18.686904907226563,
                -14.29505729675293,
                261.2043151855469
            ],
            [
                20.571725845336914,
                -15.79549789428711,
                281.2043151855469
            ],
            [
                22.456462860107422,
                -17.295936584472656,
                301.2043151855469
            ],
            [
                24.341110229492188,
                -18.79637336730957,
                321.2043151855469
            ],
            [
                26.22566795349121,
                -20.29680633544922,
                341.2043151855469
            ],
            [
                28.110132217407227,
                -21.797237396240234,
                361.2043151855469
            ],
            [
                29.99449920654297,
                -23.297666549682617,
                381.2043151855469
            ],
            [
                31.878767013549805,
                -24.798093795776367,
                401.2043151855469
            ],
            [
                33.76292419433594,
                -26.298519134521484,
                421.2043151855469
            ],
            [
                35.646976470947266,
                -27.798940658569336,
                441.2043151855469
            ],
            [
                37.53091812133789,
                -29.299360275268555,
                461.2043151855469
            ],
            [
                39.41474533081055,
                -30.79977798461914,
                481.2043151855469
            ],
            [
                41.29845428466797,
                -32.30018997192383,
                501.2043151855469
            ],
            [
                43.182037353515625,
                -33.800601959228516,
                521.2042846679688
            ],
            [
                45.06549835205078,
                -35.3010139465332,
                541.2042846679688
            ],
            [
                46.94882583618164,
                -36.80141830444336,
                561.2042846679688
            ],
            [
                48.832008361816406,
                -38.301822662353516,
                581.2042846679688
            ],
            [
                50.71505355834961,
                -39.802223205566406,
                601.2042846679688
            ],
            [
                52.59794616699219,
                -41.3026237487793,
                621.2042846679688
            ],
            [
                54.48069381713867,
                -42.80302047729492,
                641.2042846679688
            ],
            [
                56.36327362060547,
                -44.30341720581055,
                661.2042846679688
            ],
            [
                58.24570083618164,
                -45.80380630493164,
                681.2042846679688
            ],
            [
                60.12796401977539,
                -47.30419921875,
                701.2042846679688
            ],
            [
                62.01008224487305,
                -48.80458068847656,
                721.2042846679688
            ],
            [
                63.891998291015625,
                -50.30496597290039,
                741.2042846679688
            ],
            [
                65.7737045288086,
                -51.80535125732422,
                761.2042846679688
            ],
            [
                67.65523529052734,
                -53.30573272705078,
                781.2042846679688
            ],
            [
                69.53656768798828,
                -54.806114196777344,
                801.2042846679688
            ],
            [
                71.41771697998047,
                -56.306495666503906,
                821.2042846679688
            ],
            [
                73.29866790771484,
                -57.8068733215332,
                841.2042846679688
            ],
            [
                75.1794204711914,
                -59.307247161865234,
                861.2042846679688
            ],
            [
                77.05997467041016,
                -60.807621002197266,
                881.2042846679688
            ],
            [
                78.94029998779297,
                -62.30799865722656,
                901.2042846679688
            ],
            [
                80.82036590576172,
                -63.808387756347656,
                921.2042846679688
            ],
            [
                82.70021057128906,
                -65.30877685546875,
                941.2042846679688
            ],
            [
                84.57982635498047,
                -66.80916595458984,
                961.2042846679688
            ],
            [
                86.45918273925781,
                -68.30956268310547,
                981.2042846679688
            ],
            [
                88.33824920654297,
                -69.80995178222656,
                1001.2042846679688
            ],
            [
                97.73053741455078,
                -77.31190490722656,
                1101.204345703125
            ],
            [
                107.11537170410156,
                -84.81392669677734,
                1201.204345703125
            ],
            [
                116.4947280883789,
                -92.3160400390625,
                1301.204345703125
            ],
            [
                125.86764526367188,
                -99.81824493408203,
                1401.204345703125
            ],
            [
                135.2351837158203,
                -107.3204116821289,
                1501.204345703125
            ],
            [
                144.5968780517578,
                -114.82260131835938,
                1601.204345703125
            ],
            [
                153.9522247314453,
                -122.32477569580078,
                1701.204345703125
            ],
            [
                163.29998779296875,
                -129.8269500732422,
                1801.204345703125
            ],
            [
                172.64012145996094,
                -137.32904052734375,
                1901.204345703125
            ],
            [
                181.97129821777344,
                -144.8308868408203,
                2001.204345703125
            ],
            [
                191.29287719726563,
                -152.3323974609375,
                2101.204345703125
            ],
            [
                200.6003875732422,
                -159.83364868164063,
                2201.204345703125
            ],
            [
                209.8972930908203,
                -167.3343048095703,
                2301.204345703125
            ],
            [
                219.17532348632813,
                -174.8342742919922,
                2401.204345703125
            ],
            [
                228.4314727783203,
                -182.33340454101563,
                2501.204345703125
            ],
            [
                237.66046142578125,
                -189.8314208984375,
                2601.204345703125
            ],
            [
                246.85992431640625,
                -197.3283233642578,
                2701.204345703125
            ],
            [
                256.0245666503906,
                -204.82371520996094,
                2801.204345703125
            ],
            [
                265.1429748535156,
                -212.3169708251953,
                2901.204345703125
            ],
            [
                274.21002197265625,
                -219.80816650390625,
                3001.204345703125
            ],
            [
                283.2230224609375,
                -227.297119140625,
                3101.204345703125
            ],
            [
                292.1619873046875,
                -234.78280639648438,
                3201.204345703125
            ],
            [
                301.0256652832031,
                -242.26560974121094,
                3301.204345703125
            ],
            [
                309.7984924316406,
                -249.74501037597656,
                3401.204345703125
            ],
            [
                318.4718017578125,
                -257.2209167480469,
                3501.204345703125
            ],
            [
                327.04132080078125,
                -264.6938171386719,
                3601.204345703125
            ],
            [
                335.4917907714844,
                -272.1637878417969,
                3701.204345703125
            ],
            [
                343.8040466308594,
                -279.629150390625,
                3801.204345703125
            ],
            [
                351.9828796386719,
                -287.0907897949219,
                3901.204345703125
            ],
            [
                360.0039978027344,
                -294.5497131347656,
                4001.204345703125
            ],
            [
                367.8780517578125,
                -302.00653076171875,
                4101.2041015625
            ],
            [
                375.56951904296875,
                -309.4616394042969,
                4201.2041015625
            ],
            [
                383.0909423828125,
                -316.9127502441406,
                4301.2041015625
            ],
            [
                390.4401550292969,
                -324.3636474609375,
                4401.2041015625
            ],
            [
                397.608154296875,
                -331.81256103515625,
                4501.2041015625
            ],
            [
                404.6006164550781,
                -339.26116943359375,
                4601.2041015625
            ],
            [
                411.3955383300781,
                -346.7076110839844,
                4701.2041015625
            ],
            [
                418.0240478515625,
                -354.1523132324219,
                4801.2041015625
            ],
            [
                426.1874084472656,
                -360.65869140625,
                4901.2041015625
            ],
            [
                432.46112060546875,
                -368.0881042480469,
                5001.2041015625
            ],
            [
                438.5511474609375,
                -375.5176086425781,
                5101.2041015625
            ],
            [
                444.4671630859375,
                -382.9469299316406,
                5201.2041015625
            ],
            [
                450.2059631347656,
                -390.37664794921875,
                5301.2041015625
            ],
            [
                455.77252197265625,
                -397.80596923828125,
                5401.2041015625
            ],
            [
                461.1643371582031,
                -405.23468017578125,
                5501.2041015625
            ],
            [
                466.39697265625,
                -412.6645202636719,
                5601.2041015625
            ],
            [
                471.4620361328125,
                -420.0946044921875,
                5701.2041015625
            ],
            [
                476.3655090332031,
                -427.5250244140625,
                5801.2041015625
            ],
            [
                481.116455078125,
                -434.9557189941406,
                5901.2041015625
            ],
            [
                485.7106018066406,
                -442.386962890625,
                6001.2041015625
            ],
            [
                490.1593017578125,
                -449.8187255859375,
                6101.2041015625
            ],
            [
                494.4643249511719,
                -457.2508544921875,
                6201.2041015625
            ],
            [
                498.62896728515625,
                -464.68328857421875,
                6301.2041015625
            ],
            [
                502.66021728515625,
                -472.1160888671875,
                6401.2041015625
            ],
            [
                506.56103515625,
                -479.5491638183594,
                6501.2041015625
            ],
            [
                510.3394470214844,
                -486.9826965332031,
                6601.2041015625
            ],
            [
                513.9989013671875,
                -494.4167175292969,
                6701.2041015625
            ],
            [
                517.548583984375,
                -501.85107421875,
                6801.2041015625
            ],
            [
                520.9898071289063,
                -509.2856750488281,
                6901.2041015625
            ],
            [
                524.3311157226563,
                -516.7205200195313,
                7001.2041015625
            ],
            [
                527.5791625976563,
                -524.1556396484375,
                7101.2041015625
            ],
            [
                530.7398071289063,
                -531.5908813476563,
                7201.2041015625
            ],
            [
                533.8187255859375,
                -539.0263061523438,
                7301.2041015625
            ],
            [
                536.8196411132813,
                -546.4617919921875,
                7401.2041015625
            ],
            [
                539.7528076171875,
                -553.8972778320313,
                7501.2041015625
            ],
            [
                542.61962890625,
                -561.332763671875,
                7601.2041015625
            ],
            [
                545.4276123046875,
                -568.7681884765625,
                7701.2041015625
            ],
            [
                548.1796875,
                -576.2035522460938,
                7801.2041015625
            ],
            [
                550.8811645507813,
                -583.6387939453125,
                7901.2041015625
            ],
            [
                553.5366821289063,
                -591.0739135742188,
                8001.2041015625
            ],
            [
                556.1490478515625,
                -598.5088500976563,
                8101.2041015625
            ],
            [
                558.7235107421875,
                -605.9435424804688,
                8201.2041015625
            ],
            [
                561.2626953125,
                -613.3779907226563,
                8301.2041015625
            ],
            [
                563.7694702148438,
                -620.8121337890625,
                8401.2041015625
            ],
            [
                566.24658203125,
                -628.2459716796875,
                8501.2041015625
            ],
            [
                568.6976928710938,
                -635.679443359375,
                8601.2041015625
            ],
            [
                571.124267578125,
                -643.1126098632813,
                8701.2041015625
            ],
            [
                573.5286865234375,
                -650.54541015625,
                8801.2041015625
            ],
            [
                575.9130859375,
                -657.977783203125,
                8901.2041015625
            ],
            [
                578.2789916992188,
                -665.4098510742188,
                9001.2041015625
            ],
            [
                580.6281127929688,
                -672.841552734375,
                9101.2041015625
            ],
            [
                582.9620971679688,
                -680.27294921875,
                9201.2041015625
            ],
            [
                585.2822265625,
                -687.7039184570313,
                9301.2041015625
            ],
            [
                587.5897216796875,
                -695.1345825195313,
                9401.2041015625
            ],
            [
                589.8858642578125,
                -702.5648803710938,
                9501.2041015625
            ],
            [
                592.1715698242188,
                -709.994873046875,
                9601.2041015625
            ],
            [
                594.4478149414063,
                -717.424560546875,
                9701.2041015625
            ],
            [
                596.7154541015625,
                -724.8538818359375,
                9801.2041015625
            ],
            [
                598.975341796875,
                -732.282958984375,
                9901.2041015625
            ],
            [
                601.2280883789063,
                -739.7117309570313,
                10001.2041015625
            ],
            [
                605.7147827148438,
                -754.5684814453125,
                10201.2041015625
            ],
            [
                610.1798706054688,
                -769.42431640625,
                10401.2041015625
            ],
            [
                614.62744140625,
                -784.2791748046875,
                10601.2041015625
            ],
            [
                619.0599975585938,
                -799.13330078125,
                10801.2041015625
            ],
            [
                623.4807739257813,
                -813.9867553710938,
                11001.2041015625
            ],
            [
                627.8914184570313,
                -828.8395385742188,
                11201.2041015625
            ],
            [
                632.29345703125,
                -843.6918334960938,
                11401.2041015625
            ],
            [
                636.6890869140625,
                -858.5436401367188,
                11601.2041015625
            ],
            [
                641.0791015625,
                -873.3949584960938,
                11801.2041015625
            ],
            [
                645.46484375,
                -888.2460327148438,
                12001.2041015625
            ],
            [
                649.84619140625,
                -903.0967407226563,
                12201.2041015625
            ],
            [
                654.2246704101563,
                -917.9472045898438,
                12401.2041015625
            ],
            [
                658.6015014648438,
                -932.7974243164063,
                12601.2041015625
            ],
            [
                662.9765014648438,
                -947.6474609375,
                12801.2041015625
            ],
            [
                667.3494873046875,
                -962.4973754882813,
                13001.2041015625
            ],
            [
                671.7210693359375,
                -977.34716796875,
                13201.2041015625
            ],
            [
                676.0919799804688,
                -992.1968994140625,
                13401.2041015625
            ]
        ],
        "zFirstMeasurement": 154.0981
    },
    {
        "E": 23386.297104853886,
        "chi2": 0.6827855706214905,
        "ip": 0.07193082126148125,
        "ipchi2": 6.075115397092277,
        "mass": 139.57,
        "particleId": "pi+",
        "pvx": 0.6348,
        "pvy": 0.0486,
        "pvz": 68.5645,
        "px": 1077.61,
        "py": -134.91,
        "pz": 23360.65,
        "q": 1.0,
        "trajectory": [
            [
                0.7901055216789246,
                -0.030312199145555496,
                71.20429992675781
            ],
            [
                1.0207611322402954,
                -0.05918823182582855,
                76.20429992675781
            ],
            [
                1.2514195442199707,
                -0.08806431293487549,
                81.20429992675781
            ],
            [
                1.4820805788040161,
                -0.1169404461979866,
                86.20429992675781
            ],
            [
                1.7127443552017212,
                -0.1458166241645813,
                91.20429992675781
            ],
            [
                1.943410873413086,
                -0.17469285428524017,
                96.20429992675781
            ],
            [
                2.1740803718566895,
                -0.20356912910938263,
                101.20429992675781
            ],
            [
                3.0967869758605957,
                -0.31907469034194946,
                121.20429992675781
            ],
            [
                4.0195417404174805,
                -0.43458104133605957,
                141.2042999267578
            ],
            [
                4.942327976226807,
                -0.550088107585907,
                161.2042999267578
            ],
            [
                5.865120887756348,
                -0.665591835975647,
                181.2042999267578
            ],
            [
                6.78803014755249,
                -0.7811003923416138,
                201.2042999267578
            ],
            [
                7.710989475250244,
                -0.8966097235679626,
                221.2042999267578
            ],
            [
                8.634002685546875,
                -1.0121197700500488,
                241.2042999267578
            ],
            [
                9.557072639465332,
                -1.127630591392517,
                261.2043151855469
            ],
            [
                10.480202674865723,
                -1.243142008781433,
                281.2043151855469
            ],
            [
                11.403397560119629,
                -1.358654260635376,
                301.2043151855469
            ],
            [
                12.326658248901367,
                -1.4741671085357666,
                321.2043151855469
            ],
            [
                13.249991416931152,
                -1.5896806716918945,
                341.2043151855469
            ],
            [
                14.173398971557617,
                -1.7051948308944702,
                361.2043151855469
            ],
            [
                15.096854209899902,
                -1.8207098245620728,
                381.2043151855469
            ],
            [
                16.020401000976563,
                -1.936225414276123,
                401.2043151855469
            ],
            [
                16.944026947021484,
                -2.051741600036621,
                421.2043151855469
            ],
            [
                17.867734909057617,
                -2.1672582626342773,
                441.2043151855469
            ],
            [
                18.791526794433594,
                -2.282775640487671,
                461.2043151855469
            ],
            [
                19.715402603149414,
                -2.3982937335968018,
                481.2043151855469
            ],
            [
                20.639371871948242,
                -2.513812303543091,
                501.2043151855469
            ],
            [
                21.56343650817871,
                -2.629331588745117,
                521.2042846679688
            ],
            [
                22.48759651184082,
                -2.7448511123657227,
                541.2042846679688
            ],
            [
                23.411853790283203,
                -2.8603713512420654,
                561.2042846679688
            ],
            [
                24.336214065551758,
                -2.9758923053741455,
                581.2042846679688
            ],
            [
                25.260679244995117,
                -3.0914134979248047,
                601.2042846679688
            ],
            [
                26.185253143310547,
                -3.206934928894043,
                621.2042846679688
            ],
            [
                27.10993766784668,
                -3.3224565982818604,
                641.2042846679688
            ],
            [
                28.034744262695313,
                -3.437978744506836,
                661.2042846679688
            ],
            [
                28.959678649902344,
                -3.5535011291503906,
                681.2042846679688
            ],
            [
                29.884742736816406,
                -3.6690237522125244,
                701.2042846679688
            ],
            [
                30.809938430786133,
                -3.7845470905303955,
                721.2042846679688
            ],
            [
                31.735267639160156,
                -3.900070905685425,
                741.2042846679688
            ],
            [
                32.66073226928711,
                -4.015594959259033,
                761.2042846679688
            ],
            [
                33.586334228515625,
                -4.131119251251221,
                781.2042846679688
            ],
            [
                34.51207733154297,
                -4.246643543243408,
                801.2042846679688
            ],
            [
                35.437965393066406,
                -4.362167835235596,
                821.2042846679688
            ],
            [
                36.3640251159668,
                -4.477688789367676,
                841.2042846679688
            ],
            [
                37.29023742675781,
                -4.593209743499756,
                861.2042846679688
            ],
            [
                38.216609954833984,
                -4.7087297439575195,
                881.2042846679688
            ],
            [
                39.14314270019531,
                -4.824249267578125,
                901.2042846679688
            ],
            [
                40.069828033447266,
                -4.939767837524414,
                921.2042846679688
            ],
            [
                40.996681213378906,
                -5.055285930633545,
                941.2042846679688
            ],
            [
                41.9237060546875,
                -5.170803546905518,
                961.2042846679688
            ],
            [
                42.85090637207031,
                -5.286320209503174,
                981.2042846679688
            ],
            [
                43.778228759765625,
                -5.401841640472412,
                1001.2042846679688
            ],
            [
                48.41758728027344,
                -5.9794487953186035,
                1101.204345703125
            ],
            [
                53.061676025390625,
                -6.55705451965332,
                1201.204345703125
            ],
            [
                57.71113586425781,
                -7.134578227996826,
                1301.204345703125
            ],
            [
                62.36457061767578,
                -7.712147235870361,
                1401.204345703125
            ],
            [
                67.02225494384766,
                -8.289691925048828,
                1501.204345703125
            ],
            [
                71.68475341796875,
                -8.867227554321289,
                1601.204345703125
            ],
            [
                76.35254669189453,
                -9.444750785827637,
                1701.204345703125
            ],
            [
                81.02442169189453,
                -10.022310256958008,
                1801.204345703125
            ],
            [
                85.70339965820313,
                -10.599862098693848,
                1901.204345703125
            ],
            [
                90.38874053955078,
                -11.177413940429688,
                2001.204345703125
            ],
            [
                95.082275390625,
                -11.754974365234375,
                2101.204345703125
            ],
            [
                99.78490447998047,
                -12.332539558410645,
                2201.204345703125
            ],
            [
                104.50157165527344,
                -12.909852981567383,
                2301.204345703125
            ],
            [
                109.23014831542969,
                -13.48731803894043,
                2401.204345703125
            ],
            [
                113.97635650634766,
                -14.06480884552002,
                2501.204345703125
            ],
            [
                118.74284362792969,
                -14.642267227172852,
                2601.204345703125
            ],
            [
                123.53382873535156,
                -15.21969985961914,
                2701.204345703125
            ],
            [
                128.35369873046875,
                -15.797117233276367,
                2801.204345703125
            ],
            [
                133.20703125,
                -16.374496459960938,
                2901.204345703125
            ],
            [
                138.1024169921875,
                -16.951824188232422,
                3001.204345703125
            ],
            [
                143.04246520996094,
                -17.52914047241211,
                3101.204345703125
            ],
            [
                148.03436279296875,
                -18.10654640197754,
                3201.204345703125
            ],
            [
                153.0931396484375,
                -18.683778762817383,
                3301.204345703125
            ],
            [
                158.2179412841797,
                -19.261260986328125,
                3401.204345703125
            ],
            [
                163.41798400878906,
                -19.83880615234375,
                3501.204345703125
            ],
            [
                168.69921875,
                -20.4163818359375,
                3601.204345703125
            ],
            [
                174.06964111328125,
                -20.99381446838379,
                3701.204345703125
            ],
            [
                179.53868103027344,
                -21.571386337280273,
                3801.204345703125
            ],
            [
                185.11476135253906,
                -22.149105072021484,
                3901.204345703125
            ],
            [
                190.7972412109375,
                -22.726497650146484,
                4001.204345703125
            ],
            [
                196.60043334960938,
                -23.303760528564453,
                4101.2041015625
            ],
            [
                202.53158569335938,
                -23.880924224853516,
                4201.2041015625
            ],
            [
                208.58843994140625,
                -24.45807456970215,
                4301.2041015625
            ],
            [
                214.76832580566406,
                -25.035079956054688,
                4401.2041015625
            ],
            [
                221.08311462402344,
                -25.611543655395508,
                4501.2041015625
            ],
            [
                227.5315399169922,
                -26.188091278076172,
                4601.2041015625
            ],
            [
                234.1159210205078,
                -26.764299392700195,
                4701.2041015625
            ],
            [
                240.83139038085938,
                -27.34077262878418,
                4801.2041015625
            ],
            [
                246.3561248779297,
                -28.55128288269043,
                4901.2041015625
            ],
            [
                253.29864501953125,
                -29.140865325927734,
                5001.2041015625
            ],
            [
                260.378173828125,
                -29.729673385620117,
                5101.2041015625
            ],
            [
                267.5875549316406,
                -30.318269729614258,
                5201.2041015625
            ],
            [
                274.9287414550781,
                -30.906208038330078,
                5301.2041015625
            ],
            [
                282.3975830078125,
                -31.494524002075195,
                5401.2041015625
            ],
            [
                289.993408203125,
                -32.083255767822266,
                5501.2041015625
            ],
            [
                297.7098693847656,
                -32.67073059082031,
                5601.2041015625
            ],
            [
                305.55084228515625,
                -33.25831985473633,
                5701.2041015625
            ],
            [
                313.5114440917969,
                -33.845550537109375,
                5801.2041015625
            ],
            [
                321.5844421386719,
                -34.432525634765625,
                5901.2041015625
            ],
            [
                329.773681640625,
                -35.018890380859375,
                6001.2041015625
            ],
            [
                338.0714416503906,
                -35.60476303100586,
                6101.2041015625
            ],
            [
                346.47528076171875,
                -36.190486907958984,
                6201.2041015625
            ],
            [
                354.9819030761719,
                -36.7761344909668,
                6301.2041015625
            ],
            [
                363.5869140625,
                -37.361610412597656,
                6401.2041015625
            ],
            [
                372.2879943847656,
                -37.946998596191406,
                6501.2041015625
            ],
            [
                381.0789794921875,
                -38.53199768066406,
                6601.2041015625
            ],
            [
                389.9579162597656,
                -39.11671447753906,
                6701.2041015625
            ],
            [
                398.9181823730469,
                -39.70124816894531,
                6801.2041015625
            ],
            [
                407.95880126953125,
                -40.285552978515625,
                6901.2041015625
            ],
            [
                417.0738220214844,
                -40.8696174621582,
                7001.2041015625
            ],
            [
                426.25860595703125,
                -41.453495025634766,
                7101.2041015625
            ],
            [
                435.5088806152344,
                -42.03720474243164,
                7201.2041015625
            ],
            [
                444.8211669921875,
                -42.62068557739258,
                7301.2041015625
            ],
            [
                454.1923828125,
                -43.20393371582031,
                7401.2041015625
            ],
            [
                463.61572265625,
                -43.786930084228516,
                7501.2041015625
            ],
            [
                473.08990478515625,
                -44.36969757080078,
                7601.2041015625
            ],
            [
                482.6098937988281,
                -44.95222854614258,
                7701.2041015625
            ],
            [
                492.1736755371094,
                -45.53450393676758,
                7801.2041015625
            ],
            [
                501.7775573730469,
                -46.11651611328125,
                7901.2041015625
            ],
            [
                511.4180908203125,
                -46.69828796386719,
                8001.2041015625
            ],
            [
                521.09326171875,
                -47.27981185913086,
                8101.2041015625
            ],
            [
                530.7991943359375,
                -47.861106872558594,
                8201.2041015625
            ],
            [
                540.5338745117188,
                -48.44218063354492,
                8301.2041015625
            ],
            [
                550.2952270507813,
                -49.02305221557617,
                8401.2041015625
            ],
            [
                560.0809936523438,
                -49.60372543334961,
                8501.2041015625
            ],
            [
                569.8884887695313,
                -50.184234619140625,
                8601.2041015625
            ],
            [
                579.716552734375,
                -50.76457977294922,
                8701.2041015625
            ],
            [
                589.563232421875,
                -51.34478759765625,
                8801.2041015625
            ],
            [
                599.4268798828125,
                -51.92484664916992,
                8901.2041015625
            ],
            [
                609.3062133789063,
                -52.5047721862793,
                9001.2041015625
            ],
            [
                619.1997680664063,
                -53.08457565307617,
                9101.2041015625
            ],
            [
                629.1063232421875,
                -53.664268493652344,
                9201.2041015625
            ],
            [
                639.0247802734375,
                -54.243858337402344,
                9301.2041015625
            ],
            [
                648.9540405273438,
                -54.823360443115234,
                9401.2041015625
            ],
            [
                658.8931274414063,
                -55.40277862548828,
                9501.2041015625
            ],
            [
                668.8411865234375,
                -55.982120513916016,
                9601.2041015625
            ],
            [
                678.7974853515625,
                -56.561397552490234,
                9701.2041015625
            ],
            [
                688.7611694335938,
                -57.14061737060547,
                9801.2041015625
            ],
            [
                698.731689453125,
                -57.71978759765625,
                9901.2041015625
            ],
            [
                708.7083129882813,
                -58.29890823364258,
                10001.2041015625
            ],
            [
                728.6780395507813,
                -59.45703125,
                10201.2041015625
            ],
            [
                748.6665649414063,
                -60.61503219604492,
                10401.2041015625
            ],
            [
                768.67041015625,
                -61.7729377746582,
                10601.2041015625
            ],
            [
                788.6873779296875,
                -62.9307746887207,
                10801.2041015625
            ],
            [
                808.714599609375,
                -64.08856201171875,
                11001.2041015625
            ],
            [
                828.7506713867188,
                -65.2463150024414,
                11201.2041015625
            ],
            [
                848.7943115234375,
                -66.404052734375,
                11401.2041015625
            ],
            [
                868.8435668945313,
                -67.56177520751953,
                11601.2041015625
            ],
            [
                888.8976440429688,
                -68.71949005126953,
                11801.2041015625
            ],
            [
                908.95556640625,
                -69.87721252441406,
                12001.2041015625
            ],
            [
                929.0172729492188,
                -71.0349349975586,
                12201.2041015625
            ],
            [
                949.0814819335938,
                -72.19266510009766,
                12401.2041015625
            ],
            [
                969.147216796875,
                -73.35040283203125,
                12601.2041015625
            ],
            [
                989.2144775390625,
                -74.50814819335938,
                12801.2041015625
            ],
            [
                1009.2835083007813,
                -75.66590118408203,
                13001.2041015625
            ],
            [
                1029.353759765625,
                -76.82365417480469,
                13201.2041015625
            ],
            [
                1049.4246826171875,
                -77.98140716552734,
                13401.2041015625
            ]
        ],
        "zFirstMeasurement": 274.1328
    },
    {
        "E": 3692.0490223242205,
        "chi2": 1.6717603206634521,
        "ip": 0.1968100858701207,
        "ipchi2": 9.432330555571573,
        "mass": 139.57018,
        "particleId": "pi+",
        "pvx": 0.5374,
        "pvy": 0.0478,
        "pvz": 62.7731,
        "px": 250.8656337008917,
        "py": -154.92154503169746,
        "pz": 3677.609535664824,
        "q": 1.0,
        "trajectory": [
            [
                -10.750267028808594,
                6.952206611633301,
                -100.0
            ],
            [
                -10.409621238708496,
                6.741590976715088,
                -95.0
            ],
            [
                -10.068964958190918,
                6.530974388122559,
                -90.0
            ],
            [
                -9.728296279907227,
                6.320357799530029,
                -85.0
            ],
            [
                -9.387617111206055,
                6.109740734100342,
                -80.0
            ],
            [
                -9.04692554473877,
                5.899123191833496,
                -75.0
            ],
            [
                -8.706222534179688,
                5.688505172729492,
                -70.0
            ],
            [
                -8.365508079528809,
                5.477887153625488,
                -65.0
            ],
            [
                -8.024781227111816,
                5.267268657684326,
                -60.0
            ],
            [
                -7.684041500091553,
                5.056649684906006,
                -55.0
            ],
            [
                -7.343289852142334,
                4.846030235290527,
                -50.0
            ],
            [
                -7.002525329589844,
                4.635410308837891,
                -45.0
            ],
            [
                -6.66174840927124,
                4.424790382385254,
                -40.0
            ],
            [
                -6.321054458618164,
                4.214170455932617,
                -35.0
            ],
            [
                -5.980236530303955,
                4.003549098968506,
                -30.0
            ],
            [
                -5.639407157897949,
                3.7929279804229736,
                -25.0
            ],
            [
                -5.298565864562988,
                3.582306146621704,
                -20.0
            ],
            [
                -4.957712650299072,
                3.3716840744018555,
                -15.0
            ],
            [
                -4.616847038269043,
                3.1610617637634277,
                -10.0
            ],
            [
                -4.2759690284729,
                2.9504387378692627,
                -5.0
            ],
            [
                -3.9350781440734863,
                2.7398154735565186,
                0.0
            ],
            [
                -3.594174385070801,
                2.5291919708251953,
                5.0
            ],
            [
                -3.2532575130462646,
                2.318567991256714,
                10.0
            ],
            [
                -2.9123268127441406,
                2.107943534851074,
                15.0
            ],
            [
                -2.571382522583008,
                1.897318959236145,
                20.0
            ],
            [
                -2.230424165725708,
                1.686693787574768,
                25.0
            ],
            [
                -1.8894516229629517,
                1.4760682582855225,
                30.0
            ],
            [
                -1.5484645366668701,
                1.2654423713684082,
                35.0
            ],
            [
                -1.2074627876281738,
                1.0548161268234253,
                40.0
            ],
            [
                -0.8664458990097046,
                0.8441894054412842,
                45.0
            ],
            [
                -0.5254138112068176,
                0.6335623264312744,
                50.0
            ],
            [
                -0.18436621129512787,
                0.422934889793396,
                55.0
            ],
            [
                0.1566971391439438,
                0.21230705082416534,
                60.0
            ],
            [
                0.49777650833129883,
                0.0016788131324574351,
                65.0
            ],
            [
                0.8388749957084656,
                -0.20894429087638855,
                70.0
            ],
            [
                1.1799869537353516,
                -0.4195733368396759,
                75.0
            ],
            [
                1.5211154222488403,
                -0.6302028298377991,
                80.0
            ],
            [
                1.8622604608535767,
                -0.8408326506614685,
                85.0
            ],
            [
                2.2034225463867188,
                -1.0514628887176514,
                90.0
            ],
            [
                2.5446019172668457,
                -1.2620935440063477,
                95.0
            ],
            [
                2.885798692703247,
                -1.4727246761322021,
                100.0
            ],
            [
                4.250765323638916,
                -2.3152530193328857,
                120.0
            ],
            [
                5.615945816040039,
                -3.1578173637390137,
                140.0
            ],
            [
                6.981510162353516,
                -4.000358581542969,
                160.0
            ],
            [
                8.347383499145508,
                -4.8429059982299805,
                180.0
            ],
            [
                9.71358585357666,
                -5.685460567474365,
                200.0
            ],
            [
                11.080137252807617,
                -6.528021335601807,
                220.0
            ],
            [
                12.447059631347656,
                -7.370588779449463,
                240.0
            ],
            [
                13.814374923706055,
                -8.213163375854492,
                260.0
            ],
            [
                15.182104110717773,
                -9.055744171142578,
                280.0
            ],
            [
                16.550039291381836,
                -9.898331642150879,
                300.0
            ],
            [
                17.918519973754883,
                -10.740926742553711,
                320.0
            ],
            [
                19.287433624267578,
                -11.583527565002441,
                340.0
            ],
            [
                20.65679359436035,
                -12.426136016845703,
                360.0
            ],
            [
                22.026615142822266,
                -13.26875114440918,
                380.0
            ],
            [
                23.396921157836914,
                -14.111373901367188,
                400.0
            ],
            [
                24.767728805541992,
                -14.95400333404541,
                420.0
            ],
            [
                26.13904571533203,
                -15.796639442443848,
                440.0
            ],
            [
                27.51089096069336,
                -16.639284133911133,
                460.0
            ],
            [
                28.88327980041504,
                -17.481935501098633,
                480.0
            ],
            [
                30.2562255859375,
                -18.32459259033203,
                500.0
            ],
            [
                31.62976837158203,
                -19.167259216308594,
                520.0
            ],
            [
                33.00390625,
                -20.009931564331055,
                540.0
            ],
            [
                34.37870788574219,
                -20.852611541748047,
                560.0
            ],
            [
                35.754180908203125,
                -21.69529914855957,
                580.0
            ],
            [
                37.13034439086914,
                -22.537992477416992,
                600.0
            ],
            [
                38.5072135925293,
                -23.380687713623047,
                620.0
            ],
            [
                39.88479232788086,
                -24.223390579223633,
                640.0
            ],
            [
                41.263099670410156,
                -25.066099166870117,
                660.0
            ],
            [
                42.642147064208984,
                -25.9088134765625,
                680.0
            ],
            [
                44.0219612121582,
                -26.75153350830078,
                700.0
            ],
            [
                45.40260314941406,
                -27.594263076782227,
                720.0
            ],
            [
                46.7841911315918,
                -28.436992645263672,
                740.0
            ],
            [
                48.1666259765625,
                -29.279727935791016,
                760.0
            ],
            [
                49.5499267578125,
                -30.122467041015625,
                780.0
            ],
            [
                50.934120178222656,
                -30.9652099609375,
                800.0
            ],
            [
                52.31919860839844,
                -31.807958602905273,
                820.0
            ],
            [
                53.70520782470703,
                -32.65071105957031,
                840.0
            ],
            [
                55.092159271240234,
                -33.493465423583984,
                860.0
            ],
            [
                56.48012161254883,
                -34.336219787597656,
                880.0
            ],
            [
                57.869319915771484,
                -35.17892837524414,
                900.0
            ],
            [
                59.25967788696289,
                -36.02163314819336,
                920.0
            ],
            [
                60.65116500854492,
                -36.86433792114258,
                940.0
            ],
            [
                62.04376220703125,
                -37.707035064697266,
                960.0
            ],
            [
                63.43748474121094,
                -38.54972457885742,
                980.0
            ],
            [
                64.83235931396484,
                -39.39240646362305,
                1000.0
            ],
            [
                71.82085418701172,
                -43.605960845947266,
                1100.0
            ],
            [
                78.84598541259766,
                -47.8192024230957,
                1200.0
            ],
            [
                85.89665985107422,
                -52.03225326538086,
                1300.0
            ],
            [
                92.97657775878906,
                -56.24518585205078,
                1400.0
            ],
            [
                100.08216857910156,
                -60.45823669433594,
                1500.0
            ],
            [
                107.2179946899414,
                -64.6711196899414,
                1600.0
            ],
            [
                114.38504791259766,
                -68.88388061523438,
                1700.0
            ],
            [
                121.58940887451172,
                -73.09659576416016,
                1800.0
            ],
            [
                128.82691955566406,
                -77.30949401855469,
                1900.0
            ],
            [
                136.10903930664063,
                -81.52326202392578,
                2000.0
            ],
            [
                143.43722534179688,
                -85.73766326904297,
                2100.0
            ],
            [
                150.84112548828125,
                -89.95199584960938,
                2200.0
            ],
            [
                158.30113220214844,
                -94.167724609375,
                2300.0
            ],
            [
                165.8503875732422,
                -98.3847427368164,
                2400.0
            ],
            [
                173.5164031982422,
                -102.60334014892578,
                2500.0
            ],
            [
                181.3114471435547,
                -106.82415008544922,
                2600.0
            ],
            [
                189.25218200683594,
                -111.04722595214844,
                2700.0
            ],
            [
                197.36790466308594,
                -115.27372741699219,
                2800.0
            ],
            [
                205.70864868164063,
                -119.50524139404297,
                2900.0
            ],
            [
                214.307373046875,
                -123.74114990234375,
                3000.0
            ],
            [
                223.17356872558594,
                -127.98231506347656,
                3100.0
            ],
            [
                232.4146728515625,
                -132.2311553955078,
                3200.0
            ],
            [
                242.02491760253906,
                -136.48800659179688,
                3300.0
            ],
            [
                252.06871032714844,
                -140.75425720214844,
                3400.0
            ],
            [
                262.6063232421875,
                -145.0309600830078,
                3500.0
            ],
            [
                273.64324951171875,
                -149.3172149658203,
                3600.0
            ],
            [
                285.2711181640625,
                -153.61354064941406,
                3700.0
            ],
            [
                297.54736328125,
                -157.9251708984375,
                3800.0
            ],
            [
                310.4931945800781,
                -162.25054931640625,
                3900.0
            ],
            [
                324.1694030761719,
                -166.5865936279297,
                4000.0
            ],
            [
                338.5870666503906,
                -170.933837890625,
                4100.0
            ],
            [
                353.8682556152344,
                -175.29095458984375,
                4200.0
            ],
            [
                369.9825134277344,
                -179.66525268554688,
                4300.0
            ],
            [
                386.940185546875,
                -184.0454559326172,
                4400.0
            ],
            [
                404.757080078125,
                -188.43580627441406,
                4500.0
            ],
            [
                423.47332763671875,
                -192.83465576171875,
                4600.0
            ],
            [
                443.11962890625,
                -197.24346923828125,
                4700.0
            ],
            [
                463.6351623535156,
                -201.66238403320313,
                4800.0
            ],
            [
                475.6224365234375,
                -206.35745239257813,
                4900.0
            ],
            [
                497.6912841796875,
                -210.6401824951172,
                5000.0
            ],
            [
                520.7008666992188,
                -214.92587280273438,
                5100.0
            ],
            [
                544.6149291992188,
                -219.21353149414063,
                5200.0
            ],
            [
                569.4308471679688,
                -223.5050506591797,
                5300.0
            ],
            [
                595.1365356445313,
                -227.7953643798828,
                5400.0
            ],
            [
                621.7546997070313,
                -232.0891571044922,
                5500.0
            ],
            [
                649.2021484375,
                -236.38145446777344,
                5600.0
            ],
            [
                677.5307006835938,
                -240.66920471191406,
                5700.0
            ],
            [
                706.71435546875,
                -244.95582580566406,
                5800.0
            ],
            [
                736.7059936523438,
                -249.2350616455078,
                5900.0
            ],
            [
                767.5464477539063,
                -253.50558471679688,
                6000.0
            ],
            [
                799.1786499023438,
                -257.76947021484375,
                6100.0
            ],
            [
                831.58447265625,
                -262.02276611328125,
                6200.0
            ],
            [
                864.7622680664063,
                -266.2659606933594,
                6300.0
            ],
            [
                898.664306640625,
                -270.4994812011719,
                6400.0
            ],
            [
                933.2750244140625,
                -274.72021484375,
                6500.0
            ],
            [
                968.5665283203125,
                -278.9253234863281,
                6600.0
            ],
            [
                1004.5199584960938,
                -283.1131591796875,
                6700.0
            ],
            [
                1041.0865478515625,
                -287.2835998535156,
                6800.0
            ],
            [
                1078.26904296875,
                -291.4325256347656,
                6900.0
            ],
            [
                1116.0157470703125,
                -295.561279296875,
                7000.0
            ],
            [
                1154.29833984375,
                -299.6694030761719,
                7100.0
            ],
            [
                1193.0748291015625,
                -303.7584533691406,
                7200.0
            ],
            [
                1232.3232421875,
                -307.82659912109375,
                7300.0
            ],
            [
                1272.0238037109375,
                -311.8724670410156,
                7400.0
            ],
            [
                1312.1158447265625,
                -315.8993225097656,
                7500.0
            ],
            [
                1352.5958251953125,
                -319.9048156738281,
                7600.0
            ],
            [
                1393.42041015625,
                -323.8916931152344,
                7700.0
            ],
            [
                1434.57373046875,
                -327.8599548339844,
                7800.0
            ],
            [
                1476.0257568359375,
                -331.8109130859375,
                7900.0
            ],
            [
                1517.7467041015625,
                -335.7465515136719,
                8000.0
            ],
            [
                1559.7220458984375,
                -339.6673278808594,
                8100.0
            ],
            [
                1601.9197998046875,
                -343.575439453125,
                8200.0
            ],
            [
                1644.3233642578125,
                -347.4721374511719,
                8300.0
            ],
            [
                1686.916015625,
                -351.3585205078125,
                8400.0
            ],
            [
                1729.6806640625,
                -355.2359924316406,
                8500.0
            ],
            [
                1772.5941162109375,
                -359.1059265136719,
                8600.0
            ],
            [
                1815.647705078125,
                -362.96923828125,
                8700.0
            ],
            [
                1858.8267822265625,
                -366.8268737792969,
                8800.0
            ],
            [
                1902.1175537109375,
                -370.68017578125,
                8900.0
            ],
            [
                1945.5103759765625,
                -374.5298767089844,
                9000.0
            ],
            [
                1988.9945068359375,
                -378.376708984375,
                9100.0
            ],
            [
                2032.56005859375,
                -382.2214050292969,
                9200.0
            ],
            [
                2076.198974609375,
                -386.0645751953125,
                9300.0
            ],
            [
                2119.903564453125,
                -389.9066467285156,
                9400.0
            ],
            [
                2163.666259765625,
                -393.748046875,
                9500.0
            ],
            [
                2207.48193359375,
                -397.589111328125,
                9600.0
            ],
            [
                2251.34423828125,
                -401.43011474609375,
                9700.0
            ],
            [
                2295.24853515625,
                -405.2712707519531,
                9800.0
            ],
            [
                2339.190185546875,
                -409.11273193359375,
                9900.0
            ],
            [
                2383.1650390625,
                -412.95465087890625,
                10000.0
            ],
            [
                2471.20166015625,
                -420.64019775390625,
                10200.0
            ],
            [
                2559.334228515625,
                -428.32843017578125,
                10400.0
            ],
            [
                2647.542236328125,
                -436.0196838378906,
                10600.0
            ],
            [
                2735.8115234375,
                -443.7137451171875,
                10800.0
            ],
            [
                2824.12646484375,
                -451.41070556640625,
                11000.0
            ],
            [
                2912.4794921875,
                -459.1105041503906,
                11200.0
            ],
            [
                3000.86376953125,
                -466.8129577636719,
                11400.0
            ],
            [
                3089.2705078125,
                -474.51800537109375,
                11600.0
            ],
            [
                3177.693359375,
                -482.225341796875,
                11800.0
            ],
            [
                3266.12890625,
                -489.934814453125,
                12000.0
            ],
            [
                3354.578857421875,
                -497.64617919921875,
                12200.0
            ],
            [
                3443.0361328125,
                -505.35894775390625,
                12400.0
            ],
            [
                3531.496826171875,
                -513.073486328125,
                12600.0
            ],
            [
                3619.9599609375,
                -520.7891845703125,
                12800.0
            ],
            [
                3708.429443359375,
                -528.5057373046875,
                13000.0
            ],
            [
                3796.90234375,
                -536.2232055664063,
                13200.0
            ],
            [
                3885.37646484375,
                -543.9411010742188,
                13400.0
            ]
        ],
        "zFirstMeasurement": 184.2987
    },
    {
        "E": 6948.3019109092575,
        "chi2": 1.0645077228546143,
        "ip": 0.10089883280510557,
        "ipchi2": 11.339198267533295,
        "mass": 139.57018,
        "particleId": "pi-",
        "pvx": 0.6348,
        "pvy": 0.0486,
        "pvz": 68.5645,
        "px": -367.4287357956243,
        "py": -1215.7348684322365,
        "pz": 6829.817308229385,
        "q": -1.0,
        "trajectory": [
            [
                9.63672161102295,
                30.134044647216797,
                -100.0
            ],
            [
                9.367974281311035,
                29.2440242767334,
                -95.0
            ],
            [
                9.099222183227539,
                28.35400390625,
                -90.0
            ],
            [
                8.830462455749512,
                27.4639835357666,
                -85.0
            ],
            [
                8.561697959899902,
                26.573965072631836,
                -80.0
            ],
            [
                8.292926788330078,
                25.683944702148438,
                -75.0
            ],
            [
                8.024149894714355,
                24.79392433166504,
                -70.0
            ],
            [
                7.75536584854126,
                23.90390396118164,
                -65.0
            ],
            [
                7.486576080322266,
                23.013885498046875,
                -60.0
            ],
            [
                7.217779636383057,
                22.123865127563477,
                -55.0
            ],
            [
                6.948976516723633,
                21.233844757080078,
                -50.0
            ],
            [
                6.680166721343994,
                20.343826293945313,
                -45.0
            ],
            [
                6.411349773406982,
                19.453805923461914,
                -40.0
            ],
            [
                6.142526626586914,
                18.563785552978516,
                -35.0
            ],
            [
                5.873696327209473,
                17.67376708984375,
                -30.0
            ],
            [
                5.604910373687744,
                16.783748626708984,
                -25.0
            ],
            [
                5.336058139801025,
                15.893728256225586,
                -20.0
            ],
            [
                5.067200183868408,
                15.003708839416504,
                -15.0
            ],
            [
                4.798336029052734,
                14.113688468933105,
                -10.0
            ],
            [
                4.529465198516846,
                13.223669052124023,
                -5.0
            ],
            [
                4.260587692260742,
                12.333648681640625,
                0.0
            ],
            [
                3.9917032718658447,
                11.443629264831543,
                5.0
            ],
            [
                3.7228119373321533,
                10.553609848022461,
                10.0
            ],
            [
                3.453913927078247,
                9.663589477539063,
                15.0
            ],
            [
                3.1850085258483887,
                8.77357006072998,
                20.0
            ],
            [
                2.916095733642578,
                7.88355016708374,
                25.0
            ],
            [
                2.6471757888793945,
                6.9935302734375,
                30.0
            ],
            [
                2.3782479763031006,
                6.10351037979126,
                35.0
            ],
            [
                2.1093127727508545,
                5.2134904861450195,
                40.0
            ],
            [
                1.8403695821762085,
                4.323470592498779,
                45.0
            ],
            [
                1.5714184045791626,
                3.433450698852539,
                50.0
            ],
            [
                1.3024591207504272,
                2.543430805206299,
                55.0
            ],
            [
                1.0334917306900024,
                1.653410792350769,
                60.0
            ],
            [
                0.7645159363746643,
                0.7633907198905945,
                65.0
            ],
            [
                0.49553167819976807,
                -0.1266292929649353,
                70.0
            ],
            [
                0.2265387624502182,
                -1.0166493654251099,
                75.0
            ],
            [
                -0.04246287792921066,
                -1.9066694974899292,
                80.0
            ],
            [
                -0.31147339940071106,
                -2.796689510345459,
                85.0
            ],
            [
                -0.5804929137229919,
                -3.6867098808288574,
                90.0
            ],
            [
                -0.8495215773582458,
                -4.576730251312256,
                95.0
            ],
            [
                -1.11855947971344,
                -5.466750144958496,
                100.0
            ],
            [
                -2.1947977542877197,
                -9.026825904846191,
                120.0
            ],
            [
                -3.271191358566284,
                -12.586909294128418,
                140.0
            ],
            [
                -4.347744941711426,
                -16.146991729736328,
                160.0
            ],
            [
                -5.424468994140625,
                -19.707077026367188,
                180.0
            ],
            [
                -6.501373291015625,
                -23.26716423034668,
                200.0
            ],
            [
                -7.5784687995910645,
                -26.827253341674805,
                220.0
            ],
            [
                -8.655693054199219,
                -30.38734245300293,
                240.0
            ],
            [
                -9.73315143585205,
                -33.94743347167969,
                260.0
            ],
            [
                -10.810811042785645,
                -37.507530212402344,
                280.0
            ],
            [
                -11.888680458068848,
                -41.067626953125,
                300.0
            ],
            [
                -12.966768264770508,
                -44.62772750854492,
                320.0
            ],
            [
                -14.045079231262207,
                -48.18783187866211,
                340.0
            ],
            [
                -15.123627662658691,
                -51.74794006347656,
                360.0
            ],
            [
                -16.202417373657227,
                -55.30805206298828,
                380.0
            ],
            [
                -17.28145408630371,
                -58.8681640625,
                400.0
            ],
            [
                -18.360759735107422,
                -62.42828369140625,
                420.0
            ],
            [
                -19.44033432006836,
                -65.98841094970703,
                440.0
            ],
            [
                -20.520185470581055,
                -69.54853820800781,
                460.0
            ],
            [
                -21.600318908691406,
                -73.10867309570313,
                480.0
            ],
            [
                -22.680742263793945,
                -76.66881561279297,
                500.0
            ],
            [
                -23.761474609375,
                -80.22895812988281,
                520.0
            ],
            [
                -24.84251594543457,
                -83.78911590576172,
                540.0
            ],
            [
                -25.923871994018555,
                -87.34927368164063,
                560.0
            ],
            [
                -27.005571365356445,
                -90.90943908691406,
                580.0
            ],
            [
                -28.087648391723633,
                -94.46961212158203,
                600.0
            ],
            [
                -29.170093536376953,
                -98.02979278564453,
                620.0
            ],
            [
                -30.252901077270508,
                -101.58998107910156,
                640.0
            ],
            [
                -31.336078643798828,
                -105.1501693725586,
                660.0
            ],
            [
                -32.419647216796875,
                -108.71037292480469,
                680.0
            ],
            [
                -33.50363540649414,
                -112.27058410644531,
                700.0
            ],
            [
                -34.58803176879883,
                -115.83079528808594,
                720.0
            ],
            [
                -35.67284393310547,
                -119.3910140991211,
                740.0
            ],
            [
                -36.758182525634766,
                -122.95124816894531,
                760.0
            ],
            [
                -37.84397506713867,
                -126.51148986816406,
                780.0
            ],
            [
                -38.93022155761719,
                -130.0717315673828,
                800.0
            ],
            [
                -40.01691818237305,
                -133.63198852539063,
                820.0
            ],
            [
                -41.10409164428711,
                -137.1922607421875,
                840.0
            ],
            [
                -42.19174575805664,
                -140.75253295898438,
                860.0
            ],
            [
                -43.2798957824707,
                -144.3128204345703,
                880.0
            ],
            [
                -44.368553161621094,
                -147.87310791015625,
                900.0
            ],
            [
                -45.457759857177734,
                -151.43341064453125,
                920.0
            ],
            [
                -46.54757308959961,
                -154.99371337890625,
                940.0
            ],
            [
                -47.6379280090332,
                -158.5540313720703,
                960.0
            ],
            [
                -48.72880935668945,
                -162.11434936523438,
                980.0
            ],
            [
                -49.82025909423828,
                -165.6746826171875,
                1000.0
            ],
            [
                -55.28647994995117,
                -183.47628784179688,
                1100.0
            ],
            [
                -60.7732048034668,
                -201.2773895263672,
                1200.0
            ],
            [
                -66.27265167236328,
                -219.07861328125,
                1300.0
            ],
            [
                -71.78707122802734,
                -236.87974548339844,
                1400.0
            ],
            [
                -77.31648254394531,
                -254.68057250976563,
                1500.0
            ],
            [
                -82.85861206054688,
                -272.48138427734375,
                1600.0
            ],
            [
                -88.41407012939453,
                -290.28253173828125,
                1700.0
            ],
            [
                -93.98522186279297,
                -308.08404541015625,
                1800.0
            ],
            [
                -99.57032775878906,
                -325.88629150390625,
                1900.0
            ],
            [
                -105.1718978881836,
                -343.68963623046875,
                2000.0
            ],
            [
                -110.79473876953125,
                -361.4937744140625,
                2100.0
            ],
            [
                -116.44055938720703,
                -379.29998779296875,
                2200.0
            ],
            [
                -122.10161590576172,
                -397.1081237792969,
                2300.0
            ],
            [
                -127.79375457763672,
                -414.91986083984375,
                2400.0
            ],
            [
                -133.52096557617188,
                -432.73577880859375,
                2500.0
            ],
            [
                -139.30003356933594,
                -450.556396484375,
                2600.0
            ],
            [
                -145.12429809570313,
                -468.38372802734375,
                2700.0
            ],
            [
                -151.0162353515625,
                -486.2183837890625,
                2800.0
            ],
            [
                -156.9952392578125,
                -504.06146240234375,
                2900.0
            ],
            [
                -163.0748748779297,
                -521.9137573242188,
                3000.0
            ],
            [
                -169.2583465576172,
                -539.7756958007813,
                3100.0
            ],
            [
                -175.593994140625,
                -557.6493530273438,
                3200.0
            ],
            [
                -182.08026123046875,
                -575.5361328125,
                3300.0
            ],
            [
                -188.7655487060547,
                -593.4385986328125,
                3400.0
            ],
            [
                -195.66311645507813,
                -611.3614501953125,
                3500.0
            ],
            [
                -202.808837890625,
                -629.3036499023438,
                3600.0
            ],
            [
                -210.24195861816406,
                -647.2653198242188,
                3700.0
            ],
            [
                -218.04934692382813,
                -665.24755859375,
                3800.0
            ],
            [
                -226.23158264160156,
                -683.2535400390625,
                3900.0
            ],
            [
                -234.85789489746094,
                -701.2849731445313,
                4000.0
            ],
            [
                -243.88516235351563,
                -719.341552734375,
                4100.0
            ],
            [
                -253.47549438476563,
                -737.4163818359375,
                4200.0
            ],
            [
                -263.5563049316406,
                -755.5178833007813,
                4300.0
            ],
            [
                -274.13665771484375,
                -773.64306640625,
                4400.0
            ],
            [
                -285.2806701660156,
                -791.779052734375,
                4500.0
            ],
            [
                -296.922607421875,
                -809.9324340820313,
                4600.0
            ],
            [
                -309.2276916503906,
                -828.0978393554688,
                4700.0
            ],
            [
                -316.9642028808594,
                -844.2718505859375,
                4800.0
            ],
            [
                -330.2154541015625,
                -862.3809204101563,
                4900.0
            ],
            [
                -343.954345703125,
                -880.4845581054688,
                5000.0
            ],
            [
                -358.2478942871094,
                -898.6144409179688,
                5100.0
            ],
            [
                -373.0133972167969,
                -916.742431640625,
                5200.0
            ],
            [
                -388.3108825683594,
                -934.8799438476563,
                5300.0
            ],
            [
                -404.08441162109375,
                -953.0146484375,
                5400.0
            ],
            [
                -420.3088073730469,
                -971.1500854492188,
                5500.0
            ],
            [
                -437.0451354980469,
                -989.3051147460938,
                5600.0
            ],
            [
                -454.24932861328125,
                -1007.4490966796875,
                5700.0
            ],
            [
                -471.9519958496094,
                -1025.593994140625,
                5800.0
            ],
            [
                -490.0807800292969,
                -1043.72900390625,
                5900.0
            ],
            [
                -508.7101745605469,
                -1061.8675537109375,
                6000.0
            ],
            [
                -527.7750244140625,
                -1080.0023193359375,
                6100.0
            ],
            [
                -547.28173828125,
                -1098.1234130859375,
                6200.0
            ],
            [
                -567.2244873046875,
                -1116.235107421875,
                6300.0
            ],
            [
                -587.6011352539063,
                -1134.33740234375,
                6400.0
            ],
            [
                -608.3967895507813,
                -1152.4202880859375,
                6500.0
            ],
            [
                -629.6072387695313,
                -1170.48388671875,
                6600.0
            ],
            [
                -651.204345703125,
                -1188.51953125,
                6700.0
            ],
            [
                -673.1646728515625,
                -1206.529296875,
                6800.0
            ],
            [
                -695.4864501953125,
                -1224.5023193359375,
                6900.0
            ],
            [
                -718.1200561523438,
                -1242.4405517578125,
                7000.0
            ],
            [
                -741.0283813476563,
                -1260.3421630859375,
                7100.0
            ],
            [
                -764.190185546875,
                -1278.206298828125,
                7200.0
            ],
            [
                -787.5744018554688,
                -1296.032958984375,
                7300.0
            ],
            [
                -811.1685791015625,
                -1313.820068359375,
                7400.0
            ],
            [
                -834.9251708984375,
                -1331.575439453125,
                7500.0
            ],
            [
                -858.8375244140625,
                -1349.29541015625,
                7600.0
            ],
            [
                -882.87646484375,
                -1366.98583984375,
                7700.0
            ],
            [
                -907.0306396484375,
                -1384.6470947265625,
                7800.0
            ],
            [
                -931.2820434570313,
                -1402.28271484375,
                7900.0
            ],
            [
                -955.6157836914063,
                -1419.8958740234375,
                8000.0
            ],
            [
                -980.0234375,
                -1437.4879150390625,
                8100.0
            ],
            [
                -1004.4926147460938,
                -1455.062744140625,
                8200.0
            ],
            [
                -1029.0155029296875,
                -1472.6220703125,
                8300.0
            ],
            [
                -1053.5859375,
                -1490.16748046875,
                8400.0
            ],
            [
                -1078.1981201171875,
                -1507.701416015625,
                8500.0
            ],
            [
                -1102.8446044921875,
                -1525.2257080078125,
                8600.0
            ],
            [
                -1127.5230712890625,
                -1542.7415771484375,
                8700.0
            ],
            [
                -1152.229248046875,
                -1560.25048828125,
                8800.0
            ],
            [
                -1176.960205078125,
                -1577.7537841796875,
                8900.0
            ],
            [
                -1201.7132568359375,
                -1595.25244140625,
                9000.0
            ],
            [
                -1226.4859619140625,
                -1612.747314453125,
                9100.0
            ],
            [
                -1251.2760009765625,
                -1630.2392578125,
                9200.0
            ],
            [
                -1276.0816650390625,
                -1647.72900390625,
                9300.0
            ],
            [
                -1300.9012451171875,
                -1665.2171630859375,
                9400.0
            ],
            [
                -1325.7332763671875,
                -1682.7042236328125,
                9500.0
            ],
            [
                -1350.5762939453125,
                -1700.1904296875,
                9600.0
            ],
            [
                -1375.4293212890625,
                -1717.67626953125,
                9700.0
            ],
            [
                -1400.291259765625,
                -1735.1619873046875,
                9800.0
            ],
            [
                -1425.1612548828125,
                -1752.647705078125,
                9900.0
            ],
            [
                -1450.038330078125,
                -1770.1337890625,
                10000.0
            ],
            [
                -1499.811279296875,
                -1805.1072998046875,
                10200.0
            ],
            [
                -1549.605224609375,
                -1840.0831298828125,
                10400.0
            ],
            [
                -1599.415771484375,
                -1875.0618896484375,
                10600.0
            ],
            [
                -1649.239990234375,
                -1910.043701171875,
                10800.0
            ],
            [
                -1699.0748291015625,
                -1945.02880859375,
                11000.0
            ],
            [
                -1748.9183349609375,
                -1980.0169677734375,
                11200.0
            ],
            [
                -1798.7685546875,
                -2015.0079345703125,
                11400.0
            ],
            [
                -1848.6239013671875,
                -2050.002197265625,
                11600.0
            ],
            [
                -1898.483154296875,
                -2084.9990234375,
                11800.0
            ],
            [
                -1948.3453369140625,
                -2119.998291015625,
                12000.0
            ],
            [
                -1998.2099609375,
                -2154.99951171875,
                12200.0
            ],
            [
                -2048.076171875,
                -2190.0029296875,
                12400.0
            ],
            [
                -2097.943115234375,
                -2225.00830078125,
                12600.0
            ],
            [
                -2147.810791015625,
                -2260.015380859375,
                12800.0
            ],
            [
                -2197.679443359375,
                -2295.023193359375,
                13000.0
            ],
            [
                -2247.548095703125,
                -2330.0322265625,
                13200.0
            ],
            [
                -2297.417236328125,
                -2365.042236328125,
                13400.0
            ]
        ],
        "zFirstMeasurement": 139.4112
    }
]
