[
    {
        "E": 105827.43762923159,
        "chi2": 0.0,
        "ip": 0.04333170227652467,
        "ipchi2": 1.848432865220882,
        "mass": 1869.734,
        "particleId": "D0",
        "pvx": 0.5483,
        "pvy": -0.0024,
        "pvz": 70.5665,
        "px": 2460.86,
        "py": 814.94,
        "pz": 105779.16,
        "q": 0.0,
        "trajectory": [
            [
                0.54830002784729,
                -0.002400000113993883,
                70.56649780273438
            ],
            [
                0.5455999970436096,
                0.007699999958276749,
                72.30809783935547
            ]
        ],
        "zFirstMeasurement": -9999.0
    },
    {
        "E": 32343.86757302623,
        "chi2": 1.1416106224060059,
        "ip": 0.07740312915386514,
        "ipchi2": 7.649679149898815,
        "mass": 493.677,
        "particleId": "K-",
        "pvx": 0.5483,
        "pvy": -0.0024,
        "pvz": 70.5665,
        "px": 1359.38,
        "py": 693.22,
        "pz": 32304.08,
        "q": -1.0,
        "trajectory": [
            [
                0.5537039041519165,
                -0.002397097647190094,
                72.30809783935547
            ],
            [
                0.7641027569770813,
                0.10489843785762787,
                77.30809783935547
            ],
            [
                0.9744997024536133,
                0.21219399571418762,
                82.30809783935547
            ],
            [
                1.1848946809768677,
                0.31948959827423096,
                87.30809783935547
            ],
            [
                1.3952877521514893,
                0.4267852306365967,
                92.30809783935547
            ],
            [
                1.605678677558899,
                0.5340808629989624,
                97.30809783935547
            ],
            [
                1.8160676956176758,
                0.6413765549659729,
                102.30809783935547
            ],
            [
                2.657602548599243,
                1.0705596208572388,
                122.30809783935547
            ],
            [
                3.4991023540496826,
                1.4997432231903076,
                142.30810546875
            ],
            [
                4.340577125549316,
                1.9289271831512451,
                162.30810546875
            ],
            [
                5.182015419006348,
                2.358109474182129,
                182.30810546875
            ],
            [
                6.023402690887451,
                2.787294387817383,
                202.30810546875
            ],
            [
                6.864753723144531,
                3.216479778289795,
                222.30810546875
            ],
            [
                7.706065654754639,
                3.6456656455993652,
                242.30810546875
            ],
            [
                8.54733657836914,
                4.074851989746094,
                262.30810546875
            ],
            [
                9.38856315612793,
                4.5040388107299805,
                282.30810546875
            ],
            [
                10.229743003845215,
                4.933226108551025,
                302.30810546875
            ],
            [
                11.070874214172363,
                5.36241340637207,
                322.30810546875
            ],
            [
                11.911953926086426,
                5.791601657867432,
                342.30810546875
            ],
            [
                12.752979278564453,
                6.220789909362793,
                362.30810546875
            ],
            [
                13.593971252441406,
                6.6499786376953125,
                382.30810546875
            ],
            [
                14.434895515441895,
                7.07916784286499,
                402.30810546875
            ],
            [
                15.275762557983398,
                7.508357048034668,
                422.30810546875
            ],
            [
                16.1165714263916,
                7.937546730041504,
                442.30810546875
            ],
            [
                16.957319259643555,
                8.36673641204834,
                462.30810546875
            ],
            [
                17.798004150390625,
                8.795927047729492,
                482.30810546875
            ],
            [
                18.638622283935547,
                9.225117683410645,
                502.30810546875
            ],
            [
                19.47917366027832,
                9.654308319091797,
                522.30810546875
            ],
            [
                20.31965446472168,
                10.083499908447266,
                542.30810546875
            ],
            [
                21.160062789916992,
                10.512691497802734,
                562.30810546875
            ],
            [
                22.000398635864258,
                10.941883087158203,
                582.30810546875
            ],
            [
                22.84065818786621,
                11.371074676513672,
                602.30810546875
            ],
            [
                23.68083953857422,
                11.80026626586914,
                622.30810546875
            ],
            [
                24.52094078063965,
                12.22945785522461,
                642.30810546875
            ],
            [
                25.360952377319336,
                12.658650398254395,
                662.30810546875
            ],
            [
                26.20087242126465,
                13.087841987609863,
                682.30810546875
            ],
            [
                27.040700912475586,
                13.517034530639648,
                702.30810546875
            ],
            [
                27.880430221557617,
                13.946227073669434,
                722.30810546875
            ],
            [
                28.72006607055664,
                14.375419616699219,
                742.30810546875
            ],
            [
                29.55960464477539,
                14.804612159729004,
                762.30810546875
            ],
            [
                30.3990421295166,
                15.233804702758789,
                782.30810546875
            ],
            [
                31.23837661743164,
                15.66299819946289,
                802.30810546875
            ],
            [
                32.077606201171875,
                16.09218978881836,
                822.30810546875
            ],
            [
                32.91671371459961,
                16.521381378173828,
                842.30810546875
            ],
            [
                33.75571060180664,
                16.950571060180664,
                862.30810546875
            ],
            [
                34.5945930480957,
                17.3797607421875,
                882.30810546875
            ],
            [
                35.43335723876953,
                17.808950424194336,
                902.30810546875
            ],
            [
                36.272010803222656,
                18.238140106201172,
                922.30810546875
            ],
            [
                37.11054611206055,
                18.667327880859375,
                942.30810546875
            ],
            [
                37.94895553588867,
                19.096515655517578,
                962.30810546875
            ],
            [
                38.7872428894043,
                19.52570343017578,
                982.30810546875
            ],
            [
                39.62543487548828,
                19.95489501953125,
                1002.30810546875
            ],
            [
                43.81441879272461,
                22.10085105895996,
                1102.30810546875
            ],
            [
                48.0,
                24.24680519104004,
                1202.30810546875
            ],
            [
                52.18171691894531,
                26.392724990844727,
                1302.30810546875
            ],
            [
                56.36054992675781,
                28.538671493530273,
                1402.30810546875
            ],
            [
                60.53631591796875,
                30.68460464477539,
                1502.30810546875
            ],
            [
                64.7086410522461,
                32.830535888671875,
                1602.30810546875
            ],
            [
                68.87713623046875,
                34.97645568847656,
                1702.30810546875
            ],
            [
                73.04270935058594,
                37.12239456176758,
                1802.30810546875
            ],
            [
                77.20317077636719,
                39.26831817626953,
                1902.30810546875
            ],
            [
                81.35910034179688,
                41.41421890258789,
                2002.30810546875
            ],
            [
                85.50914764404297,
                43.56010055541992,
                2102.30810546875
            ],
            [
                89.65267181396484,
                45.70594787597656,
                2202.30810546875
            ],
            [
                93.7861557006836,
                47.851600646972656,
                2302.30810546875
            ],
            [
                97.91104125976563,
                49.997291564941406,
                2402.30810546875
            ],
            [
                102.0233383178711,
                52.14289855957031,
                2502.30810546875
            ],
            [
                106.12100219726563,
                54.28839111328125,
                2602.30810546875
            ],
            [
                110.20105743408203,
                56.43376541137695,
                2702.30810546875
            ],
            [
                114.2602767944336,
                58.578975677490234,
                2802.30810546875
            ],
            [
                118.29540252685547,
                60.72394943237305,
                2902.30810546875
            ],
            [
                122.30032348632813,
                62.86871337890625,
                3002.30810546875
            ],
            [
                126.27297973632813,
                65.01329040527344,
                3102.30810546875
            ],
            [
                130.20814514160156,
                67.15765380859375,
                3202.30810546875
            ],
            [
                134.09524536132813,
                69.30155181884766,
                3302.30810546875
            ],
            [
                137.93455505371094,
                71.44534301757813,
                3402.30810546875
            ],
            [
                141.71969604492188,
                73.58890533447266,
                3502.30810546875
            ],
            [
                145.4459991455078,
                75.73222351074219,
                3602.30810546875
            ],
            [
                149.1077880859375,
                77.87505340576172,
                3702.30810546875
            ],
            [
                152.69825744628906,
                80.01762390136719,
                3802.30810546875
            ],
            [
                156.2115478515625,
                82.15998077392578,
                3902.30810546875
            ],
            [
                159.647705078125,
                84.30193328857422,
                4002.30810546875
            ],
            [
                162.99684143066406,
                86.44354248046875,
                4102.30810546875
            ],
            [
                166.25338745117188,
                88.58474731445313,
                4202.30810546875
            ],
            [
                169.41921997070313,
                90.72562408447266,
                4302.30810546875
            ],
            [
                172.49630737304688,
                92.86631774902344,
                4402.30810546875
            ],
            [
                175.475830078125,
                95.0064697265625,
                4502.30810546875
            ],
            [
                178.3590087890625,
                97.14631652832031,
                4602.30810546875
            ],
            [
                181.14434814453125,
                99.28575897216797,
                4702.30810546875
            ],
            [
                183.8351287841797,
                101.42527770996094,
                4802.30810546875
            ],
            [
                187.03726196289063,
                103.96839904785156,
                4902.30810546875
            ],
            [
                189.53465270996094,
                106.11529541015625,
                5002.30810546875
            ],
            [
                191.93392944335938,
                108.26142120361328,
                5102.30810546875
            ],
            [
                194.2393035888672,
                110.40741729736328,
                5202.30810546875
            ],
            [
                196.44952392578125,
                112.55297088623047,
                5302.30810546875
            ],
            [
                198.56817626953125,
                114.69880676269531,
                5402.30810546875
            ],
            [
                200.59620666503906,
                116.84469604492188,
                5502.30810546875
            ],
            [
                202.5370330810547,
                118.98966979980469,
                5602.30810546875
            ],
            [
                204.38861083984375,
                121.13479614257813,
                5702.30810546875
            ],
            [
                206.154296875,
                123.2796401977539,
                5802.30810546875
            ],
            [
                207.8395233154297,
                125.4242172241211,
                5902.30810546875
            ],
            [
                209.44151306152344,
                127.56829071044922,
                6002.30810546875
            ],
            [
                210.96517944335938,
                129.71206665039063,
                6102.30810546875
            ],
            [
                212.4127655029297,
                131.85580444335938,
                6202.30810546875
            ],
            [
                213.78684997558594,
                133.99942016601563,
                6302.30810546875
            ],
            [
                215.0904083251953,
                136.14292907714844,
                6402.30810546875
            ],
            [
                216.32521057128906,
                138.28639221191406,
                6502.30810546875
            ],
            [
                217.4952850341797,
                140.42958068847656,
                6602.30810546875
            ],
            [
                218.60243225097656,
                142.57261657714844,
                6702.30810546875
            ],
            [
                219.65135192871094,
                144.7155303955078,
                6802.30810546875
            ],
            [
                220.64273071289063,
                146.85833740234375,
                6902.30810546875
            ],
            [
                221.58070373535156,
                149.00099182128906,
                7002.30810546875
            ],
            [
                222.46884155273438,
                151.1435546875,
                7102.30810546875
            ],
            [
                223.31005859375,
                153.28602600097656,
                7202.30810546875
            ],
            [
                224.10691833496094,
                155.4283447265625,
                7302.30810546875
            ],
            [
                224.86170959472656,
                157.5705108642578,
                7402.30810546875
            ],
            [
                225.57928466796875,
                159.7125244140625,
                7502.30810546875
            ],
            [
                226.2603759765625,
                161.85438537597656,
                7602.30810546875
            ],
            [
                226.90882873535156,
                163.99607849121094,
                7702.30810546875
            ],
            [
                227.52601623535156,
                166.13760375976563,
                7802.30810546875
            ],
            [
                228.1145782470703,
                168.27894592285156,
                7902.30810546875
            ],
            [
                228.67701721191406,
                170.42010498046875,
                8002.30810546875
            ],
            [
                229.21478271484375,
                172.5610809326172,
                8102.30810546875
            ],
            [
                229.73057556152344,
                174.70188903808594,
                8202.3076171875
            ],
            [
                230.225830078125,
                176.84251403808594,
                8302.3076171875
            ],
            [
                230.7021026611328,
                178.9829864501953,
                8402.3076171875
            ],
            [
                231.16091918945313,
                181.12330627441406,
                8502.3076171875
            ],
            [
                231.6042022705078,
                183.2634735107422,
                8602.3076171875
            ],
            [
                232.0327911376953,
                185.40350341796875,
                8702.3076171875
            ],
            [
                232.44808959960938,
                187.54342651367188,
                8802.3076171875
            ],
            [
                232.85125732421875,
                189.68321228027344,
                8902.3076171875
            ],
            [
                233.24317932128906,
                191.8228759765625,
                9002.3076171875
            ],
            [
                233.6248779296875,
                193.96243286132813,
                9102.3076171875
            ],
            [
                233.9972686767578,
                196.1018829345703,
                9202.3076171875
            ],
            [
                234.3611297607422,
                198.24122619628906,
                9302.3076171875
            ],
            [
                234.7172088623047,
                200.38047790527344,
                9402.3076171875
            ],
            [
                235.0662078857422,
                202.5196533203125,
                9502.3076171875
            ],
            [
                235.4087371826172,
                204.6587371826172,
                9602.3076171875
            ],
            [
                235.745361328125,
                206.79774475097656,
                9702.3076171875
            ],
            [
                236.07659912109375,
                208.9366912841797,
                9802.3076171875
            ],
            [
                236.40296936035156,
                211.0755615234375,
                9902.3076171875
            ],
            [
                236.72483825683594,
                213.21438598632813,
                10002.3076171875
            ],
            [
                237.35671997070313,
                217.4918670654297,
                10202.3076171875
            ],
            [
                237.97496032714844,
                221.7691650390625,
                10402.3076171875
            ],
            [
                238.58206176757813,
                226.0463104248047,
                10602.3076171875
            ],
            [
                239.17958068847656,
                230.3233184814453,
                10802.3076171875
            ],
            [
                239.7695770263672,
                234.6002197265625,
                11002.3076171875
            ],
            [
                240.35308837890625,
                238.87704467773438,
                11202.3076171875
            ],
            [
                240.93104553222656,
                243.15379333496094,
                11402.3076171875
            ],
            [
                241.50489807128906,
                247.43048095703125,
                11602.3076171875
            ],
            [
                242.07508850097656,
                251.70712280273438,
                11802.3076171875
            ],
            [
                242.64248657226563,
                255.98373413085938,
                12002.3076171875
            ],
            [
                243.20704650878906,
                260.26031494140625,
                12202.3076171875
            ],
            [
                243.7697296142578,
                264.536865234375,
                12402.3076171875
            ],
            [
                244.331298828125,
                268.8133850097656,
                12602.3076171875
            ],
            [
                244.8916778564453,
                273.08990478515625,
                12802.3076171875
            ],
            [
                245.4507293701172,
                277.3664245605469,
                13002.3076171875
            ],
            [
                246.00888061523438,
                281.6429138183594,
                13202.3076171875
            ],
            [
                246.5665740966797,
                285.9194030761719,
                13402.3076171875
            ]
        ],
        "zFirstMeasurement": 274.1327
    },
    {
        "E": 73421.88016658452,
        "chi2": 1.2342891693115234,
        "ip": 0.07055205572475019,
        "ipchi2": 1.8880141812222215,
        "mass": 139.57,
        "particleId": "pi+",
        "pvx": 0.5483,
        "pvy": -0.0024,
        "pvz": 70.5665,
        "px": 1101.52,
        "py": 117.6,
        "pz": 73413.39,
        "q": 1.0,
        "trajectory": [
            [
                0.52773517370224,
                0.05327857658267021,
                72.30809783935547
            ],
            [
                0.6027635931968689,
                0.06128788739442825,
                77.30809783935547
            ],
            [
                0.6777928471565247,
                0.0692971870303154,
                82.30809783935547
            ],
            [
                0.752822995185852,
                0.07730647176504135,
                87.30809783935547
            ],
            [
                0.8278540372848511,
                0.08531574159860611,
                92.30809783935547
            ],
            [
                0.9028859734535217,
                0.09332500398159027,
                97.30809783935547
            ],
            [
                0.9779188632965088,
                0.10133425891399384,
                102.30809783935547
            ],
            [
                1.2780596017837524,
                0.13337114453315735,
                122.30809783935547
            ],
            [
                1.5782095193862915,
                0.16540785133838654,
                142.30810546875
            ],
            [
                1.8783783912658691,
                0.1974443793296814,
                162.30810546875
            ],
            [
                2.178563117980957,
                0.22948072850704193,
                182.30810546875
            ],
            [
                2.478764533996582,
                0.26151689887046814,
                202.30810546875
            ],
            [
                2.7789828777313232,
                0.2935529053211212,
                222.30810546875
            ],
            [
                3.079219102859497,
                0.32558876276016235,
                242.30810546875
            ],
            [
                3.379474401473999,
                0.35762444138526917,
                262.30810546875
            ],
            [
                3.6797494888305664,
                0.38965997099876404,
                282.30810546875
            ],
            [
                3.9800448417663574,
                0.421695351600647,
                302.30810546875
            ],
            [
                4.280361652374268,
                0.45373061299324036,
                322.30810546875
            ],
            [
                4.58066987991333,
                0.4857677221298218,
                342.30810546875
            ],
            [
                4.88102912902832,
                0.5178025960922241,
                362.30810546875
            ],
            [
                5.181411266326904,
                0.5498374104499817,
                382.30810546875
            ],
            [
                5.481817245483398,
                0.5818720459938049,
                402.30810546875
            ],
            [
                5.782249450683594,
                0.6139066219329834,
                422.30810546875
            ],
            [
                6.08270788192749,
                0.6459410190582275,
                442.30810546875
            ],
            [
                6.383192539215088,
                0.6779753565788269,
                462.30810546875
            ],
            [
                6.683704853057861,
                0.7100095748901367,
                482.30810546875
            ],
            [
                6.984245777130127,
                0.7420437335968018,
                502.30810546875
            ],
            [
                7.284816265106201,
                0.774077832698822,
                522.30810546875
            ],
            [
                7.5854082107543945,
                0.8061116933822632,
                542.30810546875
            ],
            [
                7.886046886444092,
                0.8381456136703491,
                562.30810546875
            ],
            [
                8.186716079711914,
                0.8701795339584351,
                582.30810546875
            ],
            [
                8.487418174743652,
                0.9022132754325867,
                602.30810546875
            ],
            [
                8.788154602050781,
                0.9342469573020935,
                622.30810546875
            ],
            [
                9.088926315307617,
                0.9662805795669556,
                642.30810546875
            ],
            [
                9.389737129211426,
                0.9983141422271729,
                662.30810546875
            ],
            [
                9.690587043762207,
                1.0303477048873901,
                682.30810546875
            ],
            [
                9.99147891998291,
                1.062381386756897,
                702.30810546875
            ],
            [
                10.292413711547852,
                1.0944150686264038,
                722.30810546875
            ],
            [
                10.593378067016602,
                1.126448631286621,
                742.30810546875
            ],
            [
                10.894394874572754,
                1.1584824323654175,
                762.30810546875
            ],
            [
                11.195456504821777,
                1.1905162334442139,
                782.30810546875
            ],
            [
                11.496563911437988,
                1.2225501537322998,
                802.30810546875
            ],
            [
                11.797718048095703,
                1.2545841932296753,
                822.30810546875
            ],
            [
                12.098920822143555,
                1.2866183519363403,
                842.30810546875
            ],
            [
                12.400172233581543,
                1.318652629852295,
                862.30810546875
            ],
            [
                12.701473236083984,
                1.3506869077682495,
                882.30810546875
            ],
            [
                13.002825736999512,
                1.3827213048934937,
                902.30810546875
            ],
            [
                13.304229736328125,
                1.4147558212280273,
                922.30810546875
            ],
            [
                13.60568618774414,
                1.446790337562561,
                942.30810546875
            ],
            [
                13.907196998596191,
                1.4788249731063843,
                962.30810546875
            ],
            [
                14.208763122558594,
                1.5108598470687866,
                982.30810546875
            ],
            [
                14.510384559631348,
                1.542894721031189,
                1002.30810546875
            ],
            [
                16.019338607788086,
                1.7030715942382813,
                1102.30810546875
            ],
            [
                17.529756546020508,
                1.8632519245147705,
                1202.30810546875
            ],
            [
                19.041624069213867,
                2.0234339237213135,
                1302.30810546875
            ],
            [
                20.555011749267578,
                2.183619260787964,
                1402.30810546875
            ],
            [
                22.069936752319336,
                2.343806505203247,
                1502.30810546875
            ],
            [
                23.586397171020508,
                2.5039961338043213,
                1602.30810546875
            ],
            [
                25.103673934936523,
                2.6641976833343506,
                1702.30810546875
            ],
            [
                26.623170852661133,
                2.8243932723999023,
                1802.30810546875
            ],
            [
                28.14461326599121,
                2.984590768814087,
                1902.30810546875
            ],
            [
                29.668127059936523,
                3.1447913646698,
                2002.30810546875
            ],
            [
                31.194198608398438,
                3.3049960136413574,
                2102.30810546875
            ],
            [
                32.723594665527344,
                3.4652068614959717,
                2202.30810546875
            ],
            [
                34.25666809082031,
                3.625427484512329,
                2302.30810546875
            ],
            [
                35.794132232666016,
                3.785658836364746,
                2402.30810546875
            ],
            [
                37.3370246887207,
                3.94590163230896,
                2502.30810546875
            ],
            [
                38.88591766357422,
                4.106156826019287,
                2602.30810546875
            ],
            [
                40.44287109375,
                4.266460418701172,
                2702.30810546875
            ],
            [
                42.008914947509766,
                4.426774024963379,
                2802.30810546875
            ],
            [
                43.58695602416992,
                4.587112903594971,
                2902.30810546875
            ],
            [
                45.17717742919922,
                4.7474751472473145,
                3002.30810546875
            ],
            [
                46.78252410888672,
                4.9078545570373535,
                3102.30810546875
            ],
            [
                48.40464782714844,
                5.068251132965088,
                3202.30810546875
            ],
            [
                50.04544448852539,
                5.228667259216309,
                3302.30810546875
            ],
            [
                51.708160400390625,
                5.38910436630249,
                3402.30810546875
            ],
            [
                53.39461898803711,
                5.549546718597412,
                3502.30810546875
            ],
            [
                55.106998443603516,
                5.709992408752441,
                3602.30810546875
            ],
            [
                56.85080337524414,
                5.870566368103027,
                3702.30810546875
            ],
            [
                58.62358474731445,
                6.031097412109375,
                3802.30810546875
            ],
            [
                60.429988861083984,
                6.191677570343018,
                3902.30810546875
            ],
            [
                62.27322769165039,
                6.352365493774414,
                4002.30810546875
            ],
            [
                64.153564453125,
                6.513111114501953,
                4102.30810546875
            ],
            [
                66.06993103027344,
                6.673921585083008,
                4202.30810546875
            ],
            [
                68.02655029296875,
                6.834742069244385,
                4302.30810546875
            ],
            [
                70.0224380493164,
                6.9957194328308105,
                4402.30810546875
            ],
            [
                72.06489562988281,
                7.156714916229248,
                4502.30810546875
            ],
            [
                74.14765930175781,
                7.317808628082275,
                4602.30810546875
            ],
            [
                76.27474212646484,
                7.479066371917725,
                4702.30810546875
            ],
            [
                78.44344329833984,
                7.640429973602295,
                4802.30810546875
            ],
            [
                80.6576156616211,
                7.801879405975342,
                4902.30810546875
            ],
            [
                82.9130859375,
                7.9634246826171875,
                5002.30810546875
            ],
            [
                85.2791976928711,
                8.293201446533203,
                5102.30810546875
            ],
            [
                87.61962890625,
                8.46009635925293,
                5202.30810546875
            ],
            [
                90.00178527832031,
                8.62722110748291,
                5302.30810546875
            ],
            [
                92.42432403564453,
                8.79421329498291,
                5402.30810546875
            ],
            [
                94.88685607910156,
                8.961108207702637,
                5502.30810546875
            ],
            [
                97.38764953613281,
                9.12840461730957,
                5602.30810546875
            ],
            [
                99.92778015136719,
                9.295636177062988,
                5702.30810546875
            ],
            [
                102.5057144165039,
                9.463014602661133,
                5802.30810546875
            ],
            [
                105.11908721923828,
                9.63049030303955,
                5902.30810546875
            ],
            [
                107.76905822753906,
                9.798128128051758,
                6002.30810546875
            ],
            [
                110.45340728759766,
                9.965909957885742,
                6102.30810546875
            ],
            [
                113.1712417602539,
                10.133726119995117,
                6202.30810546875
            ],
            [
                115.9214859008789,
                10.301563262939453,
                6302.30810546875
            ],
            [
                118.70276641845703,
                10.469449043273926,
                6402.30810546875
            ],
            [
                121.5143051147461,
                10.637344360351563,
                6502.30810546875
            ],
            [
                124.35428619384766,
                10.805337905883789,
                6602.30810546875
            ],
            [
                127.22200012207031,
                10.97339916229248,
                6702.30810546875
            ],
            [
                130.11537170410156,
                11.14150333404541,
                6802.30810546875
            ],
            [
                133.0340576171875,
                11.3096342086792,
                6902.30810546875
            ],
            [
                135.9762420654297,
                11.477807998657227,
                7002.30810546875
            ],
            [
                138.94041442871094,
                11.646014213562012,
                7102.30810546875
            ],
            [
                141.92529296875,
                11.814251899719238,
                7202.30810546875
            ],
            [
                144.92974853515625,
                11.982537269592285,
                7302.30810546875
            ],
            [
                147.9527587890625,
                12.150856971740723,
                7402.30810546875
            ],
            [
                150.99221801757813,
                12.319235801696777,
                7502.30810546875
            ],
            [
                154.0477752685547,
                12.487653732299805,
                7602.30810546875
            ],
            [
                157.11781311035156,
                12.65612506866455,
                7702.30810546875
            ],
            [
                160.20169067382813,
                12.824655532836914,
                7802.30810546875
            ],
            [
                163.2982635498047,
                12.993246078491211,
                7902.30810546875
            ],
            [
                166.4064178466797,
                13.161892890930176,
                8002.30810546875
            ],
            [
                169.52554321289063,
                13.330599784851074,
                8102.30810546875
            ],
            [
                172.6544189453125,
                13.49936580657959,
                8202.3076171875
            ],
            [
                175.79241943359375,
                13.668185234069824,
                8302.3076171875
            ],
            [
                178.93887329101563,
                13.837058067321777,
                8402.3076171875
            ],
            [
                182.09307861328125,
                14.005979537963867,
                8502.3076171875
            ],
            [
                185.25421142578125,
                14.174943923950195,
                8602.3076171875
            ],
            [
                188.421875,
                14.343950271606445,
                8702.3076171875
            ],
            [
                191.59547424316406,
                14.512990951538086,
                8802.3076171875
            ],
            [
                194.77447509765625,
                14.682072639465332,
                8902.3076171875
            ],
            [
                197.95848083496094,
                14.851190567016602,
                9002.3076171875
            ],
            [
                201.14703369140625,
                15.020341873168945,
                9102.3076171875
            ],
            [
                204.33973693847656,
                15.189525604248047,
                9202.3076171875
            ],
            [
                207.5362548828125,
                15.35873794555664,
                9302.3076171875
            ],
            [
                210.73623657226563,
                15.52797794342041,
                9402.3076171875
            ],
            [
                213.9393768310547,
                15.69724178314209,
                9502.3076171875
            ],
            [
                217.14540100097656,
                15.86652946472168,
                9602.3076171875
            ],
            [
                220.35406494140625,
                16.035837173461914,
                9702.3076171875
            ],
            [
                223.56512451171875,
                16.205163955688477,
                9802.3076171875
            ],
            [
                226.7783660888672,
                16.374507904052734,
                9902.3076171875
            ],
            [
                229.9936065673828,
                16.543869018554688,
                10002.3076171875
            ],
            [
                236.42938232421875,
                16.882631301879883,
                10202.3076171875
            ],
            [
                242.87124633789063,
                17.221439361572266,
                10402.3076171875
            ],
            [
                249.31809997558594,
                17.560285568237305,
                10602.3076171875
            ],
            [
                255.76922607421875,
                17.8991641998291,
                10802.3076171875
            ],
            [
                262.22369384765625,
                18.23806381225586,
                11002.3076171875
            ],
            [
                268.68109130859375,
                18.576984405517578,
                11202.3076171875
            ],
            [
                275.14093017578125,
                18.915918350219727,
                11402.3076171875
            ],
            [
                281.6026306152344,
                19.25486183166504,
                11602.3076171875
            ],
            [
                288.0659484863281,
                19.59381675720215,
                11802.3076171875
            ],
            [
                294.530517578125,
                19.93277359008789,
                12002.3076171875
            ],
            [
                300.9963684082031,
                20.271738052368164,
                12202.3076171875
            ],
            [
                307.4630432128906,
                20.61070442199707,
                12402.3076171875
            ],
            [
                313.93023681640625,
                20.94967269897461,
                12602.3076171875
            ],
            [
                320.39794921875,
                21.28864097595215,
                12802.3076171875
            ],
            [
                326.8662414550781,
                21.62761116027832,
                13002.3076171875
            ],
            [
                333.3349304199219,
                21.966583251953125,
                13202.3076171875
            ],
            [
                339.8038330078125,
                22.305553436279297,
                13402.3076171875
            ]
        ],
        "zFirstMeasurement": 634.4535
    },
    {
        "E": 39031.51954059751,
        "chi2": 1.2218130826950073,
        "ip": 1.2902426748524918,
        "ipchi2": 356.21158440911773,
        "mass": 139.57018,
        "particleId": "pi+",
        "pvx": 0.5483,
        "pvy": -0.0024,
        "pvz": 70.5665,
        "px": 0.7043720484356545,
        "py": -784.6529014353359,
        "pz": 39023.3821848008,
        "q": 1.0,
        "trajectory": [
            [
                1.443267583847046,
                4.355052947998047,
                -100.0
            ],
            [
                1.4433000087738037,
                4.254517555236816,
                -95.0
            ],
            [
                1.443333387374878,
                4.153982162475586,
                -90.0
            ],
            [
                1.443367838859558,
                4.053446292877197,
                -85.0
            ],
            [
                1.4434034824371338,
                3.952910900115967,
                -80.0
            ],
            [
                1.4434401988983154,
                3.8523755073547363,
                -75.0
            ],
            [
                1.4434782266616821,
                3.7518398761749268,
                -70.0
            ],
            [
                1.4435174465179443,
                3.6513044834136963,
                -65.0
            ],
            [
                1.4435577392578125,
                3.5507688522338867,
                -60.0
            ],
            [
                1.4435991048812866,
                3.450233221054077,
                -55.0
            ],
            [
                1.4436416625976563,
                3.3496975898742676,
                -50.0
            ],
            [
                1.4436854124069214,
                3.249161958694458,
                -45.0
            ],
            [
                1.443730354309082,
                3.1486263275146484,
                -40.0
            ],
            [
                1.4437764883041382,
                3.048090696334839,
                -35.0
            ],
            [
                1.4438238143920898,
                2.9475550651550293,
                -30.0
            ],
            [
                1.4438724517822266,
                2.8470191955566406,
                -25.0
            ],
            [
                1.4439222812652588,
                2.746483564376831,
                -20.0
            ],
            [
                1.4439733028411865,
                2.6459476947784424,
                -15.0
            ],
            [
                1.4440257549285889,
                2.545412063598633,
                -10.0
            ],
            [
                1.4440793991088867,
                2.444876194000244,
                -5.0
            ],
            [
                1.4441343545913696,
                2.3443403244018555,
                0.0
            ],
            [
                1.4441907405853271,
                2.243804693222046,
                5.0
            ],
            [
                1.4442483186721802,
                2.1432688236236572,
                10.0
            ],
            [
                1.4443074464797974,
                2.0427329540252686,
                15.0
            ],
            [
                1.4443583488464355,
                1.9421969652175903,
                20.0
            ],
            [
                1.4444215297698975,
                1.8416610956192017,
                25.0
            ],
            [
                1.4444859027862549,
                1.741125226020813,
                30.0
            ],
            [
                1.4445515871047974,
                1.6405892372131348,
                35.0
            ],
            [
                1.444618582725525,
                1.5400532484054565,
                40.0
            ],
            [
                1.4446868896484375,
                1.4395172595977783,
                45.0
            ],
            [
                1.4447566270828247,
                1.3389812707901,
                50.0
            ],
            [
                1.444827675819397,
                1.2384452819824219,
                55.0
            ],
            [
                1.4449000358581543,
                1.1379092931747437,
                60.0
            ],
            [
                1.4449739456176758,
                1.0373731851577759,
                65.0
            ],
            [
                1.4450491666793823,
                0.9368371367454529,
                70.0
            ],
            [
                1.445125937461853,
                0.8363010287284851,
                75.0
            ],
            [
                1.445204257965088,
                0.7357649207115173,
                80.0
            ],
            [
                1.4452840089797974,
                0.6352288126945496,
                85.0
            ],
            [
                1.445365309715271,
                0.5346927046775818,
                90.0
            ],
            [
                1.4454481601715088,
                0.43415650725364685,
                95.0
            ],
            [
                1.4455326795578003,
                0.3336203396320343,
                100.0
            ],
            [
                1.4458867311477661,
                -0.06852459162473679,
                120.0
            ],
            [
                1.4462682008743286,
                -0.47066980600357056,
                140.0
            ],
            [
                1.4466791152954102,
                -0.8728153109550476,
                160.0
            ],
            [
                1.4471211433410645,
                -1.2749611139297485,
                180.0
            ],
            [
                1.4475963115692139,
                -1.6771070957183838,
                200.0
            ],
            [
                1.4480916261672974,
                -2.0792534351348877,
                220.0
            ],
            [
                1.448628306388855,
                -2.4814000129699707,
                240.0
            ],
            [
                1.4492000341415405,
                -2.883546829223633,
                260.0
            ],
            [
                1.4498082399368286,
                -3.285693883895874,
                280.0
            ],
            [
                1.4504541158676147,
                -3.6878414154052734,
                300.0
            ],
            [
                1.451139211654663,
                -4.089988708496094,
                320.0
            ],
            [
                1.4518647193908691,
                -4.492136478424072,
                340.0
            ],
            [
                1.4526318311691284,
                -4.894284725189209,
                360.0
            ],
            [
                1.4534494876861572,
                -5.296490669250488,
                380.0
            ],
            [
                1.4543036222457886,
                -5.698638916015625,
                400.0
            ],
            [
                1.455206274986267,
                -6.100787162780762,
                420.0
            ],
            [
                1.4561578035354614,
                -6.502935409545898,
                440.0
            ],
            [
                1.4571588039398193,
                -6.905084133148193,
                460.0
            ],
            [
                1.4582113027572632,
                -7.307232856750488,
                480.0
            ],
            [
                1.4593175649642944,
                -7.709382057189941,
                500.0
            ],
            [
                1.4604796171188354,
                -8.111530303955078,
                520.0
            ],
            [
                1.4616801738739014,
                -8.513680458068848,
                540.0
            ],
            [
                1.4629690647125244,
                -8.915828704833984,
                560.0
            ],
            [
                1.4643160104751587,
                -9.317977905273438,
                580.0
            ],
            [
                1.4657235145568848,
                -9.72012710571289,
                600.0
            ],
            [
                1.46719491481781,
                -10.122276306152344,
                620.0
            ],
            [
                1.4687336683273315,
                -10.524426460266113,
                640.0
            ],
            [
                1.470342993736267,
                -10.926575660705566,
                660.0
            ],
            [
                1.4720264673233032,
                -11.32872486114502,
                680.0
            ],
            [
                1.473787546157837,
                -11.730874061584473,
                700.0
            ],
            [
                1.475629448890686,
                -12.13302230834961,
                720.0
            ],
            [
                1.4775276184082031,
                -12.535171508789063,
                740.0
            ],
            [
                1.4795219898223877,
                -12.937320709228516,
                760.0
            ],
            [
                1.481600046157837,
                -13.339468955993652,
                780.0
            ],
            [
                1.4837638139724731,
                -13.741617202758789,
                800.0
            ],
            [
                1.4860154390335083,
                -14.143765449523926,
                820.0
            ],
            [
                1.4883573055267334,
                -14.545912742614746,
                840.0
            ],
            [
                1.490790843963623,
                -14.948060035705566,
                860.0
            ],
            [
                1.4933174848556519,
                -15.350208282470703,
                880.0
            ],
            [
                1.495940089225769,
                -15.752354621887207,
                900.0
            ],
            [
                1.498658537864685,
                -16.15450096130371,
                920.0
            ],
            [
                1.5014756917953491,
                -16.55664825439453,
                940.0
            ],
            [
                1.504394292831421,
                -16.95879554748535,
                960.0
            ],
            [
                1.5074161291122437,
                -17.36094093322754,
                980.0
            ],
            [
                1.5105434656143188,
                -17.763086318969727,
                1000.0
            ],
            [
                1.527766466140747,
                -19.77381134033203,
                1100.0
            ],
            [
                1.5477327108383179,
                -21.784526824951172,
                1200.0
            ],
            [
                1.570428490638733,
                -23.795236587524414,
                1300.0
            ],
            [
                1.5959675312042236,
                -25.80594253540039,
                1400.0
            ],
            [
                1.6243952512741089,
                -27.816640853881836,
                1500.0
            ],
            [
                1.655709147453308,
                -29.827333450317383,
                1600.0
            ],
            [
                1.6885185241699219,
                -31.838003158569336,
                1700.0
            ],
            [
                1.725488543510437,
                -33.84868240356445,
                1800.0
            ],
            [
                1.7660828828811646,
                -35.859352111816406,
                1900.0
            ],
            [
                1.810519814491272,
                -37.870018005371094,
                2000.0
            ],
            [
                1.8597222566604614,
                -39.880672454833984,
                2100.0
            ],
            [
                1.9151097536087036,
                -41.89130783081055,
                2200.0
            ],
            [
                1.9773133993148804,
                -43.90192794799805,
                2300.0
            ],
            [
                2.04768967628479,
                -45.91251754760742,
                2400.0
            ],
            [
                2.1281676292419434,
                -47.92307662963867,
                2500.0
            ],
            [
                2.2197539806365967,
                -49.93361282348633,
                2600.0
            ],
            [
                2.3263912200927734,
                -51.944061279296875,
                2700.0
            ],
            [
                2.4500908851623535,
                -53.954490661621094,
                2800.0
            ],
            [
                2.596039056777954,
                -55.96485137939453,
                2900.0
            ],
            [
                2.764761209487915,
                -57.975162506103516,
                3000.0
            ],
            [
                2.9617481231689453,
                -59.98546600341797,
                3100.0
            ],
            [
                3.1900246143341064,
                -61.99576950073242,
                3200.0
            ],
            [
                3.4534151554107666,
                -64.00605010986328,
                3300.0
            ],
            [
                3.7577507495880127,
                -66.01630401611328,
                3400.0
            ],
            [
                4.106536865234375,
                -68.02658081054688,
                3500.0
            ],
            [
                4.503856658935547,
                -70.03687286376953,
                3600.0
            ],
            [
                4.959723949432373,
                -72.046875,
                3700.0
            ],
            [
                5.470338821411133,
                -74.0569839477539,
                3800.0
            ],
            [
                6.044260501861572,
                -76.0670166015625,
                3900.0
            ],
            [
                6.687299728393555,
                -78.076904296875,
                4000.0
            ],
            [
                7.400363445281982,
                -80.08673858642578,
                4100.0
            ],
            [
                8.18128490447998,
                -82.09642028808594,
                4200.0
            ],
            [
                9.037972450256348,
                -84.10611724853516,
                4300.0
            ],
            [
                9.9686861038208,
                -86.1156005859375,
                4400.0
            ],
            [
                10.987372398376465,
                -88.12512969970703,
                4500.0
            ],
            [
                12.081608772277832,
                -90.13446807861328,
                4600.0
            ],
            [
                13.257182121276855,
                -92.14328002929688,
                4700.0
            ],
            [
                14.51318073272705,
                -94.15209197998047,
                4800.0
            ],
            [
                15.85603141784668,
                -96.16077423095703,
                4900.0
            ],
            [
                17.27547264099121,
                -98.16934204101563,
                5000.0
            ],
            [
                18.9317684173584,
                -100.41404724121094,
                5100.0
            ],
            [
                20.50733757019043,
                -102.43312072753906,
                5200.0
            ],
            [
                22.161640167236328,
                -104.45169067382813,
                5300.0
            ],
            [
                23.891908645629883,
                -106.47046661376953,
                5400.0
            ],
            [
                25.69768524169922,
                -108.48954772949219,
                5500.0
            ],
            [
                27.57546615600586,
                -110.50788879394531,
                5600.0
            ],
            [
                29.527421951293945,
                -112.5262680053711,
                5700.0
            ],
            [
                31.550554275512695,
                -114.54435729980469,
                5800.0
            ],
            [
                33.64054489135742,
                -116.5622787475586,
                5900.0
            ],
            [
                35.79955291748047,
                -118.5799789428711,
                6000.0
            ],
            [
                38.02340316772461,
                -120.59737396240234,
                6100.0
            ],
            [
                40.31046676635742,
                -122.6146240234375,
                6200.0
            ],
            [
                42.6586799621582,
                -124.63184356689453,
                6300.0
            ],
            [
                45.06551742553711,
                -126.6489486694336,
                6400.0
            ],
            [
                47.529441833496094,
                -128.6659698486328,
                6500.0
            ],
            [
                50.047096252441406,
                -130.6828155517578,
                6600.0
            ],
            [
                52.61712646484375,
                -132.69947814941406,
                6700.0
            ],
            [
                55.23555374145508,
                -134.71600341796875,
                6800.0
            ],
            [
                57.90179443359375,
                -136.73243713378906,
                6900.0
            ],
            [
                60.6124153137207,
                -138.74874877929688,
                7000.0
            ],
            [
                63.36455154418945,
                -140.76492309570313,
                7100.0
            ],
            [
                66.15570068359375,
                -142.78099060058594,
                7200.0
            ],
            [
                68.98377990722656,
                -144.79689025878906,
                7300.0
            ],
            [
                71.84696960449219,
                -146.81268310546875,
                7400.0
            ],
            [
                74.74111938476563,
                -148.82830810546875,
                7500.0
            ],
            [
                77.6656265258789,
                -150.8437957763672,
                7600.0
            ],
            [
                80.61740112304688,
                -152.859130859375,
                7700.0
            ],
            [
                83.59526824951172,
                -154.87429809570313,
                7800.0
            ],
            [
                86.5970230102539,
                -156.88929748535156,
                7900.0
            ],
            [
                89.62059020996094,
                -158.90414428710938,
                8000.0
            ],
            [
                92.66481018066406,
                -160.9188232421875,
                8100.0
            ],
            [
                95.72734069824219,
                -162.933349609375,
                8200.0
            ],
            [
                98.80703735351563,
                -164.94773864746094,
                8300.0
            ],
            [
                101.90261840820313,
                -166.96197509765625,
                8400.0
            ],
            [
                105.01277160644531,
                -168.97610473632813,
                8500.0
            ],
            [
                108.13591003417969,
                -170.9901123046875,
                8600.0
            ],
            [
                111.27130889892578,
                -173.00401306152344,
                8700.0
            ],
            [
                114.4178466796875,
                -175.01783752441406,
                8800.0
            ],
            [
                117.57450103759766,
                -177.03155517578125,
                8900.0
            ],
            [
                120.74053955078125,
                -179.04518127441406,
                9000.0
            ],
            [
                123.91513061523438,
                -181.05873107910156,
                9100.0
            ],
            [
                127.09748840332031,
                -183.07220458984375,
                9200.0
            ],
            [
                130.28697204589844,
                -185.08560180664063,
                9300.0
            ],
            [
                133.4829559326172,
                -187.0989532470703,
                9400.0
            ],
            [
                136.6848602294922,
                -189.11224365234375,
                9500.0
            ],
            [
                139.8921661376953,
                -191.12547302246094,
                9600.0
            ],
            [
                143.10440063476563,
                -193.138671875,
                9700.0
            ],
            [
                146.32113647460938,
                -195.15182495117188,
                9800.0
            ],
            [
                149.5419464111328,
                -197.16493225097656,
                9900.0
            ],
            [
                152.76651000976563,
                -199.17800903320313,
                10000.0
            ],
            [
                159.22555541992188,
                -203.20408630371094,
                10200.0
            ],
            [
                165.6959991455078,
                -207.23007202148438,
                10400.0
            ],
            [
                172.17576599121094,
                -211.2559814453125,
                10600.0
            ],
            [
                178.6635284423828,
                -215.28182983398438,
                10800.0
            ],
            [
                185.15757751464844,
                -219.30763244628906,
                11000.0
            ],
            [
                191.6570587158203,
                -223.3334197998047,
                11200.0
            ],
            [
                198.16116333007813,
                -227.3591766357422,
                11400.0
            ],
            [
                204.66871643066406,
                -231.38491821289063,
                11600.0
            ],
            [
                211.17930603027344,
                -235.41064453125,
                11800.0
            ],
            [
                217.69223022460938,
                -239.43637084960938,
                12000.0
            ],
            [
                224.20753479003906,
                -243.46209716796875,
                12200.0
            ],
            [
                230.7244110107422,
                -247.48780822753906,
                12400.0
            ],
            [
                237.24220275878906,
                -251.51353454589844,
                12600.0
            ],
            [
                243.76100158691406,
                -255.5392608642578,
                12800.0
            ],
            [
                250.2808837890625,
                -259.56500244140625,
                13000.0
            ],
            [
                256.8015441894531,
                -263.5907287597656,
                13200.0
            ],
            [
                263.32257080078125,
                -267.616455078125,
                13400.0
            ]
        ],
        "zFirstMeasurement": 634.4535
    },
    {
        "E": 4800.044442338946,
        "chi2": 0.9433582425117493,
        "ip": 0.16531719032313386,
        "ipchi2": 14.149337935930923,
        "mass": 493.67699999999996,
        "particleId": "K-",
        "pvx": 0.5483,
        "pvy": -0.0024,
        "pvz": 70.5665,
        "px": -168.05845788090596,
        "py": 417.1311097944022,
        "pz": 4753.363825763433,
        "q": -1.0,
        "trajectory": [
            [
                6.529860973358154,
                -15.130762100219727,
                -100.0
            ],
            [
                6.35345458984375,
                -14.691991806030273,
                -95.0
            ],
            [
                6.17703914642334,
                -14.25322151184082,
                -90.0
            ],
            [
                6.000614643096924,
                -13.814451217651367,
                -85.0
            ],
            [
                5.824181079864502,
                -13.375680923461914,
                -80.0
            ],
            [
                5.647738456726074,
                -12.936910629272461,
                -75.0
            ],
            [
                5.471286296844482,
                -12.498139381408691,
                -70.0
            ],
            [
                5.294824600219727,
                -12.059368133544922,
                -65.0
            ],
            [
                5.118353843688965,
                -11.620597839355469,
                -60.0
            ],
            [
                4.941872596740723,
                -11.1818265914917,
                -55.0
            ],
            [
                4.765382289886475,
                -10.743054389953613,
                -50.0
            ],
            [
                4.588881015777588,
                -10.304283142089844,
                -45.0
            ],
            [
                4.412369251251221,
                -9.865511894226074,
                -40.0
            ],
            [
                4.2358479499816895,
                -9.426739692687988,
                -35.0
            ],
            [
                4.059316635131836,
                -8.987968444824219,
                -30.0
            ],
            [
                3.88285756111145,
                -8.549196243286133,
                -25.0
            ],
            [
                3.7062931060791016,
                -8.110424041748047,
                -20.0
            ],
            [
                3.529719352722168,
                -7.671651840209961,
                -15.0
            ],
            [
                3.3531360626220703,
                -7.232879638671875,
                -10.0
            ],
            [
                3.1765432357788086,
                -6.794106960296631,
                -5.0
            ],
            [
                2.9999403953552246,
                -6.355334281921387,
                0.0
            ],
            [
                2.8233273029327393,
                -5.916561603546143,
                5.0
            ],
            [
                2.6467041969299316,
                -5.47778844833374,
                10.0
            ],
            [
                2.4700703620910645,
                -5.039015293121338,
                15.0
            ],
            [
                2.293426036834717,
                -4.6002421379089355,
                20.0
            ],
            [
                2.1167707443237305,
                -4.161468982696533,
                25.0
            ],
            [
                1.940104365348816,
                -3.7226953506469727,
                30.0
            ],
            [
                1.7634267807006836,
                -3.283921957015991,
                35.0
            ],
            [
                1.586737871170044,
                -2.8451483249664307,
                40.0
            ],
            [
                1.4100371599197388,
                -2.406374454498291,
                45.0
            ],
            [
                1.2333247661590576,
                -1.9676004648208618,
                50.0
            ],
            [
                1.0566003322601318,
                -1.528826355934143,
                55.0
            ],
            [
                0.8798636198043823,
                -1.0900521278381348,
                60.0
            ],
            [
                0.7031146287918091,
                -0.6512777805328369,
                65.0
            ],
            [
                0.5263530015945435,
                -0.2125033289194107,
                70.0
            ],
            [
                0.3495786190032959,
                0.22627127170562744,
                75.0
            ],
            [
                0.1727912873029709,
                0.6650460362434387,
                80.0
            ],
            [
                -0.004009191878139973,
                1.1038209199905396,
                85.0
            ],
            [
                -0.18082299828529358,
                1.5425958633422852,
                90.0
            ],
            [
                -0.3576503098011017,
                1.9813710451126099,
                95.0
            ],
            [
                -0.5344913601875305,
                2.4201464653015137,
                100.0
            ],
            [
                -1.2419962882995605,
                4.175249099731445,
                120.0
            ],
            [
                -1.9498037099838257,
                5.930270671844482,
                140.0
            ],
            [
                -2.6577680110931396,
                7.685377597808838,
                160.0
            ],
            [
                -3.3659772872924805,
                9.440486907958984,
                180.0
            ],
            [
                -4.074446678161621,
                11.195598602294922,
                200.0
            ],
            [
                -4.783191680908203,
                12.950712203979492,
                220.0
            ],
            [
                -5.492228031158447,
                14.705827713012695,
                240.0
            ],
            [
                -6.201574325561523,
                16.460947036743164,
                260.0
            ],
            [
                -6.91109561920166,
                18.216066360473633,
                280.0
            ],
            [
                -7.621010780334473,
                19.971189498901367,
                300.0
            ],
            [
                -8.331249237060547,
                21.726314544677734,
                320.0
            ],
            [
                -9.04182243347168,
                23.481441497802734,
                340.0
            ],
            [
                -9.752741813659668,
                25.236572265625,
                360.0
            ],
            [
                -10.46401596069336,
                26.991703033447266,
                380.0
            ],
            [
                -11.175663948059082,
                28.746837615966797,
                400.0
            ],
            [
                -11.887702941894531,
                30.50197410583496,
                420.0
            ],
            [
                -12.600136756896973,
                32.25711441040039,
                440.0
            ],
            [
                -13.31297779083252,
                34.01225662231445,
                460.0
            ],
            [
                -14.026237487792969,
                35.767398834228516,
                480.0
            ],
            [
                -14.7399263381958,
                37.522544860839844,
                500.0
            ],
            [
                -15.454068183898926,
                39.27769470214844,
                520.0
            ],
            [
                -16.168664932250977,
                41.0328483581543,
                540.0
            ],
            [
                -16.883752822875977,
                42.788002014160156,
                560.0
            ],
            [
                -17.59937858581543,
                44.54316329956055,
                580.0
            ],
            [
                -18.31551170349121,
                46.29832458496094,
                600.0
            ],
            [
                -19.03221321105957,
                48.05348587036133,
                620.0
            ],
            [
                -19.749465942382813,
                49.808650970458984,
                640.0
            ],
            [
                -20.467275619506836,
                51.56381607055664,
                660.0
            ],
            [
                -21.18565559387207,
                53.31898880004883,
                680.0
            ],
            [
                -21.904619216918945,
                55.074161529541016,
                700.0
            ],
            [
                -22.624170303344727,
                56.8293342590332,
                720.0
            ],
            [
                -23.344440460205078,
                58.58451461791992,
                740.0
            ],
            [
                -24.065351486206055,
                60.33969497680664,
                760.0
            ],
            [
                -24.786916732788086,
                62.094879150390625,
                780.0
            ],
            [
                -25.5091495513916,
                63.85006332397461,
                800.0
            ],
            [
                -26.232046127319336,
                65.6052474975586,
                820.0
            ],
            [
                -26.95563507080078,
                67.36043548583984,
                840.0
            ],
            [
                -27.679933547973633,
                69.11563110351563,
                860.0
            ],
            [
                -28.404953002929688,
                70.87081909179688,
                880.0
            ],
            [
                -29.130834579467773,
                72.6259994506836,
                900.0
            ],
            [
                -29.857454299926758,
                74.38117980957031,
                920.0
            ],
            [
                -30.584884643554688,
                76.13636016845703,
                940.0
            ],
            [
                -31.313417434692383,
                77.89154052734375,
                960.0
            ],
            [
                -32.04279327392578,
                79.64672088623047,
                980.0
            ],
            [
                -32.77302551269531,
                81.40189361572266,
                1000.0
            ],
            [
                -36.435760498046875,
                90.17776489257813,
                1100.0
            ],
            [
                -40.12615203857422,
                98.95344543457031,
                1200.0
            ],
            [
                -43.8355712890625,
                107.72893524169922,
                1300.0
            ],
            [
                -47.56714630126953,
                116.50442504882813,
                1400.0
            ],
            [
                -51.319278717041016,
                125.27978515625,
                1500.0
            ],
            [
                -55.093170166015625,
                134.0550537109375,
                1600.0
            ],
            [
                -58.88861846923828,
                142.8303680419922,
                1700.0
            ],
            [
                -62.71257019042969,
                151.60577392578125,
                1800.0
            ],
            [
                -66.56075286865234,
                160.38156127929688,
                1900.0
            ],
            [
                -70.44197845458984,
                169.1579132080078,
                2000.0
            ],
            [
                -74.35796356201172,
                177.9348602294922,
                2100.0
            ],
            [
                -78.32127380371094,
                186.71270751953125,
                2200.0
            ],
            [
                -82.3250503540039,
                195.49143981933594,
                2300.0
            ],
            [
                -86.39305114746094,
                204.27183532714844,
                2400.0
            ],
            [
                -90.54058074951172,
                213.05398559570313,
                2500.0
            ],
            [
                -94.7842025756836,
                221.8385467529297,
                2600.0
            ],
            [
                -99.13148498535156,
                230.6260223388672,
                2700.0
            ],
            [
                -103.60357666015625,
                239.4170379638672,
                2800.0
            ],
            [
                -108.24163055419922,
                248.21255493164063,
                2900.0
            ],
            [
                -113.0684585571289,
                257.0132141113281,
                3000.0
            ],
            [
                -118.08396911621094,
                265.8199462890625,
                3100.0
            ],
            [
                -123.3739013671875,
                274.63311767578125,
                3200.0
            ],
            [
                -128.93678283691406,
                283.4549865722656,
                3300.0
            ],
            [
                -134.82904052734375,
                292.28515625,
                3400.0
            ],
            [
                -141.09017944335938,
                301.12567138671875,
                3500.0
            ],
            [
                -147.72743225097656,
                309.9798278808594,
                3600.0
            ],
            [
                -154.81185913085938,
                318.844482421875,
                3700.0
            ],
            [
                -162.4139404296875,
                327.7224426269531,
                3800.0
            ],
            [
                -170.5279998779297,
                336.61572265625,
                3900.0
            ],
            [
                -179.2186737060547,
                345.5222473144531,
                4000.0
            ],
            [
                -188.46734619140625,
                354.4449768066406,
                4100.0
            ],
            [
                -198.39376831054688,
                363.3773498535156,
                4200.0
            ],
            [
                -208.98065185546875,
                372.3210754394531,
                4300.0
            ],
            [
                -220.21429443359375,
                381.2793884277344,
                4400.0
            ],
            [
                -232.1329803466797,
                390.2498779296875,
                4500.0
            ],
            [
                -244.73277282714844,
                399.22491455078125,
                4600.0
            ],
            [
                -258.0790710449219,
                408.2080383300781,
                4700.0
            ],
            [
                -272.0704650878906,
                417.2004699707031,
                4800.0
            ],
            [
                -284.2590637207031,
                418.1332702636719,
                4900.0
            ],
            [
                -299.8521728515625,
                427.01416015625,
                5000.0
            ],
            [
                -316.16119384765625,
                435.9017028808594,
                5100.0
            ],
            [
                -333.1569519042969,
                444.7890319824219,
                5200.0
            ],
            [
                -350.84246826171875,
                453.68133544921875,
                5300.0
            ],
            [
                -369.2138366699219,
                462.56976318359375,
                5400.0
            ],
            [
                -388.23089599609375,
                471.4553527832031,
                5500.0
            ],
            [
                -407.8874206542969,
                480.34735107421875,
                5600.0
            ],
            [
                -428.22198486328125,
                489.22735595703125,
                5700.0
            ],
            [
                -449.1851501464844,
                498.1078186035156,
                5800.0
            ],
            [
                -470.7458801269531,
                506.978271484375,
                5900.0
            ],
            [
                -492.9397277832031,
                515.8412475585938,
                6000.0
            ],
            [
                -515.7273559570313,
                524.695068359375,
                6100.0
            ],
            [
                -539.0993041992188,
                533.535888671875,
                6200.0
            ],
            [
                -563.033447265625,
                542.36328125,
                6300.0
            ],
            [
                -587.508544921875,
                551.17724609375,
                6400.0
            ],
            [
                -612.5133056640625,
                559.9720458984375,
                6500.0
            ],
            [
                -638.0230102539063,
                568.751220703125,
                6600.0
            ],
            [
                -664.0310668945313,
                577.5071411132813,
                6700.0
            ],
            [
                -690.4850463867188,
                586.2413940429688,
                6800.0
            ],
            [
                -717.3925170898438,
                594.9495239257813,
                6900.0
            ],
            [
                -744.7128295898438,
                603.6314086914063,
                7000.0
            ],
            [
                -772.4236450195313,
                612.286376953125,
                7100.0
            ],
            [
                -800.4932250976563,
                620.9149169921875,
                7200.0
            ],
            [
                -828.9011840820313,
                629.5155639648438,
                7300.0
            ],
            [
                -857.6329956054688,
                638.0880737304688,
                7400.0
            ],
            [
                -886.6410522460938,
                646.6354370117188,
                7500.0
            ],
            [
                -915.925537109375,
                655.155029296875,
                7600.0
            ],
            [
                -945.4478759765625,
                663.6500244140625,
                7700.0
            ],
            [
                -975.1983032226563,
                672.1204833984375,
                7800.0
            ],
            [
                -1005.1539916992188,
                680.5680541992188,
                7900.0
            ],
            [
                -1035.294677734375,
                688.9949340820313,
                8000.0
            ],
            [
                -1065.6087646484375,
                697.4019775390625,
                8100.0
            ],
            [
                -1096.0738525390625,
                705.7919921875,
                8200.0
            ],
            [
                -1126.6790771484375,
                714.166015625,
                8300.0
            ],
            [
                -1157.412353515625,
                722.525634765625,
                8400.0
            ],
            [
                -1188.262451171875,
                730.872314453125,
                8500.0
            ],
            [
                -1219.21337890625,
                739.2083129882813,
                8600.0
            ],
            [
                -1250.2596435546875,
                747.5343017578125,
                8700.0
            ],
            [
                -1281.3912353515625,
                755.8517456054688,
                8800.0
            ],
            [
                -1312.599609375,
                764.1619262695313,
                8900.0
            ],
            [
                -1343.8785400390625,
                772.4658203125,
                9000.0
            ],
            [
                -1375.220703125,
                780.764404296875,
                9100.0
            ],
            [
                -1406.6197509765625,
                789.05859375,
                9200.0
            ],
            [
                -1438.0704345703125,
                797.3491821289063,
                9300.0
            ],
            [
                -1469.5675048828125,
                805.6368408203125,
                9400.0
            ],
            [
                -1501.106201171875,
                813.9222412109375,
                9500.0
            ],
            [
                -1532.6827392578125,
                822.2057495117188,
                9600.0
            ],
            [
                -1564.293212890625,
                830.4878540039063,
                9700.0
            ],
            [
                -1595.934326171875,
                838.7689819335938,
                9800.0
            ],
            [
                -1627.6029052734375,
                847.0494384765625,
                9900.0
            ],
            [
                -1659.29638671875,
                855.3294677734375,
                10000.0
            ],
            [
                -1722.7484130859375,
                871.8890380859375,
                10200.0
            ],
            [
                -1786.27392578125,
                888.4490356445313,
                10400.0
            ],
            [
                -1849.858154296875,
                905.010498046875,
                10600.0
            ],
            [
                -1913.491455078125,
                921.5737915039063,
                10800.0
            ],
            [
                -1977.162109375,
                938.1395263671875,
                11000.0
            ],
            [
                -2040.8646240234375,
                954.7075805664063,
                11200.0
            ],
            [
                -2104.59375,
                971.2779541015625,
                11400.0
            ],
            [
                -2168.342041015625,
                987.8510131835938,
                11600.0
            ],
            [
                -2232.10595703125,
                1004.4264526367188,
                11800.0
            ],
            [
                -2295.881591796875,
                1021.004150390625,
                12000.0
            ],
            [
                -2359.669677734375,
                1037.58349609375,
                12200.0
            ],
            [
                -2423.46533203125,
                1054.1649169921875,
                12400.0
            ],
            [
                -2487.264892578125,
                1070.748291015625,
                12600.0
            ],
            [
                -2551.06787109375,
                1087.3330078125,
                12800.0
            ],
            [
                -2614.876220703125,
                1103.91845703125,
                13000.0
            ],
            [
                -2678.688232421875,
                1120.505126953125,
                13200.0
            ],
            [
                -2742.501708984375,
                1137.0927734375,
                13400.0
            ]
        ],
        "zFirstMeasurement": 169.4538
    }
]
