[
    {
        "E": 34941.866540905605,
        "chi2": 0.0,
        "ip": 0.04176558321380329,
        "ipchi2": 8.208208712761639,
        "mass": 1882.853,
        "particleId": "D0",
        "pvx": 0.5708,
        "pvy": 0.082,
        "pvz": 14.55,
        "px": 3537.84,
        "py": -387.65,
        "pz": 34709.11,
        "q": 0.0,
        "trajectory": [
            [
                0.5708000063896179,
                0.0820000022649765,
                14.550000190734863
            ],
            [
                0.7081999778747559,
                0.10429999977350235,
                15.670900344848633
            ]
        ],
        "zFirstMeasurement": -9999.0
    },
    {
        "E": 22799.357989501754,
        "chi2": 0.8851643800735474,
        "ip": 0.0015453399219321226,
        "ipchi2": 0.010811407602065032,
        "mass": 493.677,
        "particleId": "K-",
        "pvx": 0.5708,
        "pvy": 0.082,
        "pvz": 14.55,
        "px": 2825.1,
        "py": 409.26,
        "pz": 22614.56,
        "q": -1.0,
        "trajectory": [
            [
                0.7092998027801514,
                0.10258521139621735,
                15.670900344848633
            ],
            [
                1.3339163064956665,
                0.19307172298431396,
                20.670900344848633
            ],
            [
                1.9585304260253906,
                0.28355830907821655,
                25.670900344848633
            ],
            [
                2.583141803741455,
                0.3740449845790863,
                30.670900344848633
            ],
            [
                3.2077507972717285,
                0.46453171968460083,
                35.6708984375
            ],
            [
                3.832357406616211,
                0.5550185441970825,
                40.6708984375
            ],
            [
                4.456961154937744,
                0.645505428314209,
                45.6708984375
            ],
            [
                5.081562042236328,
                0.7359923720359802,
                50.6708984375
            ],
            [
                5.706149101257324,
                0.8264742493629456,
                55.6708984375
            ],
            [
                6.330744743347168,
                0.9169613718986511,
                60.6708984375
            ],
            [
                6.955338478088379,
                1.0074485540390015,
                65.6708984375
            ],
            [
                7.579928874969482,
                1.0979357957839966,
                70.6708984375
            ],
            [
                8.204517364501953,
                1.1884231567382813,
                75.6708984375
            ],
            [
                8.829102516174316,
                1.2789106369018555,
                80.6708984375
            ],
            [
                9.45368480682373,
                1.3693981170654297,
                85.6708984375
            ],
            [
                10.078265190124512,
                1.4598857164382935,
                90.6708984375
            ],
            [
                10.702841758728027,
                1.5503733158111572,
                95.6708984375
            ],
            [
                11.32741641998291,
                1.6408610343933105,
                100.6708984375
            ],
            [
                13.82568359375,
                2.002812623977661,
                120.6708984375
            ],
            [
                16.323902130126953,
                2.364765167236328,
                140.6708984375
            ],
            [
                18.822067260742188,
                2.7267189025878906,
                160.6708984375
            ],
            [
                21.320175170898438,
                3.0886738300323486,
                180.6708984375
            ],
            [
                23.818252563476563,
                3.450629949569702,
                200.6708984375
            ],
            [
                26.31625747680664,
                3.812587022781372,
                220.6708984375
            ],
            [
                28.8142032623291,
                4.1745452880859375,
                240.6708984375
            ],
            [
                31.312088012695313,
                4.53650426864624,
                260.6708984375
            ],
            [
                33.809906005859375,
                4.898464679718018,
                280.6708984375
            ],
            [
                36.30765914916992,
                5.260425567626953,
                300.6708984375
            ],
            [
                38.80534362792969,
                5.622387886047363,
                320.6708984375
            ],
            [
                41.30295944213867,
                5.98435115814209,
                340.6708984375
            ],
            [
                43.800498962402344,
                6.346315383911133,
                360.6708984375
            ],
            [
                46.2979621887207,
                6.708280563354492,
                380.6708984375
            ],
            [
                48.79534912109375,
                7.070247173309326,
                400.6708984375
            ],
            [
                51.29265213012695,
                7.432214260101318,
                420.6708984375
            ],
            [
                53.78987121582031,
                7.794182300567627,
                440.6708984375
            ],
            [
                56.2869987487793,
                8.156150817871094,
                460.6708984375
            ],
            [
                58.784034729003906,
                8.518120765686035,
                480.6708984375
            ],
            [
                61.280975341796875,
                8.880091667175293,
                500.6708984375
            ],
            [
                63.77781295776367,
                9.242063522338867,
                520.6708984375
            ],
            [
                66.27455139160156,
                9.604035377502441,
                540.6708984375
            ],
            [
                68.77118682861328,
                9.966008186340332,
                560.6708984375
            ],
            [
                71.26771545410156,
                10.327981948852539,
                580.6708984375
            ],
            [
                73.7641372680664,
                10.689956665039063,
                600.6708984375
            ],
            [
                76.26042938232422,
                11.05193042755127,
                620.6708984375
            ],
            [
                78.75659942626953,
                11.413905143737793,
                640.6708984375
            ],
            [
                81.25264739990234,
                11.775879859924316,
                660.6708984375
            ],
            [
                83.74857330322266,
                12.137855529785156,
                680.6708984375
            ],
            [
                86.24437713623047,
                12.499831199645996,
                700.6708984375
            ],
            [
                88.74007415771484,
                12.861809730529785,
                720.6708984375
            ],
            [
                91.23564147949219,
                13.223790168762207,
                740.6708984375
            ],
            [
                93.73108673095703,
                13.585770606994629,
                760.6708984375
            ],
            [
                96.22634887695313,
                13.947749137878418,
                780.6708984375
            ],
            [
                98.72139739990234,
                14.30972671508789,
                800.6708984375
            ],
            [
                101.21630096435547,
                14.671703338623047,
                820.6708984375
            ],
            [
                103.7110366821289,
                15.03368091583252,
                840.6708984375
            ],
            [
                106.20561981201172,
                15.395657539367676,
                860.6708984375
            ],
            [
                108.70003509521484,
                15.757635116577148,
                880.6708984375
            ],
            [
                111.19428253173828,
                16.119611740112305,
                900.6708984375
            ],
            [
                113.68838500976563,
                16.48158836364746,
                920.6708984375
            ],
            [
                116.18229675292969,
                16.843564987182617,
                940.6708984375
            ],
            [
                118.67595672607422,
                17.20553207397461,
                960.6708984375
            ],
            [
                121.16943359375,
                17.56749725341797,
                980.6708984375
            ],
            [
                123.6627197265625,
                17.929462432861328,
                1000.6708984375
            ],
            [
                136.12591552734375,
                19.73929214477539,
                1100.6708984375
            ],
            [
                148.58470153808594,
                21.54917335510254,
                1200.6708984375
            ],
            [
                161.03834533691406,
                23.359024047851563,
                1300.6708984375
            ],
            [
                173.4872589111328,
                25.168888092041016,
                1400.6708984375
            ],
            [
                185.9309539794922,
                26.978755950927734,
                1500.6708984375
            ],
            [
                198.3710174560547,
                28.788684844970703,
                1600.6708984375
            ],
            [
                210.80563354492188,
                30.598608016967773,
                1700.6708984375
            ],
            [
                223.2346649169922,
                32.408504486083984,
                1800.6708984375
            ],
            [
                235.6567840576172,
                34.218292236328125,
                1900.6708984375
            ],
            [
                248.07196044921875,
                36.027992248535156,
                2000.6708984375
            ],
            [
                260.4768371582031,
                37.83758544921875,
                2100.6708984375
            ],
            [
                272.8726806640625,
                39.6471061706543,
                2200.6708984375
            ],
            [
                285.25909423828125,
                41.45650100708008,
                2300.6708984375
            ],
            [
                297.6298828125,
                43.26569747924805,
                2400.6708984375
            ],
            [
                309.9836730957031,
                45.0745849609375,
                2500.6708984375
            ],
            [
                322.3146057128906,
                46.883052825927734,
                2600.6708984375
            ],
            [
                334.6209716796875,
                48.6910514831543,
                2700.6708984375
            ],
            [
                346.8970642089844,
                50.49852752685547,
                2800.6708984375
            ],
            [
                359.1378173828125,
                52.305294036865234,
                2900.6708984375
            ],
            [
                371.3371276855469,
                54.11130142211914,
                3000.6708984375
            ],
            [
                383.4862060546875,
                55.91658401489258,
                3100.6708984375
            ],
            [
                395.58233642578125,
                57.72112274169922,
                3200.6708984375
            ],
            [
                407.61968994140625,
                59.52467346191406,
                3300.6708984375
            ],
            [
                419.5815124511719,
                61.327144622802734,
                3400.6708984375
            ],
            [
                431.462646484375,
                63.12865447998047,
                3500.6708984375
            ],
            [
                443.26226806640625,
                64.92901611328125,
                3600.6708984375
            ],
            [
                454.9652099609375,
                66.72830963134766,
                3700.6708984375
            ],
            [
                466.568115234375,
                68.5264663696289,
                3800.6708984375
            ],
            [
                478.0633544921875,
                70.32340240478516,
                3900.6708984375
            ],
            [
                489.4403991699219,
                72.11911010742188,
                4000.6708984375
            ],
            [
                500.69879150390625,
                73.9140396118164,
                4100.6708984375
            ],
            [
                511.82928466796875,
                75.7077865600586,
                4200.6708984375
            ],
            [
                522.8215942382813,
                77.5006103515625,
                4300.6708984375
            ],
            [
                533.6787109375,
                79.29238891601563,
                4400.6708984375
            ],
            [
                544.4102783203125,
                81.0832290649414,
                4500.6708984375
            ],
            [
                554.9927978515625,
                82.8735580444336,
                4600.6708984375
            ],
            [
                565.4404296875,
                84.6630630493164,
                4700.6708984375
            ],
            [
                574.6084594726563,
                87.44232940673828,
                4800.6708984375
            ],
            [
                584.7493896484375,
                89.26309204101563,
                4900.6708984375
            ],
            [
                594.7547607421875,
                91.0833740234375,
                5000.6708984375
            ],
            [
                604.6192016601563,
                92.90193176269531,
                5100.6708984375
            ],
            [
                614.3489379882813,
                94.72012329101563,
                5200.6708984375
            ],
            [
                623.9420776367188,
                96.5377426147461,
                5300.6708984375
            ],
            [
                633.4038696289063,
                98.3555908203125,
                5400.6708984375
            ],
            [
                642.7346801757813,
                100.17366027832031,
                5500.6708984375
            ],
            [
                651.9410400390625,
                101.99015808105469,
                5600.6708984375
            ],
            [
                661.0197143554688,
                103.80680847167969,
                5700.6708984375
            ],
            [
                669.9757080078125,
                105.62330627441406,
                5800.6708984375
            ],
            [
                678.8163452148438,
                107.43960571289063,
                5900.6708984375
            ],
            [
                687.537841796875,
                109.25489044189453,
                6000.6708984375
            ],
            [
                696.1474609375,
                111.06977081298828,
                6100.6708984375
            ],
            [
                704.648193359375,
                112.88471984863281,
                6200.6708984375
            ],
            [
                713.0436401367188,
                114.69965362548828,
                6300.6708984375
            ],
            [
                721.3385620117188,
                116.51455688476563,
                6400.6708984375
            ],
            [
                729.5352783203125,
                118.32950592041016,
                6500.6708984375
            ],
            [
                737.6396484375,
                120.14410400390625,
                6600.6708984375
            ],
            [
                745.6546630859375,
                121.95864868164063,
                6700.6708984375
            ],
            [
                753.5869140625,
                123.77322387695313,
                6800.6708984375
            ],
            [
                761.4371948242188,
                125.5876235961914,
                6900.6708984375
            ],
            [
                769.2115478515625,
                127.40191650390625,
                7000.6708984375
            ],
            [
                776.9150390625,
                129.2162322998047,
                7100.6708984375
            ],
            [
                784.5520629882813,
                131.03057861328125,
                7200.6708984375
            ],
            [
                792.1262817382813,
                132.84487915039063,
                7300.6708984375
            ],
            [
                799.6407470703125,
                134.65902709960938,
                7400.6708984375
            ],
            [
                807.1025390625,
                136.47305297851563,
                7500.6708984375
            ],
            [
                814.5128173828125,
                138.28697204589844,
                7600.6708984375
            ],
            [
                821.8771362304688,
                140.10076904296875,
                7700.6708984375
            ],
            [
                829.1973876953125,
                141.9144287109375,
                7800.6708984375
            ],
            [
                836.477294921875,
                143.7279052734375,
                7900.6708984375
            ],
            [
                843.7205200195313,
                145.54119873046875,
                8000.6708984375
            ],
            [
                850.9290771484375,
                147.35430908203125,
                8100.6708984375
            ],
            [
                858.1068725585938,
                149.16720581054688,
                8200.6708984375
            ],
            [
                865.2559204101563,
                150.97991943359375,
                8300.6708984375
            ],
            [
                872.37841796875,
                152.79241943359375,
                8400.6708984375
            ],
            [
                879.4765625,
                154.60470581054688,
                8500.6708984375
            ],
            [
                886.5531616210938,
                156.4167938232422,
                8600.6708984375
            ],
            [
                893.6093139648438,
                158.2286834716797,
                8700.6708984375
            ],
            [
                900.64697265625,
                160.04039001464844,
                8800.6708984375
            ],
            [
                907.6679077148438,
                161.85189819335938,
                8900.6708984375
            ],
            [
                914.6732788085938,
                163.6632080078125,
                9000.6708984375
            ],
            [
                921.6644897460938,
                165.4743194580078,
                9100.6708984375
            ],
            [
                928.6429443359375,
                167.28526306152344,
                9200.6708984375
            ],
            [
                935.609619140625,
                169.0960235595703,
                9300.6708984375
            ],
            [
                942.565673828125,
                170.9066162109375,
                9400.6708984375
            ],
            [
                949.5120239257813,
                172.717041015625,
                9500.6708984375
            ],
            [
                956.4495239257813,
                174.52731323242188,
                9600.6708984375
            ],
            [
                963.3789672851563,
                176.3374481201172,
                9700.6708984375
            ],
            [
                970.3011474609375,
                178.14743041992188,
                9800.6708984375
            ],
            [
                977.2166137695313,
                179.95729064941406,
                9900.6708984375
            ],
            [
                984.1260375976563,
                181.76702880859375,
                10000.6708984375
            ],
            [
                997.9288330078125,
                185.38616943359375,
                10200.6708984375
            ],
            [
                1011.7131958007813,
                189.0048828125,
                10400.6708984375
            ],
            [
                1025.4825439453125,
                192.62326049804688,
                10600.6708984375
            ],
            [
                1039.2391357421875,
                196.24131774902344,
                10800.6708984375
            ],
            [
                1052.985595703125,
                199.85911560058594,
                11000.6708984375
            ],
            [
                1066.7235107421875,
                203.4766845703125,
                11200.6708984375
            ],
            [
                1080.4539794921875,
                207.09405517578125,
                11400.6708984375
            ],
            [
                1094.178955078125,
                210.7112579345703,
                11600.6708984375
            ],
            [
                1107.899169921875,
                214.3283233642578,
                11800.6708984375
            ],
            [
                1121.61572265625,
                217.9452667236328,
                12000.6708984375
            ],
            [
                1135.3284912109375,
                221.56210327148438,
                12200.6708984375
            ],
            [
                1149.0389404296875,
                225.17884826660156,
                12400.6708984375
            ],
            [
                1162.747802734375,
                228.7955322265625,
                12600.6708984375
            ],
            [
                1176.4552001953125,
                232.41217041015625,
                12800.6708984375
            ],
            [
                1190.160888671875,
                236.02874755859375,
                13000.6708984375
            ],
            [
                1203.8653564453125,
                239.64529418945313,
                13200.6708984375
            ],
            [
                1217.5692138671875,
                243.26181030273438,
                13400.6708984375
            ]
        ],
        "zFirstMeasurement": 94.1031
    },
    {
        "E": 12142.1497187688,
        "chi2": 1.7167116403579712,
        "ip": 0.11941643533715549,
        "ipchi2": 22.63439451393933,
        "mass": 139.57,
        "particleId": "pi+",
        "pvx": 0.5708,
        "pvy": 0.082,
        "pvz": 14.55,
        "px": 712.82,
        "py": -796.88,
        "pz": 12094.18,
        "q": 1.0,
        "trajectory": [
            [
                0.7046496868133545,
                0.10648936778306961,
                15.670900344848633
            ],
            [
                0.999350905418396,
                -0.222958043217659,
                20.670900344848633
            ],
            [
                1.2940566539764404,
                -0.552405595779419,
                25.670900344848633
            ],
            [
                1.5887669324874878,
                -0.8818532228469849,
                30.670900344848633
            ],
            [
                1.8834818601608276,
                -1.2113009691238403,
                35.6708984375
            ],
            [
                2.17820143699646,
                -1.540748953819275,
                40.6708984375
            ],
            [
                2.472925901412964,
                -1.8701969385147095,
                45.6708984375
            ],
            [
                2.76765513420105,
                -2.1996450424194336,
                50.6708984375
            ],
            [
                3.062389373779297,
                -2.5290932655334473,
                55.6708984375
            ],
            [
                3.357128858566284,
                -2.85854172706604,
                60.6708984375
            ],
            [
                3.6518731117248535,
                -3.187990188598633,
                65.6708984375
            ],
            [
                3.9465763568878174,
                -3.5174741744995117,
                70.6708984375
            ],
            [
                4.241330623626709,
                -3.8469228744506836,
                75.6708984375
            ],
            [
                4.536089897155762,
                -4.1763715744018555,
                80.6708984375
            ],
            [
                4.8308539390563965,
                -4.5058207511901855,
                85.6708984375
            ],
            [
                5.125622749328613,
                -4.835269927978516,
                90.6708984375
            ],
            [
                5.42039680480957,
                -5.164719104766846,
                95.6708984375
            ],
            [
                5.715175628662109,
                -5.494168281555176,
                100.6708984375
            ],
            [
                6.894342422485352,
                -6.811966896057129,
                120.6708984375
            ],
            [
                8.073596954345703,
                -8.129767417907715,
                140.6708984375
            ],
            [
                9.252945899963379,
                -9.44757080078125,
                160.6708984375
            ],
            [
                10.432394027709961,
                -10.765375137329102,
                180.6708984375
            ],
            [
                11.611948013305664,
                -12.083182334899902,
                200.6708984375
            ],
            [
                12.791613578796387,
                -13.400991439819336,
                220.6708984375
            ],
            [
                13.971330642700195,
                -14.718802452087402,
                240.6708984375
            ],
            [
                15.151198387145996,
                -16.0366153717041,
                260.6708984375
            ],
            [
                16.33118438720703,
                -17.35443115234375,
                280.6708984375
            ],
            [
                17.511289596557617,
                -18.67224884033203,
                300.6708984375
            ],
            [
                18.6915225982666,
                -19.990068435668945,
                320.6708984375
            ],
            [
                19.871885299682617,
                -21.307889938354492,
                340.6708984375
            ],
            [
                21.05238151550293,
                -22.625713348388672,
                360.6708984375
            ],
            [
                22.233016967773438,
                -23.943540573120117,
                380.6708984375
            ],
            [
                23.413799285888672,
                -25.261369705200195,
                400.6708984375
            ],
            [
                24.594736099243164,
                -26.579200744628906,
                420.6708984375
            ],
            [
                25.77583122253418,
                -27.89703369140625,
                440.6708984375
            ],
            [
                26.957088470458984,
                -29.214868545532227,
                460.6708984375
            ],
            [
                28.138507843017578,
                -30.53270721435547,
                480.6708984375
            ],
            [
                29.320098876953125,
                -31.850547790527344,
                500.6708984375
            ],
            [
                30.501873016357422,
                -33.168392181396484,
                520.6708984375
            ],
            [
                31.683828353881836,
                -34.486236572265625,
                540.6708984375
            ],
            [
                32.865970611572266,
                -35.80408477783203,
                560.6708984375
            ],
            [
                34.048301696777344,
                -37.12193298339844,
                580.6708984375
            ],
            [
                35.230857849121094,
                -38.43978500366211,
                600.6708984375
            ],
            [
                36.413631439208984,
                -39.75763702392578,
                620.6708984375
            ],
            [
                37.59661865234375,
                -41.07549285888672,
                640.6708984375
            ],
            [
                38.779823303222656,
                -42.393348693847656,
                660.6708984375
            ],
            [
                39.963253021240234,
                -43.71120834350586,
                680.6708984375
            ],
            [
                41.14691162109375,
                -45.02907180786133,
                700.6708984375
            ],
            [
                42.33079528808594,
                -46.3469352722168,
                720.6708984375
            ],
            [
                43.514930725097656,
                -47.6648063659668,
                740.6708984375
            ],
            [
                44.699363708496094,
                -48.98267364501953,
                760.6708984375
            ],
            [
                45.88410949707031,
                -50.300540924072266,
                780.6708984375
            ],
            [
                47.06912612915039,
                -51.618408203125,
                800.6708984375
            ],
            [
                48.25440979003906,
                -52.936275482177734,
                820.6708984375
            ],
            [
                49.43997573852539,
                -54.254146575927734,
                840.6708984375
            ],
            [
                50.625831604003906,
                -55.572017669677734,
                860.6708984375
            ],
            [
                51.811981201171875,
                -56.889888763427734,
                880.6708984375
            ],
            [
                52.99842834472656,
                -58.207759857177734,
                900.6708984375
            ],
            [
                54.18516159057617,
                -59.525630950927734,
                920.6708984375
            ],
            [
                55.37229919433594,
                -60.84347915649414,
                940.6708984375
            ],
            [
                56.55976867675781,
                -62.16132736206055,
                960.6708984375
            ],
            [
                57.7475700378418,
                -63.47917556762695,
                980.6708984375
            ],
            [
                58.935707092285156,
                -64.7970199584961,
                1000.6708984375
            ],
            [
                64.8813247680664,
                -71.38621520996094,
                1100.6708984375
            ],
            [
                70.83780670166016,
                -77.97545623779297,
                1200.6708984375
            ],
            [
                76.80200958251953,
                -84.56452178955078,
                1300.6708984375
            ],
            [
                82.77507781982422,
                -91.15351104736328,
                1400.6708984375
            ],
            [
                88.75718688964844,
                -97.74246978759766,
                1500.6708984375
            ],
            [
                94.74675750732422,
                -104.33146667480469,
                1600.6708984375
            ],
            [
                100.74555969238281,
                -110.92050170898438,
                1700.6708984375
            ],
            [
                106.75508117675781,
                -117.50942993164063,
                1800.6708984375
            ],
            [
                112.7760238647461,
                -124.09840393066406,
                1900.6708984375
            ],
            [
                118.80912017822266,
                -130.6875457763672,
                2000.6708984375
            ],
            [
                124.85836029052734,
                -137.2769317626953,
                2100.6708984375
            ],
            [
                130.92759704589844,
                -143.86666870117188,
                2200.6708984375
            ],
            [
                137.01202392578125,
                -150.45687866210938,
                2300.6708984375
            ],
            [
                143.12452697753906,
                -157.04751586914063,
                2400.6708984375
            ],
            [
                149.26657104492188,
                -163.6389617919922,
                2500.6708984375
            ],
            [
                155.45053100585938,
                -170.2311553955078,
                2600.6708984375
            ],
            [
                161.67567443847656,
                -176.82418823242188,
                2700.6708984375
            ],
            [
                167.95558166503906,
                -183.41842651367188,
                2800.6708984375
            ],
            [
                174.298828125,
                -190.01446533203125,
                2900.6708984375
            ],
            [
                180.7197723388672,
                -196.61216735839844,
                3000.6708984375
            ],
            [
                187.2218780517578,
                -203.2118377685547,
                3100.6708984375
            ],
            [
                193.83160400390625,
                -209.81509399414063,
                3200.6708984375
            ],
            [
                200.54608154296875,
                -216.42076110839844,
                3300.6708984375
            ],
            [
                207.39730834960938,
                -223.0295867919922,
                3400.6708984375
            ],
            [
                214.3939971923828,
                -229.64190673828125,
                3500.6708984375
            ],
            [
                221.542724609375,
                -236.2568817138672,
                3600.6708984375
            ],
            [
                228.864501953125,
                -242.87493896484375,
                3700.6708984375
            ],
            [
                236.38092041015625,
                -249.49786376953125,
                3800.6708984375
            ],
            [
                244.09375,
                -256.1251220703125,
                3900.6708984375
            ],
            [
                252.04067993164063,
                -262.75579833984375,
                4000.6708984375
            ],
            [
                260.19830322265625,
                -269.3885498046875,
                4100.6708984375
            ],
            [
                268.6152648925781,
                -276.0245666503906,
                4200.6708984375
            ],
            [
                277.28717041015625,
                -282.6651306152344,
                4300.6708984375
            ],
            [
                286.2109375,
                -289.3067626953125,
                4400.6708984375
            ],
            [
                295.3900451660156,
                -295.95086669921875,
                4500.6708984375
            ],
            [
                304.8337097167969,
                -302.59539794921875,
                4600.6708984375
            ],
            [
                314.5514221191406,
                -309.24322509765625,
                4700.6708984375
            ],
            [
                330.27154541015625,
                -317.2453308105469,
                4800.6708984375
            ],
            [
                340.6445617675781,
                -323.8973693847656,
                4900.6708984375
            ],
            [
                351.2795104980469,
                -330.55010986328125,
                5000.6708984375
            ],
            [
                362.1876525878906,
                -337.203857421875,
                5100.6708984375
            ],
            [
                373.3512878417969,
                -343.85791015625,
                5200.6708984375
            ],
            [
                384.7752990722656,
                -350.51190185546875,
                5300.6708984375
            ],
            [
                396.4526672363281,
                -357.1660461425781,
                5400.6708984375
            ],
            [
                408.38616943359375,
                -363.8206787109375,
                5500.6708984375
            ],
            [
                420.5564270019531,
                -370.47491455078125,
                5600.6708984375
            ],
            [
                432.974609375,
                -377.1276550292969,
                5700.6708984375
            ],
            [
                445.6314392089844,
                -383.7798156738281,
                5800.6708984375
            ],
            [
                458.5130615234375,
                -390.43048095703125,
                5900.6708984375
            ],
            [
                471.6294860839844,
                -397.0798034667969,
                6000.6708984375
            ],
            [
                484.96051025390625,
                -403.7275390625,
                6100.6708984375
            ],
            [
                498.5046081542969,
                -410.3731689453125,
                6200.6708984375
            ],
            [
                512.2567749023438,
                -417.0169677734375,
                6300.6708984375
            ],
            [
                526.2069702148438,
                -423.6586608886719,
                6400.6708984375
            ],
            [
                540.3507690429688,
                -430.2977600097656,
                6500.6708984375
            ],
            [
                554.6768798828125,
                -436.9342956542969,
                6600.6708984375
            ],
            [
                569.1801147460938,
                -443.5674743652344,
                6700.6708984375
            ],
            [
                583.8466796875,
                -450.1974182128906,
                6800.6708984375
            ],
            [
                598.6759643554688,
                -456.82379150390625,
                6900.6708984375
            ],
            [
                613.654052734375,
                -463.4465637207031,
                7000.6708984375
            ],
            [
                628.7716674804688,
                -470.065673828125,
                7100.6708984375
            ],
            [
                644.0198974609375,
                -476.6811828613281,
                7200.6708984375
            ],
            [
                659.3908081054688,
                -483.29290771484375,
                7300.6708984375
            ],
            [
                674.8788452148438,
                -489.90093994140625,
                7400.6708984375
            ],
            [
                690.4686889648438,
                -496.50555419921875,
                7500.6708984375
            ],
            [
                706.1585693359375,
                -503.10650634765625,
                7600.6708984375
            ],
            [
                721.9371948242188,
                -509.7041015625,
                7700.6708984375
            ],
            [
                737.80029296875,
                -516.2984008789063,
                7800.6708984375
            ],
            [
                753.7400512695313,
                -522.8895874023438,
                7900.6708984375
            ],
            [
                769.749267578125,
                -529.4779663085938,
                8000.6708984375
            ],
            [
                785.8237915039063,
                -536.0636596679688,
                8100.6708984375
            ],
            [
                801.9557495117188,
                -542.6470336914063,
                8200.6708984375
            ],
            [
                818.1411743164063,
                -549.2282104492188,
                8300.6708984375
            ],
            [
                834.3757934570313,
                -555.8074951171875,
                8400.6708984375
            ],
            [
                850.6553344726563,
                -562.385009765625,
                8500.6708984375
            ],
            [
                866.9743041992188,
                -568.9610595703125,
                8600.6708984375
            ],
            [
                883.3305053710938,
                -575.5358276367188,
                8700.6708984375
            ],
            [
                899.7203369140625,
                -582.1094360351563,
                8800.6708984375
            ],
            [
                916.1404418945313,
                -588.68212890625,
                8900.6708984375
            ],
            [
                932.5885009765625,
                -595.25390625,
                9000.6708984375
            ],
            [
                949.0618896484375,
                -601.8250732421875,
                9100.6708984375
            ],
            [
                965.5581665039063,
                -608.3956298828125,
                9200.6708984375
            ],
            [
                982.0753173828125,
                -614.9657592773438,
                9300.6708984375
            ],
            [
                998.611328125,
                -621.5355224609375,
                9400.6708984375
            ],
            [
                1015.1644287109375,
                -628.10498046875,
                9500.6708984375
            ],
            [
                1031.733154296875,
                -634.67431640625,
                9600.6708984375
            ],
            [
                1048.31591796875,
                -641.2435302734375,
                9700.6708984375
            ],
            [
                1064.91162109375,
                -647.8126220703125,
                9800.6708984375
            ],
            [
                1081.5186767578125,
                -654.3817138671875,
                9900.6708984375
            ],
            [
                1098.136474609375,
                -660.9508666992188,
                10000.6708984375
            ],
            [
                1131.399658203125,
                -674.0892944335938,
                10200.6708984375
            ],
            [
                1164.694580078125,
                -687.2281494140625,
                10400.6708984375
            ],
            [
                1198.01513671875,
                -700.3674926757813,
                10600.6708984375
            ],
            [
                1231.357666015625,
                -713.5074462890625,
                10800.6708984375
            ],
            [
                1264.717041015625,
                -726.6480712890625,
                11000.6708984375
            ],
            [
                1298.0909423828125,
                -739.789306640625,
                11200.6708984375
            ],
            [
                1331.4771728515625,
                -752.93115234375,
                11400.6708984375
            ],
            [
                1364.8724365234375,
                -766.0736083984375,
                11600.6708984375
            ],
            [
                1398.2755126953125,
                -779.2166748046875,
                11800.6708984375
            ],
            [
                1431.6846923828125,
                -792.3602905273438,
                12000.6708984375
            ],
            [
                1465.099853515625,
                -805.5042724609375,
                12200.6708984375
            ],
            [
                1498.5189208984375,
                -818.6487426757813,
                12400.6708984375
            ],
            [
                1531.9403076171875,
                -831.7936401367188,
                12600.6708984375
            ],
            [
                1565.364013671875,
                -844.9388427734375,
                12800.6708984375
            ],
            [
                1598.79052734375,
                -858.084228515625,
                13000.6708984375
            ],
            [
                1632.2188720703125,
                -871.2299194335938,
                13200.6708984375
            ],
            [
                1665.64794921875,
                -884.375732421875,
                13400.6708984375
            ]
        ],
        "zFirstMeasurement": 124.0877
    },
    {
        "E": 11452.48049516109,
        "chi2": 1.0925028324127197,
        "ip": 0.13741405168036386,
        "ipchi2": 13.100967080613309,
        "mass": 139.57018,
        "particleId": "pi-",
        "pvx": 0.5708,
        "pvy": 0.082,
        "pvz": 14.55,
        "px": -363.5750080863777,
        "py": 374.545134501675,
        "pz": 11439.727217578926,
        "q": -1.0,
        "trajectory": [
            [
                4.34720516204834,
                -3.6588308811187744,
                -100.0
            ],
            [
                4.188398361206055,
                -3.4951283931732178,
                -95.0
            ],
            [
                4.029588222503662,
                -3.331425905227661,
                -90.0
            ],
            [
                3.870774030685425,
                -3.1677231788635254,
                -85.0
            ],
            [
                3.711956024169922,
                -3.0040206909179688,
                -80.0
            ],
            [
                3.5531647205352783,
                -2.840317726135254,
                -75.0
            ],
            [
                3.3943347930908203,
                -2.676614999771118,
                -70.0
            ],
            [
                3.235501289367676,
                -2.5129122734069824,
                -65.0
            ],
            [
                3.0766642093658447,
                -2.3492093086242676,
                -60.0
            ],
            [
                2.9178237915039063,
                -2.1855063438415527,
                -55.0
            ],
            [
                2.758979320526123,
                -2.021803379058838,
                -50.0
            ],
            [
                2.6001312732696533,
                -1.858100414276123,
                -45.0
            ],
            [
                2.441279411315918,
                -1.6943973302841187,
                -40.0
            ],
            [
                2.282423496246338,
                -1.5306942462921143,
                -35.0
            ],
            [
                2.123563766479492,
                -1.3669910430908203,
                -30.0
            ],
            [
                1.9647001028060913,
                -1.2032878398895264,
                -25.0
            ],
            [
                1.805832028388977,
                -1.0395846366882324,
                -20.0
            ],
            [
                1.646959900856018,
                -0.8758812546730042,
                -15.0
            ],
            [
                1.4880834817886353,
                -0.7121778726577759,
                -10.0
            ],
            [
                1.3292028903961182,
                -0.5484744906425476,
                -5.0
            ],
            [
                1.1703180074691772,
                -0.3847710192203522,
                0.0
            ],
            [
                1.0114285945892334,
                -0.22106751799583435,
                5.0
            ],
            [
                0.8525347709655762,
                -0.05736396461725235,
                10.0
            ],
            [
                0.6936362981796265,
                0.10633963346481323,
                15.0
            ],
            [
                0.534733235836029,
                0.270043283700943,
                20.0
            ],
            [
                0.3758254051208496,
                0.43374696373939514,
                25.0
            ],
            [
                0.21691274642944336,
                0.5974506735801697,
                30.0
            ],
            [
                0.057995207607746124,
                0.7611544728279114,
                35.0
            ],
            [
                -0.10092730820178986,
                0.9248583316802979,
                40.0
            ],
            [
                -0.25985488295555115,
                1.0885621309280396,
                45.0
            ],
            [
                -0.41878756880760193,
                1.2522660493850708,
                50.0
            ],
            [
                -0.5777254700660706,
                1.4159700870513916,
                55.0
            ],
            [
                -0.7366687059402466,
                1.5796741247177124,
                60.0
            ],
            [
                -0.8956172466278076,
                1.7433781623840332,
                65.0
            ],
            [
                -1.054571270942688,
                1.907082200050354,
                70.0
            ],
            [
                -1.2135307788848877,
                2.070786476135254,
                75.0
            ],
            [
                -1.3724960088729858,
                2.2344906330108643,
                80.0
            ],
            [
                -1.5314668416976929,
                2.3981947898864746,
                85.0
            ],
            [
                -1.6904433965682983,
                2.561899185180664,
                90.0
            ],
            [
                -1.8494257926940918,
                2.7256035804748535,
                95.0
            ],
            [
                -2.0084142684936523,
                2.889307975769043,
                100.0
            ],
            [
                -2.644378900527954,
                3.5441269874572754,
                120.0
            ],
            [
                -3.280484437942505,
                4.19894552230835,
                140.0
            ],
            [
                -3.9166815280914307,
                4.85376501083374,
                160.0
            ],
            [
                -4.552977085113525,
                5.508585453033447,
                180.0
            ],
            [
                -5.1893768310546875,
                6.1634063720703125,
                200.0
            ],
            [
                -5.825887680053711,
                6.818227767944336,
                220.0
            ],
            [
                -6.462515830993652,
                7.473050117492676,
                240.0
            ],
            [
                -7.099269390106201,
                8.127872467041016,
                260.0
            ],
            [
                -7.736154556274414,
                8.782696723937988,
                280.0
            ],
            [
                -8.373128890991211,
                9.437520980834961,
                300.0
            ],
            [
                -9.010262489318848,
                10.092345237731934,
                320.0
            ],
            [
                -9.64753532409668,
                10.747170448303223,
                340.0
            ],
            [
                -10.284951210021973,
                11.401996612548828,
                360.0
            ],
            [
                -10.922516822814941,
                12.056822776794434,
                380.0
            ],
            [
                -11.560235977172852,
                12.711649894714355,
                400.0
            ],
            [
                -12.19811725616455,
                13.366477012634277,
                420.0
            ],
            [
                -12.836161613464355,
                14.021305084228516,
                440.0
            ],
            [
                -13.474376678466797,
                14.676133155822754,
                460.0
            ],
            [
                -14.112764358520508,
                15.330962181091309,
                480.0
            ],
            [
                -14.75133228302002,
                15.985791206359863,
                500.0
            ],
            [
                -15.390088081359863,
                16.640621185302734,
                520.0
            ],
            [
                -16.029043197631836,
                17.29545021057129,
                540.0
            ],
            [
                -16.66822052001953,
                17.950281143188477,
                560.0
            ],
            [
                -17.30760383605957,
                18.605112075805664,
                580.0
            ],
            [
                -17.947202682495117,
                19.25994300842285,
                600.0
            ],
            [
                -18.587026596069336,
                19.91477394104004,
                620.0
            ],
            [
                -19.22707748413086,
                20.569604873657227,
                640.0
            ],
            [
                -19.867359161376953,
                21.224435806274414,
                660.0
            ],
            [
                -20.50787925720215,
                21.8792667388916,
                680.0
            ],
            [
                -21.148643493652344,
                22.53409767150879,
                700.0
            ],
            [
                -21.78969383239746,
                23.18893051147461,
                720.0
            ],
            [
                -22.431005477905273,
                23.843765258789063,
                740.0
            ],
            [
                -23.072582244873047,
                24.498598098754883,
                760.0
            ],
            [
                -23.714433670043945,
                25.153430938720703,
                780.0
            ],
            [
                -24.356565475463867,
                25.808263778686523,
                800.0
            ],
            [
                -24.998973846435547,
                26.463098526000977,
                820.0
            ],
            [
                -25.641674041748047,
                27.117931365966797,
                840.0
            ],
            [
                -26.284671783447266,
                27.77276611328125,
                860.0
            ],
            [
                -26.928064346313477,
                28.427595138549805,
                880.0
            ],
            [
                -27.571847915649414,
                29.082420349121094,
                900.0
            ],
            [
                -28.21592903137207,
                29.737245559692383,
                920.0
            ],
            [
                -28.860347747802734,
                30.39206886291504,
                940.0
            ],
            [
                -29.505111694335938,
                31.046892166137695,
                960.0
            ],
            [
                -30.150224685668945,
                31.70171546936035,
                980.0
            ],
            [
                -30.795698165893555,
                32.356536865234375,
                1000.0
            ],
            [
                -34.02781677246094,
                35.630638122558594,
                1100.0
            ],
            [
                -37.27123260498047,
                38.904701232910156,
                1200.0
            ],
            [
                -40.52273941040039,
                42.1787109375,
                1300.0
            ],
            [
                -43.78350830078125,
                45.45271301269531,
                1400.0
            ],
            [
                -47.0526008605957,
                48.7266960144043,
                1500.0
            ],
            [
                -50.3319206237793,
                52.00061798095703,
                1600.0
            ],
            [
                -53.62092208862305,
                55.274539947509766,
                1700.0
            ],
            [
                -56.92159652709961,
                58.548458099365234,
                1800.0
            ],
            [
                -60.23221206665039,
                61.82243728637695,
                1900.0
            ],
            [
                -63.5585823059082,
                65.09648132324219,
                2000.0
            ],
            [
                -66.89881134033203,
                68.37061309814453,
                2100.0
            ],
            [
                -70.2613296508789,
                71.6448745727539,
                2200.0
            ],
            [
                -73.64445495605469,
                74.91915893554688,
                2300.0
            ],
            [
                -77.05545806884766,
                78.19365692138672,
                2400.0
            ],
            [
                -80.5044937133789,
                81.46833038330078,
                2500.0
            ],
            [
                -83.99352264404297,
                84.74327087402344,
                2600.0
            ],
            [
                -87.52913665771484,
                88.01854705810547,
                2700.0
            ],
            [
                -91.12175750732422,
                91.29422760009766,
                2800.0
            ],
            [
                -94.7874755859375,
                94.57038116455078,
                2900.0
            ],
            [
                -98.53440856933594,
                97.84712219238281,
                3000.0
            ],
            [
                -102.36858367919922,
                101.12449645996094,
                3100.0
            ],
            [
                -106.32095336914063,
                104.40269470214844,
                3200.0
            ],
            [
                -110.39189910888672,
                107.6819076538086,
                3300.0
            ],
            [
                -114.60091400146484,
                110.96192932128906,
                3400.0
            ],
            [
                -118.96724700927734,
                114.2431869506836,
                3500.0
            ],
            [
                -123.4938735961914,
                117.52594757080078,
                3600.0
            ],
            [
                -128.21116638183594,
                120.80945587158203,
                3700.0
            ],
            [
                -133.1285858154297,
                124.09427642822266,
                3800.0
            ],
            [
                -138.2606658935547,
                127.38091278076172,
                3900.0
            ],
            [
                -143.610595703125,
                130.66873168945313,
                4000.0
            ],
            [
                -149.20826721191406,
                133.95724487304688,
                4100.0
            ],
            [
                -155.06674194335938,
                137.2462615966797,
                4200.0
            ],
            [
                -161.18771362304688,
                140.5362548828125,
                4300.0
            ],
            [
                -167.56593322753906,
                143.82736206054688,
                4400.0
            ],
            [
                -174.2143096923828,
                147.11904907226563,
                4500.0
            ],
            [
                -181.14341735839844,
                150.4101104736328,
                4600.0
            ],
            [
                -188.34544372558594,
                153.70162963867188,
                4700.0
            ],
            [
                -195.8232421875,
                156.9942626953125,
                4800.0
            ],
            [
                -205.84974670410156,
                160.87753295898438,
                4900.0
            ],
            [
                -213.9557342529297,
                164.19503784179688,
                5000.0
            ],
            [
                -222.34140014648438,
                167.51144409179688,
                5100.0
            ],
            [
                -230.99717712402344,
                170.8280487060547,
                5200.0
            ],
            [
                -239.92539978027344,
                174.1439666748047,
                5300.0
            ],
            [
                -249.1163787841797,
                177.46055603027344,
                5400.0
            ],
            [
                -258.56939697265625,
                180.7767791748047,
                5500.0
            ],
            [
                -268.26995849609375,
                184.09121704101563,
                5600.0
            ],
            [
                -278.22833251953125,
                187.4053497314453,
                5700.0
            ],
            [
                -288.43408203125,
                190.71865844726563,
                5800.0
            ],
            [
                -298.8713073730469,
                194.03050231933594,
                5900.0
            ],
            [
                -309.54803466796875,
                197.3407440185547,
                6000.0
            ],
            [
                -320.4510803222656,
                200.6498260498047,
                6100.0
            ],
            [
                -331.5739440917969,
                203.95782470703125,
                6200.0
            ],
            [
                -342.9101257324219,
                207.26438903808594,
                6300.0
            ],
            [
                -354.45037841796875,
                210.56954956054688,
                6400.0
            ],
            [
                -366.1899719238281,
                213.87367248535156,
                6500.0
            ],
            [
                -378.1159973144531,
                217.1757354736328,
                6600.0
            ],
            [
                -390.2253112792969,
                220.4759063720703,
                6700.0
            ],
            [
                -402.5037841796875,
                223.77435302734375,
                6800.0
            ],
            [
                -414.9493103027344,
                227.07098388671875,
                6900.0
            ],
            [
                -427.5496520996094,
                230.36561584472656,
                7000.0
            ],
            [
                -440.2952575683594,
                233.65829467773438,
                7100.0
            ],
            [
                -453.1769714355469,
                236.94900512695313,
                7200.0
            ],
            [
                -466.1873779296875,
                240.2376708984375,
                7300.0
            ],
            [
                -479.3202819824219,
                243.52435302734375,
                7400.0
            ],
            [
                -492.5609436035156,
                246.8090362548828,
                7500.0
            ],
            [
                -505.90704345703125,
                250.09164428710938,
                7600.0
            ],
            [
                -519.3477783203125,
                253.3722686767578,
                7700.0
            ],
            [
                -532.8789672851563,
                256.65093994140625,
                7800.0
            ],
            [
                -546.4927978515625,
                259.9277038574219,
                7900.0
            ],
            [
                -560.181884765625,
                263.2027587890625,
                8000.0
            ],
            [
                -573.9421997070313,
                266.4761047363281,
                8100.0
            ],
            [
                -587.7655029296875,
                269.7479553222656,
                8200.0
            ],
            [
                -601.6478271484375,
                273.01837158203125,
                8300.0
            ],
            [
                -615.584716796875,
                276.2874450683594,
                8400.0
            ],
            [
                -629.5716552734375,
                279.55535888671875,
                8500.0
            ],
            [
                -643.602783203125,
                282.8222351074219,
                8600.0
            ],
            [
                -657.67578125,
                286.088134765625,
                8700.0
            ],
            [
                -671.7867431640625,
                289.35321044921875,
                8800.0
            ],
            [
                -685.93212890625,
                292.61749267578125,
                8900.0
            ],
            [
                -700.1094970703125,
                295.881103515625,
                9000.0
            ],
            [
                -714.3157958984375,
                299.14410400390625,
                9100.0
            ],
            [
                -728.5484619140625,
                302.40655517578125,
                9200.0
            ],
            [
                -742.80517578125,
                305.6685485839844,
                9300.0
            ],
            [
                -757.083740234375,
                308.9301452636719,
                9400.0
            ],
            [
                -771.3822021484375,
                312.1913757324219,
                9500.0
            ],
            [
                -785.6987915039063,
                315.45233154296875,
                9600.0
            ],
            [
                -800.0318603515625,
                318.7130432128906,
                9700.0
            ],
            [
                -814.3799438476563,
                321.9735412597656,
                9800.0
            ],
            [
                -828.7416381835938,
                325.23388671875,
                9900.0
            ],
            [
                -843.11572265625,
                328.49407958984375,
                10000.0
            ],
            [
                -871.896728515625,
                335.01416015625,
                10200.0
            ],
            [
                -900.7152709960938,
                341.5339660644531,
                10400.0
            ],
            [
                -929.5643920898438,
                348.05364990234375,
                10600.0
            ],
            [
                -958.4395751953125,
                354.57330322265625,
                10800.0
            ],
            [
                -987.3350830078125,
                361.093017578125,
                11000.0
            ],
            [
                -1016.2481079101563,
                367.6128234863281,
                11200.0
            ],
            [
                -1045.176025390625,
                374.13275146484375,
                11400.0
            ],
            [
                -1074.114990234375,
                380.65283203125,
                11600.0
            ],
            [
                -1103.0634765625,
                387.1731262207031,
                11800.0
            ],
            [
                -1132.019287109375,
                393.6935729980469,
                12000.0
            ],
            [
                -1160.9825439453125,
                400.2141418457031,
                12200.0
            ],
            [
                -1189.95068359375,
                406.7348937988281,
                12400.0
            ],
            [
                -1218.9217529296875,
                413.2558288574219,
                12600.0
            ],
            [
                -1247.895751953125,
                419.77685546875,
                12800.0
            ],
            [
                -1276.873046875,
                426.2980041503906,
                13000.0
            ],
            [
                -1305.8529052734375,
                432.8192138671875,
                13200.0
            ],
            [
                -1334.8338623046875,
                439.34051513671875,
                13400.0
            ]
        ],
        "zFirstMeasurement": 199.2057
    }
]
