[
    {
        "E": 23987.694352907827,
        "chi2": 0.0,
        "ip": 0.05137577890201789,
        "ipchi2": 7.651126014609535,
        "mass": 1835.071,
        "particleId": "D0",
        "pvx": 0.5684,
        "pvy": 0.0872,
        "pvz": 102.6717,
        "px": -2500.46,
        "py": -662.37,
        "pz": 23777.11,
        "q": 0.0,
        "trajectory": [
            [
                0.5684000253677368,
                0.08720000088214874,
                102.67169952392578
            ],
            [
                0.4819999933242798,
                0.09200000017881393,
                103.83360290527344
            ]
        ],
        "zFirstMeasurement": -9999.0
    },
    {
        "E": 6234.507947445205,
        "chi2": 1.0620038509368896,
        "ip": 0.1824946392634156,
        "ipchi2": 36.20468435752757,
        "mass": 493.677,
        "particleId": "K-",
        "pvx": 0.5684,
        "pvy": 0.0872,
        "pvz": 102.6717,
        "px": -1039.3,
        "py": -721.16,
        "pz": 6084.83,
        "q": -1.0,
        "trajectory": [
            [
                0.5184471607208252,
                0.06213882565498352,
                103.83360290527344
            ],
            [
                -2.8976449966430664,
                -2.3082218170166016,
                123.83360290527344
            ],
            [
                -6.313845157623291,
                -4.678529262542725,
                143.83360290527344
            ],
            [
                -9.730305671691895,
                -7.048900604248047,
                163.83360290527344
            ],
            [
                -13.146961212158203,
                -9.419278144836426,
                183.83360290527344
            ],
            [
                -16.563823699951172,
                -11.789663314819336,
                203.83360290527344
            ],
            [
                -19.98090362548828,
                -14.160055160522461,
                223.83360290527344
            ],
            [
                -23.398218154907227,
                -16.530454635620117,
                243.83360290527344
            ],
            [
                -26.815778732299805,
                -18.900863647460938,
                263.8335876464844
            ],
            [
                -30.23346519470215,
                -21.271276473999023,
                283.8335876464844
            ],
            [
                -33.65147399902344,
                -23.641700744628906,
                303.8335876464844
            ],
            [
                -37.069740295410156,
                -26.012134552001953,
                323.8335876464844
            ],
            [
                -40.4882698059082,
                -28.382577896118164,
                343.8335876464844
            ],
            [
                -43.907073974609375,
                -30.753032684326172,
                363.8335876464844
            ],
            [
                -47.32616424560547,
                -33.123497009277344,
                383.8335876464844
            ],
            [
                -50.74555206298828,
                -35.49397659301758,
                403.8335876464844
            ],
            [
                -54.16524887084961,
                -37.864463806152344,
                423.8335876464844
            ],
            [
                -57.585262298583984,
                -40.23496627807617,
                443.8335876464844
            ],
            [
                -61.00559616088867,
                -42.60548400878906,
                463.8335876464844
            ],
            [
                -64.42626190185547,
                -44.97601318359375,
                483.8335876464844
            ],
            [
                -67.84727478027344,
                -47.3465576171875,
                503.8335876464844
            ],
            [
                -71.2686538696289,
                -49.71711730957031,
                523.8336181640625
            ],
            [
                -74.69039154052734,
                -52.08768844604492,
                543.8336181640625
            ],
            [
                -78.1125259399414,
                -54.458282470703125,
                563.8336181640625
            ],
            [
                -81.53507995605469,
                -56.828887939453125,
                583.8336181640625
            ],
            [
                -84.95803833007813,
                -59.19951248168945,
                603.8336181640625
            ],
            [
                -88.38146209716797,
                -61.57015609741211,
                623.8336181640625
            ],
            [
                -91.8053207397461,
                -63.94081497192383,
                643.8336181640625
            ],
            [
                -95.22962188720703,
                -66.31149291992188,
                663.8336181640625
            ],
            [
                -98.65437316894531,
                -68.68218231201172,
                683.8336181640625
            ],
            [
                -102.07960510253906,
                -71.05289459228516,
                703.8336181640625
            ],
            [
                -105.50532531738281,
                -73.42362213134766,
                723.8336181640625
            ],
            [
                -108.93162536621094,
                -75.79436492919922,
                743.8336181640625
            ],
            [
                -112.35844421386719,
                -78.16513061523438,
                763.8336181640625
            ],
            [
                -115.7857894897461,
                -80.53590393066406,
                783.8336181640625
            ],
            [
                -119.21367645263672,
                -82.90670013427734,
                803.8336181640625
            ],
            [
                -122.64208984375,
                -85.27751922607422,
                823.8336181640625
            ],
            [
                -126.0710678100586,
                -87.64835357666016,
                843.8336181640625
            ],
            [
                -129.50062561035156,
                -90.01920318603516,
                863.8336181640625
            ],
            [
                -132.93075561523438,
                -92.39006805419922,
                883.8336181640625
            ],
            [
                -136.3616180419922,
                -94.76092529296875,
                903.8336181640625
            ],
            [
                -139.7930908203125,
                -97.13179779052734,
                923.8336181640625
            ],
            [
                -143.22525024414063,
                -99.50267791748047,
                943.8336181640625
            ],
            [
                -146.65823364257813,
                -101.87356567382813,
                963.8336181640625
            ],
            [
                -150.0919189453125,
                -104.24446105957031,
                983.8336181640625
            ],
            [
                -153.52626037597656,
                -106.61536407470703,
                1003.8336181640625
            ],
            [
                -170.707763671875,
                -118.46987915039063,
                1103.8336181640625
            ],
            [
                -187.91275024414063,
                -130.32386779785156,
                1203.8336181640625
            ],
            [
                -205.13278198242188,
                -142.177734375,
                1303.8336181640625
            ],
            [
                -222.37130737304688,
                -154.03134155273438,
                1403.8336181640625
            ],
            [
                -239.62640380859375,
                -165.88462829589844,
                1503.8336181640625
            ],
            [
                -256.8990783691406,
                -177.7378387451172,
                1603.8336181640625
            ],
            [
                -274.1887512207031,
                -189.5915985107422,
                1703.8336181640625
            ],
            [
                -291.50079345703125,
                -201.44589233398438,
                1803.8336181640625
            ],
            [
                -308.8313293457031,
                -213.30152893066406,
                1903.8336181640625
            ],
            [
                -326.18865966796875,
                -225.15916442871094,
                2003.8336181640625
            ],
            [
                -343.5719299316406,
                -237.01931762695313,
                2103.83349609375
            ],
            [
                -360.9937744140625,
                -248.88311767578125,
                2203.83349609375
            ],
            [
                -378.443603515625,
                -260.75152587890625,
                2303.83349609375
            ],
            [
                -395.93890380859375,
                -272.6278381347656,
                2403.83349609375
            ],
            [
                -413.4945373535156,
                -284.51251220703125,
                2503.83349609375
            ],
            [
                -431.1214599609375,
                -296.4082336425781,
                2603.83349609375
            ],
            [
                -448.8241882324219,
                -308.3175354003906,
                2703.83349609375
            ],
            [
                -466.6213684082031,
                -320.2427062988281,
                2803.83349609375
            ],
            [
                -484.5447692871094,
                -332.1863708496094,
                2903.83349609375
            ],
            [
                -502.61053466796875,
                -344.1507263183594,
                3003.83349609375
            ],
            [
                -520.8185424804688,
                -356.1387023925781,
                3103.83349609375
            ],
            [
                -539.2364501953125,
                -368.15289306640625,
                3203.83349609375
            ],
            [
                -557.8623046875,
                -380.19744873046875,
                3303.83349609375
            ],
            [
                -576.739013671875,
                -392.2755126953125,
                3403.83349609375
            ],
            [
                -595.9000244140625,
                -404.392333984375,
                3503.83349609375
            ],
            [
                -615.360107421875,
                -416.5505676269531,
                3603.83349609375
            ],
            [
                -635.1707763671875,
                -428.7464904785156,
                3703.83349609375
            ],
            [
                -655.4025268554688,
                -440.98248291015625,
                3803.83349609375
            ],
            [
                -676.0554809570313,
                -453.2656555175781,
                3903.83349609375
            ],
            [
                -697.1815795898438,
                -465.58941650390625,
                4003.83349609375
            ],
            [
                -718.7702026367188,
                -477.9576110839844,
                4103.83349609375
            ],
            [
                -740.9281005859375,
                -490.3559265136719,
                4203.83349609375
            ],
            [
                -763.6370849609375,
                -502.79461669921875,
                4303.83349609375
            ],
            [
                -786.8892211914063,
                -515.272216796875,
                4403.83349609375
            ],
            [
                -810.7244873046875,
                -527.7777099609375,
                4503.83349609375
            ],
            [
                -835.1228637695313,
                -540.3041381835938,
                4603.83349609375
            ],
            [
                -860.1647338867188,
                -552.8501586914063,
                4703.83349609375
            ],
            [
                -885.7543334960938,
                -565.422607421875,
                4803.83349609375
            ],
            [
                -915.3748779296875,
                -576.9304809570313,
                4903.83349609375
            ],
            [
                -942.3275146484375,
                -589.4722290039063,
                5003.83349609375
            ],
            [
                -969.8997192382813,
                -602.0341186523438,
                5103.83349609375
            ],
            [
                -998.02783203125,
                -614.6006469726563,
                5203.83349609375
            ],
            [
                -1026.736328125,
                -627.18212890625,
                5303.83349609375
            ],
            [
                -1056.021728515625,
                -639.7708129882813,
                5403.83349609375
            ],
            [
                -1085.8809814453125,
                -652.355224609375,
                5503.83349609375
            ],
            [
                -1116.2867431640625,
                -664.9615478515625,
                5603.83349609375
            ],
            [
                -1147.258056640625,
                -677.5528564453125,
                5703.83349609375
            ],
            [
                -1178.78857421875,
                -690.152587890625,
                5803.83349609375
            ],
            [
                -1210.826904296875,
                -702.7440185546875,
                5903.83349609375
            ],
            [
                -1243.4208984375,
                -715.3341064453125,
                6003.83349609375
            ],
            [
                -1276.508544921875,
                -727.9185180664063,
                6103.83349609375
            ],
            [
                -1310.0987548828125,
                -740.4929809570313,
                6203.83349609375
            ],
            [
                -1344.189697265625,
                -753.0565795898438,
                6303.83349609375
            ],
            [
                -1378.7586669921875,
                -765.6029663085938,
                6403.83349609375
            ],
            [
                -1413.7882080078125,
                -778.1279296875,
                6503.83349609375
            ],
            [
                -1449.26806640625,
                -790.6365356445313,
                6603.83349609375
            ],
            [
                -1485.1759033203125,
                -803.1220703125,
                6703.83349609375
            ],
            [
                -1521.4775390625,
                -815.5804443359375,
                6803.83349609375
            ],
            [
                -1558.1705322265625,
                -828.0078125,
                6903.83349609375
            ],
            [
                -1595.216552734375,
                -840.4058837890625,
                7003.83349609375
            ],
            [
                -1632.5933837890625,
                -852.7743530273438,
                7103.83349609375
            ],
            [
                -1670.2786865234375,
                -865.110107421875,
                7203.83349609375
            ],
            [
                -1708.240234375,
                -877.41748046875,
                7303.83349609375
            ],
            [
                -1746.46630859375,
                -889.696044921875,
                7403.83349609375
            ],
            [
                -1784.9130859375,
                -901.9502563476563,
                7503.83349609375
            ],
            [
                -1823.5799560546875,
                -914.1766357421875,
                7603.83349609375
            ],
            [
                -1862.429443359375,
                -926.3823852539063,
                7703.83349609375
            ],
            [
                -1901.4468994140625,
                -938.5703735351563,
                7803.83349609375
            ],
            [
                -1940.6141357421875,
                -950.74267578125,
                7903.83349609375
            ],
            [
                -1979.9127197265625,
                -962.9019775390625,
                8003.83349609375
            ],
            [
                -2019.3299560546875,
                -975.0511474609375,
                8103.83349609375
            ],
            [
                -2058.84814453125,
                -987.193115234375,
                8203.833984375
            ],
            [
                -2098.457275390625,
                -999.3297729492188,
                8303.833984375
            ],
            [
                -2138.147216796875,
                -1011.4632568359375,
                8403.833984375
            ],
            [
                -2177.908447265625,
                -1023.5950927734375,
                8503.833984375
            ],
            [
                -2217.729736328125,
                -1035.7266845703125,
                8603.833984375
            ],
            [
                -2257.6064453125,
                -1047.8592529296875,
                8703.833984375
            ],
            [
                -2297.53173828125,
                -1059.993408203125,
                8803.833984375
            ],
            [
                -2337.499755859375,
                -1072.130126953125,
                8903.833984375
            ],
            [
                -2377.505859375,
                -1084.2698974609375,
                9003.833984375
            ],
            [
                -2417.545654296875,
                -1096.4129638671875,
                9103.833984375
            ],
            [
                -2457.615478515625,
                -1108.5595703125,
                9203.833984375
            ],
            [
                -2497.7119140625,
                -1120.7098388671875,
                9303.833984375
            ],
            [
                -2537.83203125,
                -1132.8636474609375,
                9403.833984375
            ],
            [
                -2577.973388671875,
                -1145.0208740234375,
                9503.833984375
            ],
            [
                -2618.133544921875,
                -1157.181396484375,
                9603.833984375
            ],
            [
                -2658.310791015625,
                -1169.3450927734375,
                9703.833984375
            ],
            [
                -2698.503173828125,
                -1181.51171875,
                9803.833984375
            ],
            [
                -2738.708984375,
                -1193.6810302734375,
                9903.833984375
            ],
            [
                -2778.927001953125,
                -1205.8531494140625,
                10003.833984375
            ],
            [
                -2859.39404296875,
                -1230.204833984375,
                10203.833984375
            ],
            [
                -2939.895751953125,
                -1254.5655517578125,
                10403.833984375
            ],
            [
                -3020.42333984375,
                -1278.935302734375,
                10603.833984375
            ],
            [
                -3100.97265625,
                -1303.3126220703125,
                10803.833984375
            ],
            [
                -3181.5380859375,
                -1327.6964111328125,
                11003.833984375
            ],
            [
                -3262.1162109375,
                -1352.08642578125,
                11203.833984375
            ],
            [
                -3342.705078125,
                -1376.4818115234375,
                11403.833984375
            ],
            [
                -3423.299072265625,
                -1400.8828125,
                11603.833984375
            ],
            [
                -3503.8994140625,
                -1425.28759765625,
                11803.833984375
            ],
            [
                -3584.50341796875,
                -1449.6962890625,
                12003.833984375
            ],
            [
                -3665.111328125,
                -1474.1082763671875,
                12203.833984375
            ],
            [
                -3745.72119140625,
                -1498.5233154296875,
                12403.833984375
            ],
            [
                -3826.329345703125,
                -1522.94140625,
                12603.833984375
            ],
            [
                -3906.939697265625,
                -1547.3609619140625,
                12803.833984375
            ],
            [
                -3987.551513671875,
                -1571.7822265625,
                13003.833984375
            ],
            [
                -4068.163818359375,
                -1596.2049560546875,
                13203.833984375
            ],
            [
                -4148.7763671875,
                -1620.628662109375,
                13403.833984375
            ]
        ],
        "zFirstMeasurement": 169.4538
    },
    {
        "E": 17752.07410566994,
        "chi2": 0.4399831295013428,
        "ip": 0.0168198444417901,
        "ipchi2": 0.6139369357739726,
        "mass": 139.57,
        "particleId": "pi+",
        "pvx": 0.5684,
        "pvy": 0.0872,
        "pvz": 102.6717,
        "px": -1461.63,
        "py": 59.2,
        "pz": 17691.15,
        "q": 1.0,
        "trajectory": [
            [
                0.4667486846446991,
                0.10693728923797607,
                103.83360290527344
            ],
            [
                -1.1856237649917603,
                0.1738632768392563,
                123.83360290527344
            ],
            [
                -2.8379340171813965,
                0.24078920483589172,
                143.83360290527344
            ],
            [
                -4.490177631378174,
                0.30771511793136597,
                163.83360290527344
            ],
            [
                -6.142417907714844,
                0.37459704279899597,
                183.83360290527344
            ],
            [
                -7.794526100158691,
                0.441523015499115,
                203.83360290527344
            ],
            [
                -9.446563720703125,
                0.5084490180015564,
                223.83360290527344
            ],
            [
                -11.098526000976563,
                0.5753750205039978,
                243.83360290527344
            ],
            [
                -12.750409126281738,
                0.642301082611084,
                263.8335876464844
            ],
            [
                -14.402207374572754,
                0.7092272043228149,
                283.8335876464844
            ],
            [
                -16.053916931152344,
                0.7761535048484802,
                303.8335876464844
            ],
            [
                -17.705533981323242,
                0.8430799245834351,
                323.8335876464844
            ],
            [
                -19.357099533081055,
                0.9100061655044556,
                343.8335876464844
            ],
            [
                -21.008544921875,
                0.9769328236579895,
                363.8335876464844
            ],
            [
                -22.659893035888672,
                1.043859601020813,
                383.8335876464844
            ],
            [
                -24.311138153076172,
                1.1107865571975708,
                403.8335876464844
            ],
            [
                -25.9622802734375,
                1.1777138710021973,
                423.8335876464844
            ],
            [
                -27.61331558227539,
                1.2446413040161133,
                443.8335876464844
            ],
            [
                -29.264240264892578,
                1.3115689754486084,
                463.8335876464844
            ],
            [
                -30.91504669189453,
                1.3784971237182617,
                483.8335876464844
            ],
            [
                -32.56573486328125,
                1.4454255104064941,
                503.8335876464844
            ],
            [
                -34.21629333496094,
                1.5123541355133057,
                523.8336181640625
            ],
            [
                -35.86671829223633,
                1.5792831182479858,
                543.8336181640625
            ],
            [
                -37.51701354980469,
                1.6462124586105347,
                563.8336181640625
            ],
            [
                -39.167171478271484,
                1.7131422758102417,
                583.8336181640625
            ],
            [
                -40.81719207763672,
                1.7800724506378174,
                603.8336181640625
            ],
            [
                -42.467063903808594,
                1.84700345993042,
                623.8336181640625
            ],
            [
                -44.11678695678711,
                1.9139349460601807,
                643.8336181640625
            ],
            [
                -45.766357421875,
                1.9808669090270996,
                663.8336181640625
            ],
            [
                -47.415771484375,
                2.0477993488311768,
                683.8336181640625
            ],
            [
                -49.065006256103516,
                2.1147313117980957,
                703.8336181640625
            ],
            [
                -50.714073181152344,
                2.1816635131835938,
                723.8336181640625
            ],
            [
                -52.362972259521484,
                2.24859619140625,
                743.8336181640625
            ],
            [
                -54.01169967651367,
                2.3155291080474854,
                763.8336181640625
            ],
            [
                -55.66024398803711,
                2.382462501525879,
                783.8336181640625
            ],
            [
                -57.30859375,
                2.4493963718414307,
                803.8336181640625
            ],
            [
                -58.956729888916016,
                2.5163302421569824,
                823.8336181640625
            ],
            [
                -60.60466384887695,
                2.5832645893096924,
                843.8336181640625
            ],
            [
                -62.25237274169922,
                2.6502034664154053,
                863.8336181640625
            ],
            [
                -63.899864196777344,
                2.717144012451172,
                883.8336181640625
            ],
            [
                -65.5471420288086,
                2.784085512161255,
                903.8336181640625
            ],
            [
                -67.19422149658203,
                2.851027727127075,
                923.8336181640625
            ],
            [
                -68.8410873413086,
                2.917971134185791,
                943.8336181640625
            ],
            [
                -70.48771667480469,
                2.9849154949188232,
                963.8336181640625
            ],
            [
                -72.13412475585938,
                3.051861047744751,
                983.8336181640625
            ],
            [
                -73.78030395507813,
                3.118807554244995,
                1003.8336181640625
            ],
            [
                -82.00811004638672,
                3.4535436630249023,
                1103.8336181640625
            ],
            [
                -90.22957611083984,
                3.7882823944091797,
                1203.8336181640625
            ],
            [
                -98.44365692138672,
                4.123076915740967,
                1303.8336181640625
            ],
            [
                -106.65264892578125,
                4.457869052886963,
                1403.8336181640625
            ],
            [
                -114.85601043701172,
                4.792686939239502,
                1503.8336181640625
            ],
            [
                -123.05284118652344,
                5.127540588378906,
                1603.8336181640625
            ],
            [
                -131.2429962158203,
                5.462408065795898,
                1703.8336181640625
            ],
            [
                -139.42636108398438,
                5.797285079956055,
                1803.8336181640625
            ],
            [
                -147.60223388671875,
                6.132152557373047,
                1903.8336181640625
            ],
            [
                -155.76808166503906,
                6.467032432556152,
                2003.8336181640625
            ],
            [
                -163.92428588867188,
                6.801890850067139,
                2103.83349609375
            ],
            [
                -172.06802368164063,
                7.13674259185791,
                2203.83349609375
            ],
            [
                -180.19293212890625,
                7.471654891967773,
                2303.83349609375
            ],
            [
                -188.30247497558594,
                7.806563854217529,
                2403.83349609375
            ],
            [
                -196.38600158691406,
                8.141484260559082,
                2503.83349609375
            ],
            [
                -204.4448699951172,
                8.476380348205566,
                2603.83349609375
            ],
            [
                -212.4716033935547,
                8.81129264831543,
                2703.83349609375
            ],
            [
                -220.46035766601563,
                9.14620590209961,
                2803.83349609375
            ],
            [
                -228.40280151367188,
                9.481083869934082,
                2903.83349609375
            ],
            [
                -236.2902069091797,
                9.815940856933594,
                3003.83349609375
            ],
            [
                -244.11892700195313,
                10.150750160217285,
                3103.83349609375
            ],
            [
                -251.88087463378906,
                10.485392570495605,
                3203.83349609375
            ],
            [
                -259.5486145019531,
                10.819869041442871,
                3303.83349609375
            ],
            [
                -267.1342468261719,
                11.154236793518066,
                3403.83349609375
            ],
            [
                -274.61761474609375,
                11.488512992858887,
                3503.83349609375
            ],
            [
                -281.99578857421875,
                11.822661399841309,
                3603.83349609375
            ],
            [
                -289.2511901855469,
                12.156866073608398,
                3703.83349609375
            ],
            [
                -296.3831481933594,
                12.490806579589844,
                3803.83349609375
            ],
            [
                -303.368896484375,
                12.824584007263184,
                3903.83349609375
            ],
            [
                -310.22088623046875,
                13.158599853515625,
                4003.83349609375
            ],
            [
                -316.90362548828125,
                13.492806434631348,
                4103.83349609375
            ],
            [
                -323.43194580078125,
                13.827314376831055,
                4203.83349609375
            ],
            [
                -329.7786865234375,
                14.16153335571289,
                4303.83349609375
            ],
            [
                -335.97076416015625,
                14.496203422546387,
                4403.83349609375
            ],
            [
                -341.98577880859375,
                14.831401824951172,
                4503.83349609375
            ],
            [
                -347.8169250488281,
                15.166851997375488,
                4603.83349609375
            ],
            [
                -353.48590087890625,
                15.502375602722168,
                4703.83349609375
            ],
            [
                -358.966796875,
                15.837998390197754,
                4803.83349609375
            ],
            [
                -365.92608642578125,
                16.65220832824707,
                4903.83349609375
            ],
            [
                -371.0678405761719,
                16.986181259155273,
                5003.83349609375
            ],
            [
                -376.0302734375,
                17.320924758911133,
                5103.83349609375
            ],
            [
                -380.82196044921875,
                17.6558780670166,
                5203.83349609375
            ],
            [
                -385.44091796875,
                17.991724014282227,
                5303.83349609375
            ],
            [
                -389.8924255371094,
                18.327102661132813,
                5403.83349609375
            ],
            [
                -394.1780700683594,
                18.662153244018555,
                5503.83349609375
            ],
            [
                -398.30548095703125,
                18.998859405517578,
                5603.83349609375
            ],
            [
                -402.2700500488281,
                19.3353328704834,
                5703.83349609375
            ],
            [
                -406.0779113769531,
                19.672483444213867,
                5803.83349609375
            ],
            [
                -409.73895263671875,
                20.010114669799805,
                5903.83349609375
            ],
            [
                -413.2485046386719,
                20.348285675048828,
                6003.83349609375
            ],
            [
                -416.61602783203125,
                20.687040328979492,
                6103.83349609375
            ],
            [
                -419.8451232910156,
                21.025981903076172,
                6203.83349609375
            ],
            [
                -422.9400939941406,
                21.365116119384766,
                6303.83349609375
            ],
            [
                -425.9067687988281,
                21.704540252685547,
                6403.83349609375
            ],
            [
                -428.7480773925781,
                22.043964385986328,
                6503.83349609375
            ],
            [
                -431.47216796875,
                22.383853912353516,
                6603.83349609375
            ],
            [
                -434.08172607421875,
                22.724075317382813,
                6703.83349609375
            ],
            [
                -436.58514404296875,
                23.064533233642578,
                6803.83349609375
            ],
            [
                -438.9840393066406,
                23.40505027770996,
                6903.83349609375
            ],
            [
                -441.2860107421875,
                23.74574089050293,
                7003.83349609375
            ],
            [
                -443.49713134765625,
                24.086626052856445,
                7103.83349609375
            ],
            [
                -445.62286376953125,
                24.427703857421875,
                7203.83349609375
            ],
            [
                -447.6677551269531,
                24.768997192382813,
                7303.83349609375
            ],
            [
                -449.63629150390625,
                25.11041831970215,
                7403.83349609375
            ],
            [
                -451.5367736816406,
                25.452116012573242,
                7503.83349609375
            ],
            [
                -453.3710021972656,
                25.79399299621582,
                7603.83349609375
            ],
            [
                -455.1456604003906,
                26.13613510131836,
                7703.83349609375
            ],
            [
                -456.86328125,
                26.47854995727539,
                7803.83349609375
            ],
            [
                -458.5286865234375,
                26.82122802734375,
                7903.83349609375
            ],
            [
                -460.1463623046875,
                27.164165496826172,
                8003.83349609375
            ],
            [
                -461.718994140625,
                27.507369995117188,
                8103.83349609375
            ],
            [
                -463.25146484375,
                27.850831985473633,
                8203.833984375
            ],
            [
                -464.74639892578125,
                28.194534301757813,
                8303.833984375
            ],
            [
                -466.2066650390625,
                28.538463592529297,
                8403.833984375
            ],
            [
                -467.635009765625,
                28.882604598999023,
                8503.833984375
            ],
            [
                -469.03497314453125,
                29.226930618286133,
                8603.833984375
            ],
            [
                -470.4081115722656,
                29.571435928344727,
                8703.833984375
            ],
            [
                -471.7569274902344,
                29.91609001159668,
                8803.833984375
            ],
            [
                -473.0835876464844,
                30.26091194152832,
                8903.833984375
            ],
            [
                -474.3897399902344,
                30.605886459350586,
                9003.833984375
            ],
            [
                -475.6772155761719,
                30.950998306274414,
                9103.833984375
            ],
            [
                -476.9476623535156,
                31.296241760253906,
                9203.833984375
            ],
            [
                -478.2025451660156,
                31.641603469848633,
                9303.833984375
            ],
            [
                -479.4432373046875,
                31.987075805664063,
                9403.833984375
            ],
            [
                -480.6710205078125,
                32.332645416259766,
                9503.833984375
            ],
            [
                -481.886962890625,
                32.67830276489258,
                9603.833984375
            ],
            [
                -483.0921630859375,
                33.024044036865234,
                9703.833984375
            ],
            [
                -484.28753662109375,
                33.36985397338867,
                9803.833984375
            ],
            [
                -485.4740295410156,
                33.71573257446289,
                9903.833984375
            ],
            [
                -486.6523132324219,
                34.06167221069336,
                10003.833984375
            ],
            [
                -488.9872741699219,
                34.75370407104492,
                10203.833984375
            ],
            [
                -491.29736328125,
                35.44590377807617,
                10403.833984375
            ],
            [
                -493.5871276855469,
                36.13823318481445,
                10603.833984375
            ],
            [
                -495.85943603515625,
                36.83067321777344,
                10803.833984375
            ],
            [
                -498.11810302734375,
                37.5231819152832,
                11003.833984375
            ],
            [
                -500.36492919921875,
                38.21575164794922,
                11203.833984375
            ],
            [
                -502.6016540527344,
                38.90835952758789,
                11403.833984375
            ],
            [
                -504.8309020996094,
                39.60099411010742,
                11603.833984375
            ],
            [
                -507.053466796875,
                40.29364776611328,
                11803.833984375
            ],
            [
                -509.2710266113281,
                40.986305236816406,
                12003.833984375
            ],
            [
                -511.4833679199219,
                41.67897415161133,
                12203.833984375
            ],
            [
                -513.6923217773438,
                42.37164306640625,
                12403.833984375
            ],
            [
                -515.8992309570313,
                43.064300537109375,
                12603.833984375
            ],
            [
                -518.10400390625,
                43.7569580078125,
                12803.833984375
            ],
            [
                -520.306396484375,
                44.449615478515625,
                13003.833984375
            ],
            [
                -522.507080078125,
                45.14227294921875,
                13203.833984375
            ],
            [
                -524.7069702148438,
                45.834922790527344,
                13403.833984375
            ]
        ],
        "zFirstMeasurement": 229.2578
    },
    {
        "E": 6210.868403463821,
        "chi2": 1.3904333114624023,
        "ip": 0.16034520523434956,
        "ipchi2": 30.49522186618396,
        "mass": 139.57018,
        "particleId": "pi-",
        "pvx": 0.5684,
        "pvy": 0.0872,
        "pvz": 102.6717,
        "px": 802.762384574387,
        "py": 414.54137942007384,
        "pz": 6143.218577314415,
        "q": -1.0,
        "trajectory": [
            [
                -25.90092658996582,
                -13.429420471191406,
                -100.0
            ],
            [
                -25.247211456298828,
                -13.092031478881836,
                -95.0
            ],
            [
                -24.593503952026367,
                -12.754642486572266,
                -90.0
            ],
            [
                -23.939802169799805,
                -12.417253494262695,
                -85.0
            ],
            [
                -23.286109924316406,
                -12.079864501953125,
                -80.0
            ],
            [
                -22.632423400878906,
                -11.742474555969238,
                -75.0
            ],
            [
                -21.978744506835938,
                -11.405084609985352,
                -70.0
            ],
            [
                -21.3250732421875,
                -11.067694664001465,
                -65.0
            ],
            [
                -20.671409606933594,
                -10.730303764343262,
                -60.0
            ],
            [
                -20.01775360107422,
                -10.392913818359375,
                -55.0
            ],
            [
                -19.364105224609375,
                -10.055522918701172,
                -50.0
            ],
            [
                -18.710466384887695,
                -9.718131065368652,
                -45.0
            ],
            [
                -18.056833267211914,
                -9.38074016571045,
                -40.0
            ],
            [
                -17.403207778930664,
                -9.04334831237793,
                -35.0
            ],
            [
                -16.749591827392578,
                -8.70595645904541,
                -30.0
            ],
            [
                -16.095983505249023,
                -8.36856460571289,
                -25.0
            ],
            [
                -15.4423828125,
                -8.031171798706055,
                -20.0
            ],
            [
                -14.788790702819824,
                -7.693779468536377,
                -15.0
            ],
            [
                -14.135207176208496,
                -7.356386661529541,
                -10.0
            ],
            [
                -13.4816312789917,
                -7.018993854522705,
                -5.0
            ],
            [
                -12.828001022338867,
                -6.6815996170043945,
                0.0
            ],
            [
                -12.174452781677246,
                -6.3442063331604,
                5.0
            ],
            [
                -11.52091121673584,
                -6.006812572479248,
                10.0
            ],
            [
                -10.867378234863281,
                -5.669418811798096,
                15.0
            ],
            [
                -10.21385383605957,
                -5.332024574279785,
                20.0
            ],
            [
                -9.56033706665039,
                -4.994630336761475,
                25.0
            ],
            [
                -8.906828880310059,
                -4.657236099243164,
                30.0
            ],
            [
                -8.253329277038574,
                -4.319841384887695,
                35.0
            ],
            [
                -7.5998382568359375,
                -3.9824461936950684,
                40.0
            ],
            [
                -6.946356296539307,
                -3.6450510025024414,
                45.0
            ],
            [
                -6.292882919311523,
                -3.3076555728912354,
                50.0
            ],
            [
                -5.639419078826904,
                -2.9702601432800293,
                55.0
            ],
            [
                -4.985964298248291,
                -2.632864236831665,
                60.0
            ],
            [
                -4.33251953125,
                -2.2954680919647217,
                65.0
            ],
            [
                -3.679083824157715,
                -1.9580718278884888,
                70.0
            ],
            [
                -3.025658130645752,
                -1.6206753253936768,
                75.0
            ],
            [
                -2.3722422122955322,
                -1.2832785844802856,
                80.0
            ],
            [
                -1.7188364267349243,
                -0.945881724357605,
                85.0
            ],
            [
                -1.0654407739639282,
                -0.6084845662117004,
                90.0
            ],
            [
                -0.41205552220344543,
                -0.27108728885650635,
                95.0
            ],
            [
                0.2413191944360733,
                0.06631023436784744,
                100.0
            ],
            [
                2.8547096252441406,
                1.4159022569656372,
                120.0
            ],
            [
                5.467917442321777,
                2.7654972076416016,
                140.0
            ],
            [
                8.08090591430664,
                4.115022659301758,
                160.0
            ],
            [
                10.693737030029297,
                5.46462345123291,
                180.0
            ],
            [
                13.306366920471191,
                6.8142266273498535,
                200.0
            ],
            [
                15.918783187866211,
                8.163832664489746,
                220.0
            ],
            [
                18.530973434448242,
                9.513440132141113,
                240.0
            ],
            [
                21.14292335510254,
                10.863049507141113,
                260.0
            ],
            [
                23.754619598388672,
                12.212660789489746,
                280.0
            ],
            [
                26.36618995666504,
                13.562276840209961,
                300.0
            ],
            [
                28.977428436279297,
                14.91189193725586,
                320.0
            ],
            [
                31.588401794433594,
                16.26150894165039,
                340.0
            ],
            [
                34.19910430908203,
                17.611127853393555,
                360.0
            ],
            [
                36.80952453613281,
                18.96074676513672,
                380.0
            ],
            [
                39.41965103149414,
                20.310365676879883,
                400.0
            ],
            [
                42.02947235107422,
                21.65998649597168,
                420.0
            ],
            [
                44.63898468017578,
                23.009607315063477,
                440.0
            ],
            [
                47.24817657470703,
                24.359230041503906,
                460.0
            ],
            [
                49.85703659057617,
                25.708850860595703,
                480.0
            ],
            [
                52.46555709838867,
                27.0584716796875,
                500.0
            ],
            [
                55.07371520996094,
                28.408092498779297,
                520.0
            ],
            [
                57.68151092529297,
                29.75771141052246,
                540.0
            ],
            [
                60.28890609741211,
                31.107330322265625,
                560.0
            ],
            [
                62.89589309692383,
                32.456947326660156,
                580.0
            ],
            [
                65.5024642944336,
                33.80656051635742,
                600.0
            ],
            [
                68.10859680175781,
                35.15617370605469,
                620.0
            ],
            [
                70.71430969238281,
                36.50578308105469,
                640.0
            ],
            [
                73.31957244873047,
                37.85538864135742,
                660.0
            ],
            [
                75.92439270019531,
                39.204994201660156,
                680.0
            ],
            [
                78.52874755859375,
                40.554595947265625,
                700.0
            ],
            [
                81.13259887695313,
                41.904197692871094,
                720.0
            ],
            [
                83.7358627319336,
                43.2537956237793,
                740.0
            ],
            [
                86.33860778808594,
                44.60338592529297,
                760.0
            ],
            [
                88.94082641601563,
                45.952972412109375,
                780.0
            ],
            [
                91.5425033569336,
                47.302555084228516,
                800.0
            ],
            [
                94.14363861083984,
                48.65213394165039,
                820.0
            ],
            [
                96.74420166015625,
                50.001712799072266,
                840.0
            ],
            [
                99.34419250488281,
                51.35128402709961,
                860.0
            ],
            [
                101.94355010986328,
                52.70084762573242,
                880.0
            ],
            [
                104.54212951660156,
                54.05039978027344,
                900.0
            ],
            [
                107.13999938964844,
                55.39994812011719,
                920.0
            ],
            [
                109.7371826171875,
                56.74949264526367,
                940.0
            ],
            [
                112.33368682861328,
                58.09903335571289,
                960.0
            ],
            [
                114.92950439453125,
                59.448570251464844,
                980.0
            ],
            [
                117.52460479736328,
                60.798099517822266,
                1000.0
            ],
            [
                130.4918670654297,
                67.54591369628906,
                1100.0
            ],
            [
                143.43653869628906,
                74.29389953613281,
                1200.0
            ],
            [
                156.36553955078125,
                81.04188537597656,
                1300.0
            ],
            [
                169.27667236328125,
                87.7900390625,
                1400.0
            ],
            [
                182.17274475097656,
                94.5384750366211,
                1500.0
            ],
            [
                195.0507049560547,
                101.28694152832031,
                1600.0
            ],
            [
                207.90969848632813,
                108.03511810302734,
                1700.0
            ],
            [
                220.74618530273438,
                114.78302764892578,
                1800.0
            ],
            [
                233.56300354003906,
                121.53033447265625,
                1900.0
            ],
            [
                246.3544464111328,
                128.27735900878906,
                2000.0
            ],
            [
                259.11962890625,
                135.0233917236328,
                2100.0
            ],
            [
                271.8388366699219,
                141.76710510253906,
                2200.0
            ],
            [
                284.52752685546875,
                148.50950622558594,
                2300.0
            ],
            [
                297.164794921875,
                155.24874877929688,
                2400.0
            ],
            [
                309.7348937988281,
                161.98451232910156,
                2500.0
            ],
            [
                322.23004150390625,
                168.71560668945313,
                2600.0
            ],
            [
                334.6417541503906,
                175.44168090820313,
                2700.0
            ],
            [
                346.9515075683594,
                182.16204833984375,
                2800.0
            ],
            [
                359.12982177734375,
                188.87460327148438,
                2900.0
            ],
            [
                371.1591491699219,
                195.57920837402344,
                3000.0
            ],
            [
                383.0339660644531,
                202.27488708496094,
                3100.0
            ],
            [
                394.6838684082031,
                208.95901489257813,
                3200.0
            ],
            [
                406.12005615234375,
                215.6327667236328,
                3300.0
            ],
            [
                417.3017272949219,
                222.29417419433594,
                3400.0
            ],
            [
                428.1949768066406,
                228.9435577392578,
                3500.0
            ],
            [
                438.7917175292969,
                235.58169555664063,
                3600.0
            ],
            [
                449.04168701171875,
                242.2088623046875,
                3700.0
            ],
            [
                458.9034423828125,
                248.82252502441406,
                3800.0
            ],
            [
                468.36773681640625,
                255.42425537109375,
                3900.0
            ],
            [
                477.4114074707031,
                262.0148620605469,
                4000.0
            ],
            [
                486.006591796875,
                268.5975341796875,
                4100.0
            ],
            [
                494.0867919921875,
                275.1700439453125,
                4200.0
            ],
            [
                501.688720703125,
                281.73309326171875,
                4300.0
            ],
            [
                508.802734375,
                288.2907409667969,
                4400.0
            ],
            [
                515.4135131835938,
                294.8432922363281,
                4500.0
            ],
            [
                521.513916015625,
                301.3904113769531,
                4600.0
            ],
            [
                527.0748291015625,
                307.9326171875,
                4700.0
            ],
            [
                532.142822265625,
                314.4689025878906,
                4800.0
            ],
            [
                533.6340942382813,
                324.981201171875,
                4900.0
            ],
            [
                537.6724853515625,
                331.5946350097656,
                5000.0
            ],
            [
                541.1884765625,
                338.2022705078125,
                5100.0
            ],
            [
                544.2073974609375,
                344.8077087402344,
                5200.0
            ],
            [
                546.7230834960938,
                351.4119567871094,
                5300.0
            ],
            [
                548.7559814453125,
                358.01556396484375,
                5400.0
            ],
            [
                550.2999267578125,
                364.61712646484375,
                5500.0
            ],
            [
                551.3915405273438,
                371.215087890625,
                5600.0
            ],
            [
                552.0099487304688,
                377.8116760253906,
                5700.0
            ],
            [
                552.1716918945313,
                384.4072570800781,
                5800.0
            ],
            [
                551.9063110351563,
                390.99981689453125,
                5900.0
            ],
            [
                551.1967163085938,
                397.5879211425781,
                6000.0
            ],
            [
                550.0728759765625,
                404.17340087890625,
                6100.0
            ],
            [
                548.5447998046875,
                410.7571105957031,
                6200.0
            ],
            [
                546.6221923828125,
                417.33807373046875,
                6300.0
            ],
            [
                544.3235473632813,
                423.91650390625,
                6400.0
            ],
            [
                541.6582641601563,
                430.49169921875,
                6500.0
            ],
            [
                538.6478881835938,
                437.0630798339844,
                6600.0
            ],
            [
                535.3009643554688,
                443.6304626464844,
                6700.0
            ],
            [
                531.6437377929688,
                450.1938781738281,
                6800.0
            ],
            [
                527.678955078125,
                456.75225830078125,
                6900.0
            ],
            [
                523.4315795898438,
                463.30560302734375,
                7000.0
            ],
            [
                518.919677734375,
                469.85400390625,
                7100.0
            ],
            [
                514.1604614257813,
                476.3974609375,
                7200.0
            ],
            [
                509.1688232421875,
                482.9351806640625,
                7300.0
            ],
            [
                503.9554443359375,
                489.4669494628906,
                7400.0
            ],
            [
                498.5498352050781,
                495.9928894042969,
                7500.0
            ],
            [
                492.95452880859375,
                502.51275634765625,
                7600.0
            ],
            [
                487.191162109375,
                509.02667236328125,
                7700.0
            ],
            [
                481.2678527832031,
                515.53466796875,
                7800.0
            ],
            [
                475.19927978515625,
                522.0368041992188,
                7900.0
            ],
            [
                468.9989929199219,
                528.5332641601563,
                8000.0
            ],
            [
                462.67462158203125,
                535.0241088867188,
                8100.0
            ],
            [
                456.2409362792969,
                541.5097045898438,
                8200.0
            ],
            [
                449.7052307128906,
                547.9901733398438,
                8300.0
            ],
            [
                443.0755920410156,
                554.4657592773438,
                8400.0
            ],
            [
                436.3597106933594,
                560.9367065429688,
                8500.0
            ],
            [
                429.5682373046875,
                567.4033203125,
                8600.0
            ],
            [
                422.7049560546875,
                573.8658447265625,
                8700.0
            ],
            [
                415.7768249511719,
                580.3245849609375,
                8800.0
            ],
            [
                408.789794921875,
                586.7796630859375,
                8900.0
            ],
            [
                401.748291015625,
                593.2313842773438,
                9000.0
            ],
            [
                394.65728759765625,
                599.6798706054688,
                9100.0
            ],
            [
                387.52142333984375,
                606.12548828125,
                9200.0
            ],
            [
                380.3444519042969,
                612.5682983398438,
                9300.0
            ],
            [
                373.130126953125,
                619.008544921875,
                9400.0
            ],
            [
                365.8819580078125,
                625.4464721679688,
                9500.0
            ],
            [
                358.6027526855469,
                631.8822021484375,
                9600.0
            ],
            [
                351.29541015625,
                638.3158569335938,
                9700.0
            ],
            [
                343.9623718261719,
                644.7476806640625,
                9800.0
            ],
            [
                336.6060791015625,
                651.1777954101563,
                9900.0
            ],
            [
                329.2284240722656,
                657.6063232421875,
                10000.0
            ],
            [
                314.41668701171875,
                670.4591674804688,
                10200.0
            ],
            [
                299.5401916503906,
                683.3070678710938,
                10400.0
            ],
            [
                284.6107482910156,
                696.1509399414063,
                10600.0
            ],
            [
                269.63592529296875,
                708.9912719726563,
                10800.0
            ],
            [
                254.62550354003906,
                721.828857421875,
                11000.0
            ],
            [
                239.58433532714844,
                734.6640625,
                11200.0
            ],
            [
                224.5170135498047,
                747.4971923828125,
                11400.0
            ],
            [
                209.4300079345703,
                760.328857421875,
                11600.0
            ],
            [
                194.3260498046875,
                773.1591796875,
                11800.0
            ],
            [
                179.2089080810547,
                785.9884643554688,
                12000.0
            ],
            [
                164.07827758789063,
                798.8167724609375,
                12200.0
            ],
            [
                148.93890380859375,
                811.6444091796875,
                12400.0
            ],
            [
                133.79420471191406,
                824.4715576171875,
                12600.0
            ],
            [
                118.64402770996094,
                837.2984008789063,
                12800.0
            ],
            [
                103.48766326904297,
                850.124755859375,
                13000.0
            ],
            [
                88.32662963867188,
                862.9508056640625,
                13200.0
            ],
            [
                73.163818359375,
                875.7767333984375,
                13400.0
            ]
        ],
        "zFirstMeasurement": 184.2987
    },
    {
        "E": 15344.294771371711,
        "chi2": 0.9415379762649536,
        "ip": 0.04490468651238131,
        "ipchi2": 7.063187386882007,
        "mass": 139.57018,
        "particleId": "pi+",
        "pvx": 0.5684,
        "pvy": 0.0872,
        "pvz": 102.6717,
        "px": 2075.0958829810597,
        "py": 438.4778410864415,
        "pz": 15196.368528530467,
        "q": 1.0,
        "trajectory": [
            [
                -27.06250762939453,
                -5.742339134216309,
                -100.0
            ],
            [
                -26.379884719848633,
                -5.598064422607422,
                -95.0
            ],
            [
                -25.6972599029541,
                -5.453789710998535,
                -90.0
            ],
            [
                -25.014631271362305,
                -5.309514999389648,
                -85.0
            ],
            [
                -24.331998825073242,
                -5.165240287780762,
                -80.0
            ],
            [
                -23.649364471435547,
                -5.020966053009033,
                -75.0
            ],
            [
                -22.96672821044922,
                -4.876691818237305,
                -70.0
            ],
            [
                -22.284086227416992,
                -4.732417583465576,
                -65.0
            ],
            [
                -21.601442337036133,
                -4.588143348693848,
                -60.0
            ],
            [
                -20.91879653930664,
                -4.443869590759277,
                -55.0
            ],
            [
                -20.236146926879883,
                -4.299595832824707,
                -50.0
            ],
            [
                -19.55349349975586,
                -4.155322074890137,
                -45.0
            ],
            [
                -18.870838165283203,
                -4.011048316955566,
                -40.0
            ],
            [
                -18.18817901611328,
                -3.866774797439575,
                -35.0
            ],
            [
                -17.505516052246094,
                -3.722501516342163,
                -30.0
            ],
            [
                -16.82284927368164,
                -3.578228235244751,
                -25.0
            ],
            [
                -16.140180587768555,
                -3.433954954147339,
                -20.0
            ],
            [
                -15.45750904083252,
                -3.289681911468506,
                -15.0
            ],
            [
                -14.774833679199219,
                -3.145409107208252,
                -10.0
            ],
            [
                -14.092154502868652,
                -3.001136064529419,
                -5.0
            ],
            [
                -13.409497261047363,
                -2.856863498687744,
                0.0
            ],
            [
                -12.726807594299316,
                -2.7125909328460693,
                5.0
            ],
            [
                -12.04411506652832,
                -2.5683183670043945,
                10.0
            ],
            [
                -11.361418724060059,
                -2.424046039581299,
                15.0
            ],
            [
                -10.678719520568848,
                -2.279773712158203,
                20.0
            ],
            [
                -9.996016502380371,
                -2.1355013847351074,
                25.0
            ],
            [
                -9.313310623168945,
                -1.9912292957305908,
                30.0
            ],
            [
                -8.630600929260254,
                -1.8469573259353638,
                35.0
            ],
            [
                -7.947887897491455,
                -1.7026854753494263,
                40.0
            ],
            [
                -7.265171527862549,
                -1.5584137439727783,
                45.0
            ],
            [
                -6.582451343536377,
                -1.4141420125961304,
                50.0
            ],
            [
                -5.8997273445129395,
                -1.2698705196380615,
                55.0
            ],
            [
                -5.216999530792236,
                -1.1255990266799927,
                60.0
            ],
            [
                -4.534268379211426,
                -0.9813276529312134,
                65.0
            ],
            [
                -3.8515329360961914,
                -0.8370564579963684,
                70.0
            ],
            [
                -3.1687936782836914,
                -0.6927853226661682,
                75.0
            ],
            [
                -2.4860503673553467,
                -0.5485142469406128,
                80.0
            ],
            [
                -1.8033031225204468,
                -0.4042433500289917,
                85.0
            ],
            [
                -1.1205517053604126,
                -0.2599725127220154,
                90.0
            ],
            [
                -0.43779614567756653,
                -0.11570179462432861,
                95.0
            ],
            [
                0.2449636608362198,
                0.028568817302584648,
                100.0
            ],
            [
                2.9760468006134033,
                0.6056502461433411,
                120.0
            ],
            [
                5.707203388214111,
                1.1827300786972046,
                140.0
            ],
            [
                8.438426971435547,
                1.7597897052764893,
                160.0
            ],
            [
                11.1697359085083,
                2.3368663787841797,
                180.0
            ],
            [
                13.90112590789795,
                2.9139411449432373,
                200.0
            ],
            [
                16.632600784301758,
                3.4910147190093994,
                220.0
            ],
            [
                19.36417007446289,
                4.068086624145508,
                240.0
            ],
            [
                22.095834732055664,
                4.645157337188721,
                260.0
            ],
            [
                24.827600479125977,
                5.222226619720459,
                280.0
            ],
            [
                27.559419631958008,
                5.7992939949035645,
                300.0
            ],
            [
                30.291372299194336,
                6.3763604164123535,
                320.0
            ],
            [
                33.02342987060547,
                6.953425407409668,
                340.0
            ],
            [
                35.75559997558594,
                7.530488967895508,
                360.0
            ],
            [
                38.487884521484375,
                8.107551574707031,
                380.0
            ],
            [
                41.22028732299805,
                8.684612274169922,
                400.0
            ],
            [
                43.95281219482422,
                9.261672973632813,
                420.0
            ],
            [
                46.685462951660156,
                9.83873176574707,
                440.0
            ],
            [
                49.41824722290039,
                10.415789604187012,
                460.0
            ],
            [
                52.151161193847656,
                10.99284553527832,
                480.0
            ],
            [
                54.88421630859375,
                11.569901466369629,
                500.0
            ],
            [
                57.61741638183594,
                12.146956443786621,
                520.0
            ],
            [
                60.35076904296875,
                12.72400951385498,
                540.0
            ],
            [
                63.08427810668945,
                13.30106258392334,
                560.0
            ],
            [
                65.81795501708984,
                13.8781156539917,
                580.0
            ],
            [
                68.55180358886719,
                14.455167770385742,
                600.0
            ],
            [
                71.28582763671875,
                15.032219886779785,
                620.0
            ],
            [
                74.02001953125,
                15.609271049499512,
                640.0
            ],
            [
                76.75439453125,
                16.186323165893555,
                660.0
            ],
            [
                79.48896026611328,
                16.76337432861328,
                680.0
            ],
            [
                82.22370147705078,
                17.340423583984375,
                700.0
            ],
            [
                84.95865631103516,
                17.91747283935547,
                720.0
            ],
            [
                87.69384765625,
                18.494524002075195,
                740.0
            ],
            [
                90.42925262451172,
                19.071575164794922,
                760.0
            ],
            [
                93.16487121582031,
                19.64862632751465,
                780.0
            ],
            [
                95.90071105957031,
                20.225677490234375,
                800.0
            ],
            [
                98.63677978515625,
                20.8027286529541,
                820.0
            ],
            [
                101.37307739257813,
                21.379779815673828,
                840.0
            ],
            [
                104.10961151123047,
                21.956832885742188,
                860.0
            ],
            [
                106.84640502929688,
                22.533885955810547,
                880.0
            ],
            [
                109.58351135253906,
                23.11094856262207,
                900.0
            ],
            [
                112.32090759277344,
                23.688011169433594,
                920.0
            ],
            [
                115.05858612060547,
                24.265077590942383,
                940.0
            ],
            [
                117.79653930664063,
                24.842144012451172,
                960.0
            ],
            [
                120.53477478027344,
                25.419214248657227,
                980.0
            ],
            [
                123.27330780029297,
                25.99628448486328,
                1000.0
            ],
            [
                136.96925354003906,
                28.881580352783203,
                1100.0
            ],
            [
                150.67434692382813,
                31.766878128051758,
                1200.0
            ],
            [
                164.38592529296875,
                34.652183532714844,
                1300.0
            ],
            [
                178.10472106933594,
                37.53744888305664,
                1400.0
            ],
            [
                191.8296356201172,
                40.42262268066406,
                1500.0
            ],
            [
                205.56201171875,
                43.30780792236328,
                1600.0
            ],
            [
                219.3023223876953,
                46.193084716796875,
                1700.0
            ],
            [
                233.05197143554688,
                49.07843780517578,
                1800.0
            ],
            [
                246.80984497070313,
                51.96392059326172,
                1900.0
            ],
            [
                260.5782470703125,
                54.84934616088867,
                2000.0
            ],
            [
                274.3577880859375,
                57.734954833984375,
                2100.0
            ],
            [
                288.15704345703125,
                60.62119674682617,
                2200.0
            ],
            [
                301.9692077636719,
                63.507598876953125,
                2300.0
            ],
            [
                315.803466796875,
                66.39464569091797,
                2400.0
            ],
            [
                329.6665344238281,
                69.2824478149414,
                2500.0
            ],
            [
                343.5611877441406,
                72.17119598388672,
                2600.0
            ],
            [
                357.4912414550781,
                75.06100463867188,
                2700.0
            ],
            [
                371.4639587402344,
                77.95195007324219,
                2800.0
            ],
            [
                385.4918212890625,
                80.84443664550781,
                2900.0
            ],
            [
                399.58209228515625,
                83.7386474609375,
                3000.0
            ],
            [
                413.737060546875,
                86.63481903076172,
                3100.0
            ],
            [
                427.985595703125,
                89.5335693359375,
                3200.0
            ],
            [
                442.32366943359375,
                92.43463897705078,
                3300.0
            ],
            [
                456.767333984375,
                95.33839416503906,
                3400.0
            ],
            [
                471.3304443359375,
                98.2448501586914,
                3500.0
            ],
            [
                486.01495361328125,
                101.1541748046875,
                3600.0
            ],
            [
                500.8419494628906,
                104.06620025634766,
                3700.0
            ],
            [
                515.82666015625,
                106.98147583007813,
                3800.0
            ],
            [
                530.9723510742188,
                109.89989471435547,
                3900.0
            ],
            [
                546.2890014648438,
                112.82166290283203,
                4000.0
            ],
            [
                561.7886962890625,
                115.7464828491211,
                4100.0
            ],
            [
                577.498046875,
                118.67411804199219,
                4200.0
            ],
            [
                593.4016723632813,
                121.60448455810547,
                4300.0
            ],
            [
                609.5048828125,
                124.53740692138672,
                4400.0
            ],
            [
                625.8126220703125,
                127.47250366210938,
                4500.0
            ],
            [
                642.3321533203125,
                130.40951538085938,
                4600.0
            ],
            [
                659.0711059570313,
                133.34841918945313,
                4700.0
            ],
            [
                676.0131225585938,
                136.28932189941406,
                4800.0
            ],
            [
                694.6680908203125,
                138.46920776367188,
                4900.0
            ],
            [
                712.0592041015625,
                141.39207458496094,
                5000.0
            ],
            [
                729.6669921875,
                144.31887817382813,
                5100.0
            ],
            [
                747.481689453125,
                147.24679565429688,
                5200.0
            ],
            [
                765.50634765625,
                150.1760711669922,
                5300.0
            ],
            [
                783.733642578125,
                153.10513305664063,
                5400.0
            ],
            [
                802.1620483398438,
                156.03355407714844,
                5500.0
            ],
            [
                820.7822265625,
                158.96524047851563,
                5600.0
            ],
            [
                839.6005249023438,
                161.89645385742188,
                5700.0
            ],
            [
                858.6091918945313,
                164.82762145996094,
                5800.0
            ],
            [
                877.7968139648438,
                167.75845336914063,
                5900.0
            ],
            [
                897.1700439453125,
                170.69105529785156,
                6000.0
            ],
            [
                916.7167358398438,
                173.624267578125,
                6100.0
            ],
            [
                936.4329833984375,
                176.55685424804688,
                6200.0
            ],
            [
                956.3128662109375,
                179.48890686035156,
                6300.0
            ],
            [
                976.3495483398438,
                182.4203643798828,
                6400.0
            ],
            [
                996.5385131835938,
                185.3509521484375,
                6500.0
            ],
            [
                1016.8717651367188,
                188.281494140625,
                6600.0
            ],
            [
                1037.3450927734375,
                191.211181640625,
                6700.0
            ],
            [
                1057.9473876953125,
                194.13978576660156,
                6800.0
            ],
            [
                1078.677978515625,
                197.06776428222656,
                6900.0
            ],
            [
                1099.526611328125,
                199.9949493408203,
                7000.0
            ],
            [
                1120.4857177734375,
                202.9210968017578,
                7100.0
            ],
            [
                1141.5478515625,
                205.84608459472656,
                7200.0
            ],
            [
                1162.70751953125,
                208.77005004882813,
                7300.0
            ],
            [
                1183.9603271484375,
                211.6932830810547,
                7400.0
            ],
            [
                1205.293701171875,
                214.61569213867188,
                7500.0
            ],
            [
                1226.70703125,
                217.53733825683594,
                7600.0
            ],
            [
                1248.1912841796875,
                220.45822143554688,
                7700.0
            ],
            [
                1269.7431640625,
                223.37841796875,
                7800.0
            ],
            [
                1291.3564453125,
                226.29812622070313,
                7900.0
            ],
            [
                1313.025634765625,
                229.21737670898438,
                8000.0
            ],
            [
                1334.7474365234375,
                232.13623046875,
                8100.0
            ],
            [
                1356.5155029296875,
                235.0548553466797,
                8200.0
            ],
            [
                1378.3267822265625,
                237.97328186035156,
                8300.0
            ],
            [
                1400.177734375,
                240.89158630371094,
                8400.0
            ],
            [
                1422.0648193359375,
                243.8098602294922,
                8500.0
            ],
            [
                1443.98388671875,
                246.7281494140625,
                8600.0
            ],
            [
                1465.9329833984375,
                249.6465301513672,
                8700.0
            ],
            [
                1487.9091796875,
                252.56500244140625,
                8800.0
            ],
            [
                1509.9097900390625,
                255.48367309570313,
                8900.0
            ],
            [
                1531.932861328125,
                258.40252685546875,
                9000.0
            ],
            [
                1553.9761962890625,
                261.3216247558594,
                9100.0
            ],
            [
                1576.037841796875,
                264.240966796875,
                9200.0
            ],
            [
                1598.1162109375,
                267.16058349609375,
                9300.0
            ],
            [
                1620.2095947265625,
                270.0804443359375,
                9400.0
            ],
            [
                1642.3165283203125,
                273.0006103515625,
                9500.0
            ],
            [
                1664.435791015625,
                275.9210510253906,
                9600.0
            ],
            [
                1686.566162109375,
                278.8417663574219,
                9700.0
            ],
            [
                1708.7066650390625,
                281.7627258300781,
                9800.0
            ],
            [
                1730.8560791015625,
                284.6839599609375,
                9900.0
            ],
            [
                1753.013916015625,
                287.60546875,
                10000.0
            ],
            [
                1797.35107421875,
                293.4491882324219,
                10200.0
            ],
            [
                1841.7127685546875,
                299.2937927246094,
                10400.0
            ],
            [
                1886.093994140625,
                305.13922119140625,
                10600.0
            ],
            [
                1930.4920654296875,
                310.9853515625,
                10800.0
            ],
            [
                1974.90283203125,
                316.8321838378906,
                11000.0
            ],
            [
                2019.3245849609375,
                322.6795654296875,
                11200.0
            ],
            [
                2063.75537109375,
                328.5274658203125,
                11400.0
            ],
            [
                2108.19287109375,
                334.37579345703125,
                11600.0
            ],
            [
                2152.63623046875,
                340.22454833984375,
                11800.0
            ],
            [
                2197.083740234375,
                346.0736389160156,
                12000.0
            ],
            [
                2241.535888671875,
                351.92303466796875,
                12200.0
            ],
            [
                2285.99072265625,
                357.772705078125,
                12400.0
            ],
            [
                2330.447021484375,
                363.62255859375,
                12600.0
            ],
            [
                2374.90478515625,
                369.4726257324219,
                12800.0
            ],
            [
                2419.364990234375,
                375.3228454589844,
                13000.0
            ],
            [
                2463.826171875,
                381.1731872558594,
                13200.0
            ],
            [
                2508.2880859375,
                387.0235900878906,
                13400.0
            ]
        ],
        "zFirstMeasurement": 184.2987
    }
]
