[
    {
        "E": 81875.97217247038,
        "chi2": 0.0,
        "ip": 0.04906903947009057,
        "ipchi2": 10.695622563953027,
        "mass": 1861.866,
        "particleId": "D0",
        "pvx": 0.586,
        "pvy": 0.0523,
        "pvz": -26.2077,
        "px": -2736.87,
        "py": 2261.81,
        "pz": 81777.76,
        "q": 0.0,
        "trajectory": [
            [
                0.5860000252723694,
                0.052299998700618744,
                -26.207700729370117
            ],
            [
                0.4869000017642975,
                0.16830000281333923,
                -21.791000366210938
            ]
        ],
        "zFirstMeasurement": -9999.0
    },
    {
        "E": 21577.049704926238,
        "chi2": 0.8238009214401245,
        "ip": 0.19077230196441655,
        "ipchi2": 89.81710936231043,
        "mass": 493.677,
        "particleId": "K-",
        "pvx": 0.586,
        "pvy": 0.0523,
        "pvz": -26.2077,
        "px": -1387.0,
        "py": 386.75,
        "pz": 21523.29,
        "q": -1.0,
        "trajectory": [
            [
                0.49236372113227844,
                0.13988237082958221,
                -21.791000366210938
            ],
            [
                0.17015580832958221,
                0.2297280728816986,
                -16.791000366210938
            ],
            [
                -0.15205442905426025,
                0.3195737600326538,
                -11.791000366210938
            ],
            [
                -0.47426706552505493,
                0.4094194769859314,
                -6.790999889373779
            ],
            [
                -0.7964820861816406,
                0.49926522374153137,
                -1.7910000085830688
            ],
            [
                -1.118699550628662,
                0.5891109704971313,
                3.2090001106262207
            ],
            [
                -1.4409195184707642,
                0.6789566874504089,
                8.208999633789063
            ],
            [
                -1.7631418704986572,
                0.7688024640083313,
                13.208999633789063
            ],
            [
                -2.08536696434021,
                0.8586482405662537,
                18.208999633789063
            ],
            [
                -2.407594680786133,
                0.948494017124176,
                23.208999633789063
            ],
            [
                -2.7298247814178467,
                1.0383398532867432,
                28.208999633789063
            ],
            [
                -3.052057981491089,
                1.1281856298446655,
                33.20899963378906
            ],
            [
                -3.374293565750122,
                1.218031406402588,
                38.20899963378906
            ],
            [
                -3.6965322494506836,
                1.3078773021697998,
                43.20899963378906
            ],
            [
                -4.018815040588379,
                1.3977326154708862,
                48.20899963378906
            ],
            [
                -4.34105920791626,
                1.4875785112380981,
                53.20899963378906
            ],
            [
                -4.663305759429932,
                1.5774242877960205,
                58.20899963378906
            ],
            [
                -4.9855546951293945,
                1.6672701835632324,
                63.20899963378906
            ],
            [
                -5.307806491851807,
                1.7571160793304443,
                68.20899963378906
            ],
            [
                -5.630061149597168,
                1.8469619750976563,
                73.20899963378906
            ],
            [
                -5.95231819152832,
                1.9368078708648682,
                78.20899963378906
            ],
            [
                -6.274578094482422,
                2.02665376663208,
                83.20899963378906
            ],
            [
                -6.596841335296631,
                2.116499900817871,
                88.20899963378906
            ],
            [
                -6.919106960296631,
                2.206345796585083,
                93.20899963378906
            ],
            [
                -7.24137544631958,
                2.296191692352295,
                98.20899963378906
            ],
            [
                -7.5636467933654785,
                2.386037588119507,
                103.20899963378906
            ],
            [
                -8.852763175964355,
                2.7454216480255127,
                123.20899963378906
            ],
            [
                -10.14193058013916,
                3.1048059463500977,
                143.20899963378906
            ],
            [
                -11.43115234375,
                3.4641902446746826,
                163.20899963378906
            ],
            [
                -12.72043228149414,
                3.823575019836426,
                183.20899963378906
            ],
            [
                -14.009773254394531,
                4.18295955657959,
                203.20899963378906
            ],
            [
                -15.29914379119873,
                4.542344570159912,
                223.20899963378906
            ],
            [
                -16.58859634399414,
                4.901729583740234,
                243.20899963378906
            ],
            [
                -17.87811279296875,
                5.261115074157715,
                263.2090148925781
            ],
            [
                -19.167695999145508,
                5.620500087738037,
                283.2090148925781
            ],
            [
                -20.457347869873047,
                5.979885578155518,
                303.2090148925781
            ],
            [
                -21.747074127197266,
                6.339271068572998,
                323.2090148925781
            ],
            [
                -23.03687286376953,
                6.698657035827637,
                343.2090148925781
            ],
            [
                -24.32674789428711,
                7.058042526245117,
                363.2090148925781
            ],
            [
                -25.616701126098633,
                7.417428493499756,
                383.2090148925781
            ],
            [
                -26.906736373901367,
                7.7768144607543945,
                403.2090148925781
            ],
            [
                -28.19685935974121,
                8.136200904846191,
                423.2090148925781
            ],
            [
                -29.487075805664063,
                8.495586395263672,
                443.2090148925781
            ],
            [
                -30.77738380432129,
                8.854972839355469,
                463.2090148925781
            ],
            [
                -32.067787170410156,
                9.21435832977295,
                483.2090148925781
            ],
            [
                -33.3582878112793,
                9.573744773864746,
                503.2090148925781
            ],
            [
                -34.648887634277344,
                9.933131217956543,
                523.208984375
            ],
            [
                -35.93959426879883,
                10.292516708374023,
                543.208984375
            ],
            [
                -37.230403900146484,
                10.65190315246582,
                563.208984375
            ],
            [
                -38.52132034301758,
                11.011289596557617,
                583.208984375
            ],
            [
                -39.81236267089844,
                11.370676040649414,
                603.208984375
            ],
            [
                -41.10353469848633,
                11.730061531066895,
                623.208984375
            ],
            [
                -42.394832611083984,
                12.089447021484375,
                643.208984375
            ],
            [
                -43.68625259399414,
                12.448833465576172,
                663.208984375
            ],
            [
                -44.97779846191406,
                12.808218955993652,
                683.208984375
            ],
            [
                -46.269474029541016,
                13.167603492736816,
                703.208984375
            ],
            [
                -47.561275482177734,
                13.526988983154297,
                723.208984375
            ],
            [
                -48.853214263916016,
                13.886374473571777,
                743.208984375
            ],
            [
                -50.14531707763672,
                14.245759010314941,
                763.208984375
            ],
            [
                -51.43759536743164,
                14.605144500732422,
                783.208984375
            ],
            [
                -52.73002624511719,
                14.964530944824219,
                803.208984375
            ],
            [
                -54.02260971069336,
                15.3239164352417,
                823.208984375
            ],
            [
                -55.31534957885742,
                15.68330192565918,
                843.208984375
            ],
            [
                -56.60824966430664,
                16.042688369750977,
                863.208984375
            ],
            [
                -57.90131759643555,
                16.40207290649414,
                883.208984375
            ],
            [
                -59.19454574584961,
                16.761459350585938,
                903.208984375
            ],
            [
                -60.48792266845703,
                17.1208438873291,
                923.208984375
            ],
            [
                -61.78151321411133,
                17.480224609375,
                943.208984375
            ],
            [
                -63.07529067993164,
                17.839601516723633,
                963.208984375
            ],
            [
                -64.36925506591797,
                18.198978424072266,
                983.208984375
            ],
            [
                -65.66339111328125,
                18.558353424072266,
                1003.208984375
            ],
            [
                -72.13674926757813,
                20.355222702026367,
                1103.208984375
            ],
            [
                -78.61675262451172,
                22.15209197998047,
                1203.208984375
            ],
            [
                -85.10070037841797,
                23.948909759521484,
                1303.208984375
            ],
            [
                -91.58953857421875,
                25.745702743530273,
                1403.208984375
            ],
            [
                -98.08367919921875,
                27.542484283447266,
                1503.208984375
            ],
            [
                -104.58202362060547,
                29.339263916015625,
                1603.208984375
            ],
            [
                -111.08577728271484,
                31.136045455932617,
                1703.208984375
            ],
            [
                -117.5953369140625,
                32.93281173706055,
                1803.208984375
            ],
            [
                -124.11161041259766,
                34.72956848144531,
                1903.208984375
            ],
            [
                -130.63478088378906,
                36.5263671875,
                2003.208984375
            ],
            [
                -137.16763305664063,
                38.32319259643555,
                2103.208984375
            ],
            [
                -143.71299743652344,
                40.1201171875,
                2203.208984375
            ],
            [
                -150.26693725585938,
                41.9171028137207,
                2303.208984375
            ],
            [
                -156.8375701904297,
                43.71415710449219,
                2403.208984375
            ],
            [
                -163.4257354736328,
                45.51136016845703,
                2503.208984375
            ],
            [
                -170.03802490234375,
                47.3087043762207,
                2603.208984375
            ],
            [
                -176.67514038085938,
                49.10617446899414,
                2703.208984375
            ],
            [
                -183.3444366455078,
                50.90382766723633,
                2803.208984375
            ],
            [
                -190.05010986328125,
                52.70178985595703,
                2903.208984375
            ],
            [
                -196.80029296875,
                54.50006103515625,
                3003.208984375
            ],
            [
                -203.59890747070313,
                56.298641204833984,
                3103.208984375
            ],
            [
                -210.46139526367188,
                58.09785842895508,
                3203.208984375
            ],
            [
                -217.38223266601563,
                59.897525787353516,
                3303.208984375
            ],
            [
                -224.38157653808594,
                61.69768524169922,
                3403.208984375
            ],
            [
                -231.46607971191406,
                63.49837112426758,
                3503.208984375
            ],
            [
                -238.63571166992188,
                65.2997055053711,
                3603.208984375
            ],
            [
                -245.90505981445313,
                67.1013412475586,
                3703.208984375
            ],
            [
                -253.28126525878906,
                68.90369415283203,
                3803.208984375
            ],
            [
                -260.7669372558594,
                70.70684051513672,
                3903.208984375
            ],
            [
                -268.380615234375,
                72.51053619384766,
                4003.208984375
            ],
            [
                -276.1126403808594,
                74.31434631347656,
                4103.208984375
            ],
            [
                -283.989013671875,
                76.11849975585938,
                4203.208984375
            ],
            [
                -292.0058898925781,
                77.9229736328125,
                4303.208984375
            ],
            [
                -300.1618957519531,
                79.7276611328125,
                4403.208984375
            ],
            [
                -308.4539489746094,
                81.53265380859375,
                4503.208984375
            ],
            [
                -316.89697265625,
                83.33695983886719,
                4603.208984375
            ],
            [
                -325.4860534667969,
                85.14154815673828,
                4703.208984375
            ],
            [
                -335.4009704589844,
                86.044677734375,
                4803.208984375
            ],
            [
                -344.307373046875,
                87.8256607055664,
                4903.208984375
            ],
            [
                -353.3569030761719,
                89.60652160644531,
                5003.208984375
            ],
            [
                -362.5553283691406,
                91.38675689697266,
                5103.208984375
            ],
            [
                -371.8956604003906,
                93.16702270507813,
                5203.208984375
            ],
            [
                -381.380126953125,
                94.94677734375,
                5303.208984375
            ],
            [
                -391.00396728515625,
                96.72691345214844,
                5403.208984375
            ],
            [
                -400.7652282714844,
                98.50703430175781,
                5503.208984375
            ],
            [
                -410.6588439941406,
                100.28600311279297,
                5603.208984375
            ],
            [
                -420.6883850097656,
                102.06501007080078,
                5703.208984375
            ],
            [
                -430.8486022949219,
                103.84351348876953,
                5803.208984375
            ],
            [
                -441.13128662109375,
                105.62140655517578,
                5903.208984375
            ],
            [
                -451.54052734375,
                107.39864349365234,
                6003.208984375
            ],
            [
                -462.06866455078125,
                109.17535400390625,
                6103.208984375
            ],
            [
                -472.712646484375,
                110.95172882080078,
                6203.208984375
            ],
            [
                -483.4688415527344,
                112.72763061523438,
                6303.208984375
            ],
            [
                -494.3323669433594,
                114.50303649902344,
                6403.208984375
            ],
            [
                -505.3005065917969,
                116.27820587158203,
                6503.208984375
            ],
            [
                -516.3671875,
                118.0526351928711,
                6603.208984375
            ],
            [
                -527.5299682617188,
                119.82645416259766,
                6703.208984375
            ],
            [
                -538.7816772460938,
                121.5997543334961,
                6803.208984375
            ],
            [
                -550.1210327148438,
                123.37258911132813,
                6903.208984375
            ],
            [
                -561.541748046875,
                125.14486694335938,
                7003.208984375
            ],
            [
                -573.03857421875,
                126.91659545898438,
                7103.208984375
            ],
            [
                -584.6069946289063,
                128.68777465820313,
                7203.208984375
            ],
            [
                -596.2430419921875,
                130.45838928222656,
                7303.208984375
            ],
            [
                -607.9431762695313,
                132.22848510742188,
                7403.208984375
            ],
            [
                -619.699951171875,
                133.99801635742188,
                7503.208984375
            ],
            [
                -631.5123901367188,
                135.7669677734375,
                7603.208984375
            ],
            [
                -643.3746337890625,
                137.53536987304688,
                7703.208984375
            ],
            [
                -655.2844848632813,
                139.30320739746094,
                7803.208984375
            ],
            [
                -667.2378540039063,
                141.0705108642578,
                7903.208984375
            ],
            [
                -679.23095703125,
                142.83731079101563,
                8003.208984375
            ],
            [
                -691.2615966796875,
                144.60362243652344,
                8103.208984375
            ],
            [
                -703.3255615234375,
                146.3695068359375,
                8203.208984375
            ],
            [
                -715.420654296875,
                148.13497924804688,
                8303.208984375
            ],
            [
                -727.5444946289063,
                149.9000701904297,
                8403.208984375
            ],
            [
                -739.69482421875,
                151.66482543945313,
                8503.208984375
            ],
            [
                -751.8685302734375,
                153.42929077148438,
                8603.208984375
            ],
            [
                -764.064453125,
                155.19349670410156,
                8703.208984375
            ],
            [
                -776.2803955078125,
                156.95745849609375,
                8803.208984375
            ],
            [
                -788.5145874023438,
                158.72122192382813,
                8903.208984375
            ],
            [
                -800.765625,
                160.48477172851563,
                9003.208984375
            ],
            [
                -813.031982421875,
                162.2481689453125,
                9103.208984375
            ],
            [
                -825.312255859375,
                164.0113983154297,
                9203.208984375
            ],
            [
                -837.6052856445313,
                165.77450561523438,
                9303.208984375
            ],
            [
                -849.909912109375,
                167.53750610351563,
                9403.208984375
            ],
            [
                -862.2249755859375,
                169.3004150390625,
                9503.208984375
            ],
            [
                -874.5497436523438,
                171.063232421875,
                9603.208984375
            ],
            [
                -886.8831787109375,
                172.8260040283203,
                9703.208984375
            ],
            [
                -899.2245483398438,
                174.5886993408203,
                9803.208984375
            ],
            [
                -911.5731201171875,
                176.3513641357422,
                9903.208984375
            ],
            [
                -923.9282836914063,
                178.11398315429688,
                10003.208984375
            ],
            [
                -948.656005859375,
                181.63914489746094,
                10203.208984375
            ],
            [
                -973.4036254882813,
                185.1642608642578,
                10403.208984375
            ],
            [
                -998.16748046875,
                188.68934631347656,
                10603.208984375
            ],
            [
                -1022.9451293945313,
                192.2144317626953,
                10803.208984375
            ],
            [
                -1047.733642578125,
                195.7395477294922,
                11003.208984375
            ],
            [
                -1072.5313720703125,
                199.26470947265625,
                11203.208984375
            ],
            [
                -1097.3370361328125,
                202.7899169921875,
                11403.208984375
            ],
            [
                -1122.1485595703125,
                206.315185546875,
                11603.208984375
            ],
            [
                -1146.9652099609375,
                209.84051513671875,
                11803.208984375
            ],
            [
                -1171.78564453125,
                213.36590576171875,
                12003.208984375
            ],
            [
                -1196.6102294921875,
                216.89134216308594,
                12203.208984375
            ],
            [
                -1221.437255859375,
                220.4168243408203,
                12403.208984375
            ],
            [
                -1246.265869140625,
                223.9423828125,
                12603.208984375
            ],
            [
                -1271.0960693359375,
                227.46798706054688,
                12803.208984375
            ],
            [
                -1295.9281005859375,
                230.9936065673828,
                13003.208984375
            ],
            [
                -1320.7613525390625,
                234.51925659179688,
                13203.208984375
            ],
            [
                -1345.5953369140625,
                238.04493713378906,
                13403.208984375
            ]
        ],
        "zFirstMeasurement": 109.4064
    },
    {
        "E": 60290.381023883885,
        "chi2": 1.1590956449508667,
        "ip": 0.005675153766289442,
        "ipchi2": 0.1073060720681597,
        "mass": 139.57,
        "particleId": "pi+",
        "pvx": 0.586,
        "pvy": 0.0523,
        "pvz": -26.2077,
        "px": -1349.22,
        "py": 1874.05,
        "pz": 60245.98,
        "q": 1.0,
        "trajectory": [
            [
                0.48152241110801697,
                0.18856756389141083,
                -21.791000366210938
            ],
            [
                0.369546502828598,
                0.3441004753112793,
                -16.791000366210938
            ],
            [
                0.25757139921188354,
                0.4996333420276642,
                -11.791000366210938
            ],
            [
                0.1455971747636795,
                0.6551662087440491,
                -6.790999889373779
            ],
            [
                0.033623792231082916,
                0.8106991052627563,
                -1.7910000085830688
            ],
            [
                -0.07834871113300323,
                0.9662319421768188,
                3.2090001106262207
            ],
            [
                -0.19032032787799835,
                1.1217647790908813,
                8.208999633789063
            ],
            [
                -0.30229106545448303,
                1.2772976160049438,
                13.208999633789063
            ],
            [
                -0.4142608642578125,
                1.4328304529190063,
                18.208999633789063
            ],
            [
                -0.526229739189148,
                1.5883632898330688,
                23.208999633789063
            ],
            [
                -0.638197660446167,
                1.7438961267471313,
                28.208999633789063
            ],
            [
                -0.7501645684242249,
                1.8994289636611938,
                33.20899963378906
            ],
            [
                -0.8621305227279663,
                2.054961681365967,
                38.20899963378906
            ],
            [
                -0.9740955233573914,
                2.2104945182800293,
                43.20899963378906
            ],
            [
                -1.0860594511032104,
                2.366027355194092,
                48.20899963378906
            ],
            [
                -1.1980223655700684,
                2.521559953689575,
                53.20899963378906
            ],
            [
                -1.3099843263626099,
                2.6770927906036377,
                58.20899963378906
            ],
            [
                -1.4219450950622559,
                2.8326256275177,
                63.20899963378906
            ],
            [
                -1.5339049100875854,
                2.9881582260131836,
                68.20899963378906
            ],
            [
                -1.6458635330200195,
                3.143691062927246,
                73.20899963378906
            ],
            [
                -1.7578212022781372,
                3.2992236614227295,
                78.20899963378906
            ],
            [
                -1.8697844743728638,
                3.454756498336792,
                83.20899963378906
            ],
            [
                -1.9817408323287964,
                3.6102890968322754,
                88.20899963378906
            ],
            [
                -2.09368634223938,
                3.7658116817474365,
                93.20899963378906
            ],
            [
                -2.2056405544281006,
                3.92134428024292,
                98.20899963378906
            ],
            [
                -2.317601203918457,
                4.076877117156982,
                103.20899963378906
            ],
            [
                -2.765399694442749,
                4.699007511138916,
                123.20899963378906
            ],
            [
                -3.213181734085083,
                5.32113790512085,
                143.20899963378906
            ],
            [
                -3.6609461307525635,
                5.943268299102783,
                163.20899963378906
            ],
            [
                -4.108691692352295,
                6.565398693084717,
                183.20899963378906
            ],
            [
                -4.556417465209961,
                7.187528610229492,
                203.20899963378906
            ],
            [
                -5.004121780395508,
                7.809658527374268,
                223.20899963378906
            ],
            [
                -5.451803207397461,
                8.431788444519043,
                243.20899963378906
            ],
            [
                -5.899461269378662,
                9.05391788482666,
                263.2090148925781
            ],
            [
                -6.3470940589904785,
                9.676047325134277,
                283.2090148925781
            ],
            [
                -6.794710636138916,
                10.298176765441895,
                303.2090148925781
            ],
            [
                -7.242295742034912,
                10.920306205749512,
                323.2090148925781
            ],
            [
                -7.689855098724365,
                11.542435646057129,
                343.2090148925781
            ],
            [
                -8.137386322021484,
                12.16456413269043,
                363.2090148925781
            ],
            [
                -8.58488941192627,
                12.786693572998047,
                383.2090148925781
            ],
            [
                -9.032362937927246,
                13.408822059631348,
                403.2090148925781
            ],
            [
                -9.479805946350098,
                14.030950546264648,
                423.2090148925781
            ],
            [
                -9.927217483520508,
                14.65307903289795,
                443.2090148925781
            ],
            [
                -10.374597549438477,
                15.27520751953125,
                463.2090148925781
            ],
            [
                -10.821943283081055,
                15.89733600616455,
                483.2090148925781
            ],
            [
                -11.269255638122559,
                16.51946449279785,
                503.2090148925781
            ],
            [
                -11.716531753540039,
                17.141592025756836,
                523.208984375
            ],
            [
                -12.163768768310547,
                17.763721466064453,
                543.208984375
            ],
            [
                -12.61096477508545,
                18.385848999023438,
                563.208984375
            ],
            [
                -13.058120727539063,
                19.007976531982422,
                583.208984375
            ],
            [
                -13.50523567199707,
                19.63010597229004,
                603.208984375
            ],
            [
                -13.95230770111084,
                20.252233505249023,
                623.208984375
            ],
            [
                -14.399337768554688,
                20.874361038208008,
                643.208984375
            ],
            [
                -14.846322059631348,
                21.496488571166992,
                663.208984375
            ],
            [
                -15.293262481689453,
                22.11861801147461,
                683.208984375
            ],
            [
                -15.740154266357422,
                22.740745544433594,
                703.208984375
            ],
            [
                -16.186992645263672,
                23.362873077392578,
                723.208984375
            ],
            [
                -16.63378143310547,
                23.985000610351563,
                743.208984375
            ],
            [
                -17.080520629882813,
                24.607128143310547,
                763.208984375
            ],
            [
                -17.527206420898438,
                25.22925567626953,
                783.208984375
            ],
            [
                -17.973838806152344,
                25.851383209228516,
                803.208984375
            ],
            [
                -18.420419692993164,
                26.4735107421875,
                823.208984375
            ],
            [
                -18.866943359375,
                27.095638275146484,
                843.208984375
            ],
            [
                -19.313411712646484,
                27.71776580810547,
                863.208984375
            ],
            [
                -19.75979995727539,
                28.339895248413086,
                883.208984375
            ],
            [
                -20.206119537353516,
                28.962024688720703,
                903.208984375
            ],
            [
                -20.652379989624023,
                29.58415412902832,
                923.208984375
            ],
            [
                -21.09857749938965,
                30.206283569335938,
                943.208984375
            ],
            [
                -21.544708251953125,
                30.828413009643555,
                963.208984375
            ],
            [
                -21.990774154663086,
                31.450542449951172,
                983.208984375
            ],
            [
                -22.4367733001709,
                32.07267379760742,
                1003.208984375
            ],
            [
                -24.665855407714844,
                35.18332290649414,
                1103.208984375
            ],
            [
                -26.892791748046875,
                38.29397964477539,
                1203.208984375
            ],
            [
                -29.118194580078125,
                41.40464401245117,
                1303.208984375
            ],
            [
                -31.341838836669922,
                44.51531219482422,
                1403.208984375
            ],
            [
                -33.56391525268555,
                47.625980377197266,
                1503.208984375
            ],
            [
                -35.784053802490234,
                50.73666000366211,
                1603.208984375
            ],
            [
                -38.00232696533203,
                53.84733963012695,
                1703.208984375
            ],
            [
                -40.21841049194336,
                56.95802307128906,
                1803.208984375
            ],
            [
                -42.43257141113281,
                60.068695068359375,
                1903.208984375
            ],
            [
                -44.64372634887695,
                63.179359436035156,
                2003.208984375
            ],
            [
                -46.85226058959961,
                66.2900161743164,
                2103.208984375
            ],
            [
                -49.056522369384766,
                69.4006576538086,
                2203.208984375
            ],
            [
                -51.256874084472656,
                72.51129913330078,
                2303.208984375
            ],
            [
                -53.4519157409668,
                75.62191009521484,
                2403.208984375
            ],
            [
                -55.63964080810547,
                78.73251342773438,
                2503.208984375
            ],
            [
                -57.81976318359375,
                81.84309387207031,
                2603.208984375
            ],
            [
                -59.99098587036133,
                84.9536361694336,
                2703.208984375
            ],
            [
                -62.151363372802734,
                88.06412506103516,
                2803.208984375
            ],
            [
                -64.29774475097656,
                91.1745834350586,
                2903.208984375
            ],
            [
                -66.42866516113281,
                94.28498840332031,
                3003.208984375
            ],
            [
                -68.54289245605469,
                97.39532470703125,
                3103.208984375
            ],
            [
                -70.63479614257813,
                100.50558471679688,
                3203.208984375
            ],
            [
                -72.7041244506836,
                103.6157455444336,
                3303.208984375
            ],
            [
                -74.74698638916016,
                106.7258529663086,
                3403.208984375
            ],
            [
                -76.76021575927734,
                109.8358383178711,
                3503.208984375
            ],
            [
                -78.74275970458984,
                112.94567108154297,
                3603.208984375
            ],
            [
                -80.68939971923828,
                116.05550384521484,
                3703.208984375
            ],
            [
                -82.5979995727539,
                119.16523742675781,
                3803.208984375
            ],
            [
                -84.46574401855469,
                122.2748031616211,
                3903.208984375
            ],
            [
                -86.29251861572266,
                125.38432312011719,
                4003.208984375
            ],
            [
                -88.0719985961914,
                128.49388122558594,
                4103.208984375
            ],
            [
                -89.80236053466797,
                131.60348510742188,
                4203.208984375
            ],
            [
                -91.4832763671875,
                134.71307373046875,
                4303.208984375
            ],
            [
                -93.11579895019531,
                137.82261657714844,
                4403.208984375
            ],
            [
                -94.6972885131836,
                140.9322052001953,
                4503.208984375
            ],
            [
                -96.22600555419922,
                144.04202270507813,
                4603.208984375
            ],
            [
                -97.70315551757813,
                147.15187072753906,
                4703.208984375
            ],
            [
                -99.1282730102539,
                150.2616424560547,
                4803.208984375
            ],
            [
                -100.14668273925781,
                153.20608520507813,
                4903.208984375
            ],
            [
                -101.45851135253906,
                156.31207275390625,
                5003.208984375
            ],
            [
                -102.71766662597656,
                159.41842651367188,
                5103.208984375
            ],
            [
                -103.92636108398438,
                162.52481079101563,
                5203.208984375
            ],
            [
                -105.08401489257813,
                165.63137817382813,
                5303.208984375
            ],
            [
                -106.1924057006836,
                168.73776245117188,
                5403.208984375
            ],
            [
                -107.25216674804688,
                171.84417724609375,
                5503.208984375
            ],
            [
                -108.26509857177734,
                174.95103454589844,
                5603.208984375
            ],
            [
                -109.23004913330078,
                178.0578155517578,
                5703.208984375
            ],
            [
                -110.1488265991211,
                181.16476440429688,
                5803.208984375
            ],
            [
                -111.02442169189453,
                184.2718505859375,
                5903.208984375
            ],
            [
                -111.85528564453125,
                187.37921142578125,
                6003.208984375
            ],
            [
                -112.6440658569336,
                190.48670959472656,
                6103.208984375
            ],
            [
                -113.39196014404297,
                193.59423828125,
                6203.208984375
            ],
            [
                -114.10030364990234,
                196.7018585205078,
                6303.208984375
            ],
            [
                -114.77074432373047,
                199.80955505371094,
                6403.208984375
            ],
            [
                -115.40419006347656,
                202.91726684570313,
                6503.208984375
            ],
            [
                -116.0028305053711,
                206.02516174316406,
                6603.208984375
            ],
            [
                -116.56761169433594,
                209.1331329345703,
                6703.208984375
            ],
            [
                -117.10106658935547,
                212.2411651611328,
                6803.208984375
            ],
            [
                -117.60359191894531,
                215.34925842285156,
                6903.208984375
            ],
            [
                -118.07743072509766,
                218.45742797851563,
                7003.208984375
            ],
            [
                -118.52446746826172,
                221.56564331054688,
                7103.208984375
            ],
            [
                -118.94628143310547,
                224.6739044189453,
                7203.208984375
            ],
            [
                -119.34426879882813,
                227.78224182128906,
                7303.208984375
            ],
            [
                -119.71969604492188,
                230.89064025878906,
                7403.208984375
            ],
            [
                -120.0751724243164,
                233.99911499023438,
                7503.208984375
            ],
            [
                -120.41106414794922,
                237.10763549804688,
                7603.208984375
            ],
            [
                -120.7294692993164,
                240.21624755859375,
                7703.208984375
            ],
            [
                -121.03114318847656,
                243.32492065429688,
                7803.208984375
            ],
            [
                -121.31752014160156,
                246.4336700439453,
                7903.208984375
            ],
            [
                -121.58993530273438,
                249.54249572753906,
                8003.208984375
            ],
            [
                -121.84918212890625,
                252.65138244628906,
                8103.208984375
            ],
            [
                -122.09669494628906,
                255.76034545898438,
                8203.208984375
            ],
            [
                -122.33326721191406,
                258.8693542480469,
                8303.208984375
            ],
            [
                -122.55972290039063,
                261.97845458984375,
                8403.208984375
            ],
            [
                -122.7768783569336,
                265.08758544921875,
                8503.208984375
            ],
            [
                -122.98576354980469,
                268.1967468261719,
                8603.208984375
            ],
            [
                -123.18683624267578,
                271.30596923828125,
                8703.208984375
            ],
            [
                -123.38082885742188,
                274.41522216796875,
                8803.208984375
            ],
            [
                -123.56837463378906,
                277.5245361328125,
                8903.208984375
            ],
            [
                -123.74994659423828,
                280.63385009765625,
                9003.208984375
            ],
            [
                -123.92607879638672,
                283.74322509765625,
                9103.208984375
            ],
            [
                -124.09727478027344,
                286.85260009765625,
                9203.208984375
            ],
            [
                -124.26393127441406,
                289.9620056152344,
                9303.208984375
            ],
            [
                -124.42646026611328,
                293.0714416503906,
                9403.208984375
            ],
            [
                -124.58523559570313,
                296.180908203125,
                9503.208984375
            ],
            [
                -124.74056243896484,
                299.2904052734375,
                9603.208984375
            ],
            [
                -124.89276885986328,
                302.3998718261719,
                9703.208984375
            ],
            [
                -125.0421142578125,
                305.5093994140625,
                9803.208984375
            ],
            [
                -125.1888656616211,
                308.618896484375,
                9903.208984375
            ],
            [
                -125.33324432373047,
                311.7284240722656,
                10003.208984375
            ],
            [
                -125.6156997680664,
                317.947509765625,
                10203.208984375
            ],
            [
                -125.89092254638672,
                324.1666259765625,
                10403.208984375
            ],
            [
                -126.16023254394531,
                330.3857727050781,
                10603.208984375
            ],
            [
                -126.42446899414063,
                336.60491943359375,
                10803.208984375
            ],
            [
                -126.68473052978516,
                342.8240661621094,
                11003.208984375
            ],
            [
                -126.94154357910156,
                349.043212890625,
                11203.208984375
            ],
            [
                -127.19541931152344,
                355.2623596191406,
                11403.208984375
            ],
            [
                -127.4471206665039,
                361.48150634765625,
                11603.208984375
            ],
            [
                -127.6968765258789,
                367.7006530761719,
                11803.208984375
            ],
            [
                -127.9451675415039,
                373.9197998046875,
                12003.208984375
            ],
            [
                -128.19195556640625,
                380.138916015625,
                12203.208984375
            ],
            [
                -128.437744140625,
                386.3580627441406,
                12403.208984375
            ],
            [
                -128.68295288085938,
                392.5771789550781,
                12603.208984375
            ],
            [
                -128.92752075195313,
                398.7962951660156,
                12803.208984375
            ],
            [
                -129.17140197753906,
                405.0154113769531,
                13003.208984375
            ],
            [
                -129.41477966308594,
                411.2345275878906,
                13203.208984375
            ],
            [
                -129.65794372558594,
                417.4536437988281,
                13403.208984375
            ]
        ],
        "zFirstMeasurement": 199.2057
    },
    {
        "E": 28321.663905525493,
        "chi2": 0.6220526099205017,
        "ip": 0.08596264848350903,
        "ipchi2": 11.312901103148228,
        "mass": 139.57018,
        "particleId": "pi+",
        "pvx": 0.586,
        "pvy": 0.0523,
        "pvz": -26.2077,
        "px": 642.0483938284658,
        "py": -1037.8379217135607,
        "pz": 28295.014275498,
        "q": 1.0,
        "trajectory": [
            [
                -1.039188265800476,
                2.829512596130371,
                -100.0
            ],
            [
                -0.9257522821426392,
                2.6461172103881836,
                -95.0
            ],
            [
                -0.8123149275779724,
                2.462721586227417,
                -90.0
            ],
            [
                -0.6988762617111206,
                2.2793262004852295,
                -85.0
            ],
            [
                -0.5854361057281494,
                2.095930576324463,
                -80.0
            ],
            [
                -0.471994549036026,
                1.9125350713729858,
                -75.0
            ],
            [
                -0.3585515320301056,
                1.7291394472122192,
                -70.0
            ],
            [
                -0.2451070249080658,
                1.5457438230514526,
                -65.0
            ],
            [
                -0.13166098296642303,
                1.3623480796813965,
                -60.0
            ],
            [
                -0.018213409930467606,
                1.1789523363113403,
                -55.0
            ],
            [
                0.09523574262857437,
                0.995556652545929,
                -50.0
            ],
            [
                0.2086864858865738,
                0.812160849571228,
                -45.0
            ],
            [
                0.32213887572288513,
                0.6287649869918823,
                -40.0
            ],
            [
                0.4355928897857666,
                0.445369154214859,
                -35.0
            ],
            [
                0.5490486025810242,
                0.2619732618331909,
                -30.0
            ],
            [
                0.6625060439109802,
                0.07857733964920044,
                -25.0
            ],
            [
                0.7759652137756348,
                -0.10481861978769302,
                -20.0
            ],
            [
                0.8894261121749878,
                -0.28821462392807007,
                -15.0
            ],
            [
                1.002888798713684,
                -0.4716106355190277,
                -10.0
            ],
            [
                1.1163533926010132,
                -0.6550067067146301,
                -5.0
            ],
            [
                1.2298197746276855,
                -0.8384028077125549,
                0.0
            ],
            [
                1.3432880640029907,
                -1.0217989683151245,
                5.0
            ],
            [
                1.4567581415176392,
                -1.2051950693130493,
                10.0
            ],
            [
                1.57023024559021,
                -1.3885912895202637,
                15.0
            ],
            [
                1.6837042570114136,
                -1.571987509727478,
                20.0
            ],
            [
                1.7971802949905396,
                -1.755383849143982,
                25.0
            ],
            [
                1.910658359527588,
                -1.9387800693511963,
                30.0
            ],
            [
                2.0241384506225586,
                -2.1221764087677,
                35.0
            ],
            [
                2.137620687484741,
                -2.305572748184204,
                40.0
            ],
            [
                2.251105308532715,
                -2.488969326019287,
                45.0
            ],
            [
                2.3645918369293213,
                -2.672365665435791,
                50.0
            ],
            [
                2.4780807495117188,
                -2.855762243270874,
                55.0
            ],
            [
                2.591571807861328,
                -3.039158582687378,
                60.0
            ],
            [
                2.7050650119781494,
                -3.222555160522461,
                65.0
            ],
            [
                2.818546772003174,
                -3.405951738357544,
                70.0
            ],
            [
                2.932042360305786,
                -3.589348554611206,
                75.0
            ],
            [
                3.045536994934082,
                -3.7726852893829346,
                80.0
            ],
            [
                3.1590194702148438,
                -3.9560821056365967,
                85.0
            ],
            [
                3.272524118423462,
                -4.13947868347168,
                90.0
            ],
            [
                3.386030673980713,
                -4.322875499725342,
                95.0
            ],
            [
                3.499539375305176,
                -4.506272315979004,
                100.0
            ],
            [
                3.953594207763672,
                -5.2398600578308105,
                120.0
            ],
            [
                4.407683849334717,
                -5.973448276519775,
                140.0
            ],
            [
                4.86181116104126,
                -6.70703649520874,
                160.0
            ],
            [
                5.315978050231934,
                -7.44062614440918,
                180.0
            ],
            [
                5.770187854766846,
                -8.174215316772461,
                200.0
            ],
            [
                6.224442481994629,
                -8.907806396484375,
                220.0
            ],
            [
                6.678745746612549,
                -9.641396522521973,
                240.0
            ],
            [
                7.13309907913208,
                -10.374988555908203,
                260.0
            ],
            [
                7.5875067710876465,
                -11.108579635620117,
                280.0
            ],
            [
                8.041940689086914,
                -11.842172622680664,
                300.0
            ],
            [
                8.496445655822754,
                -12.575765609741211,
                320.0
            ],
            [
                8.951005935668945,
                -13.309358596801758,
                340.0
            ],
            [
                9.405624389648438,
                -14.042952537536621,
                360.0
            ],
            [
                9.860301971435547,
                -14.776546478271484,
                380.0
            ],
            [
                10.315043449401855,
                -15.510141372680664,
                400.0
            ],
            [
                10.769848823547363,
                -16.243736267089844,
                420.0
            ],
            [
                11.22472095489502,
                -16.977333068847656,
                440.0
            ],
            [
                11.67966079711914,
                -17.710927963256836,
                460.0
            ],
            [
                12.134671211242676,
                -18.44452476501465,
                480.0
            ],
            [
                12.589754104614258,
                -19.17812156677246,
                500.0
            ],
            [
                13.044913291931152,
                -19.911718368530273,
                520.0
            ],
            [
                13.500149726867676,
                -20.64531707763672,
                540.0
            ],
            [
                13.955471992492676,
                -21.378915786743164,
                560.0
            ],
            [
                14.410881996154785,
                -22.112512588500977,
                580.0
            ],
            [
                14.86638069152832,
                -22.846113204956055,
                600.0
            ],
            [
                15.32197093963623,
                -23.579710006713867,
                620.0
            ],
            [
                15.7776517868042,
                -24.313308715820313,
                640.0
            ],
            [
                16.233427047729492,
                -25.04690933227539,
                660.0
            ],
            [
                16.689298629760742,
                -25.780508041381836,
                680.0
            ],
            [
                17.1452693939209,
                -26.51410675048828,
                700.0
            ],
            [
                17.601346969604492,
                -27.24770736694336,
                720.0
            ],
            [
                18.05754280090332,
                -27.981307983398438,
                740.0
            ],
            [
                18.51384735107422,
                -28.714906692504883,
                760.0
            ],
            [
                18.97026252746582,
                -29.44850730895996,
                780.0
            ],
            [
                19.42679214477539,
                -30.18210792541504,
                800.0
            ],
            [
                19.88343620300293,
                -30.915708541870117,
                820.0
            ],
            [
                20.340198516845703,
                -31.649309158325195,
                840.0
            ],
            [
                20.797080993652344,
                -32.38290786743164,
                860.0
            ],
            [
                21.254091262817383,
                -33.11650848388672,
                880.0
            ],
            [
                21.711254119873047,
                -33.85010528564453,
                900.0
            ],
            [
                22.168567657470703,
                -34.58369827270508,
                920.0
            ],
            [
                22.626026153564453,
                -35.317291259765625,
                940.0
            ],
            [
                23.08362579345703,
                -36.05088424682617,
                960.0
            ],
            [
                23.54136848449707,
                -36.78447723388672,
                980.0
            ],
            [
                23.999256134033203,
                -37.51806640625,
                1000.0
            ],
            [
                26.290584564208984,
                -41.18603515625,
                1100.0
            ],
            [
                28.586549758911133,
                -44.85398864746094,
                1200.0
            ],
            [
                30.88578987121582,
                -48.52191162109375,
                1300.0
            ],
            [
                33.188804626464844,
                -52.18982696533203,
                1400.0
            ],
            [
                35.495208740234375,
                -55.857757568359375,
                1500.0
            ],
            [
                37.805477142333984,
                -59.525665283203125,
                1600.0
            ],
            [
                40.11977767944336,
                -63.19355392456055,
                1700.0
            ],
            [
                42.43885803222656,
                -66.86141967773438,
                1800.0
            ],
            [
                44.762176513671875,
                -70.52928161621094,
                1900.0
            ],
            [
                47.091487884521484,
                -74.19719696044922,
                2000.0
            ],
            [
                49.42675018310547,
                -77.86512756347656,
                2100.0
            ],
            [
                51.771209716796875,
                -81.53301239013672,
                2200.0
            ],
            [
                54.12331008911133,
                -85.20093536376953,
                2300.0
            ],
            [
                56.487056732177734,
                -88.86886596679688,
                2400.0
            ],
            [
                58.86591720581055,
                -92.53681182861328,
                2500.0
            ],
            [
                61.261409759521484,
                -96.20478820800781,
                2600.0
            ],
            [
                63.675785064697266,
                -99.8727798461914,
                2700.0
            ],
            [
                66.11287689208984,
                -103.54085540771484,
                2800.0
            ],
            [
                68.57927703857422,
                -107.20907592773438,
                2900.0
            ],
            [
                71.07901000976563,
                -110.87734985351563,
                3000.0
            ],
            [
                73.61312866210938,
                -114.54571533203125,
                3100.0
            ],
            [
                76.19491577148438,
                -118.21442413330078,
                3200.0
            ],
            [
                78.82488250732422,
                -121.88330841064453,
                3300.0
            ],
            [
                81.5107192993164,
                -125.55247497558594,
                3400.0
            ],
            [
                84.2600326538086,
                -129.221923828125,
                3500.0
            ],
            [
                87.07304382324219,
                -132.8915252685547,
                3600.0
            ],
            [
                89.96210479736328,
                -136.56126403808594,
                3700.0
            ],
            [
                92.9335708618164,
                -140.23158264160156,
                3800.0
            ],
            [
                95.99004364013672,
                -143.90220642089844,
                3900.0
            ],
            [
                99.1366195678711,
                -147.57289123535156,
                4000.0
            ],
            [
                102.37998962402344,
                -151.2435302734375,
                4100.0
            ],
            [
                105.73099517822266,
                -154.91427612304688,
                4200.0
            ],
            [
                109.18638610839844,
                -158.58563232421875,
                4300.0
            ],
            [
                112.74644470214844,
                -162.25650024414063,
                4400.0
            ],
            [
                116.41375732421875,
                -165.92747497558594,
                4500.0
            ],
            [
                120.1930923461914,
                -169.5984344482422,
                4600.0
            ],
            [
                124.08633422851563,
                -173.26962280273438,
                4700.0
            ],
            [
                128.08592224121094,
                -176.94093322753906,
                4800.0
            ],
            [
                132.9034881591797,
                -181.54954528808594,
                4900.0
            ],
            [
                137.1419677734375,
                -185.24508666992188,
                5000.0
            ],
            [
                141.49407958984375,
                -188.9404296875,
                5100.0
            ],
            [
                145.95309448242188,
                -192.63560485839844,
                5200.0
            ],
            [
                150.5205535888672,
                -196.33023071289063,
                5300.0
            ],
            [
                155.19358825683594,
                -200.02505493164063,
                5400.0
            ],
            [
                159.97193908691406,
                -203.72035217285156,
                5500.0
            ],
            [
                164.84983825683594,
                -207.4147491455078,
                5600.0
            ],
            [
                169.83070373535156,
                -211.1090545654297,
                5700.0
            ],
            [
                174.9103546142578,
                -214.80299377441406,
                5800.0
            ],
            [
                180.08314514160156,
                -218.49667358398438,
                5900.0
            ],
            [
                185.3524627685547,
                -222.1900177001953,
                6000.0
            ],
            [
                190.71095275878906,
                -225.8828582763672,
                6100.0
            ],
            [
                196.15724182128906,
                -229.5753936767578,
                6200.0
            ],
            [
                201.68890380859375,
                -233.2677764892578,
                6300.0
            ],
            [
                207.3021240234375,
                -236.95986938476563,
                6400.0
            ],
            [
                212.99468994140625,
                -240.6516876220703,
                6500.0
            ],
            [
                218.7621612548828,
                -244.34310913085938,
                6600.0
            ],
            [
                224.60243225097656,
                -248.03408813476563,
                6700.0
            ],
            [
                230.51011657714844,
                -251.7246551513672,
                6800.0
            ],
            [
                236.4842987060547,
                -255.4148712158203,
                6900.0
            ],
            [
                242.5199432373047,
                -259.1047058105469,
                7000.0
            ],
            [
                248.61329650878906,
                -262.7940979003906,
                7100.0
            ],
            [
                254.76077270507813,
                -266.4831237792969,
                7200.0
            ],
            [
                260.95941162109375,
                -270.17169189453125,
                7300.0
            ],
            [
                267.20672607421875,
                -273.85986328125,
                7400.0
            ],
            [
                273.496826171875,
                -277.547607421875,
                7500.0
            ],
            [
                279.8288879394531,
                -281.2349548339844,
                7600.0
            ],
            [
                286.19854736328125,
                -284.9218444824219,
                7700.0
            ],
            [
                292.6041564941406,
                -288.60833740234375,
                7800.0
            ],
            [
                299.0426025390625,
                -292.2944030761719,
                7900.0
            ],
            [
                305.5110168457031,
                -295.9800720214844,
                8000.0
            ],
            [
                312.0077209472656,
                -299.6654052734375,
                8100.0
            ],
            [
                318.5295104980469,
                -303.3503723144531,
                8200.0
            ],
            [
                325.0747375488281,
                -307.0350036621094,
                8300.0
            ],
            [
                331.6416320800781,
                -310.7193603515625,
                8400.0
            ],
            [
                338.2284240722656,
                -314.4034423828125,
                8500.0
            ],
            [
                344.8328552246094,
                -318.0872802734375,
                8600.0
            ],
            [
                351.45391845703125,
                -321.77093505859375,
                8700.0
            ],
            [
                358.0901184082031,
                -325.4543762207031,
                8800.0
            ],
            [
                364.7400207519531,
                -329.13763427734375,
                8900.0
            ],
            [
                371.4026184082031,
                -332.8207092285156,
                9000.0
            ],
            [
                378.0767822265625,
                -336.503662109375,
                9100.0
            ],
            [
                384.76141357421875,
                -340.1864929199219,
                9200.0
            ],
            [
                391.4556579589844,
                -343.86920166015625,
                9300.0
            ],
            [
                398.1586608886719,
                -347.55181884765625,
                9400.0
            ],
            [
                404.86962890625,
                -351.2343444824219,
                9500.0
            ],
            [
                411.5878601074219,
                -354.91680908203125,
                9600.0
            ],
            [
                418.3127136230469,
                -358.5992126464844,
                9700.0
            ],
            [
                425.0436096191406,
                -362.28155517578125,
                9800.0
            ],
            [
                431.7799377441406,
                -365.9638671875,
                9900.0
            ],
            [
                438.5213317871094,
                -369.6461181640625,
                10000.0
            ],
            [
                452.017333984375,
                -377.0105895996094,
                10200.0
            ],
            [
                465.5285949707031,
                -384.3749694824219,
                10400.0
            ],
            [
                479.0522766113281,
                -391.73931884765625,
                10600.0
            ],
            [
                492.5866394042969,
                -399.1036376953125,
                10800.0
            ],
            [
                506.12933349609375,
                -406.4679870605469,
                11000.0
            ],
            [
                519.6792602539063,
                -413.83233642578125,
                11200.0
            ],
            [
                533.2353515625,
                -421.19671630859375,
                11400.0
            ],
            [
                546.7960205078125,
                -428.5611267089844,
                11600.0
            ],
            [
                560.3606567382813,
                -435.92559814453125,
                11800.0
            ],
            [
                573.9284057617188,
                -443.2900695800781,
                12000.0
            ],
            [
                587.499267578125,
                -450.65460205078125,
                12200.0
            ],
            [
                601.0722045898438,
                -458.0191650390625,
                12400.0
            ],
            [
                614.6463623046875,
                -465.3837585449219,
                12600.0
            ],
            [
                628.2218627929688,
                -472.7484130859375,
                12800.0
            ],
            [
                641.7987060546875,
                -480.1130676269531,
                13000.0
            ],
            [
                655.3766479492188,
                -487.47772216796875,
                13200.0
            ],
            [
                668.9550170898438,
                -494.8424072265625,
                13400.0
            ]
        ],
        "zFirstMeasurement": 184.2987
    }
]
